%!PS-Adobe-3.0 EPSF-3.0
%%Title: ./plots/GtsCe_worst.eps
%%Creator: matplotlib version 1.5.1, http://matplotlib.org/
%%CreationDate: Sat Oct 13 02:41:42 2018
%%Orientation: portrait
%%BoundingBox: 23 185 588 606
%%EndComments
%%BeginProlog
/mpldict 8 dict def
mpldict begin
/m { moveto } bind def
/l { lineto } bind def
/r { rlineto } bind def
/c { curveto } bind def
/cl { closepath } bind def
/box {
m
1 index 0 r
0 exch r
neg 0 r
cl
} bind def
/clipbox {
box
clip
newpath
} bind def
%!PS-Adobe-3.0 Resource-Font
%%Title: Bitstream Vera Sans
%%Copyright: Copyright (c) 2003 by Bitstream, Inc. All Rights Reserved.
%%Creator: Converted from TrueType to type 3 by PPR
25 dict begin
/_d{bind def}bind def
/_m{moveto}_d
/_l{lineto}_d
/_cl{closepath eofill}_d
/_c{curveto}_d
/_sc{7 -1 roll{setcachedevice}{pop pop pop pop pop pop}ifelse}_d
/_e{exec}_d
/FontName /BitstreamVeraSans-Roman def
/PaintType 0 def
/FontMatrix[.001 0 0 .001 0 0]def
/FontBBox[-183 -236 1287 928]def
/FontType 3 def
/Encoding [ /space /zero /one /two /three /four /five /six /eight /F /N /a /b /c /d /e /f /h /i /j /l /m /n /o /p /r /s /t /u /x ] def
/FontInfo 10 dict dup begin
/FamilyName (Bitstream Vera Sans) def
/FullName (Bitstream Vera Sans) def
/Notice (Copyright (c) 2003 by Bitstream, Inc. All Rights Reserved. Bitstream Vera is a trademark of Bitstream, Inc.) def
/Weight (Roman) def
/Version (Release 1.10) def
/ItalicAngle 0.0 def
/isFixedPitch false def
/UnderlinePosition -213 def
/UnderlineThickness 143 def
end readonly def
/CharStrings 30 dict dup begin
/space{318 0 0 0 0 0 _sc
}_d
/zero{636 0 66 -13 570 742 _sc
318 664 _m
267 664 229 639 203 589 _c
177 539 165 464 165 364 _c
165 264 177 189 203 139 _c
229 89 267 64 318 64 _c
369 64 407 89 433 139 _c
458 189 471 264 471 364 _c
471 464 458 539 433 589 _c
407 639 369 664 318 664 _c
318 742 _m
399 742 461 709 505 645 _c
548 580 570 486 570 364 _c
570 241 548 147 505 83 _c
461 19 399 -13 318 -13 _c
236 -13 173 19 130 83 _c
87 147 66 241 66 364 _c
66 486 87 580 130 645 _c
173 709 236 742 318 742 _c
_cl}_d
/one{636 0 110 0 544 729 _sc
124 83 _m
285 83 _l
285 639 _l
110 604 _l
110 694 _l
284 729 _l
383 729 _l
383 83 _l
544 83 _l
544 0 _l
124 0 _l
124 83 _l
_cl}_d
/two{{636 0 73 0 536 742 _sc
192 83 _m
536 83 _l
536 0 _l
73 0 _l
73 83 _l
110 121 161 173 226 239 _c
290 304 331 346 348 365 _c
380 400 402 430 414 455 _c
426 479 433 504 433 528 _c
433 566 419 598 392 622 _c
365 646 330 659 286 659 _c
255 659 222 653 188 643 _c
154 632 117 616 78 594 _c
78 694 _l
118 710 155 722 189 730 _c
223 738 255 742 284 742 _c
}_e{359 742 419 723 464 685 _c
509 647 532 597 532 534 _c
532 504 526 475 515 449 _c
504 422 484 390 454 354 _c
446 344 420 317 376 272 _c
332 227 271 164 192 83 _c
_cl}_e}_d
/three{{636 0 76 -13 556 742 _sc
406 393 _m
453 383 490 362 516 330 _c
542 298 556 258 556 212 _c
556 140 531 84 482 45 _c
432 6 362 -13 271 -13 _c
240 -13 208 -10 176 -4 _c
144 1 110 10 76 22 _c
76 117 _l
103 101 133 89 166 81 _c
198 73 232 69 268 69 _c
330 69 377 81 409 105 _c
441 129 458 165 458 212 _c
458 254 443 288 413 312 _c
383 336 341 349 287 349 _c
}_e{202 349 _l
202 430 _l
291 430 _l
339 430 376 439 402 459 _c
428 478 441 506 441 543 _c
441 580 427 609 401 629 _c
374 649 336 659 287 659 _c
260 659 231 656 200 650 _c
169 644 135 635 98 623 _c
98 711 _l
135 721 170 729 203 734 _c
235 739 266 742 296 742 _c
370 742 429 725 473 691 _c
517 657 539 611 539 553 _c
539 513 527 479 504 451 _c
481 423 448 403 406 393 _c
_cl}_e}_d
/four{636 0 49 0 580 729 _sc
378 643 _m
129 254 _l
378 254 _l
378 643 _l
352 729 _m
476 729 _l
476 254 _l
580 254 _l
580 172 _l
476 172 _l
476 0 _l
378 0 _l
378 172 _l
49 172 _l
49 267 _l
352 729 _l
_cl}_d
/five{{636 0 77 -13 549 729 _sc
108 729 _m
495 729 _l
495 646 _l
198 646 _l
198 467 _l
212 472 227 476 241 478 _c
255 480 270 482 284 482 _c
365 482 429 459 477 415 _c
525 370 549 310 549 234 _c
549 155 524 94 475 51 _c
426 8 357 -13 269 -13 _c
238 -13 207 -10 175 -6 _c
143 -1 111 6 77 17 _c
77 116 _l
106 100 136 88 168 80 _c
199 72 232 69 267 69 _c
}_e{323 69 368 83 401 113 _c
433 143 450 183 450 234 _c
450 284 433 324 401 354 _c
368 384 323 399 267 399 _c
241 399 214 396 188 390 _c
162 384 135 375 108 363 _c
108 729 _l
_cl}_e}_d
/six{{636 0 70 -13 573 742 _sc
330 404 _m
286 404 251 388 225 358 _c
199 328 186 286 186 234 _c
186 181 199 139 225 109 _c
251 79 286 64 330 64 _c
374 64 409 79 435 109 _c
461 139 474 181 474 234 _c
474 286 461 328 435 358 _c
409 388 374 404 330 404 _c
526 713 _m
526 623 _l
501 635 476 644 451 650 _c
425 656 400 659 376 659 _c
310 659 260 637 226 593 _c
}_e{192 549 172 482 168 394 _c
187 422 211 444 240 459 _c
269 474 301 482 336 482 _c
409 482 467 459 509 415 _c
551 371 573 310 573 234 _c
573 159 550 99 506 54 _c
462 9 403 -13 330 -13 _c
246 -13 181 19 137 83 _c
92 147 70 241 70 364 _c
70 479 97 571 152 639 _c
206 707 280 742 372 742 _c
396 742 421 739 447 735 _c
472 730 498 723 526 713 _c
_cl}_e}_d
/eight{{636 0 68 -13 568 742 _sc
318 346 _m
271 346 234 333 207 308 _c
180 283 167 249 167 205 _c
167 161 180 126 207 101 _c
234 76 271 64 318 64 _c
364 64 401 76 428 102 _c
455 127 469 161 469 205 _c
469 249 455 283 429 308 _c
402 333 365 346 318 346 _c
219 388 _m
177 398 144 418 120 447 _c
96 476 85 511 85 553 _c
85 611 105 657 147 691 _c
188 725 245 742 318 742 _c
}_e{390 742 447 725 489 691 _c
530 657 551 611 551 553 _c
551 511 539 476 515 447 _c
491 418 459 398 417 388 _c
464 377 501 355 528 323 _c
554 291 568 251 568 205 _c
568 134 546 80 503 43 _c
459 5 398 -13 318 -13 _c
237 -13 175 5 132 43 _c
89 80 68 134 68 205 _c
68 251 81 291 108 323 _c
134 355 171 377 219 388 _c
183 544 _m
183 506 194 476 218 455 _c
}_e{242 434 275 424 318 424 _c
360 424 393 434 417 455 _c
441 476 453 506 453 544 _c
453 582 441 611 417 632 _c
393 653 360 664 318 664 _c
275 664 242 653 218 632 _c
194 611 183 582 183 544 _c
_cl}_e}_d
/F{575 0 98 0 517 729 _sc
98 729 _m
517 729 _l
517 646 _l
197 646 _l
197 431 _l
486 431 _l
486 348 _l
197 348 _l
197 0 _l
98 0 _l
98 729 _l
_cl}_d
/N{748 0 98 0 650 729 _sc
98 729 _m
231 729 _l
554 119 _l
554 729 _l
650 729 _l
650 0 _l
517 0 _l
194 610 _l
194 0 _l
98 0 _l
98 729 _l
_cl}_d
/a{{613 0 60 -13 522 560 _sc
343 275 _m
270 275 220 266 192 250 _c
164 233 150 205 150 165 _c
150 133 160 107 181 89 _c
202 70 231 61 267 61 _c
317 61 357 78 387 114 _c
417 149 432 196 432 255 _c
432 275 _l
343 275 _l
522 312 _m
522 0 _l
432 0 _l
432 83 _l
411 49 385 25 355 10 _c
325 -5 287 -13 243 -13 _c
187 -13 142 2 109 33 _c
76 64 60 106 60 159 _c
}_e{60 220 80 266 122 298 _c
163 329 224 345 306 345 _c
432 345 _l
432 354 _l
432 395 418 427 391 450 _c
364 472 326 484 277 484 _c
245 484 215 480 185 472 _c
155 464 127 453 100 439 _c
100 522 _l
132 534 164 544 195 550 _c
226 556 256 560 286 560 _c
365 560 424 539 463 498 _c
502 457 522 395 522 312 _c
_cl}_e}_d
/b{{635 0 91 -13 580 760 _sc
487 273 _m
487 339 473 390 446 428 _c
418 466 381 485 334 485 _c
286 485 249 466 222 428 _c
194 390 181 339 181 273 _c
181 207 194 155 222 117 _c
249 79 286 61 334 61 _c
381 61 418 79 446 117 _c
473 155 487 207 487 273 _c
181 464 _m
199 496 223 520 252 536 _c
281 552 316 560 356 560 _c
422 560 476 533 518 481 _c
559 428 580 359 580 273 _c
}_e{580 187 559 117 518 65 _c
476 13 422 -13 356 -13 _c
316 -13 281 -5 252 10 _c
223 25 199 49 181 82 _c
181 0 _l
91 0 _l
91 760 _l
181 760 _l
181 464 _l
_cl}_e}_d
/c{{550 0 55 -13 488 560 _sc
488 526 _m
488 442 _l
462 456 437 466 411 473 _c
385 480 360 484 334 484 _c
276 484 230 465 198 428 _c
166 391 150 339 150 273 _c
150 206 166 154 198 117 _c
230 80 276 62 334 62 _c
360 62 385 65 411 72 _c
437 79 462 90 488 104 _c
488 21 _l
462 9 436 0 410 -5 _c
383 -10 354 -13 324 -13 _c
242 -13 176 12 128 64 _c
}_e{79 115 55 185 55 273 _c
55 362 79 432 128 483 _c
177 534 244 560 330 560 _c
358 560 385 557 411 551 _c
437 545 463 537 488 526 _c
_cl}_e}_d
/d{{635 0 55 -13 544 760 _sc
454 464 _m
454 760 _l
544 760 _l
544 0 _l
454 0 _l
454 82 _l
435 49 411 25 382 10 _c
353 -5 319 -13 279 -13 _c
213 -13 159 13 117 65 _c
75 117 55 187 55 273 _c
55 359 75 428 117 481 _c
159 533 213 560 279 560 _c
319 560 353 552 382 536 _c
411 520 435 496 454 464 _c
148 273 _m
148 207 161 155 188 117 _c
215 79 253 61 301 61 _c
}_e{348 61 385 79 413 117 _c
440 155 454 207 454 273 _c
454 339 440 390 413 428 _c
385 466 348 485 301 485 _c
253 485 215 466 188 428 _c
161 390 148 339 148 273 _c
_cl}_e}_d
/e{{615 0 55 -13 562 560 _sc
562 296 _m
562 252 _l
149 252 _l
153 190 171 142 205 110 _c
238 78 284 62 344 62 _c
378 62 412 66 444 74 _c
476 82 509 95 541 113 _c
541 28 _l
509 14 476 3 442 -3 _c
408 -9 373 -13 339 -13 _c
251 -13 182 12 131 62 _c
80 112 55 181 55 268 _c
55 357 79 428 127 481 _c
175 533 241 560 323 560 _c
397 560 455 536 498 489 _c
}_e{540 441 562 377 562 296 _c
472 322 _m
471 371 457 410 431 440 _c
404 469 368 484 324 484 _c
274 484 234 469 204 441 _c
174 413 156 373 152 322 _c
472 322 _l
_cl}_e}_d
/f{352 0 23 0 371 760 _sc
371 760 _m
371 685 _l
285 685 _l
253 685 230 678 218 665 _c
205 652 199 629 199 595 _c
199 547 _l
347 547 _l
347 477 _l
199 477 _l
199 0 _l
109 0 _l
109 477 _l
23 477 _l
23 547 _l
109 547 _l
109 585 _l
109 645 123 690 151 718 _c
179 746 224 760 286 760 _c
371 760 _l
_cl}_d
/h{634 0 91 0 549 760 _sc
549 330 _m
549 0 _l
459 0 _l
459 327 _l
459 379 448 417 428 443 _c
408 469 378 482 338 482 _c
289 482 251 466 223 435 _c
195 404 181 362 181 309 _c
181 0 _l
91 0 _l
91 760 _l
181 760 _l
181 462 _l
202 494 227 519 257 535 _c
286 551 320 560 358 560 _c
420 560 468 540 500 501 _c
532 462 549 405 549 330 _c
_cl}_d
/i{278 0 94 0 184 760 _sc
94 547 _m
184 547 _l
184 0 _l
94 0 _l
94 547 _l
94 760 _m
184 760 _l
184 646 _l
94 646 _l
94 760 _l
_cl}_d
/j{278 0 -17 -207 184 760 _sc
94 547 _m
184 547 _l
184 -9 _l
184 -78 170 -128 144 -160 _c
117 -191 74 -207 16 -207 _c
-17 -207 _l
-17 -131 _l
6 -131 _l
40 -131 63 -123 75 -107 _c
87 -91 94 -58 94 -9 _c
94 547 _l
94 760 _m
184 760 _l
184 646 _l
94 646 _l
94 760 _l
_cl}_d
/l{278 0 94 0 184 760 _sc
94 760 _m
184 760 _l
184 0 _l
94 0 _l
94 760 _l
_cl}_d
/m{{974 0 91 0 889 560 _sc
520 442 _m
542 482 569 511 600 531 _c
631 550 668 560 711 560 _c
767 560 811 540 842 500 _c
873 460 889 403 889 330 _c
889 0 _l
799 0 _l
799 327 _l
799 379 789 418 771 444 _c
752 469 724 482 686 482 _c
639 482 602 466 575 435 _c
548 404 535 362 535 309 _c
535 0 _l
445 0 _l
445 327 _l
445 379 435 418 417 444 _c
398 469 369 482 331 482 _c
}_e{285 482 248 466 221 435 _c
194 404 181 362 181 309 _c
181 0 _l
91 0 _l
91 547 _l
181 547 _l
181 462 _l
201 495 226 520 255 536 _c
283 552 317 560 357 560 _c
397 560 430 550 458 530 _c
486 510 506 480 520 442 _c
_cl}_e}_d
/n{634 0 91 0 549 560 _sc
549 330 _m
549 0 _l
459 0 _l
459 327 _l
459 379 448 417 428 443 _c
408 469 378 482 338 482 _c
289 482 251 466 223 435 _c
195 404 181 362 181 309 _c
181 0 _l
91 0 _l
91 547 _l
181 547 _l
181 462 _l
202 494 227 519 257 535 _c
286 551 320 560 358 560 _c
420 560 468 540 500 501 _c
532 462 549 405 549 330 _c
_cl}_d
/o{612 0 55 -13 557 560 _sc
306 484 _m
258 484 220 465 192 427 _c
164 389 150 338 150 273 _c
150 207 163 156 191 118 _c
219 80 257 62 306 62 _c
354 62 392 80 420 118 _c
448 156 462 207 462 273 _c
462 337 448 389 420 427 _c
392 465 354 484 306 484 _c
306 560 _m
384 560 445 534 490 484 _c
534 433 557 363 557 273 _c
557 183 534 113 490 63 _c
445 12 384 -13 306 -13 _c
227 -13 165 12 121 63 _c
77 113 55 183 55 273 _c
55 363 77 433 121 484 _c
165 534 227 560 306 560 _c
_cl}_d
/p{{635 0 91 -207 580 560 _sc
181 82 _m
181 -207 _l
91 -207 _l
91 547 _l
181 547 _l
181 464 _l
199 496 223 520 252 536 _c
281 552 316 560 356 560 _c
422 560 476 533 518 481 _c
559 428 580 359 580 273 _c
580 187 559 117 518 65 _c
476 13 422 -13 356 -13 _c
316 -13 281 -5 252 10 _c
223 25 199 49 181 82 _c
487 273 _m
487 339 473 390 446 428 _c
418 466 381 485 334 485 _c
}_e{286 485 249 466 222 428 _c
194 390 181 339 181 273 _c
181 207 194 155 222 117 _c
249 79 286 61 334 61 _c
381 61 418 79 446 117 _c
473 155 487 207 487 273 _c
_cl}_e}_d
/r{411 0 91 0 411 560 _sc
411 463 _m
401 469 390 473 378 476 _c
366 478 353 480 339 480 _c
288 480 249 463 222 430 _c
194 397 181 350 181 288 _c
181 0 _l
91 0 _l
91 547 _l
181 547 _l
181 462 _l
199 495 224 520 254 536 _c
284 552 321 560 365 560 _c
371 560 378 559 386 559 _c
393 558 401 557 411 555 _c
411 463 _l
_cl}_d
/s{{521 0 54 -13 472 560 _sc
443 531 _m
443 446 _l
417 458 391 468 364 475 _c
336 481 308 485 279 485 _c
234 485 200 478 178 464 _c
156 450 145 430 145 403 _c
145 382 153 366 169 354 _c
185 342 217 330 265 320 _c
296 313 _l
360 299 405 279 432 255 _c
458 230 472 195 472 151 _c
472 100 452 60 412 31 _c
372 1 316 -13 246 -13 _c
216 -13 186 -10 154 -5 _c
}_e{122 0 89 8 54 20 _c
54 113 _l
87 95 120 82 152 74 _c
184 65 216 61 248 61 _c
290 61 323 68 346 82 _c
368 96 380 117 380 144 _c
380 168 371 187 355 200 _c
339 213 303 226 247 238 _c
216 245 _l
160 257 119 275 95 299 _c
70 323 58 356 58 399 _c
58 450 76 490 112 518 _c
148 546 200 560 268 560 _c
301 560 332 557 362 552 _c
391 547 418 540 443 531 _c
}_e{_cl}_e}_d
/t{392 0 27 0 368 702 _sc
183 702 _m
183 547 _l
368 547 _l
368 477 _l
183 477 _l
183 180 _l
183 135 189 106 201 94 _c
213 81 238 75 276 75 _c
368 75 _l
368 0 _l
276 0 _l
206 0 158 13 132 39 _c
106 65 93 112 93 180 _c
93 477 _l
27 477 _l
27 547 _l
93 547 _l
93 702 _l
183 702 _l
_cl}_d
/u{634 0 85 -13 543 547 _sc
85 216 _m
85 547 _l
175 547 _l
175 219 _l
175 167 185 129 205 103 _c
225 77 255 64 296 64 _c
344 64 383 79 411 110 _c
439 141 453 183 453 237 _c
453 547 _l
543 547 _l
543 0 _l
453 0 _l
453 84 _l
431 50 405 26 377 10 _c
348 -5 315 -13 277 -13 _c
214 -13 166 6 134 45 _c
101 83 85 140 85 216 _c
_cl}_d
/x{592 0 29 0 559 547 _sc
549 547 _m
351 281 _l
559 0 _l
453 0 _l
294 215 _l
135 0 _l
29 0 _l
241 286 _l
47 547 _l
153 547 _l
298 352 _l
443 547 _l
549 547 _l
_cl}_d
end readonly def

/BuildGlyph
 {exch begin
 CharStrings exch
 2 copy known not{pop /.notdef}if
 true 3 1 roll get exec
 end}_d

/BuildChar {
 1 index /Encoding get exch get
 1 index /BuildGlyph get exec
}_d

FontName currentdict end definefont pop
end
%%EndProlog
mpldict begin
23.655 185.815 translate
564.689 420.371 0 0 clipbox
100000 setmiterlimit
gsave
0 0 m
564.689375 0 l
564.689375 420.370625 l
0 420.370625 l
cl
1.000 setgray
fill
grestore
gsave
90.996875 66.5125 m
557.489375 66.5125 l
557.489375 400.5925 l
90.996875 400.5925 l
cl
1.000 setgray
fill
grestore
1.000 setlinewidth
0 setlinejoin
0 setlinecap
[] 0 setdash
0.000 setgray
gsave
466.5 334.1 91 66.51 clipbox
90.996875 66.5125 m
106.546625 66.5125 l
106.546625 66.5125 l
90.996875 66.5125 l
cl
gsave
0.098 0.098 0.439 setrgbcolor
fill
grestore
stroke
grestore
gsave
466.5 334.1 91 66.51 clipbox
168.745625 66.5125 m
184.295375 66.5125 l
184.295375 66.5125 l
168.745625 66.5125 l
cl
gsave
0.098 0.098 0.439 setrgbcolor
fill
grestore
stroke
grestore
gsave
466.5 334.1 91 66.51 clipbox
246.494375 66.5125 m
262.044125 66.5125 l
262.044125 66.545577 l
246.494375 66.545577 l
cl
gsave
0.098 0.098 0.439 setrgbcolor
fill
grestore
stroke
grestore
gsave
466.5 334.1 91 66.51 clipbox
324.243125 66.5125 m
339.792875 66.5125 l
339.792875 70.051764 l
324.243125 70.051764 l
cl
gsave
0.098 0.098 0.439 setrgbcolor
fill
grestore
stroke
grestore
gsave
466.5 334.1 91 66.51 clipbox
401.991875 66.5125 m
417.541625 66.5125 l
417.541625 78.056454 l
401.991875 78.056454 l
cl
gsave
0.098 0.098 0.439 setrgbcolor
fill
grestore
stroke
grestore
gsave
466.5 334.1 91 66.51 clipbox
479.740625 66.5125 m
495.290375 66.5125 l
495.290375 92.015041 l
479.740625 92.015041 l
cl
gsave
0.098 0.098 0.439 setrgbcolor
fill
grestore
stroke
grestore
gsave
466.5 334.1 91 66.51 clipbox
106.546625 66.5125 m
122.096375 66.5125 l
122.096375 66.5125 l
106.546625 66.5125 l
cl
gsave
0.275 0.510 0.706 setrgbcolor
fill
grestore
stroke
grestore
gsave
466.5 334.1 91 66.51 clipbox
184.295375 66.5125 m
199.845125 66.5125 l
199.845125 88.244237 l
184.295375 88.244237 l
cl
gsave
0.275 0.510 0.706 setrgbcolor
fill
grestore
stroke
grestore
gsave
466.5 334.1 91 66.51 clipbox
262.044125 66.5125 m
277.593875 66.5125 l
277.593875 118.046822 l
262.044125 118.046822 l
cl
gsave
0.275 0.510 0.706 setrgbcolor
fill
grestore
stroke
grestore
gsave
466.5 334.1 91 66.51 clipbox
339.792875 66.5125 m
355.342625 66.5125 l
355.342625 147.816327 l
339.792875 147.816327 l
cl
gsave
0.275 0.510 0.706 setrgbcolor
fill
grestore
stroke
grestore
gsave
466.5 334.1 91 66.51 clipbox
417.541625 66.5125 m
433.091375 66.5125 l
433.091375 176.461205 l
417.541625 176.461205 l
cl
gsave
0.275 0.510 0.706 setrgbcolor
fill
grestore
stroke
grestore
gsave
466.5 334.1 91 66.51 clipbox
495.290375 66.5125 m
510.840125 66.5125 l
510.840125 196.109078 l
495.290375 196.109078 l
cl
gsave
0.275 0.510 0.706 setrgbcolor
fill
grestore
stroke
grestore
gsave
466.5 334.1 91 66.51 clipbox
122.096375 66.5125 m
137.646125 66.5125 l
137.646125 66.5125 l
122.096375 66.5125 l
cl
gsave
0.118 0.565 1.000 setrgbcolor
fill
grestore
stroke
grestore
gsave
466.5 334.1 91 66.51 clipbox
199.845125 66.5125 m
215.394875 66.5125 l
215.394875 74.484113 l
199.845125 74.484113 l
cl
gsave
0.118 0.565 1.000 setrgbcolor
fill
grestore
stroke
grestore
gsave
466.5 334.1 91 66.51 clipbox
277.593875 66.5125 m
293.143625 66.5125 l
293.143625 84.804209 l
277.593875 84.804209 l
cl
gsave
0.118 0.565 1.000 setrgbcolor
fill
grestore
stroke
grestore
gsave
466.5 334.1 91 66.51 clipbox
355.342625 66.5125 m
370.892375 66.5125 l
370.892375 89.666559 l
355.342625 89.666559 l
cl
gsave
0.118 0.565 1.000 setrgbcolor
fill
grestore
stroke
grestore
gsave
466.5 334.1 91 66.51 clipbox
433.091375 66.5125 m
448.641125 66.5125 l
448.641125 93.801213 l
433.091375 93.801213 l
cl
gsave
0.118 0.565 1.000 setrgbcolor
fill
grestore
stroke
grestore
gsave
466.5 334.1 91 66.51 clipbox
510.840125 66.5125 m
526.389875 66.5125 l
526.389875 93.834291 l
510.840125 93.834291 l
cl
gsave
0.118 0.565 1.000 setrgbcolor
fill
grestore
stroke
grestore
gsave
466.5 334.1 91 66.51 clipbox
137.646125 66.5125 m
153.195875 66.5125 l
153.195875 400.5925 l
137.646125 400.5925 l
cl
gsave
0.529 0.808 0.922 setrgbcolor
fill
grestore
stroke
grestore
gsave
466.5 334.1 91 66.51 clipbox
215.394875 66.5125 m
230.944625 66.5125 l
230.944625 370.88915 l
215.394875 370.88915 l
cl
gsave
0.529 0.808 0.922 setrgbcolor
fill
grestore
stroke
grestore
gsave
466.5 334.1 91 66.51 clipbox
293.143625 66.5125 m
308.693375 66.5125 l
308.693375 330.733395 l
293.143625 330.733395 l
cl
gsave
0.529 0.808 0.922 setrgbcolor
fill
grestore
stroke
grestore
gsave
466.5 334.1 91 66.51 clipbox
370.892375 66.5125 m
386.442125 66.5125 l
386.442125 292.59535 l
370.892375 292.59535 l
cl
gsave
0.529 0.808 0.922 setrgbcolor
fill
grestore
stroke
grestore
gsave
466.5 334.1 91 66.51 clipbox
448.641125 66.5125 m
464.190875 66.5125 l
464.190875 251.811131 l
448.641125 251.811131 l
cl
gsave
0.529 0.808 0.922 setrgbcolor
fill
grestore
stroke
grestore
gsave
466.5 334.1 91 66.51 clipbox
526.389875 66.5125 m
541.939625 66.5125 l
541.939625 218.17159 l
526.389875 218.17159 l
cl
gsave
0.529 0.808 0.922 setrgbcolor
fill
grestore
stroke
grestore
2 setlinecap
gsave
90.996875 66.5125 m
90.996875 400.5925 l
stroke
grestore
gsave
557.489375 66.5125 m
557.489375 400.5925 l
stroke
grestore
gsave
90.996875 66.5125 m
557.489375 66.5125 l
stroke
grestore
gsave
90.996875 400.5925 m
557.489375 400.5925 l
stroke
grestore
0.500 setlinewidth
1 setlinejoin
0 setlinecap
gsave
/o {
gsave
newpath
translate
0.5 setlinewidth
1 setlinejoin
0 setlinecap
0 0 m
0 4 l

gsave
0.000 setgray
fill
grestore
stroke
grestore
} bind def
106.547 66.5125 o
grestore
gsave
/o {
gsave
newpath
translate
0.5 setlinewidth
1 setlinejoin
0 setlinecap
0 0 m
0 -4 l

gsave
0.000 setgray
fill
grestore
stroke
grestore
} bind def
106.547 400.593 o
grestore
/BitstreamVeraSans-Roman findfont
26.000 scalefont
setfont
gsave
98.273188 42.762500 translate
0.000000 rotate
0.000000 0.000000 m /one glyphshow
grestore
gsave
/o {
gsave
newpath
translate
0.5 setlinewidth
1 setlinejoin
0 setlinecap
0 0 m
0 4 l

gsave
0.000 setgray
fill
grestore
stroke
grestore
} bind def
184.295 66.5125 o
grestore
gsave
/o {
gsave
newpath
translate
0.5 setlinewidth
1 setlinejoin
0 setlinecap
0 0 m
0 -4 l

gsave
0.000 setgray
fill
grestore
stroke
grestore
} bind def
184.295 400.593 o
grestore
gsave
176.021937 42.762500 translate
0.000000 rotate
0.000000 0.000000 m /two glyphshow
grestore
gsave
/o {
gsave
newpath
translate
0.5 setlinewidth
1 setlinejoin
0 setlinecap
0 0 m
0 4 l

gsave
0.000 setgray
fill
grestore
stroke
grestore
} bind def
262.044 66.5125 o
grestore
gsave
/o {
gsave
newpath
translate
0.5 setlinewidth
1 setlinejoin
0 setlinecap
0 0 m
0 -4 l

gsave
0.000 setgray
fill
grestore
stroke
grestore
} bind def
262.044 400.593 o
grestore
gsave
253.770688 42.762500 translate
0.000000 rotate
0.000000 0.000000 m /three glyphshow
grestore
gsave
/o {
gsave
newpath
translate
0.5 setlinewidth
1 setlinejoin
0 setlinecap
0 0 m
0 4 l

gsave
0.000 setgray
fill
grestore
stroke
grestore
} bind def
339.793 66.5125 o
grestore
gsave
/o {
gsave
newpath
translate
0.5 setlinewidth
1 setlinejoin
0 setlinecap
0 0 m
0 -4 l

gsave
0.000 setgray
fill
grestore
stroke
grestore
} bind def
339.793 400.593 o
grestore
gsave
331.519437 42.762500 translate
0.000000 rotate
0.000000 0.000000 m /four glyphshow
grestore
gsave
/o {
gsave
newpath
translate
0.5 setlinewidth
1 setlinejoin
0 setlinecap
0 0 m
0 4 l

gsave
0.000 setgray
fill
grestore
stroke
grestore
} bind def
417.542 66.5125 o
grestore
gsave
/o {
gsave
newpath
translate
0.5 setlinewidth
1 setlinejoin
0 setlinecap
0 0 m
0 -4 l

gsave
0.000 setgray
fill
grestore
stroke
grestore
} bind def
417.542 400.593 o
grestore
gsave
409.268187 42.762500 translate
0.000000 rotate
0.000000 0.000000 m /five glyphshow
grestore
gsave
/o {
gsave
newpath
translate
0.5 setlinewidth
1 setlinejoin
0 setlinecap
0 0 m
0 4 l

gsave
0.000 setgray
fill
grestore
stroke
grestore
} bind def
495.29 66.5125 o
grestore
gsave
/o {
gsave
newpath
translate
0.5 setlinewidth
1 setlinejoin
0 setlinecap
0 0 m
0 -4 l

gsave
0.000 setgray
fill
grestore
stroke
grestore
} bind def
495.29 400.593 o
grestore
gsave
487.016937 42.762500 translate
0.000000 rotate
0.000000 0.000000 m /six glyphshow
grestore
gsave
111.782187 12.606250 translate
0.000000 rotate
0.000000 0.000000 m /N glyphshow
19.449219 0.000000 m /u glyphshow
35.927734 0.000000 m /m glyphshow
61.254883 0.000000 m /b glyphshow
77.758789 0.000000 m /e glyphshow
93.754883 0.000000 m /r glyphshow
104.444336 0.000000 m /space glyphshow
112.708984 0.000000 m /o glyphshow
128.616211 0.000000 m /f glyphshow
137.769531 0.000000 m /space glyphshow
146.034180 0.000000 m /s glyphshow
159.580078 0.000000 m /i glyphshow
166.803711 0.000000 m /m glyphshow
192.130859 0.000000 m /u glyphshow
208.609375 0.000000 m /l glyphshow
215.833008 0.000000 m /t glyphshow
226.027344 0.000000 m /a glyphshow
241.959961 0.000000 m /n glyphshow
258.438477 0.000000 m /e glyphshow
274.434570 0.000000 m /o glyphshow
290.341797 0.000000 m /u glyphshow
306.820312 0.000000 m /s glyphshow
320.366211 0.000000 m /space glyphshow
328.630859 0.000000 m /f glyphshow
337.784180 0.000000 m /a glyphshow
353.716797 0.000000 m /i glyphshow
360.940430 0.000000 m /l glyphshow
368.164062 0.000000 m /u glyphshow
384.642578 0.000000 m /r glyphshow
395.332031 0.000000 m /e glyphshow
411.328125 0.000000 m /s glyphshow
grestore
gsave
/o {
gsave
newpath
translate
0.5 setlinewidth
1 setlinejoin
0 setlinecap
0 0 m
4 0 l

gsave
0.000 setgray
fill
grestore
stroke
grestore
} bind def
90.9969 66.5125 o
grestore
gsave
/o {
gsave
newpath
translate
0.5 setlinewidth
1 setlinejoin
0 setlinecap
0 0 m
-4 0 l

gsave
0.000 setgray
fill
grestore
stroke
grestore
} bind def
557.489 66.5125 o
grestore
gsave
70.450000 59.340625 translate
0.000000 rotate
0.000000 0.000000 m /zero glyphshow
grestore
gsave
/o {
gsave
newpath
translate
0.5 setlinewidth
1 setlinejoin
0 setlinecap
0 0 m
4 0 l

gsave
0.000 setgray
fill
grestore
stroke
grestore
} bind def
90.9969 133.329 o
grestore
gsave
/o {
gsave
newpath
translate
0.5 setlinewidth
1 setlinejoin
0 setlinecap
0 0 m
-4 0 l

gsave
0.000 setgray
fill
grestore
stroke
grestore
} bind def
557.489 133.329 o
grestore
gsave
53.903125 126.156625 translate
0.000000 rotate
0.000000 0.000000 m /two glyphshow
16.541992 0.000000 m /zero glyphshow
grestore
gsave
/o {
gsave
newpath
translate
0.5 setlinewidth
1 setlinejoin
0 setlinecap
0 0 m
4 0 l

gsave
0.000 setgray
fill
grestore
stroke
grestore
} bind def
90.9969 200.145 o
grestore
gsave
/o {
gsave
newpath
translate
0.5 setlinewidth
1 setlinejoin
0 setlinecap
0 0 m
-4 0 l

gsave
0.000 setgray
fill
grestore
stroke
grestore
} bind def
557.489 200.145 o
grestore
gsave
53.903125 192.972625 translate
0.000000 rotate
0.000000 0.000000 m /four glyphshow
16.541992 0.000000 m /zero glyphshow
grestore
gsave
/o {
gsave
newpath
translate
0.5 setlinewidth
1 setlinejoin
0 setlinecap
0 0 m
4 0 l

gsave
0.000 setgray
fill
grestore
stroke
grestore
} bind def
90.9969 266.961 o
grestore
gsave
/o {
gsave
newpath
translate
0.5 setlinewidth
1 setlinejoin
0 setlinecap
0 0 m
-4 0 l

gsave
0.000 setgray
fill
grestore
stroke
grestore
} bind def
557.489 266.961 o
grestore
gsave
53.903125 259.788625 translate
0.000000 rotate
0.000000 0.000000 m /six glyphshow
16.541992 0.000000 m /zero glyphshow
grestore
gsave
/o {
gsave
newpath
translate
0.5 setlinewidth
1 setlinejoin
0 setlinecap
0 0 m
4 0 l

gsave
0.000 setgray
fill
grestore
stroke
grestore
} bind def
90.9969 333.777 o
grestore
gsave
/o {
gsave
newpath
translate
0.5 setlinewidth
1 setlinejoin
0 setlinecap
0 0 m
-4 0 l

gsave
0.000 setgray
fill
grestore
stroke
grestore
} bind def
557.489 333.777 o
grestore
gsave
53.903125 326.604625 translate
0.000000 rotate
0.000000 0.000000 m /eight glyphshow
16.541992 0.000000 m /zero glyphshow
grestore
gsave
/o {
gsave
newpath
translate
0.5 setlinewidth
1 setlinejoin
0 setlinecap
0 0 m
4 0 l

gsave
0.000 setgray
fill
grestore
stroke
grestore
} bind def
90.9969 400.593 o
grestore
gsave
/o {
gsave
newpath
translate
0.5 setlinewidth
1 setlinejoin
0 setlinecap
0 0 m
-4 0 l

gsave
0.000 setgray
fill
grestore
stroke
grestore
} bind def
557.489 400.593 o
grestore
gsave
37.356250 393.420625 translate
0.000000 rotate
0.000000 0.000000 m /one glyphshow
16.541992 0.000000 m /zero glyphshow
33.083984 0.000000 m /zero glyphshow
grestore
gsave
26.950000 78.240000 translate
90.000000 rotate
0.000000 0.000000 m /F glyphshow
14.939453 0.000000 m /r glyphshow
25.628906 0.000000 m /a glyphshow
41.561523 0.000000 m /c glyphshow
55.856445 0.000000 m /t glyphshow
66.050781 0.000000 m /i glyphshow
73.274414 0.000000 m /o glyphshow
89.181641 0.000000 m /n glyphshow
105.660156 0.000000 m /space glyphshow
113.924805 0.000000 m /o glyphshow
129.832031 0.000000 m /f glyphshow
138.985352 0.000000 m /space glyphshow
147.250000 0.000000 m /e glyphshow
163.246094 0.000000 m /x glyphshow
178.632812 0.000000 m /p glyphshow
195.136719 0.000000 m /e glyphshow
211.132812 0.000000 m /r glyphshow
221.822266 0.000000 m /i glyphshow
229.045898 0.000000 m /m glyphshow
254.373047 0.000000 m /e glyphshow
270.369141 0.000000 m /n glyphshow
286.847656 0.000000 m /t glyphshow
297.041992 0.000000 m /s glyphshow
grestore
1.000 setlinewidth
0 setlinejoin
gsave
365.30875 306.085 m
550.289375 306.085 l
550.289375 393.3925 l
365.30875 393.3925 l
cl
gsave
1.000 setgray
fill
grestore
stroke
grestore
gsave
371.06875 376.991875 m
399.86875 376.991875 l
399.86875 387.071875 l
371.06875 387.071875 l
cl
gsave
0.098 0.098 0.439 setrgbcolor
fill
grestore
stroke
grestore
/BitstreamVeraSans-Roman findfont
14.400 scalefont
setfont
gsave
411.388750 376.991875 translate
0.000000 rotate
0.000000 0.000000 m /b glyphshow
9.124756 0.000000 m /o glyphshow
17.919617 0.000000 m /t glyphshow
23.555908 0.000000 m /h glyphshow
32.666626 0.000000 m /space glyphshow
37.236023 0.000000 m /d glyphshow
46.360779 0.000000 m /i glyphshow
50.354614 0.000000 m /s glyphshow
57.843933 0.000000 m /c glyphshow
65.747375 0.000000 m /o glyphshow
74.542236 0.000000 m /n glyphshow
83.652954 0.000000 m /n glyphshow
92.763672 0.000000 m /e glyphshow
101.607666 0.000000 m /c glyphshow
109.511108 0.000000 m /t glyphshow
115.147400 0.000000 m /e glyphshow
123.991394 0.000000 m /d glyphshow
grestore
gsave
371.06875 356.245 m
399.86875 356.245 l
399.86875 366.325 l
371.06875 366.325 l
cl
gsave
0.275 0.510 0.706 setrgbcolor
fill
grestore
stroke
grestore
gsave
411.388750 356.245000 translate
0.000000 rotate
0.000000 0.000000 m /o glyphshow
8.794861 0.000000 m /n glyphshow
17.905579 0.000000 m /e glyphshow
26.749573 0.000000 m /space glyphshow
31.318970 0.000000 m /d glyphshow
40.443726 0.000000 m /i glyphshow
44.437561 0.000000 m /s glyphshow
51.926880 0.000000 m /c glyphshow
59.830322 0.000000 m /o glyphshow
68.625183 0.000000 m /n glyphshow
77.735901 0.000000 m /n glyphshow
86.846619 0.000000 m /e glyphshow
95.690613 0.000000 m /c glyphshow
103.594055 0.000000 m /t glyphshow
109.230347 0.000000 m /e glyphshow
118.074341 0.000000 m /d glyphshow
grestore
gsave
371.06875 335.498125 m
399.86875 335.498125 l
399.86875 345.578125 l
371.06875 345.578125 l
cl
gsave
0.118 0.565 1.000 setrgbcolor
fill
grestore
stroke
grestore
gsave
411.388750 335.498125 translate
0.000000 rotate
0.000000 0.000000 m /n glyphshow
9.110718 0.000000 m /o glyphshow
17.905579 0.000000 m /t glyphshow
23.541870 0.000000 m /space glyphshow
28.111267 0.000000 m /d glyphshow
37.236023 0.000000 m /i glyphshow
41.229858 0.000000 m /s glyphshow
48.719177 0.000000 m /j glyphshow
52.713013 0.000000 m /o glyphshow
61.507874 0.000000 m /i glyphshow
65.501709 0.000000 m /n glyphshow
74.612427 0.000000 m /t glyphshow
grestore
gsave
371.06875 314.75125 m
399.86875 314.75125 l
399.86875 324.83125 l
371.06875 324.83125 l
cl
gsave
0.529 0.808 0.922 setrgbcolor
fill
grestore
stroke
grestore
gsave
411.388750 314.751250 translate
0.000000 rotate
0.000000 0.000000 m /d glyphshow
9.124756 0.000000 m /i glyphshow
13.118591 0.000000 m /s glyphshow
20.607910 0.000000 m /j glyphshow
24.601746 0.000000 m /o glyphshow
33.396606 0.000000 m /i glyphshow
37.390442 0.000000 m /n glyphshow
46.501160 0.000000 m /t glyphshow
grestore

end
showpage
