{
	"nbDemands": 100,
	"demands": [
		{
			"s1": "Perth,+Australia284",
			"s2": "Adelaide,+Australia1727",
			"t1": "Mackay,+Australia3851",
			"t2": "Melbourne,+Australia3867",
			"suurballeNbPaths": 2,
			"suurballeTime": 487885859,
			"suurballePaths": {
				"path0": [
					"Perth,+Australia284",
					"Perth,+Australia4156",
					"Adelaide,+Australia1722",
					"Melbourne,+Australia3868",
					"Melbourne,+Australia3867"
				],
				"lat0": 19.000000,
				"nbSeg0": 0,
				"path1": [
					"Adelaide,+Australia1727",
					"Adelaide,+Australia1729",
					"Melbourne,+Australia751",
					"Sydney,+Australia4210",
					"Brisbane,+Australia1770",
					"Brisbane,+Australia1769",
					"Mackay,+Australia3851"
				],
				"lat1": 22.000000,
				"nbSeg1": 0
			},
			"pathsExist": false,
			"runtime": 301988268,
			"nomLat1": 34.000000,
			"nomLat2": 8.000000,
			"maxNomLat": 34.000000,
			"mincut": 2
		},
		{
			"s1": "Adelaide,+Australia1727",
			"s2": "Perth,+Australia4162",
			"t1": "Adelaide,+Australia1729",
			"t2": "Maroochydore,+Australia3857",
			"suurballeNbPaths": 2,
			"suurballeTime": 246736385,
			"suurballePaths": {
				"path0": [
					"Adelaide,+Australia1727",
					"Adelaide,+Australia1729"
				],
				"lat0": 1.000000,
				"nbSeg0": 0,
				"path1": [
					"Perth,+Australia4162",
					"Adelaide,+Australia1729"
				],
				"lat1": 12.000000,
				"nbSeg1": 0
			},
			"pathsExist": false,
			"runtime": 406938852,
			"nomLat1": 1.000000,
			"nomLat2": 30.000000,
			"maxNomLat": 30.000000,
			"mincut": 3
		},
		{
			"s1": "Sydney,+Australia4210",
			"s2": "Canberra,+Australia1832",
			"t1": "Adelaide,+Australia1722",
			"t2": "Rockhampton,+Australia4195",
			"suurballeNbPaths": 2,
			"suurballeTime": 825385082,
			"suurballePaths": {
				"path0": [
					"Sydney,+Australia4210",
					"Brisbane,+Australia1770",
					"Brisbane,+Australia1769",
					"Rockhampton,+Australia4195"
				],
				"lat0": 10.000000,
				"nbSeg0": 0,
				"path1": [
					"Canberra,+Australia1832",
					"Canberra,+Australia1813",
					"Melbourne,+Australia3868",
					"Adelaide,+Australia1722"
				],
				"lat1": 10.000000,
				"nbSeg1": 0
			},
			"pathsExist": false,
			"runtime": 216754688,
			"nomLat1": 11.000000,
			"nomLat2": 14.000000,
			"maxNomLat": 14.000000,
			"mincut": 4
		},
		{
			"s1": "Perth,+Australia4156",
			"s2": "Adelaide,+Australia1727",
			"t1": "Mackay,+Australia3851",
			"t2": "Maryborough,+Australia3859",
			"suurballeNbPaths": 2,
			"suurballeTime": 920549491,
			"suurballePaths": {
				"path0": [
					"Adelaide,+Australia1727",
					"Adelaide,+Australia1729",
					"Melbourne,+Australia751",
					"Sydney,+Australia4210",
					"Brisbane,+Australia1770",
					"Brisbane,+Australia1769",
					"Maryborough,+Australia3859"
				],
				"lat0": 20.000000,
				"nbSeg0": 0,
				"path1": [
					"Perth,+Australia4156",
					"Adelaide,+Australia1722",
					"Melbourne,+Australia3868",
					"Melbourne,+Australia734",
					"Sydney,+Australia4241",
					"Brisbane,+Australia1799",
					"Brisbane,+Australia1800",
					"Mackay,+Australia3851"
				],
				"lat1": 34.000000,
				"nbSeg1": 1
			},
			"pathsExist": false,
			"runtime": 203567341,
			"nomLat1": 34.000000,
			"nomLat2": 20.000000,
			"maxNomLat": 34.000000,
			"mincut": 2
		},
		{
			"s1": "Perth,+Australia4167",
			"s2": "Brisbane,+Australia1802",
			"t1": "Melbourne,+Australia3882",
			"t2": "Rockhampton,+Australia4195",
			"suurballeNbPaths": 2,
			"suurballeTime": 650288304,
			"suurballePaths": {
				"path0": [
					"Brisbane,+Australia1802",
					"Brisbane,+Australia1799",
					"Brisbane,+Australia1800",
					"Rockhampton,+Australia4195"
				],
				"lat0": 6.000000,
				"nbSeg0": 0,
				"path1": [
					"Perth,+Australia4167",
					"Perth,+Australia4156",
					"Adelaide,+Australia1722",
					"Melbourne,+Australia3868",
					"Melbourne,+Australia3882"
				],
				"lat1": 19.000000,
				"nbSeg1": 1
			},
			"pathsExist": false,
			"runtime": 472880408,
			"nomLat1": 20.000000,
			"nomLat2": 6.000000,
			"maxNomLat": 20.000000,
			"mincut": 4
		},
		{
			"s1": "Canberra,+Australia1814",
			"s2": "Sydney,+Australia3546",
			"t1": "Melbourne,+Australia3867",
			"t2": "Melbourne,+Australia3881",
			"suurballeNbPaths": 2,
			"suurballeTime": 233093212,
			"suurballePaths": {
				"path0": [
					"Sydney,+Australia3546",
					"Sydney,+Australia4241",
					"Melbourne,+Australia734",
					"Melbourne,+Australia3881"
				],
				"lat0": 7.000000,
				"nbSeg0": 4,
				"path1": [
					"Canberra,+Australia1814",
					"Canberra,+Australia565",
					"Canberra,+Australia1813",
					"Melbourne,+Australia3868",
					"Melbourne,+Australia3867"
				],
				"lat1": 7.000000,
				"nbSeg1": 1
			},
			"pathsExist": false,
			"runtime": 332421473,
			"nomLat1": 7.000000,
			"nomLat2": 9.000000,
			"maxNomLat": 9.000000,
			"mincut": 4
		},
		{
			"s1": "Adelaide,+Australia1727",
			"s2": "Brisbane,+Australia1770",
			"t1": "Melbourne,+Australia3870",
			"t2": "Darwin,+Australia1837",
			"suurballeNbPaths": 2,
			"suurballeTime": 1060293719,
			"suurballePaths": {
				"path0": [
					"Adelaide,+Australia1727",
					"Darwin,+Australia1837"
				],
				"lat0": 15.000000,
				"nbSeg0": 0,
				"path1": [
					"Brisbane,+Australia1770",
					"Brisbane,+Australia1799",
					"Sydney,+Australia4241",
					"Melbourne,+Australia734",
					"Melbourne,+Australia3870"
				],
				"lat1": 12.000000,
				"nbSeg1": 1
			},
			"pathsExist": false,
			"runtime": 72340173,
			"nomLat1": 8.000000,
			"nomLat2": 31.000000,
			"maxNomLat": 31.000000,
			"mincut": 4
		},
		{
			"s1": "Perth,+Australia4167",
			"s2": "Melbourne,+Australia734",
			"t1": "Sydney,+Australia4237",
			"t2": "Sydney,+Australia4210",
			"suurballeNbPaths": 2,
			"suurballeTime": 338906972,
			"suurballePaths": {
				"path0": [
					"Melbourne,+Australia734",
					"Sydney,+Australia4241",
					"Sydney,+Australia4237"
				],
				"lat0": 6.000000,
				"nbSeg0": 2,
				"path1": [
					"Perth,+Australia4167",
					"Perth,+Australia4162",
					"Adelaide,+Australia1729",
					"Melbourne,+Australia751",
					"Sydney,+Australia4210"
				],
				"lat1": 23.000000,
				"nbSeg1": 0
			},
			"pathsExist": false,
			"runtime": 488428978,
			"nomLat1": 24.000000,
			"nomLat2": 6.000000,
			"maxNomLat": 24.000000,
			"mincut": 3
		},
		{
			"s1": "Rockhampton,+Australia4195",
			"s2": "Hobart,+Australia1852",
			"t1": "Toowoomba,+Australia4277",
			"t2": "Perth,+Australia4160",
			"suurballeNbPaths": 2,
			"suurballeTime": 961932903,
			"suurballePaths": {
				"path0": [
					"Rockhampton,+Australia4195",
					"Brisbane,+Australia1769",
					"Toowoomba,+Australia4277"
				],
				"lat0": 6.000000,
				"nbSeg0": 1,
				"path1": [
					"Hobart,+Australia1852",
					"Melbourne,+Australia3866",
					"Melbourne,+Australia3868",
					"Melbourne,+Australia751",
					"Adelaide,+Australia1729",
					"Perth,+Australia4162",
					"Perth,+Australia4160"
				],
				"lat1": 24.000000,
				"nbSeg1": 1
			},
			"pathsExist": false,
			"runtime": 157861810,
			"nomLat1": 6.000000,
			"nomLat2": 25.000000,
			"maxNomLat": 25.000000,
			"mincut": 4
		},
		{
			"s1": "Darwin,+Australia1837",
			"s2": "Melbourne,+Australia3881",
			"t1": "Canberra,+Australia1829",
			"t2": "Brisbane,+Australia1769",
			"suurballeNbPaths": 2,
			"suurballeTime": 430913913,
			"suurballePaths": {
				"path0": [
					"Melbourne,+Australia3881",
					"Melbourne,+Australia3868",
					"Canberra,+Australia1813",
					"Canberra,+Australia1829"
				],
				"lat0": 6.000000,
				"nbSeg0": 0,
				"path1": [
					"Darwin,+Australia1837",
					"Adelaide,+Australia1727",
					"Adelaide,+Australia1729",
					"Melbourne,+Australia751",
					"Sydney,+Australia4210",
					"Brisbane,+Australia1770",
					"Brisbane,+Australia1769"
				],
				"lat1": 32.000000,
				"nbSeg1": 0
			},
			"pathsExist": false,
			"runtime": 648588090,
			"nomLat1": 30.000000,
			"nomLat2": 14.000000,
			"maxNomLat": 30.000000,
			"mincut": 4
		},
		{
			"s1": "Adelaide,+Australia1722",
			"s2": "Canberra,+Australia1813",
			"t1": "Perth,+Australia4156",
			"t2": "Melbourne,+Australia3866",
			"suurballeNbPaths": 2,
			"suurballeTime": 240170792,
			"suurballePaths": {
				"path0": [
					"Adelaide,+Australia1722",
					"Perth,+Australia4156"
				],
				"lat0": 12.000000,
				"nbSeg0": 0,
				"path1": [
					"Canberra,+Australia1813",
					"Melbourne,+Australia3868",
					"Melbourne,+Australia3866"
				],
				"lat1": 5.000000,
				"nbSeg1": 0
			},
			"pathsExist": true,
			"path1": [
				"Adelaide,+Australia1722",
				"Perth,+Australia4156"
			],
			"lat1": 12.000000,
			"path2": [
				"Canberra,+Australia1813",
				"Melbourne,+Australia3866"
			],
			"lat2": 5.000000,
			"maxlat": 12.000000,
			"runtime": 487612763,
			"nomLat1": 12.000000,
			"nomLat2": 5.000000,
			"maxNomLat": 12.000000,
			"mincut": 7
		},
		{
			"s1": "Maroochydore,+Australia3857",
			"s2": "Sydney,+Australia4210",
			"t1": "Brisbane,+Australia1769",
			"t2": "Canberra,+Australia1814",
			"suurballeNbPaths": 2,
			"suurballeTime": 845027088,
			"suurballePaths": {
				"path0": [
					"Maroochydore,+Australia3857",
					"Brisbane,+Australia1769"
				],
				"lat0": 2.000000,
				"nbSeg0": 0,
				"path1": [
					"Sydney,+Australia4210",
					"Sydney,+Australia4241",
					"Canberra,+Australia1829",
					"Canberra,+Australia1814"
				],
				"lat1": 5.000000,
				"nbSeg1": 0
			},
			"pathsExist": false,
			"runtime": 180324965,
			"nomLat1": 2.000000,
			"nomLat2": 5.000000,
			"maxNomLat": 5.000000,
			"mincut": 6
		},
		{
			"s1": "Maryborough,+Australia3859",
			"s2": "Melbourne,+Australia751",
			"t1": "Canberra,+Australia1821",
			"t2": "Canberra,+Australia1832",
			"suurballeNbPaths": 2,
			"suurballeTime": 727945258,
			"suurballePaths": {
				"path0": [
					"Melbourne,+Australia751",
					"Melbourne,+Australia3868",
					"Canberra,+Australia1813",
					"Canberra,+Australia1832"
				],
				"lat0": 6.000000,
				"nbSeg0": 1,
				"path1": [
					"Maryborough,+Australia3859",
					"Brisbane,+Australia1800",
					"Brisbane,+Australia1799",
					"Sydney,+Australia4241",
					"Canberra,+Australia1829",
					"Canberra,+Australia1821"
				],
				"lat1": 13.000000,
				"nbSeg1": 1
			},
			"pathsExist": false,
			"runtime": 212725806,
			"nomLat1": 14.000000,
			"nomLat2": 10.000000,
			"maxNomLat": 14.000000,
			"mincut": 3
		},
		{
			"s1": "Perth,+Australia4161",
			"s2": "Adelaide,+Australia1727",
			"t1": "Perth,+Australia4167",
			"t2": "Melbourne,+Australia3870",
			"suurballeNbPaths": 2,
			"suurballeTime": 778909779,
			"suurballePaths": {
				"path0": [
					"Perth,+Australia4161",
					"Perth,+Australia4162",
					"Perth,+Australia4167"
				],
				"lat0": 2.000000,
				"nbSeg0": 0,
				"path1": [
					"Adelaide,+Australia1727",
					"Adelaide,+Australia1729",
					"Adelaide,+Australia1722",
					"Melbourne,+Australia3868",
					"Melbourne,+Australia3870"
				],
				"lat1": 8.000000,
				"nbSeg1": 1
			},
			"pathsExist": false,
			"runtime": 227102795,
			"nomLat1": 2.000000,
			"nomLat2": 8.000000,
			"maxNomLat": 8.000000,
			"mincut": 4
		},
		{
			"s1": "Maryborough,+Australia3859",
			"s2": "Sydney,+Australia4241",
			"t1": "Perth,+Australia4167",
			"t2": "Adelaide,+Australia1727",
			"suurballeNbPaths": 2,
			"suurballeTime": 1113689086,
			"suurballePaths": {
				"path0": [
					"Sydney,+Australia4241",
					"Melbourne,+Australia734",
					"Melbourne,+Australia3868",
					"Adelaide,+Australia1722",
					"Perth,+Australia4156",
					"Perth,+Australia4167"
				],
				"lat0": 24.000000,
				"nbSeg0": 2,
				"path1": [
					"Maryborough,+Australia3859",
					"Brisbane,+Australia1769",
					"Brisbane,+Australia1770",
					"Sydney,+Australia4210",
					"Melbourne,+Australia751",
					"Adelaide,+Australia1729",
					"Adelaide,+Australia1727"
				],
				"lat1": 20.000000,
				"nbSeg1": 0
			},
			"pathsExist": false,
			"runtime": 76196987,
			"nomLat1": 32.000000,
			"nomLat2": 12.000000,
			"maxNomLat": 32.000000,
			"mincut": 2
		},
		{
			"s1": "Adelaide,+Australia1722",
			"s2": "Townsville,+Australia4282",
			"t1": "Perth,+Australia4166",
			"t2": "Sydney,+Australia4237",
			"suurballeNbPaths": 2,
			"suurballeTime": 1028721504,
			"suurballePaths": {
				"path0": [
					"Adelaide,+Australia1722",
					"Perth,+Australia4156",
					"Perth,+Australia4166"
				],
				"lat0": 13.000000,
				"nbSeg0": 0,
				"path1": [
					"Townsville,+Australia4282",
					"Brisbane,+Australia1769",
					"Brisbane,+Australia1770",
					"Sydney,+Australia4210",
					"Sydney,+Australia4237"
				],
				"lat1": 14.000000,
				"nbSeg1": 0
			},
			"pathsExist": false,
			"runtime": 174986873,
			"nomLat1": 13.000000,
			"nomLat2": 14.000000,
			"maxNomLat": 14.000000,
			"mincut": 4
		},
		{
			"s1": "Darwin,+Australia1837",
			"s2": "Perth,+Australia4167",
			"t1": "Adelaide,+Australia1722",
			"t2": "Melbourne,+Australia3870",
			"suurballeNbPaths": 2,
			"suurballeTime": 586933212,
			"suurballePaths": {
				"path0": [
					"Perth,+Australia4167",
					"Perth,+Australia4156",
					"Adelaide,+Australia1722"
				],
				"lat0": 13.000000,
				"nbSeg0": 0,
				"path1": [
					"Darwin,+Australia1837",
					"Adelaide,+Australia1727",
					"Adelaide,+Australia1729",
					"Adelaide,+Australia1722"
				],
				"lat1": 17.000000,
				"nbSeg1": 0
			},
			"pathsExist": false,
			"runtime": 284960900,
			"nomLat1": 17.000000,
			"nomLat2": 20.000000,
			"maxNomLat": 20.000000,
			"mincut": 3
		},
		{
			"s1": "Melbourne,+Australia3881",
			"s2": "Sydney,+Australia4237",
			"t1": "Canberra,+Australia1829",
			"t2": "Melbourne,+Australia3869",
			"suurballeNbPaths": 2,
			"suurballeTime": 1118320674,
			"suurballePaths": {
				"path0": [
					"Melbourne,+Australia3881",
					"Melbourne,+Australia3869"
				],
				"lat0": 1.000000,
				"nbSeg0": 0,
				"path1": [
					"Sydney,+Australia4237",
					"Sydney,+Australia4241",
					"Canberra,+Australia1829"
				],
				"lat1": 4.000000,
				"nbSeg1": 2
			},
			"pathsExist": false,
			"runtime": 65981375,
			"nomLat1": 6.000000,
			"nomLat2": 8.000000,
			"maxNomLat": 8.000000,
			"mincut": 7
		},
		{
			"s1": "Melbourne,+Australia3867",
			"s2": "Brisbane,+Australia1802",
			"t1": "Sydney,+Australia4208",
			"t2": "Sydney,+Australia4237",
			"suurballeNbPaths": 2,
			"suurballeTime": 1033999418,
			"suurballePaths": {
				"path0": [
					"Brisbane,+Australia1802",
					"Brisbane,+Australia1770",
					"Sydney,+Australia4210",
					"Sydney,+Australia4237"
				],
				"lat0": 7.000000,
				"nbSeg0": 2,
				"path1": [
					"Melbourne,+Australia3867",
					"Melbourne,+Australia3868",
					"Melbourne,+Australia751",
					"Sydney,+Australia4210",
					"Sydney,+Australia4208"
				],
				"lat1": 8.000000,
				"nbSeg1": 3
			},
			"pathsExist": false,
			"runtime": 178602186,
			"nomLat1": 8.000000,
			"nomLat2": 8.000000,
			"maxNomLat": 8.000000,
			"mincut": 4
		},
		{
			"s1": "Cairns,+Australia1809",
			"s2": "Hobart,+Australia1852",
			"t1": "Perth,+Australia284",
			"t2": "Melbourne,+Australia3869",
			"suurballeNbPaths": 2,
			"suurballeTime": 13884516,
			"suurballePaths": {
				"path0": [
					"Hobart,+Australia1852",
					"Melbourne,+Australia3866",
					"Melbourne,+Australia3868",
					"Melbourne,+Australia3869"
				],
				"lat0": 6.000000,
				"nbSeg0": 2,
				"path1": [
					"Cairns,+Australia1809",
					"Brisbane,+Australia1769",
					"Brisbane,+Australia1770",
					"Sydney,+Australia4210",
					"Melbourne,+Australia751",
					"Adelaide,+Australia1729",
					"Perth,+Australia4162",
					"Perth,+Australia284"
				],
				"lat1": 37.000000,
				"nbSeg1": 1
			},
			"pathsExist": false,
			"runtime": 470391125,
			"nomLat1": 38.000000,
			"nomLat2": 7.000000,
			"maxNomLat": 38.000000,
			"mincut": 4
		},
		{
			"s1": "Sydney,+Australia3546",
			"s2": "Perth,+Australia4160",
			"t1": "Maryborough,+Australia3859",
			"t2": "Townsville,+Australia4282",
			"suurballeNbPaths": 2,
			"suurballeTime": 1138827643,
			"suurballePaths": {
				"path0": [
					"Sydney,+Australia3546",
					"Sydney,+Australia4241",
					"Brisbane,+Australia1799",
					"Brisbane,+Australia1800",
					"Maryborough,+Australia3859"
				],
				"lat0": 10.000000,
				"nbSeg0": 3,
				"path1": [
					"Perth,+Australia4160",
					"Perth,+Australia4162",
					"Adelaide,+Australia1729",
					"Melbourne,+Australia751",
					"Sydney,+Australia4210",
					"Brisbane,+Australia1770",
					"Brisbane,+Australia1769",
					"Townsville,+Australia4282"
				],
				"lat1": 36.000000,
				"nbSeg1": 0
			},
			"pathsExist": false,
			"runtime": 77354164,
			"nomLat1": 10.000000,
			"nomLat2": 36.000000,
			"maxNomLat": 36.000000,
			"mincut": 2
		},
		{
			"s1": "Adelaide,+Australia1729",
			"s2": "Canberra,+Australia1829",
			"t1": "Sydney,+Australia3546",
			"t2": "Sydney,+Australia4237",
			"suurballeNbPaths": 2,
			"suurballeTime": 1036367759,
			"suurballePaths": {
				"path0": [
					"Canberra,+Australia1829",
					"Sydney,+Australia4241",
					"Sydney,+Australia3546"
				],
				"lat0": 4.000000,
				"nbSeg0": 2,
				"path1": [
					"Adelaide,+Australia1729",
					"Melbourne,+Australia751",
					"Sydney,+Australia4210",
					"Sydney,+Australia4237"
				],
				"lat1": 11.000000,
				"nbSeg1": 0
			},
			"pathsExist": false,
			"runtime": 175946938,
			"nomLat1": 11.000000,
			"nomLat2": 5.000000,
			"maxNomLat": 11.000000,
			"mincut": 3
		},
		{
			"s1": "Canberra,+Australia1824",
			"s2": "Perth,+Australia284",
			"t1": "Sydney,+Australia3546",
			"t2": "Adelaide,+Australia1733",
			"suurballeNbPaths": 2,
			"suurballeTime": 80194501,
			"suurballePaths": {
				"path0": [
					"Canberra,+Australia1824",
					"Canberra,+Australia1829",
					"Sydney,+Australia4241",
					"Sydney,+Australia3546"
				],
				"lat0": 5.000000,
				"nbSeg0": 2,
				"path1": [
					"Perth,+Australia284",
					"Perth,+Australia4156",
					"Adelaide,+Australia1722",
					"Adelaide,+Australia1733"
				],
				"lat1": 14.000000,
				"nbSeg1": 1
			},
			"pathsExist": true,
			"path1": [
				"Canberra,+Australia1824",
				"Sydney,+Australia3546"
			],
			"lat1": 6.000000,
			"path2": [
				"Perth,+Australia284",
				"Perth,+Australia4162",
				"Adelaide,+Australia1733"
			],
			"lat2": 14.000000,
			"maxlat": 14.000000,
			"runtime": 483404304,
			"nomLat1": 6.000000,
			"nomLat2": 14.000000,
			"maxNomLat": 14.000000,
			"mincut": 4
		},
		{
			"s1": "Mackay,+Australia3851",
			"s2": "Perth,+Australia4160",
			"t1": "Cairns,+Australia1809",
			"t2": "Adelaide,+Australia1722",
			"suurballeNbPaths": 2,
			"suurballeTime": 1143312691,
			"suurballePaths": {
				"path0": [
					"Mackay,+Australia3851",
					"Brisbane,+Australia1769",
					"Cairns,+Australia1809"
				],
				"lat0": 13.000000,
				"nbSeg0": 1,
				"path1": [
					"Perth,+Australia4160",
					"Perth,+Australia4162",
					"Adelaide,+Australia1729",
					"Adelaide,+Australia1722"
				],
				"lat1": 14.000000,
				"nbSeg1": 1
			},
			"pathsExist": false,
			"runtime": 84717292,
			"nomLat1": 13.000000,
			"nomLat2": 14.000000,
			"maxNomLat": 14.000000,
			"mincut": 4
		},
		{
			"s1": "Canberra,+Australia1814",
			"s2": "Canberra,+Australia1829",
			"t1": "Maryborough,+Australia3859",
			"t2": "Sydney,+Australia4241",
			"suurballeNbPaths": 2,
			"suurballeTime": 300797640,
			"suurballePaths": {
				"path0": [
					"Canberra,+Australia1829",
					"Sydney,+Australia4241"
				],
				"lat0": 3.000000,
				"nbSeg0": 0,
				"path1": [
					"Canberra,+Australia1814",
					"Canberra,+Australia565",
					"Canberra,+Australia1813",
					"Melbourne,+Australia3868",
					"Melbourne,+Australia751",
					"Sydney,+Australia4210",
					"Brisbane,+Australia1770",
					"Brisbane,+Australia1769",
					"Maryborough,+Australia3859"
				],
				"lat1": 21.000000,
				"nbSeg1": 2
			},
			"pathsExist": false,
			"runtime": 485405332,
			"nomLat1": 14.000000,
			"nomLat2": 3.000000,
			"maxNomLat": 14.000000,
			"mincut": 3
		},
		{
			"s1": "Perth,+Australia4161",
			"s2": "Adelaide,+Australia1729",
			"t1": "Maryborough,+Australia3859",
			"t2": "Darwin,+Australia1837",
			"suurballeNbPaths": 2,
			"suurballeTime": 599919035,
			"suurballePaths": {
				"path0": [
					"Perth,+Australia4161",
					"Perth,+Australia4162",
					"Perth,+Australia4160",
					"Darwin,+Australia1837"
				],
				"lat0": 17.000000,
				"nbSeg0": 0,
				"path1": [
					"Adelaide,+Australia1729",
					"Melbourne,+Australia751",
					"Sydney,+Australia4210",
					"Brisbane,+Australia1770",
					"Brisbane,+Australia1769",
					"Maryborough,+Australia3859"
				],
				"lat1": 19.000000,
				"nbSeg1": 0
			},
			"pathsExist": false,
			"runtime": 346228968,
			"nomLat1": 32.000000,
			"nomLat2": 16.000000,
			"maxNomLat": 32.000000,
			"mincut": 4
		},
		{
			"s1": "Brisbane,+Australia1800",
			"s2": "Adelaide,+Australia1727",
			"t1": "Adelaide,+Australia1722",
			"t2": "Perth,+Australia284",
			"suurballeNbPaths": 2,
			"suurballeTime": 622656729,
			"suurballePaths": {
				"path0": [
					"Adelaide,+Australia1727",
					"Adelaide,+Australia1729",
					"Perth,+Australia4162",
					"Perth,+Australia284"
				],
				"lat0": 14.000000,
				"nbSeg0": 0,
				"path1": [
					"Brisbane,+Australia1800",
					"Brisbane,+Australia1799",
					"Sydney,+Australia4241",
					"Melbourne,+Australia734",
					"Melbourne,+Australia3868",
					"Adelaide,+Australia1722"
				],
				"lat1": 17.000000,
				"nbSeg1": 1
			},
			"pathsExist": false,
			"runtime": 298438361,
			"nomLat1": 18.000000,
			"nomLat2": 14.000000,
			"maxNomLat": 18.000000,
			"mincut": 4
		},
		{
			"s1": "Townsville,+Australia4282",
			"s2": "Cairns,+Australia1809",
			"t1": "Mackay,+Australia3851",
			"t2": "Adelaide,+Australia1737",
			"suurballeNbPaths": 2,
			"suurballeTime": 1048737258,
			"suurballePaths": {
				"path0": [
					"Townsville,+Australia4282",
					"Brisbane,+Australia1800",
					"Mackay,+Australia3851"
				],
				"lat0": 12.000000,
				"nbSeg0": 0,
				"path1": [
					"Cairns,+Australia1809",
					"Brisbane,+Australia1769",
					"Brisbane,+Australia1770",
					"Sydney,+Australia4210",
					"Melbourne,+Australia751",
					"Adelaide,+Australia1729",
					"Adelaide,+Australia1737"
				],
				"lat1": 25.000000,
				"nbSeg1": 1
			},
			"pathsExist": false,
			"runtime": 170321059,
			"nomLat1": 12.000000,
			"nomLat2": 26.000000,
			"maxNomLat": 26.000000,
			"mincut": 4
		},
		{
			"s1": "Perth,+Australia4167",
			"s2": "Perth,+Australia4161",
			"t1": "Melbourne,+Australia3882",
			"t2": "Hobart,+Australia1852",
			"suurballeNbPaths": 2,
			"suurballeTime": 560528660,
			"suurballePaths": {
				"path0": [
					"Perth,+Australia4167",
					"Perth,+Australia4156",
					"Adelaide,+Australia1722",
					"Melbourne,+Australia3868",
					"Melbourne,+Australia3882"
				],
				"lat0": 19.000000,
				"nbSeg0": 1,
				"path1": [
					"Perth,+Australia4161",
					"Perth,+Australia4162",
					"Adelaide,+Australia1729",
					"Melbourne,+Australia751",
					"Melbourne,+Australia3868",
					"Melbourne,+Australia3866",
					"Hobart,+Australia1852"
				],
				"lat1": 24.000000,
				"nbSeg1": 2
			},
			"pathsExist": false,
			"runtime": 589420751,
			"nomLat1": 20.000000,
			"nomLat2": 24.000000,
			"maxNomLat": 24.000000,
			"mincut": 2
		},
		{
			"s1": "Canberra,+Australia1814",
			"s2": "Melbourne,+Australia3875",
			"t1": "Melbourne,+Australia3881",
			"t2": "Brisbane,+Australia1802",
			"suurballeNbPaths": 2,
			"suurballeTime": 192104999,
			"suurballePaths": {
				"path0": [
					"Melbourne,+Australia3875",
					"Melbourne,+Australia3881"
				],
				"lat0": 1.000000,
				"nbSeg0": 0,
				"path1": [
					"Canberra,+Australia1814",
					"Canberra,+Australia1829",
					"Sydney,+Australia4241",
					"Brisbane,+Australia1799",
					"Brisbane,+Australia1802"
				],
				"lat1": 10.000000,
				"nbSeg1": 0
			},
			"pathsExist": false,
			"runtime": 521097272,
			"nomLat1": 7.000000,
			"nomLat2": 12.000000,
			"maxNomLat": 12.000000,
			"mincut": 6
		},
		{
			"s1": "Brisbane,+Australia1800",
			"s2": "Canberra,+Australia1832",
			"t1": "Sydney,+Australia4208",
			"t2": "Perth,+Australia4161",
			"suurballeNbPaths": 2,
			"suurballeTime": 514101843,
			"suurballePaths": {
				"path0": [
					"Brisbane,+Australia1800",
					"Brisbane,+Australia1799",
					"Sydney,+Australia4241",
					"Sydney,+Australia4208"
				],
				"lat0": 7.000000,
				"nbSeg0": 0,
				"path1": [
					"Canberra,+Australia1832",
					"Canberra,+Australia1813",
					"Melbourne,+Australia3868",
					"Adelaide,+Australia1722",
					"Perth,+Australia4156",
					"Perth,+Australia4161"
				],
				"lat1": 23.000000,
				"nbSeg1": 1
			},
			"pathsExist": false,
			"runtime": 371620642,
			"nomLat1": 7.000000,
			"nomLat2": 28.000000,
			"maxNomLat": 28.000000,
			"mincut": 4
		},
		{
			"s1": "Adelaide,+Australia1727",
			"s2": "Brisbane,+Australia1800",
			"t1": "Adelaide,+Australia1733",
			"t2": "Hobart,+Australia1853",
			"suurballeNbPaths": 2,
			"suurballeTime": 60318869,
			"suurballePaths": {
				"path0": [
					"Adelaide,+Australia1727",
					"Adelaide,+Australia1729",
					"Adelaide,+Australia1733"
				],
				"lat0": 2.000000,
				"nbSeg0": 0,
				"path1": [
					"Brisbane,+Australia1800",
					"Brisbane,+Australia1799",
					"Sydney,+Australia4241",
					"Canberra,+Australia1829",
					"Canberra,+Australia1821",
					"Hobart,+Australia1853"
				],
				"lat1": 16.000000,
				"nbSeg1": 0
			},
			"pathsExist": false,
			"runtime": 638071020,
			"nomLat1": 2.000000,
			"nomLat2": 16.000000,
			"maxNomLat": 16.000000,
			"mincut": 4
		},
		{
			"s1": "Canberra,+Australia1813",
			"s2": "Melbourne,+Australia3870",
			"t1": "Sydney,+Australia4241",
			"t2": "Canberra,+Australia1832",
			"suurballeNbPaths": 2,
			"suurballeTime": 1153005204,
			"suurballePaths": {
				"path0": [
					"Canberra,+Australia1813",
					"Canberra,+Australia1832"
				],
				"lat0": 1.000000,
				"nbSeg0": 0,
				"path1": [
					"Melbourne,+Australia3870",
					"Melbourne,+Australia734",
					"Sydney,+Australia4241"
				],
				"lat1": 6.000000,
				"nbSeg1": 0
			},
			"pathsExist": false,
			"runtime": 87541492,
			"nomLat1": 4.000000,
			"nomLat2": 6.000000,
			"maxNomLat": 6.000000,
			"mincut": 5
		},
		{
			"s1": "Perth,+Australia4160",
			"s2": "Canberra,+Australia1814",
			"t1": "Brisbane,+Australia1770",
			"t2": "Canberra,+Australia1824",
			"suurballeNbPaths": 2,
			"suurballeTime": 1167445368,
			"suurballePaths": {
				"path0": [
					"Canberra,+Australia1814",
					"Canberra,+Australia1829",
					"Canberra,+Australia1824"
				],
				"lat0": 2.000000,
				"nbSeg0": 0,
				"path1": [
					"Perth,+Australia4160",
					"Perth,+Australia4162",
					"Adelaide,+Australia1729",
					"Melbourne,+Australia751",
					"Sydney,+Australia4210",
					"Brisbane,+Australia1770"
				],
				"lat1": 28.000000,
				"nbSeg1": 0
			},
			"pathsExist": false,
			"runtime": 79486357,
			"nomLat1": 28.000000,
			"nomLat2": 2.000000,
			"maxNomLat": 28.000000,
			"mincut": 4
		},
		{
			"s1": "Canberra,+Australia565",
			"s2": "Melbourne,+Australia3867",
			"t1": "Melbourne,+Australia3866",
			"t2": "Perth,+Australia4160",
			"suurballeNbPaths": 2,
			"suurballeTime": 1070609544,
			"suurballePaths": {
				"path0": [
					"Melbourne,+Australia3867",
					"Melbourne,+Australia3881",
					"Melbourne,+Australia3866"
				],
				"lat0": 2.000000,
				"nbSeg0": 2,
				"path1": [
					"Canberra,+Australia565",
					"Canberra,+Australia1813",
					"Melbourne,+Australia3868",
					"Melbourne,+Australia751",
					"Adelaide,+Australia1729",
					"Perth,+Australia4162",
					"Perth,+Australia4160"
				],
				"lat1": 24.000000,
				"nbSeg1": 0
			},
			"pathsExist": false,
			"runtime": 137325938,
			"nomLat1": 6.000000,
			"nomLat2": 20.000000,
			"maxNomLat": 20.000000,
			"mincut": 6
		},
		{
			"s1": "Perth,+Australia4161",
			"s2": "Sydney,+Australia4210",
			"t1": "Brisbane,+Australia1774",
			"t2": "Canberra,+Australia1814",
			"suurballeNbPaths": 2,
			"suurballeTime": 1152904409,
			"suurballePaths": {
				"path0": [
					"Sydney,+Australia4210",
					"Brisbane,+Australia1770",
					"Brisbane,+Australia1774"
				],
				"lat0": 6.000000,
				"nbSeg0": 0,
				"path1": [
					"Perth,+Australia4161",
					"Perth,+Australia4156",
					"Adelaide,+Australia1722",
					"Melbourne,+Australia3868",
					"Canberra,+Australia1813",
					"Canberra,+Australia1829",
					"Canberra,+Australia1814"
				],
				"lat1": 24.000000,
				"nbSeg1": 2
			},
			"pathsExist": false,
			"runtime": 86372067,
			"nomLat1": 29.000000,
			"nomLat2": 5.000000,
			"maxNomLat": 29.000000,
			"mincut": 4
		},
		{
			"s1": "Hobart,+Australia1853",
			"s2": "Cairns,+Australia1809",
			"t1": "Melbourne,+Australia751",
			"t2": "Sydney,+Australia4208",
			"suurballeNbPaths": 2,
			"suurballeTime": 984466483,
			"suurballePaths": {
				"path0": [
					"Hobart,+Australia1853",
					"Melbourne,+Australia3867",
					"Melbourne,+Australia3868",
					"Melbourne,+Australia751"
				],
				"lat0": 6.000000,
				"nbSeg0": 0,
				"path1": [
					"Cairns,+Australia1809",
					"Brisbane,+Australia1769",
					"Brisbane,+Australia1770",
					"Sydney,+Australia4210",
					"Sydney,+Australia4208"
				],
				"lat1": 15.000000,
				"nbSeg1": 3
			},
			"pathsExist": false,
			"runtime": 234799337,
			"nomLat1": 6.000000,
			"nomLat2": 15.000000,
			"maxNomLat": 15.000000,
			"mincut": 5
		},
		{
			"s1": "Perth,+Australia4167",
			"s2": "Melbourne,+Australia3882",
			"t1": "Perth,+Australia4161",
			"t2": "Canberra,+Australia565",
			"suurballeNbPaths": 2,
			"suurballeTime": 207469125,
			"suurballePaths": {
				"path0": [
					"Perth,+Australia4167",
					"Perth,+Australia4156",
					"Perth,+Australia4161"
				],
				"lat0": 2.000000,
				"nbSeg0": 1,
				"path1": [
					"Melbourne,+Australia3882",
					"Melbourne,+Australia3868",
					"Canberra,+Australia1813",
					"Canberra,+Australia565"
				],
				"lat1": 6.000000,
				"nbSeg1": 0
			},
			"pathsExist": false,
			"runtime": 628688717,
			"nomLat1": 2.000000,
			"nomLat2": 6.000000,
			"maxNomLat": 6.000000,
			"mincut": 5
		},
		{
			"s1": "Melbourne,+Australia3866",
			"s2": "Brisbane,+Australia1770",
			"t1": "Perth,+Australia4162",
			"t2": "Adelaide,+Australia1727",
			"suurballeNbPaths": 2,
			"suurballeTime": 676249922,
			"suurballePaths": {
				"path0": [
					"Melbourne,+Australia3866",
					"Melbourne,+Australia3868",
					"Adelaide,+Australia1722",
					"Adelaide,+Australia1729",
					"Perth,+Australia4162"
				],
				"lat0": 19.000000,
				"nbSeg0": 2,
				"path1": [
					"Brisbane,+Australia1770",
					"Sydney,+Australia4210",
					"Melbourne,+Australia751",
					"Adelaide,+Australia1729",
					"Adelaide,+Australia1727"
				],
				"lat1": 16.000000,
				"nbSeg1": 0
			},
			"pathsExist": false,
			"runtime": 337686368,
			"nomLat1": 19.000000,
			"nomLat2": 16.000000,
			"maxNomLat": 19.000000,
			"mincut": 2
		},
		{
			"s1": "Brisbane,+Australia1799",
			"s2": "Brisbane,+Australia1774",
			"t1": "Canberra,+Australia1824",
			"t2": "Canberra,+Australia1814",
			"suurballeNbPaths": 2,
			"suurballeTime": 1178750041,
			"suurballePaths": {
				"path0": [
					"Brisbane,+Australia1799",
					"Sydney,+Australia4241",
					"Canberra,+Australia1829",
					"Canberra,+Australia1814"
				],
				"lat0": 9.000000,
				"nbSeg0": 0,
				"path1": [
					"Brisbane,+Australia1774",
					"Brisbane,+Australia1770",
					"Sydney,+Australia4210",
					"Melbourne,+Australia751",
					"Melbourne,+Australia3868",
					"Canberra,+Australia1813",
					"Canberra,+Australia1824"
				],
				"lat1": 17.000000,
				"nbSeg1": 2
			},
			"pathsExist": false,
			"runtime": 74651512,
			"nomLat1": 9.000000,
			"nomLat2": 10.000000,
			"maxNomLat": 10.000000,
			"mincut": 2
		},
		{
			"s1": "Perth,+Australia4161",
			"s2": "Adelaide,+Australia1722",
			"t1": "Sydney,+Australia4241",
			"t2": "Perth,+Australia4160",
			"suurballeNbPaths": 2,
			"suurballeTime": 985673502,
			"suurballePaths": {
				"path0": [
					"Perth,+Australia4161",
					"Perth,+Australia4162",
					"Perth,+Australia4160"
				],
				"lat0": 2.000000,
				"nbSeg0": 0,
				"path1": [
					"Adelaide,+Australia1722",
					"Melbourne,+Australia3868",
					"Melbourne,+Australia734",
					"Sydney,+Australia4241"
				],
				"lat1": 11.000000,
				"nbSeg1": 1
			},
			"pathsExist": false,
			"runtime": 205374923,
			"nomLat1": 24.000000,
			"nomLat2": 14.000000,
			"maxNomLat": 24.000000,
			"mincut": 4
		},
		{
			"s1": "Maryborough,+Australia3859",
			"s2": "Canberra,+Australia1814",
			"t1": "Perth,+Australia284",
			"t2": "Perth,+Australia4160",
			"suurballeNbPaths": 2,
			"suurballeTime": 531125571,
			"suurballePaths": {
				"path0": [
					"Canberra,+Australia1814",
					"Canberra,+Australia565",
					"Canberra,+Australia1813",
					"Melbourne,+Australia3868",
					"Adelaide,+Australia1722",
					"Perth,+Australia4156",
					"Perth,+Australia284"
				],
				"lat0": 24.000000,
				"nbSeg0": 1,
				"path1": [
					"Maryborough,+Australia3859",
					"Brisbane,+Australia1769",
					"Brisbane,+Australia1770",
					"Sydney,+Australia4210",
					"Melbourne,+Australia751",
					"Adelaide,+Australia1729",
					"Perth,+Australia4162",
					"Perth,+Australia4160"
				],
				"lat1": 32.000000,
				"nbSeg1": 0
			},
			"pathsExist": false,
			"runtime": 332822101,
			"nomLat1": 32.000000,
			"nomLat2": 28.000000,
			"maxNomLat": 32.000000,
			"mincut": 2
		},
		{
			"s1": "Brisbane,+Australia1799",
			"s2": "Perth,+Australia4162",
			"t1": "Hobart,+Australia1853",
			"t2": "Darwin,+Australia1837",
			"suurballeNbPaths": 2,
			"suurballeTime": 1171205817,
			"suurballePaths": {
				"path0": [
					"Perth,+Australia4162",
					"Perth,+Australia4160",
					"Darwin,+Australia1837"
				],
				"lat0": 16.000000,
				"nbSeg0": 0,
				"path1": [
					"Brisbane,+Australia1799",
					"Sydney,+Australia4241",
					"Canberra,+Australia1829",
					"Canberra,+Australia1821",
					"Hobart,+Australia1853"
				],
				"lat1": 15.000000,
				"nbSeg1": 0
			},
			"pathsExist": false,
			"runtime": 67451023,
			"nomLat1": 15.000000,
			"nomLat2": 16.000000,
			"maxNomLat": 16.000000,
			"mincut": 5
		},
		{
			"s1": "Melbourne,+Australia3867",
			"s2": "Adelaide,+Australia1722",
			"t1": "Perth,+Australia4160",
			"t2": "Canberra,+Australia1832",
			"suurballeNbPaths": 2,
			"suurballeTime": 775706775,
			"suurballePaths": {
				"path0": [
					"Melbourne,+Australia3867",
					"Melbourne,+Australia3868",
					"Canberra,+Australia1813",
					"Canberra,+Australia1832"
				],
				"lat0": 6.000000,
				"nbSeg0": 0,
				"path1": [
					"Adelaide,+Australia1722",
					"Adelaide,+Australia1729",
					"Perth,+Australia4162",
					"Perth,+Australia4160"
				],
				"lat1": 14.000000,
				"nbSeg1": 1
			},
			"pathsExist": false,
			"runtime": 297826713,
			"nomLat1": 20.000000,
			"nomLat2": 10.000000,
			"maxNomLat": 20.000000,
			"mincut": 4
		},
		{
			"s1": "Canberra,+Australia565",
			"s2": "Brisbane,+Australia1800",
			"t1": "Melbourne,+Australia734",
			"t2": "Cairns,+Australia1809",
			"suurballeNbPaths": 2,
			"suurballeTime": 1158203586,
			"suurballePaths": {
				"path0": [
					"Brisbane,+Australia1800",
					"Cairns,+Australia1809"
				],
				"lat0": 8.000000,
				"nbSeg0": 0,
				"path1": [
					"Canberra,+Australia565",
					"Canberra,+Australia1813",
					"Melbourne,+Australia3868",
					"Melbourne,+Australia734"
				],
				"lat1": 6.000000,
				"nbSeg1": 0
			},
			"pathsExist": false,
			"runtime": 81436009,
			"nomLat1": 6.000000,
			"nomLat2": 8.000000,
			"maxNomLat": 8.000000,
			"mincut": 6
		},
		{
			"s1": "Sydney,+Australia4210",
			"s2": "Cairns,+Australia1809",
			"t1": "Adelaide,+Australia1727",
			"t2": "Perth,+Australia4166",
			"suurballeNbPaths": 2,
			"suurballeTime": 663397293,
			"suurballePaths": {
				"path0": [
					"Sydney,+Australia4210",
					"Melbourne,+Australia751",
					"Adelaide,+Australia1729",
					"Adelaide,+Australia1727"
				],
				"lat0": 11.000000,
				"nbSeg0": 0,
				"path1": [
					"Cairns,+Australia1809",
					"Brisbane,+Australia1800",
					"Brisbane,+Australia1799",
					"Sydney,+Australia4241",
					"Melbourne,+Australia734",
					"Melbourne,+Australia3868",
					"Adelaide,+Australia1722",
					"Perth,+Australia4156",
					"Perth,+Australia4166"
				],
				"lat1": 38.000000,
				"nbSeg1": 2
			},
			"pathsExist": false,
			"runtime": 309898663,
			"nomLat1": 11.000000,
			"nomLat2": 38.000000,
			"maxNomLat": 38.000000,
			"mincut": 2
		},
		{
			"s1": "Brisbane,+Australia1769",
			"s2": "Adelaide,+Australia1729",
			"t1": "Adelaide,+Australia1733",
			"t2": "Perth,+Australia4167",
			"suurballeNbPaths": 2,
			"suurballeTime": 716888735,
			"suurballePaths": {
				"path0": [
					"Adelaide,+Australia1729",
					"Adelaide,+Australia1733"
				],
				"lat0": 1.000000,
				"nbSeg0": 0,
				"path1": [
					"Brisbane,+Australia1769",
					"Brisbane,+Australia1770",
					"Sydney,+Australia4210",
					"Melbourne,+Australia751",
					"Adelaide,+Australia1729",
					"Perth,+Australia4162",
					"Perth,+Australia4167"
				],
				"lat1": 29.000000,
				"nbSeg1": 0
			},
			"pathsExist": false,
			"runtime": 274778589,
			"nomLat1": 17.000000,
			"nomLat2": 13.000000,
			"maxNomLat": 17.000000,
			"mincut": 4
		},
		{
			"s1": "Melbourne,+Australia3866",
			"s2": "Brisbane,+Australia1770",
			"t1": "Brisbane,+Australia1800",
			"t2": "Perth,+Australia4160",
			"suurballeNbPaths": 2,
			"suurballeTime": 921940269,
			"suurballePaths": {
				"path0": [
					"Brisbane,+Australia1770",
					"Brisbane,+Australia1799",
					"Brisbane,+Australia1800"
				],
				"lat0": 2.000000,
				"nbSeg0": 0,
				"path1": [
					"Melbourne,+Australia3866",
					"Melbourne,+Australia3868",
					"Melbourne,+Australia751",
					"Adelaide,+Australia1729",
					"Perth,+Australia4162",
					"Perth,+Australia4160"
				],
				"lat1": 20.000000,
				"nbSeg1": 0
			},
			"pathsExist": false,
			"runtime": 296984125,
			"nomLat1": 13.000000,
			"nomLat2": 28.000000,
			"maxNomLat": 28.000000,
			"mincut": 4
		},
		{
			"s1": "Sydney,+Australia4237",
			"s2": "Perth,+Australia4167",
			"t1": "Adelaide,+Australia1733",
			"t2": "Brisbane,+Australia1769",
			"suurballeNbPaths": 2,
			"suurballeTime": 973454744,
			"suurballePaths": {
				"path0": [
					"Sydney,+Australia4237",
					"Sydney,+Australia4210",
					"Brisbane,+Australia1770",
					"Brisbane,+Australia1769"
				],
				"lat0": 7.000000,
				"nbSeg0": 0,
				"path1": [
					"Perth,+Australia4167",
					"Perth,+Australia4156",
					"Adelaide,+Australia1722",
					"Adelaide,+Australia1733"
				],
				"lat1": 14.000000,
				"nbSeg1": 1
			},
			"pathsExist": false,
			"runtime": 210151908,
			"nomLat1": 12.000000,
			"nomLat2": 29.000000,
			"maxNomLat": 29.000000,
			"mincut": 4
		},
		{
			"s1": "Adelaide,+Australia1727",
			"s2": "Perth,+Australia4167",
			"t1": "Perth,+Australia4162",
			"t2": "Melbourne,+Australia3882",
			"suurballeNbPaths": 2,
			"suurballeTime": 945740854,
			"suurballePaths": {
				"path0": [
					"Perth,+Australia4167",
					"Perth,+Australia4162"
				],
				"lat0": 1.000000,
				"nbSeg0": 0,
				"path1": [
					"Adelaide,+Australia1727",
					"Adelaide,+Australia1729",
					"Adelaide,+Australia1722",
					"Melbourne,+Australia3868",
					"Melbourne,+Australia3882"
				],
				"lat1": 8.000000,
				"nbSeg1": 1
			},
			"pathsExist": false,
			"runtime": 177100888,
			"nomLat1": 13.000000,
			"nomLat2": 20.000000,
			"maxNomLat": 20.000000,
			"mincut": 4
		},
		{
			"s1": "Canberra,+Australia1821",
			"s2": "Perth,+Australia4160",
			"t1": "Melbourne,+Australia3866",
			"t2": "Canberra,+Australia1813",
			"suurballeNbPaths": 2,
			"suurballeTime": 891120507,
			"suurballePaths": {
				"path0": [
					"Canberra,+Australia1821",
					"Canberra,+Australia1813"
				],
				"lat0": 1.000000,
				"nbSeg0": 0,
				"path1": [
					"Perth,+Australia4160",
					"Perth,+Australia4162",
					"Adelaide,+Australia1729",
					"Adelaide,+Australia1722",
					"Melbourne,+Australia3868",
					"Melbourne,+Australia3866"
				],
				"lat1": 20.000000,
				"nbSeg1": 2
			},
			"pathsExist": false,
			"runtime": 285744173,
			"nomLat1": 6.000000,
			"nomLat2": 23.000000,
			"maxNomLat": 23.000000,
			"mincut": 5
		},
		{
			"s1": "Perth,+Australia4161",
			"s2": "Canberra,+Australia1832",
			"t1": "Melbourne,+Australia3866",
			"t2": "Sydney,+Australia4237",
			"suurballeNbPaths": 2,
			"suurballeTime": 683102100,
			"suurballePaths": {
				"path0": [
					"Canberra,+Australia1832",
					"Canberra,+Australia1829",
					"Sydney,+Australia4241",
					"Sydney,+Australia4237"
				],
				"lat0": 5.000000,
				"nbSeg0": 2,
				"path1": [
					"Perth,+Australia4161",
					"Perth,+Australia4156",
					"Adelaide,+Australia1722",
					"Melbourne,+Australia3868",
					"Melbourne,+Australia3866"
				],
				"lat1": 19.000000,
				"nbSeg1": 0
			},
			"pathsExist": false,
			"runtime": 371187460,
			"nomLat1": 19.000000,
			"nomLat2": 6.000000,
			"maxNomLat": 19.000000,
			"mincut": 4
		},
		{
			"s1": "Toowoomba,+Australia4277",
			"s2": "Perth,+Australia4167",
			"t1": "Cairns,+Australia1809",
			"t2": "Melbourne,+Australia3881",
			"suurballeNbPaths": 2,
			"suurballeTime": 826398340,
			"suurballePaths": {
				"path0": [
					"Toowoomba,+Australia4277",
					"Brisbane,+Australia1769",
					"Cairns,+Australia1809"
				],
				"lat0": 10.000000,
				"nbSeg0": 1,
				"path1": [
					"Perth,+Australia4167",
					"Perth,+Australia4156",
					"Adelaide,+Australia1722",
					"Melbourne,+Australia3868",
					"Melbourne,+Australia3881"
				],
				"lat1": 19.000000,
				"nbSeg1": 1
			},
			"pathsExist": false,
			"runtime": 366155683,
			"nomLat1": 10.000000,
			"nomLat2": 20.000000,
			"maxNomLat": 20.000000,
			"mincut": 4
		},
		{
			"s1": "Canberra,+Australia1829",
			"s2": "Hobart,+Australia1852",
			"t1": "Canberra,+Australia1813",
			"t2": "Canberra,+Australia1832",
			"suurballeNbPaths": 2,
			"suurballeTime": 764388723,
			"suurballePaths": {
				"path0": [
					"Canberra,+Australia1829",
					"Canberra,+Australia1832"
				],
				"lat0": 1.000000,
				"nbSeg0": 0,
				"path1": [
					"Hobart,+Australia1852",
					"Hobart,+Australia1853",
					"Canberra,+Australia1821",
					"Canberra,+Australia1813"
				],
				"lat1": 8.000000,
				"nbSeg1": 0
			},
			"pathsExist": false,
			"runtime": 319543583,
			"nomLat1": 1.000000,
			"nomLat2": 9.000000,
			"maxNomLat": 9.000000,
			"mincut": 6
		},
		{
			"s1": "Adelaide,+Australia1727",
			"s2": "Maryborough,+Australia3859",
			"t1": "Townsville,+Australia4282",
			"t2": "Mackay,+Australia3851",
			"suurballeNbPaths": 2,
			"suurballeTime": 36300597,
			"suurballePaths": {
				"path0": [
					"Maryborough,+Australia3859",
					"Brisbane,+Australia1800",
					"Mackay,+Australia3851"
				],
				"lat0": 8.000000,
				"nbSeg0": 1,
				"path1": [
					"Adelaide,+Australia1727",
					"Adelaide,+Australia1729",
					"Melbourne,+Australia751",
					"Sydney,+Australia4210",
					"Brisbane,+Australia1770",
					"Brisbane,+Australia1769",
					"Townsville,+Australia4282"
				],
				"lat1": 24.000000,
				"nbSeg1": 0
			},
			"pathsExist": false,
			"runtime": 620507028,
			"nomLat1": 24.000000,
			"nomLat2": 8.000000,
			"maxNomLat": 24.000000,
			"mincut": 4
		},
		{
			"s1": "Melbourne,+Australia3869",
			"s2": "Maroochydore,+Australia3857",
			"t1": "Brisbane,+Australia1802",
			"t2": "Sydney,+Australia4237",
			"suurballeNbPaths": 2,
			"suurballeTime": 1202454410,
			"suurballePaths": {
				"path0": [
					"Melbourne,+Australia3869",
					"Melbourne,+Australia734",
					"Sydney,+Australia4241",
					"Sydney,+Australia4237"
				],
				"lat0": 7.000000,
				"nbSeg0": 2,
				"path1": [
					"Maroochydore,+Australia3857",
					"Brisbane,+Australia1769",
					"Brisbane,+Australia1770",
					"Brisbane,+Australia1802"
				],
				"lat1": 4.000000,
				"nbSeg1": 1
			},
			"pathsExist": false,
			"runtime": 82108098,
			"nomLat1": 12.000000,
			"nomLat2": 9.000000,
			"maxNomLat": 12.000000,
			"mincut": 4
		},
		{
			"s1": "Brisbane,+Australia1769",
			"s2": "Adelaide,+Australia1727",
			"t1": "Mackay,+Australia3851",
			"t2": "Maroochydore,+Australia3857",
			"suurballeNbPaths": 2,
			"suurballeTime": 1169390763,
			"suurballePaths": {
				"path0": [
					"Brisbane,+Australia1769",
					"Maroochydore,+Australia3857"
				],
				"lat0": 2.000000,
				"nbSeg0": 0,
				"path1": [
					"Adelaide,+Australia1727",
					"Adelaide,+Australia1729",
					"Melbourne,+Australia751",
					"Sydney,+Australia4210",
					"Brisbane,+Australia1770",
					"Brisbane,+Australia1769",
					"Mackay,+Australia3851"
				],
				"lat1": 22.000000,
				"nbSeg1": 0
			},
			"pathsExist": false,
			"runtime": 89104623,
			"nomLat1": 5.000000,
			"nomLat2": 19.000000,
			"maxNomLat": 19.000000,
			"mincut": 4
		},
		{
			"s1": "Adelaide,+Australia1729",
			"s2": "Adelaide,+Australia1727",
			"t1": "Brisbane,+Australia1769",
			"t2": "Maryborough,+Australia3859",
			"suurballeNbPaths": 2,
			"suurballeTime": 899882011,
			"suurballePaths": {
				"path0": [
					"Adelaide,+Australia1729",
					"Melbourne,+Australia751",
					"Sydney,+Australia4210",
					"Brisbane,+Australia1770",
					"Brisbane,+Australia1769"
				],
				"lat0": 16.000000,
				"nbSeg0": 0,
				"path1": [
					"Adelaide,+Australia1727",
					"Adelaide,+Australia1729",
					"Adelaide,+Australia1722",
					"Melbourne,+Australia3868",
					"Melbourne,+Australia734",
					"Sydney,+Australia4241",
					"Brisbane,+Australia1799",
					"Brisbane,+Australia1800",
					"Maryborough,+Australia3859"
				],
				"lat1": 22.000000,
				"nbSeg1": 3
			},
			"pathsExist": false,
			"runtime": 300747934,
			"nomLat1": 16.000000,
			"nomLat2": 20.000000,
			"maxNomLat": 20.000000,
			"mincut": 2
		},
		{
			"s1": "Perth,+Australia4167",
			"s2": "Perth,+Australia4156",
			"t1": "Brisbane,+Australia1769",
			"t2": "Hobart,+Australia1852",
			"suurballeNbPaths": 2,
			"suurballeTime": 388586607,
			"suurballePaths": {
				"path0": [
					"Perth,+Australia4156",
					"Adelaide,+Australia1722",
					"Melbourne,+Australia3868",
					"Melbourne,+Australia3866",
					"Hobart,+Australia1852"
				],
				"lat0": 22.000000,
				"nbSeg0": 1,
				"path1": [
					"Perth,+Australia4167",
					"Perth,+Australia4162",
					"Adelaide,+Australia1729",
					"Melbourne,+Australia751",
					"Sydney,+Australia4210",
					"Brisbane,+Australia1770",
					"Brisbane,+Australia1769"
				],
				"lat1": 29.000000,
				"nbSeg1": 0
			},
			"pathsExist": false,
			"runtime": 491715952,
			"nomLat1": 29.000000,
			"nomLat2": 23.000000,
			"maxNomLat": 29.000000,
			"mincut": 2
		},
		{
			"s1": "Melbourne,+Australia3869",
			"s2": "Melbourne,+Australia3867",
			"t1": "Townsville,+Australia4282",
			"t2": "Canberra,+Australia1832",
			"suurballeNbPaths": 2,
			"suurballeTime": 769041874,
			"suurballePaths": {
				"path0": [
					"Melbourne,+Australia3867",
					"Melbourne,+Australia3868",
					"Canberra,+Australia1813",
					"Canberra,+Australia1832"
				],
				"lat0": 6.000000,
				"nbSeg0": 0,
				"path1": [
					"Melbourne,+Australia3869",
					"Melbourne,+Australia734",
					"Sydney,+Australia4241",
					"Brisbane,+Australia1799",
					"Brisbane,+Australia1800",
					"Townsville,+Australia4282"
				],
				"lat1": 19.000000,
				"nbSeg1": 0
			},
			"pathsExist": false,
			"runtime": 298490945,
			"nomLat1": 19.000000,
			"nomLat2": 6.000000,
			"maxNomLat": 19.000000,
			"mincut": 4
		},
		{
			"s1": "Maryborough,+Australia3859",
			"s2": "Canberra,+Australia1821",
			"t1": "Adelaide,+Australia1733",
			"t2": "Perth,+Australia4167",
			"suurballeNbPaths": 2,
			"suurballeTime": 697295039,
			"suurballePaths": {
				"path0": [
					"Canberra,+Australia1821",
					"Canberra,+Australia1813",
					"Melbourne,+Australia3868",
					"Adelaide,+Australia1722",
					"Adelaide,+Australia1733"
				],
				"lat0": 11.000000,
				"nbSeg0": 0,
				"path1": [
					"Maryborough,+Australia3859",
					"Brisbane,+Australia1769",
					"Brisbane,+Australia1770",
					"Sydney,+Australia4210",
					"Melbourne,+Australia751",
					"Adelaide,+Australia1729",
					"Perth,+Australia4162",
					"Perth,+Australia4167"
				],
				"lat1": 32.000000,
				"nbSeg1": 0
			},
			"pathsExist": false,
			"runtime": 298413974,
			"nomLat1": 20.000000,
			"nomLat2": 24.000000,
			"maxNomLat": 24.000000,
			"mincut": 2
		},
		{
			"s1": "Canberra,+Australia1814",
			"s2": "Maryborough,+Australia3859",
			"t1": "Adelaide,+Australia1722",
			"t2": "Adelaide,+Australia1729",
			"suurballeNbPaths": 2,
			"suurballeTime": 259189117,
			"suurballePaths": {
				"path0": [
					"Canberra,+Australia1814",
					"Canberra,+Australia565",
					"Canberra,+Australia1813",
					"Melbourne,+Australia3868",
					"Adelaide,+Australia1722"
				],
				"lat0": 11.000000,
				"nbSeg0": 1,
				"path1": [
					"Maryborough,+Australia3859",
					"Brisbane,+Australia1769",
					"Brisbane,+Australia1770",
					"Sydney,+Australia4210",
					"Melbourne,+Australia751",
					"Adelaide,+Australia1729"
				],
				"lat1": 19.000000,
				"nbSeg1": 0
			},
			"pathsExist": false,
			"runtime": 477075876,
			"nomLat1": 11.000000,
			"nomLat2": 19.000000,
			"maxNomLat": 19.000000,
			"mincut": 2
		},
		{
			"s1": "Sydney,+Australia4237",
			"s2": "Mackay,+Australia3851",
			"t1": "Canberra,+Australia1813",
			"t2": "Cairns,+Australia1809",
			"suurballeNbPaths": 2,
			"suurballeTime": 695306283,
			"suurballePaths": {
				"path0": [
					"Mackay,+Australia3851",
					"Brisbane,+Australia1769",
					"Cairns,+Australia1809"
				],
				"lat0": 13.000000,
				"nbSeg0": 1,
				"path1": [
					"Sydney,+Australia4237",
					"Sydney,+Australia4241",
					"Canberra,+Australia1829",
					"Canberra,+Australia1813"
				],
				"lat1": 5.000000,
				"nbSeg1": 2
			},
			"pathsExist": false,
			"runtime": 314787130,
			"nomLat1": 6.000000,
			"nomLat2": 13.000000,
			"maxNomLat": 13.000000,
			"mincut": 4
		},
		{
			"s1": "Canberra,+Australia1824",
			"s2": "Adelaide,+Australia1727",
			"t1": "Perth,+Australia4162",
			"t2": "Maroochydore,+Australia3857",
			"suurballeNbPaths": 2,
			"suurballeTime": 1187804555,
			"suurballePaths": {
				"path0": [
					"Adelaide,+Australia1727",
					"Adelaide,+Australia1729",
					"Perth,+Australia4162"
				],
				"lat0": 13.000000,
				"nbSeg0": 0,
				"path1": [
					"Canberra,+Australia1824",
					"Canberra,+Australia1829",
					"Sydney,+Australia4241",
					"Brisbane,+Australia1799",
					"Brisbane,+Australia1800",
					"Maroochydore,+Australia3857"
				],
				"lat1": 12.000000,
				"nbSeg1": 0
			},
			"pathsExist": false,
			"runtime": 63396573,
			"nomLat1": 27.000000,
			"nomLat2": 19.000000,
			"maxNomLat": 27.000000,
			"mincut": 4
		},
		{
			"s1": "Canberra,+Australia1824",
			"s2": "Melbourne,+Australia3875",
			"t1": "Melbourne,+Australia3870",
			"t2": "Melbourne,+Australia3881",
			"suurballeNbPaths": 2,
			"suurballeTime": 360158534,
			"suurballePaths": {
				"path0": [
					"Melbourne,+Australia3875",
					"Melbourne,+Australia3881"
				],
				"lat0": 1.000000,
				"nbSeg0": 0,
				"path1": [
					"Canberra,+Australia1824",
					"Canberra,+Australia1813",
					"Melbourne,+Australia3868",
					"Melbourne,+Australia3870"
				],
				"lat1": 6.000000,
				"nbSeg1": 0
			},
			"pathsExist": true,
			"path1": [
				"Canberra,+Australia1824",
				"Melbourne,+Australia3870"
			],
			"lat1": 6.000000,
			"path2": [
				"Melbourne,+Australia3875",
				"Melbourne,+Australia3881"
			],
			"lat2": 1.000000,
			"maxlat": 6.000000,
			"runtime": 311645673,
			"nomLat1": 6.000000,
			"nomLat2": 1.000000,
			"maxNomLat": 6.000000,
			"mincut": 6
		},
		{
			"s1": "Canberra,+Australia1814",
			"s2": "Melbourne,+Australia3868",
			"t1": "Melbourne,+Australia3882",
			"t2": "Brisbane,+Australia1770",
			"suurballeNbPaths": 2,
			"suurballeTime": 204231073,
			"suurballePaths": {
				"path0": [
					"Melbourne,+Australia3868",
					"Melbourne,+Australia3882"
				],
				"lat0": 1.000000,
				"nbSeg0": 0,
				"path1": [
					"Canberra,+Australia1814",
					"Canberra,+Australia1829",
					"Sydney,+Australia4241",
					"Brisbane,+Australia1799",
					"Brisbane,+Australia1770"
				],
				"lat1": 10.000000,
				"nbSeg1": 1
			},
			"pathsExist": false,
			"runtime": 428094112,
			"nomLat1": 7.000000,
			"nomLat2": 12.000000,
			"maxNomLat": 12.000000,
			"mincut": 10
		},
		{
			"s1": "Hobart,+Australia1852",
			"s2": "Sydney,+Australia4241",
			"t1": "Sydney,+Australia4210",
			"t2": "Darwin,+Australia1837",
			"suurballeNbPaths": 2,
			"suurballeTime": 1042427532,
			"suurballePaths": {
				"path0": [
					"Sydney,+Australia4241",
					"Sydney,+Australia4210"
				],
				"lat0": 1.000000,
				"nbSeg0": 0,
				"path1": [
					"Hobart,+Australia1852",
					"Melbourne,+Australia3866",
					"Melbourne,+Australia3868",
					"Melbourne,+Australia751",
					"Adelaide,+Australia1729",
					"Adelaide,+Australia1727",
					"Darwin,+Australia1837"
				],
				"lat1": 27.000000,
				"nbSeg1": 1
			},
			"pathsExist": false,
			"runtime": 231949065,
			"nomLat1": 12.000000,
			"nomLat2": 27.000000,
			"maxNomLat": 27.000000,
			"mincut": 8
		},
		{
			"s1": "Adelaide,+Australia1722",
			"s2": "Maroochydore,+Australia3857",
			"t1": "Canberra,+Australia565",
			"t2": "Adelaide,+Australia1727",
			"suurballeNbPaths": 2,
			"suurballeTime": 748320302,
			"suurballePaths": {
				"path0": [
					"Adelaide,+Australia1722",
					"Adelaide,+Australia1729",
					"Adelaide,+Australia1727"
				],
				"lat0": 2.000000,
				"nbSeg0": 0,
				"path1": [
					"Maroochydore,+Australia3857",
					"Brisbane,+Australia1800",
					"Brisbane,+Australia1799",
					"Sydney,+Australia4241",
					"Canberra,+Australia1829",
					"Canberra,+Australia565"
				],
				"lat1": 12.000000,
				"nbSeg1": 2
			},
			"pathsExist": false,
			"runtime": 273455285,
			"nomLat1": 10.000000,
			"nomLat2": 19.000000,
			"maxNomLat": 19.000000,
			"mincut": 5
		},
		{
			"s1": "Perth,+Australia4166",
			"s2": "Canberra,+Australia1813",
			"t1": "Perth,+Australia4162",
			"t2": "Melbourne,+Australia734",
			"suurballeNbPaths": 2,
			"suurballeTime": 774970997,
			"suurballePaths": {
				"path0": [
					"Perth,+Australia4166",
					"Perth,+Australia4162"
				],
				"lat0": 1.000000,
				"nbSeg0": 0,
				"path1": [
					"Canberra,+Australia1813",
					"Melbourne,+Australia3868",
					"Melbourne,+Australia734"
				],
				"lat1": 5.000000,
				"nbSeg1": 0
			},
			"pathsExist": true,
			"path1": [
				"Perth,+Australia4166",
				"Perth,+Australia4162"
			],
			"lat1": 1.000000,
			"path2": [
				"Canberra,+Australia1813",
				"Melbourne,+Australia734"
			],
			"lat2": 5.000000,
			"maxlat": 5.000000,
			"runtime": 471348663,
			"nomLat1": 1.000000,
			"nomLat2": 5.000000,
			"maxNomLat": 5.000000,
			"mincut": 5
		},
		{
			"s1": "Perth,+Australia4167",
			"s2": "Melbourne,+Australia3881",
			"t1": "Melbourne,+Australia3869",
			"t2": "Melbourne,+Australia3867",
			"suurballeNbPaths": 2,
			"suurballeTime": 381936718,
			"suurballePaths": {
				"path0": [
					"Melbourne,+Australia3881",
					"Melbourne,+Australia3869"
				],
				"lat0": 1.000000,
				"nbSeg0": 0,
				"path1": [
					"Perth,+Australia4167",
					"Perth,+Australia4156",
					"Adelaide,+Australia1722",
					"Melbourne,+Australia3868",
					"Melbourne,+Australia3867"
				],
				"lat1": 19.000000,
				"nbSeg1": 1
			},
			"pathsExist": false,
			"runtime": 326089461,
			"nomLat1": 20.000000,
			"nomLat2": 2.000000,
			"maxNomLat": 20.000000,
			"mincut": 8
		},
		{
			"s1": "Brisbane,+Australia1802",
			"s2": "Melbourne,+Australia3881",
			"t1": "Canberra,+Australia1813",
			"t2": "Darwin,+Australia1837",
			"suurballeNbPaths": 2,
			"suurballeTime": 755358501,
			"suurballePaths": {
				"path0": [
					"Brisbane,+Australia1802",
					"Brisbane,+Australia1799",
					"Sydney,+Australia4241",
					"Canberra,+Australia1829",
					"Canberra,+Australia1813"
				],
				"lat0": 10.000000,
				"nbSeg0": 0,
				"path1": [
					"Melbourne,+Australia3881",
					"Melbourne,+Australia3868",
					"Melbourne,+Australia751",
					"Adelaide,+Australia1729",
					"Adelaide,+Australia1727",
					"Darwin,+Australia1837"
				],
				"lat1": 23.000000,
				"nbSeg1": 0
			},
			"pathsExist": false,
			"runtime": 380663701,
			"nomLat1": 10.000000,
			"nomLat2": 23.000000,
			"maxNomLat": 23.000000,
			"mincut": 5
		},
		{
			"s1": "Canberra,+Australia1814",
			"s2": "Sydney,+Australia3546",
			"t1": "Canberra,+Australia1813",
			"t2": "Adelaide,+Australia1727",
			"suurballeNbPaths": 2,
			"suurballeTime": 767233255,
			"suurballePaths": {
				"path0": [
					"Canberra,+Australia1814",
					"Canberra,+Australia565",
					"Canberra,+Australia1813"
				],
				"lat0": 2.000000,
				"nbSeg0": 1,
				"path1": [
					"Sydney,+Australia3546",
					"Sydney,+Australia4210",
					"Melbourne,+Australia751",
					"Adelaide,+Australia1729",
					"Adelaide,+Australia1727"
				],
				"lat1": 12.000000,
				"nbSeg1": 0
			},
			"pathsExist": false,
			"runtime": 347207907,
			"nomLat1": 2.000000,
			"nomLat2": 12.000000,
			"maxNomLat": 12.000000,
			"mincut": 4
		},
		{
			"s1": "Melbourne,+Australia734",
			"s2": "Melbourne,+Australia3867",
			"t1": "Brisbane,+Australia1770",
			"t2": "Sydney,+Australia4237",
			"suurballeNbPaths": 2,
			"suurballeTime": 1210818135,
			"suurballePaths": {
				"path0": [
					"Melbourne,+Australia734",
					"Sydney,+Australia4241",
					"Sydney,+Australia4237"
				],
				"lat0": 6.000000,
				"nbSeg0": 2,
				"path1": [
					"Melbourne,+Australia3867",
					"Melbourne,+Australia3868",
					"Melbourne,+Australia751",
					"Sydney,+Australia4210",
					"Brisbane,+Australia1770"
				],
				"lat1": 12.000000,
				"nbSeg1": 1
			},
			"pathsExist": false,
			"runtime": 69707498,
			"nomLat1": 11.000000,
			"nomLat2": 9.000000,
			"maxNomLat": 11.000000,
			"mincut": 3
		},
		{
			"s1": "Brisbane,+Australia1774",
			"s2": "Canberra,+Australia1832",
			"t1": "Canberra,+Australia565",
			"t2": "Canberra,+Australia1829",
			"suurballeNbPaths": 2,
			"suurballeTime": 448657594,
			"suurballePaths": {
				"path0": [
					"Canberra,+Australia1832",
					"Canberra,+Australia1829"
				],
				"lat0": 1.000000,
				"nbSeg0": 0,
				"path1": [
					"Brisbane,+Australia1774",
					"Brisbane,+Australia1799",
					"Sydney,+Australia4241",
					"Canberra,+Australia1829"
				],
				"lat1": 9.000000,
				"nbSeg1": 0
			},
			"pathsExist": false,
			"runtime": 358414732,
			"nomLat1": 11.000000,
			"nomLat2": 1.000000,
			"maxNomLat": 11.000000,
			"mincut": 4
		},
		{
			"s1": "Perth,+Australia4167",
			"s2": "Adelaide,+Australia1722",
			"t1": "Adelaide,+Australia1733",
			"t2": "Maryborough,+Australia3859",
			"suurballeNbPaths": 2,
			"suurballeTime": 369047338,
			"suurballePaths": {
				"path0": [
					"Adelaide,+Australia1722",
					"Adelaide,+Australia1733"
				],
				"lat0": 1.000000,
				"nbSeg0": 0,
				"path1": [
					"Perth,+Australia4167",
					"Perth,+Australia4162",
					"Adelaide,+Australia1729",
					"Melbourne,+Australia751",
					"Sydney,+Australia4210",
					"Brisbane,+Australia1770",
					"Brisbane,+Australia1769",
					"Maryborough,+Australia3859"
				],
				"lat1": 32.000000,
				"nbSeg1": 0
			},
			"pathsExist": false,
			"runtime": 474456242,
			"nomLat1": 14.000000,
			"nomLat2": 20.000000,
			"maxNomLat": 20.000000,
			"mincut": 4
		},
		{
			"s1": "Melbourne,+Australia734",
			"s2": "Adelaide,+Australia1727",
			"t1": "Perth,+Australia4156",
			"t2": "Melbourne,+Australia3870",
			"suurballeNbPaths": 2,
			"suurballeTime": 1202704688,
			"suurballePaths": {
				"path0": [
					"Melbourne,+Australia734",
					"Melbourne,+Australia3870"
				],
				"lat0": 1.000000,
				"nbSeg0": 0,
				"path1": [
					"Adelaide,+Australia1727",
					"Adelaide,+Australia1729",
					"Adelaide,+Australia1722",
					"Perth,+Australia4156"
				],
				"lat1": 14.000000,
				"nbSeg1": 1
			},
			"pathsExist": false,
			"runtime": 65893785,
			"nomLat1": 18.000000,
			"nomLat2": 8.000000,
			"maxNomLat": 18.000000,
			"mincut": 7
		},
		{
			"s1": "Brisbane,+Australia1799",
			"s2": "Cairns,+Australia1809",
			"t1": "Melbourne,+Australia751",
			"t2": "Perth,+Australia4167",
			"suurballeNbPaths": 2,
			"suurballeTime": 1245023652,
			"suurballePaths": {
				"path0": [
					"Brisbane,+Australia1799",
					"Sydney,+Australia4241",
					"Melbourne,+Australia734",
					"Melbourne,+Australia751"
				],
				"lat0": 11.000000,
				"nbSeg0": 1,
				"path1": [
					"Cairns,+Australia1809",
					"Brisbane,+Australia1769",
					"Brisbane,+Australia1770",
					"Sydney,+Australia4210",
					"Melbourne,+Australia751"
				],
				"lat1": 19.000000,
				"nbSeg1": 1
			},
			"pathsExist": false,
			"runtime": 73911895,
			"nomLat1": 11.000000,
			"nomLat2": 38.000000,
			"maxNomLat": 38.000000,
			"mincut": 2
		},
		{
			"s1": "Melbourne,+Australia3875",
			"s2": "Perth,+Australia4167",
			"t1": "Rockhampton,+Australia4195",
			"t2": "Canberra,+Australia1814",
			"suurballeNbPaths": 2,
			"suurballeTime": 641382592,
			"suurballePaths": {
				"path0": [
					"Melbourne,+Australia3875",
					"Melbourne,+Australia3868",
					"Canberra,+Australia1813",
					"Canberra,+Australia565",
					"Canberra,+Australia1814"
				],
				"lat0": 7.000000,
				"nbSeg0": 1,
				"path1": [
					"Perth,+Australia4167",
					"Perth,+Australia4162",
					"Adelaide,+Australia1729",
					"Melbourne,+Australia751",
					"Sydney,+Australia4210",
					"Brisbane,+Australia1770",
					"Brisbane,+Australia1769",
					"Rockhampton,+Australia4195"
				],
				"lat1": 33.000000,
				"nbSeg1": 0
			},
			"pathsExist": false,
			"runtime": 288125355,
			"nomLat1": 16.000000,
			"nomLat2": 28.000000,
			"maxNomLat": 28.000000,
			"mincut": 4
		},
		{
			"s1": "Canberra,+Australia1814",
			"s2": "Sydney,+Australia3546",
			"t1": "Canberra,+Australia1829",
			"t2": "Sydney,+Australia4208",
			"suurballeNbPaths": 2,
			"suurballeTime": 969484321,
			"suurballePaths": {
				"path0": [
					"Canberra,+Australia1814",
					"Canberra,+Australia1829"
				],
				"lat0": 1.000000,
				"nbSeg0": 0,
				"path1": [
					"Sydney,+Australia3546",
					"Sydney,+Australia4210",
					"Sydney,+Australia4208"
				],
				"lat1": 2.000000,
				"nbSeg1": 2
			},
			"pathsExist": false,
			"runtime": 339238092,
			"nomLat1": 1.000000,
			"nomLat2": 3.000000,
			"maxNomLat": 3.000000,
			"mincut": 4
		},
		{
			"s1": "Melbourne,+Australia3875",
			"s2": "Adelaide,+Australia1727",
			"t1": "Canberra,+Australia1829",
			"t2": "Brisbane,+Australia1774",
			"suurballeNbPaths": 2,
			"suurballeTime": 819369853,
			"suurballePaths": {
				"path0": [
					"Melbourne,+Australia3875",
					"Melbourne,+Australia3868",
					"Canberra,+Australia1813",
					"Canberra,+Australia1829"
				],
				"lat0": 6.000000,
				"nbSeg0": 0,
				"path1": [
					"Adelaide,+Australia1727",
					"Adelaide,+Australia1729",
					"Melbourne,+Australia751",
					"Sydney,+Australia4210",
					"Brisbane,+Australia1770",
					"Brisbane,+Australia1774"
				],
				"lat1": 17.000000,
				"nbSeg1": 0
			},
			"pathsExist": false,
			"runtime": 290028806,
			"nomLat1": 6.000000,
			"nomLat2": 17.000000,
			"maxNomLat": 17.000000,
			"mincut": 4
		},
		{
			"s1": "Sydney,+Australia4241",
			"s2": "Sydney,+Australia4208",
			"t1": "Brisbane,+Australia1800",
			"t2": "Canberra,+Australia1821",
			"suurballeNbPaths": 2,
			"suurballeTime": 56523769,
			"suurballePaths": {
				"path0": [
					"Sydney,+Australia4241",
					"Brisbane,+Australia1799",
					"Brisbane,+Australia1800"
				],
				"lat0": 6.000000,
				"nbSeg0": 0,
				"path1": [
					"Sydney,+Australia4208",
					"Sydney,+Australia4241",
					"Canberra,+Australia1829",
					"Canberra,+Australia1821"
				],
				"lat1": 5.000000,
				"nbSeg1": 0
			},
			"pathsExist": true,
			"path1": [
				"Sydney,+Australia4241",
				"Brisbane,+Australia1800"
			],
			"lat1": 6.000000,
			"path2": [
				"Sydney,+Australia4208",
				"Canberra,+Australia1821"
			],
			"lat2": 5.000000,
			"maxlat": 6.000000,
			"runtime": 723651620,
			"nomLat1": 6.000000,
			"nomLat2": 5.000000,
			"maxNomLat": 6.000000,
			"mincut": 5
		},
		{
			"s1": "Sydney,+Australia4237",
			"s2": "Perth,+Australia4167",
			"t1": "Hobart,+Australia1853",
			"t2": "Canberra,+Australia1829",
			"suurballeNbPaths": 2,
			"suurballeTime": 575149419,
			"suurballePaths": {
				"path0": [
					"Sydney,+Australia4237",
					"Sydney,+Australia4241",
					"Canberra,+Australia1829"
				],
				"lat0": 4.000000,
				"nbSeg0": 2,
				"path1": [
					"Perth,+Australia4167",
					"Perth,+Australia4156",
					"Adelaide,+Australia1722",
					"Melbourne,+Australia3868",
					"Melbourne,+Australia3867",
					"Hobart,+Australia1853"
				],
				"lat1": 23.000000,
				"nbSeg1": 1
			},
			"pathsExist": false,
			"runtime": 366077467,
			"nomLat1": 12.000000,
			"nomLat2": 27.000000,
			"maxNomLat": 27.000000,
			"mincut": 4
		},
		{
			"s1": "Maroochydore,+Australia3857",
			"s2": "Brisbane,+Australia1800",
			"t1": "Melbourne,+Australia3868",
			"t2": "Perth,+Australia4160",
			"suurballeNbPaths": 2,
			"suurballeTime": 784470019,
			"suurballePaths": {
				"path0": [
					"Brisbane,+Australia1800",
					"Brisbane,+Australia1799",
					"Sydney,+Australia4241",
					"Melbourne,+Australia734",
					"Melbourne,+Australia3868"
				],
				"lat0": 12.000000,
				"nbSeg0": 0,
				"path1": [
					"Maroochydore,+Australia3857",
					"Brisbane,+Australia1769",
					"Brisbane,+Australia1770",
					"Sydney,+Australia4210",
					"Melbourne,+Australia751",
					"Adelaide,+Australia1729",
					"Perth,+Australia4162",
					"Perth,+Australia4160"
				],
				"lat1": 31.000000,
				"nbSeg1": 0
			},
			"pathsExist": false,
			"runtime": 182234968,
			"nomLat1": 14.000000,
			"nomLat2": 30.000000,
			"maxNomLat": 30.000000,
			"mincut": 2
		},
		{
			"s1": "Adelaide,+Australia1727",
			"s2": "Melbourne,+Australia3870",
			"t1": "Melbourne,+Australia3881",
			"t2": "Adelaide,+Australia1737",
			"suurballeNbPaths": 2,
			"suurballeTime": 47744029,
			"suurballePaths": {
				"path0": [
					"Melbourne,+Australia3870",
					"Melbourne,+Australia3881"
				],
				"lat0": 1.000000,
				"nbSeg0": 0,
				"path1": [
					"Adelaide,+Australia1727",
					"Adelaide,+Australia1729",
					"Adelaide,+Australia1737"
				],
				"lat1": 2.000000,
				"nbSeg1": 0
			},
			"pathsExist": false,
			"runtime": 615302503,
			"nomLat1": 8.000000,
			"nomLat2": 7.000000,
			"maxNomLat": 8.000000,
			"mincut": 6
		},
		{
			"s1": "Adelaide,+Australia1727",
			"s2": "Cairns,+Australia1809",
			"t1": "Melbourne,+Australia3866",
			"t2": "Canberra,+Australia1814",
			"suurballeNbPaths": 2,
			"suurballeTime": 1156473193,
			"suurballePaths": {
				"path0": [
					"Adelaide,+Australia1727",
					"Adelaide,+Australia1729",
					"Adelaide,+Australia1722",
					"Melbourne,+Australia3868",
					"Melbourne,+Australia3866"
				],
				"lat0": 8.000000,
				"nbSeg0": 1,
				"path1": [
					"Cairns,+Australia1809",
					"Brisbane,+Australia1800",
					"Brisbane,+Australia1799",
					"Sydney,+Australia4241",
					"Canberra,+Australia1829",
					"Canberra,+Australia1814"
				],
				"lat1": 18.000000,
				"nbSeg1": 0
			},
			"pathsExist": false,
			"runtime": 174352938,
			"nomLat1": 8.000000,
			"nomLat2": 18.000000,
			"maxNomLat": 18.000000,
			"mincut": 4
		},
		{
			"s1": "Sydney,+Australia4237",
			"s2": "Hobart,+Australia1852",
			"t1": "Canberra,+Australia1832",
			"t2": "Adelaide,+Australia1729",
			"suurballeNbPaths": 2,
			"suurballeTime": 77721652,
			"suurballePaths": {
				"path0": [
					"Sydney,+Australia4237",
					"Sydney,+Australia4241",
					"Canberra,+Australia1829",
					"Canberra,+Australia1832"
				],
				"lat0": 5.000000,
				"nbSeg0": 2,
				"path1": [
					"Hobart,+Australia1852",
					"Melbourne,+Australia3866",
					"Melbourne,+Australia3868",
					"Melbourne,+Australia751",
					"Adelaide,+Australia1729"
				],
				"lat1": 11.000000,
				"nbSeg1": 1
			},
			"pathsExist": false,
			"runtime": 509609112,
			"nomLat1": 6.000000,
			"nomLat2": 12.000000,
			"maxNomLat": 12.000000,
			"mincut": 4
		},
		{
			"s1": "Brisbane,+Australia1799",
			"s2": "Darwin,+Australia1837",
			"t1": "Melbourne,+Australia3866",
			"t2": "Cairns,+Australia1809",
			"suurballeNbPaths": 2,
			"suurballeTime": 831388108,
			"suurballePaths": {
				"path0": [
					"Brisbane,+Australia1799",
					"Brisbane,+Australia1800",
					"Cairns,+Australia1809"
				],
				"lat0": 9.000000,
				"nbSeg0": 0,
				"path1": [
					"Darwin,+Australia1837",
					"Adelaide,+Australia1727",
					"Adelaide,+Australia1729",
					"Adelaide,+Australia1722",
					"Melbourne,+Australia3868",
					"Melbourne,+Australia3866"
				],
				"lat1": 23.000000,
				"nbSeg1": 1
			},
			"pathsExist": false,
			"runtime": 277404698,
			"nomLat1": 12.000000,
			"nomLat2": 41.000000,
			"maxNomLat": 41.000000,
			"mincut": 6
		},
		{
			"s1": "Perth,+Australia4167",
			"s2": "Brisbane,+Australia1769",
			"t1": "Mackay,+Australia3851",
			"t2": "Adelaide,+Australia1737",
			"suurballeNbPaths": 2,
			"suurballeTime": 311352804,
			"suurballePaths": {
				"path0": [
					"Brisbane,+Australia1769",
					"Mackay,+Australia3851"
				],
				"lat0": 5.000000,
				"nbSeg0": 0,
				"path1": [
					"Perth,+Australia4167",
					"Perth,+Australia4156",
					"Adelaide,+Australia1722",
					"Adelaide,+Australia1737"
				],
				"lat1": 14.000000,
				"nbSeg1": 1
			},
			"pathsExist": false,
			"runtime": 546584948,
			"nomLat1": 34.000000,
			"nomLat2": 17.000000,
			"maxNomLat": 34.000000,
			"mincut": 4
		},
		{
			"s1": "Canberra,+Australia1832",
			"s2": "Perth,+Australia4162",
			"t1": "Perth,+Australia284",
			"t2": "Sydney,+Australia4210",
			"suurballeNbPaths": 2,
			"suurballeTime": 948170517,
			"suurballePaths": {
				"path0": [
					"Perth,+Australia4162",
					"Perth,+Australia284"
				],
				"lat0": 1.000000,
				"nbSeg0": 0,
				"path1": [
					"Canberra,+Australia1832",
					"Canberra,+Australia1829",
					"Sydney,+Australia4241",
					"Sydney,+Australia4210"
				],
				"lat1": 5.000000,
				"nbSeg1": 0
			},
			"pathsExist": false,
			"runtime": 391299283,
			"nomLat1": 28.000000,
			"nomLat2": 22.000000,
			"maxNomLat": 28.000000,
			"mincut": 5
		},
		{
			"s1": "Perth,+Australia4167",
			"s2": "Adelaide,+Australia1722",
			"t1": "Perth,+Australia284",
			"t2": "Melbourne,+Australia3866",
			"suurballeNbPaths": 2,
			"suurballeTime": 981219610,
			"suurballePaths": {
				"path0": [
					"Perth,+Australia4167",
					"Perth,+Australia4156",
					"Perth,+Australia284"
				],
				"lat0": 2.000000,
				"nbSeg0": 1,
				"path1": [
					"Adelaide,+Australia1722",
					"Melbourne,+Australia3868",
					"Melbourne,+Australia3866"
				],
				"lat1": 6.000000,
				"nbSeg1": 0
			},
			"pathsExist": false,
			"runtime": 363074742,
			"nomLat1": 2.000000,
			"nomLat2": 6.000000,
			"maxNomLat": 6.000000,
			"mincut": 4
		},
		{
			"s1": "Perth,+Australia4167",
			"s2": "Adelaide,+Australia1722",
			"t1": "Melbourne,+Australia3875",
			"t2": "Hobart,+Australia1853",
			"suurballeNbPaths": 2,
			"suurballeTime": 3388565,
			"suurballePaths": {
				"path0": [
					"Adelaide,+Australia1722",
					"Melbourne,+Australia3868",
					"Melbourne,+Australia3875"
				],
				"lat0": 6.000000,
				"nbSeg0": 0,
				"path1": [
					"Perth,+Australia4167",
					"Perth,+Australia4162",
					"Adelaide,+Australia1729",
					"Melbourne,+Australia751",
					"Melbourne,+Australia3868",
					"Melbourne,+Australia3867",
					"Hobart,+Australia1853"
				],
				"lat1": 24.000000,
				"nbSeg1": 1
			},
			"pathsExist": false,
			"runtime": 549301496,
			"nomLat1": 20.000000,
			"nomLat2": 10.000000,
			"maxNomLat": 20.000000,
			"mincut": 2
		},
		{
			"s1": "Melbourne,+Australia3868",
			"s2": "Sydney,+Australia4208",
			"t1": "Perth,+Australia4162",
			"t2": "Melbourne,+Australia3870",
			"suurballeNbPaths": 2,
			"suurballeTime": 4946428,
			"suurballePaths": {
				"path0": [
					"Melbourne,+Australia3868",
					"Melbourne,+Australia3870"
				],
				"lat0": 1.000000,
				"nbSeg0": 0,
				"path1": [
					"Sydney,+Australia4208",
					"Sydney,+Australia4210",
					"Melbourne,+Australia751",
					"Adelaide,+Australia1729",
					"Perth,+Australia4162"
				],
				"lat1": 23.000000,
				"nbSeg1": 2
			},
			"pathsExist": true,
			"path1": [
				"Melbourne,+Australia3868",
				"Perth,+Australia4162"
			],
			"lat1": 18.000000,
			"path2": [
				"Sydney,+Australia4208",
				"Melbourne,+Australia734",
				"Melbourne,+Australia3870"
			],
			"lat2": 7.000000,
			"maxlat": 18.000000,
			"runtime": 607670598,
			"nomLat1": 18.000000,
			"nomLat2": 7.000000,
			"maxNomLat": 18.000000,
			"mincut": 6
		},
		{
			"s1": "Brisbane,+Australia1770",
			"s2": "Sydney,+Australia3546",
			"t1": "Brisbane,+Australia1802",
			"t2": "Sydney,+Australia4210",
			"suurballeNbPaths": 2,
			"suurballeTime": 3320034,
			"suurballePaths": {
				"path0": [
					"Brisbane,+Australia1770",
					"Brisbane,+Australia1802"
				],
				"lat0": 1.000000,
				"nbSeg0": 2,
				"path1": [
					"Sydney,+Australia3546",
					"Sydney,+Australia4210"
				],
				"lat1": 1.000000,
				"nbSeg1": 0
			},
			"pathsExist": true,
			"path1": [
				"Brisbane,+Australia1770",
				"Brisbane,+Australia1802"
			],
			"lat1": 2.000000,
			"path2": [
				"Sydney,+Australia3546",
				"Sydney,+Australia4210"
			],
			"lat2": 1.000000,
			"maxlat": 2.000000,
			"runtime": 722612127,
			"nomLat1": 2.000000,
			"nomLat2": 1.000000,
			"maxNomLat": 2.000000,
			"mincut": 6
		},
		{
			"s1": "Mackay,+Australia3851",
			"s2": "Melbourne,+Australia3868",
			"t1": "Canberra,+Australia1813",
			"t2": "Melbourne,+Australia3881",
			"suurballeNbPaths": 2,
			"suurballeTime": 3352725,
			"suurballePaths": {
				"path0": [
					"Melbourne,+Australia3868",
					"Melbourne,+Australia3881"
				],
				"lat0": 1.000000,
				"nbSeg0": 0,
				"path1": [
					"Mackay,+Australia3851",
					"Brisbane,+Australia1800",
					"Brisbane,+Australia1799",
					"Sydney,+Australia4241",
					"Canberra,+Australia1829",
					"Canberra,+Australia1813"
				],
				"lat1": 15.000000,
				"nbSeg1": 0
			},
			"pathsExist": true,
			"path1": [
				"Mackay,+Australia3851",
				"Canberra,+Australia1824",
				"Canberra,+Australia1813"
			],
			"lat1": 16.000000,
			"path2": [
				"Melbourne,+Australia3868",
				"Melbourne,+Australia3882",
				"Melbourne,+Australia3881"
			],
			"lat2": 2.000000,
			"maxlat": 16.000000,
			"runtime": 772974304,
			"nomLat1": 15.000000,
			"nomLat2": 1.000000,
			"maxNomLat": 15.000000,
			"mincut": 11
		},
		{
			"s1": "Hobart,+Australia1852",
			"s2": "Melbourne,+Australia3867",
			"t1": "Adelaide,+Australia1722",
			"t2": "Sydney,+Australia3546",
			"suurballeNbPaths": 2,
			"suurballeTime": 3320113,
			"suurballePaths": {
				"path0": [
					"Melbourne,+Australia3867",
					"Melbourne,+Australia3868",
					"Adelaide,+Australia1722"
				],
				"lat0": 6.000000,
				"nbSeg0": 0,
				"path1": [
					"Hobart,+Australia1852",
					"Melbourne,+Australia3866",
					"Melbourne,+Australia3868",
					"Melbourne,+Australia751",
					"Sydney,+Australia4210",
					"Sydney,+Australia3546"
				],
				"lat1": 12.000000,
				"nbSeg1": 2
			},
			"pathsExist": false,
			"runtime": 706773898,
			"nomLat1": 11.000000,
			"nomLat2": 9.000000,
			"maxNomLat": 11.000000,
			"mincut": 4
		},
		{
			"s1": "Brisbane,+Australia1802",
			"s2": "Brisbane,+Australia1770",
			"t1": "Perth,+Australia4162",
			"t2": "Brisbane,+Australia1799",
			"suurballeNbPaths": 2,
			"suurballeTime": 3311891,
			"suurballePaths": {
				"path0": [
					"Brisbane,+Australia1802",
					"Brisbane,+Australia1799"
				],
				"lat0": 1.000000,
				"nbSeg0": 0,
				"path1": [
					"Brisbane,+Australia1770",
					"Sydney,+Australia4210",
					"Melbourne,+Australia751",
					"Adelaide,+Australia1729",
					"Perth,+Australia4162"
				],
				"lat1": 27.000000,
				"nbSeg1": 0
			},
			"pathsExist": true,
			"path1": [
				"Brisbane,+Australia1802",
				"Sydney,+Australia4241",
				"Perth,+Australia4162"
			],
			"lat1": 29.000000,
			"path2": [
				"Brisbane,+Australia1770",
				"Brisbane,+Australia1774",
				"Brisbane,+Australia1799"
			],
			"lat2": 2.000000,
			"maxlat": 29.000000,
			"runtime": 658814212,
			"nomLat1": 29.000000,
			"nomLat2": 1.000000,
			"maxNomLat": 29.000000,
			"mincut": 5
		},
		{
			"s1": "Perth,+Australia284",
			"s2": "Canberra,+Australia565",
			"t1": "Melbourne,+Australia3875",
			"t2": "Townsville,+Australia4282",
			"suurballeNbPaths": 2,
			"suurballeTime": 3308305,
			"suurballePaths": {
				"path0": [
					"Perth,+Australia284",
					"Perth,+Australia4156",
					"Adelaide,+Australia1722",
					"Melbourne,+Australia3868",
					"Melbourne,+Australia3875"
				],
				"lat0": 19.000000,
				"nbSeg0": 0,
				"path1": [
					"Canberra,+Australia565",
					"Canberra,+Australia1829",
					"Sydney,+Australia4241",
					"Brisbane,+Australia1799",
					"Brisbane,+Australia1800",
					"Townsville,+Australia4282"
				],
				"lat1": 17.000000,
				"nbSeg1": 2
			},
			"pathsExist": false,
			"runtime": 659591276,
			"nomLat1": 19.000000,
			"nomLat2": 18.000000,
			"maxNomLat": 19.000000,
			"mincut": 5
		},
		{
			"s1": "Perth,+Australia4166",
			"s2": "Brisbane,+Australia1799",
			"t1": "Adelaide,+Australia1733",
			"t2": "Melbourne,+Australia3869",
			"suurballeNbPaths": 2,
			"suurballeTime": 3283150,
			"suurballePaths": {
				"path0": [
					"Perth,+Australia4166",
					"Perth,+Australia4156",
					"Adelaide,+Australia1722",
					"Adelaide,+Australia1733"
				],
				"lat0": 14.000000,
				"nbSeg0": 1,
				"path1": [
					"Brisbane,+Australia1799",
					"Sydney,+Australia4241",
					"Melbourne,+Australia734",
					"Melbourne,+Australia3869"
				],
				"lat1": 11.000000,
				"nbSeg1": 0
			},
			"pathsExist": false,
			"runtime": 941714739,
			"nomLat1": 14.000000,
			"nomLat2": 11.000000,
			"maxNomLat": 14.000000,
			"mincut": 4
		},
		{
			"s1": "Brisbane,+Australia1802",
			"s2": "Perth,+Australia284",
			"t1": "Canberra,+Australia1824",
			"t2": "Melbourne,+Australia3869",
			"suurballeNbPaths": 2,
			"suurballeTime": 3352763,
			"suurballePaths": {
				"path0": [
					"Brisbane,+Australia1802",
					"Brisbane,+Australia1799",
					"Sydney,+Australia4241",
					"Canberra,+Australia1829",
					"Canberra,+Australia1824"
				],
				"lat0": 10.000000,
				"nbSeg0": 0,
				"path1": [
					"Perth,+Australia284",
					"Perth,+Australia4156",
					"Adelaide,+Australia1722",
					"Melbourne,+Australia3868",
					"Melbourne,+Australia3869"
				],
				"lat1": 19.000000,
				"nbSeg1": 0
			},
			"pathsExist": false,
			"runtime": 720753812,
			"nomLat1": 10.000000,
			"nomLat2": 19.000000,
			"maxNomLat": 19.000000,
			"mincut": 4
		},
		{
			"s1": "Adelaide,+Australia1737",
			"s2": "Melbourne,+Australia3875",
			"t1": "Melbourne,+Australia3868",
			"t2": "Melbourne,+Australia751",
			"suurballeNbPaths": 2,
			"suurballeTime": 3650041,
			"suurballePaths": {
				"path0": [
					"Melbourne,+Australia3875",
					"Melbourne,+Australia3868"
				],
				"lat0": 1.000000,
				"nbSeg0": 0,
				"path1": [
					"Adelaide,+Australia1737",
					"Adelaide,+Australia1729",
					"Melbourne,+Australia751"
				],
				"lat1": 6.000000,
				"nbSeg1": 0
			},
			"pathsExist": false,
			"runtime": 648635359,
			"nomLat1": 6.000000,
			"nomLat2": 2.000000,
			"maxNomLat": 6.000000,
			"mincut": 6
		}
	],
	"demandsWithSol": 9
}
