{
	"nbDemands": 100,
	"demands": [
		{
			"s1": "Sydney,+Australia4237",
			"s2": "Mackay,+Australia3851",
			"t1": "Canberra,+Australia1813",
			"t2": "Cairns,+Australia1809",
			"suurballeNbPaths": 2,
			"suurballeTime": 769934474,
			"suurballePaths": {
				"path0": [
					"Mackay,+Australia3851",
					"Brisbane,+Australia1769",
					"Cairns,+Australia1809"
				],
				"lat0": 13.000000,
				"nbSeg0": 1,
				"path1": [
					"Sydney,+Australia4237",
					"Sydney,+Australia4241",
					"Canberra,+Australia1829",
					"Canberra,+Australia1813"
				],
				"lat1": 5.000000,
				"nbSeg1": 2
			},
			"pathsExist": false,
			"runtime": 547553185,
			"nomLat1": 6.000000,
			"nomLat2": 13.000000,
			"maxNomLat": 13.000000,
			"mincut": 4
		},
		{
			"s1": "Perth,+Australia4161",
			"s2": "Canberra,+Australia1832",
			"t1": "Melbourne,+Australia3866",
			"t2": "Sydney,+Australia4237",
			"suurballeNbPaths": 2,
			"suurballeTime": 698451560,
			"suurballePaths": {
				"path0": [
					"Canberra,+Australia1832",
					"Canberra,+Australia1829",
					"Sydney,+Australia4241",
					"Sydney,+Australia4237"
				],
				"lat0": 5.000000,
				"nbSeg0": 2,
				"path1": [
					"Perth,+Australia4161",
					"Perth,+Australia4156",
					"Adelaide,+Australia1722",
					"Melbourne,+Australia3868",
					"Melbourne,+Australia3866"
				],
				"lat1": 19.000000,
				"nbSeg1": 0
			},
			"pathsExist": false,
			"runtime": 582394758,
			"nomLat1": 19.000000,
			"nomLat2": 6.000000,
			"maxNomLat": 19.000000,
			"mincut": 4
		},
		{
			"s1": "Canberra,+Australia1824",
			"s2": "Adelaide,+Australia1727",
			"t1": "Perth,+Australia4162",
			"t2": "Maroochydore,+Australia3857",
			"suurballeNbPaths": 2,
			"suurballeTime": 1265173916,
			"suurballePaths": {
				"path0": [
					"Adelaide,+Australia1727",
					"Adelaide,+Australia1729",
					"Perth,+Australia4162"
				],
				"lat0": 13.000000,
				"nbSeg0": 0,
				"path1": [
					"Canberra,+Australia1824",
					"Canberra,+Australia1829",
					"Sydney,+Australia4241",
					"Brisbane,+Australia1799",
					"Brisbane,+Australia1800",
					"Maroochydore,+Australia3857"
				],
				"lat1": 12.000000,
				"nbSeg1": 0
			},
			"pathsExist": false,
			"runtime": 189889413,
			"nomLat1": 27.000000,
			"nomLat2": 19.000000,
			"maxNomLat": 27.000000,
			"mincut": 4
		},
		{
			"s1": "Canberra,+Australia1814",
			"s2": "Melbourne,+Australia3875",
			"t1": "Melbourne,+Australia3881",
			"t2": "Brisbane,+Australia1802",
			"suurballeNbPaths": 2,
			"suurballeTime": 527774308,
			"suurballePaths": {
				"path0": [
					"Melbourne,+Australia3875",
					"Melbourne,+Australia3881"
				],
				"lat0": 1.000000,
				"nbSeg0": 0,
				"path1": [
					"Canberra,+Australia1814",
					"Canberra,+Australia1829",
					"Sydney,+Australia4241",
					"Brisbane,+Australia1799",
					"Brisbane,+Australia1802"
				],
				"lat1": 10.000000,
				"nbSeg1": 0
			},
			"pathsExist": false,
			"runtime": 727301119,
			"nomLat1": 7.000000,
			"nomLat2": 12.000000,
			"maxNomLat": 12.000000,
			"mincut": 6
		},
		{
			"s1": "Brisbane,+Australia1769",
			"s2": "Adelaide,+Australia1729",
			"t1": "Adelaide,+Australia1733",
			"t2": "Perth,+Australia4167",
			"suurballeNbPaths": 2,
			"suurballeTime": 1199070443,
			"suurballePaths": {
				"path0": [
					"Adelaide,+Australia1729",
					"Adelaide,+Australia1733"
				],
				"lat0": 1.000000,
				"nbSeg0": 0,
				"path1": [
					"Brisbane,+Australia1769",
					"Brisbane,+Australia1770",
					"Sydney,+Australia4210",
					"Melbourne,+Australia751",
					"Adelaide,+Australia1729",
					"Perth,+Australia4162",
					"Perth,+Australia4167"
				],
				"lat1": 29.000000,
				"nbSeg1": 0
			},
			"pathsExist": false,
			"runtime": 219133245,
			"nomLat1": 17.000000,
			"nomLat2": 13.000000,
			"maxNomLat": 17.000000,
			"mincut": 4
		},
		{
			"s1": "Brisbane,+Australia1799",
			"s2": "Perth,+Australia4162",
			"t1": "Hobart,+Australia1853",
			"t2": "Darwin,+Australia1837",
			"suurballeNbPaths": 2,
			"suurballeTime": 676876495,
			"suurballePaths": {
				"path0": [
					"Perth,+Australia4162",
					"Perth,+Australia4160",
					"Darwin,+Australia1837"
				],
				"lat0": 16.000000,
				"nbSeg0": 0,
				"path1": [
					"Brisbane,+Australia1799",
					"Sydney,+Australia4241",
					"Canberra,+Australia1829",
					"Canberra,+Australia1821",
					"Hobart,+Australia1853"
				],
				"lat1": 15.000000,
				"nbSeg1": 0
			},
			"pathsExist": false,
			"runtime": 642595295,
			"nomLat1": 15.000000,
			"nomLat2": 16.000000,
			"maxNomLat": 16.000000,
			"mincut": 5
		},
		{
			"s1": "Perth,+Australia4156",
			"s2": "Adelaide,+Australia1727",
			"t1": "Mackay,+Australia3851",
			"t2": "Maryborough,+Australia3859",
			"suurballeNbPaths": 2,
			"suurballeTime": 1384381432,
			"suurballePaths": {
				"path0": [
					"Adelaide,+Australia1727",
					"Adelaide,+Australia1729",
					"Melbourne,+Australia751",
					"Sydney,+Australia4210",
					"Brisbane,+Australia1770",
					"Brisbane,+Australia1769",
					"Maryborough,+Australia3859"
				],
				"lat0": 20.000000,
				"nbSeg0": 0,
				"path1": [
					"Perth,+Australia4156",
					"Adelaide,+Australia1722",
					"Melbourne,+Australia3868",
					"Melbourne,+Australia734",
					"Sydney,+Australia4241",
					"Brisbane,+Australia1799",
					"Brisbane,+Australia1800",
					"Mackay,+Australia3851"
				],
				"lat1": 34.000000,
				"nbSeg1": 1
			},
			"pathsExist": false,
			"runtime": 103477597,
			"nomLat1": 34.000000,
			"nomLat2": 20.000000,
			"maxNomLat": 34.000000,
			"mincut": 2
		},
		{
			"s1": "Adelaide,+Australia1722",
			"s2": "Townsville,+Australia4282",
			"t1": "Perth,+Australia4166",
			"t2": "Sydney,+Australia4237",
			"suurballeNbPaths": 2,
			"suurballeTime": 1085264433,
			"suurballePaths": {
				"path0": [
					"Adelaide,+Australia1722",
					"Perth,+Australia4156",
					"Perth,+Australia4166"
				],
				"lat0": 13.000000,
				"nbSeg0": 0,
				"path1": [
					"Townsville,+Australia4282",
					"Brisbane,+Australia1769",
					"Brisbane,+Australia1770",
					"Sydney,+Australia4210",
					"Sydney,+Australia4237"
				],
				"lat1": 14.000000,
				"nbSeg1": 0
			},
			"pathsExist": false,
			"runtime": 289758593,
			"nomLat1": 13.000000,
			"nomLat2": 14.000000,
			"maxNomLat": 14.000000,
			"mincut": 4
		},
		{
			"s1": "Perth,+Australia4161",
			"s2": "Adelaide,+Australia1729",
			"t1": "Maryborough,+Australia3859",
			"t2": "Darwin,+Australia1837",
			"suurballeNbPaths": 2,
			"suurballeTime": 1383883624,
			"suurballePaths": {
				"path0": [
					"Perth,+Australia4161",
					"Perth,+Australia4162",
					"Perth,+Australia4160",
					"Darwin,+Australia1837"
				],
				"lat0": 17.000000,
				"nbSeg0": 0,
				"path1": [
					"Adelaide,+Australia1729",
					"Melbourne,+Australia751",
					"Sydney,+Australia4210",
					"Brisbane,+Australia1770",
					"Brisbane,+Australia1769",
					"Maryborough,+Australia3859"
				],
				"lat1": 19.000000,
				"nbSeg1": 0
			},
			"pathsExist": false,
			"runtime": 106164195,
			"nomLat1": 32.000000,
			"nomLat2": 16.000000,
			"maxNomLat": 32.000000,
			"mincut": 4
		},
		{
			"s1": "Perth,+Australia4166",
			"s2": "Canberra,+Australia1813",
			"t1": "Perth,+Australia4162",
			"t2": "Melbourne,+Australia734",
			"suurballeNbPaths": 2,
			"suurballeTime": 248381203,
			"suurballePaths": {
				"path0": [
					"Perth,+Australia4166",
					"Perth,+Australia4162"
				],
				"lat0": 1.000000,
				"nbSeg0": 0,
				"path1": [
					"Canberra,+Australia1813",
					"Melbourne,+Australia3868",
					"Melbourne,+Australia734"
				],
				"lat1": 5.000000,
				"nbSeg1": 0
			},
			"pathsExist": true,
			"path1": [
				"Perth,+Australia4166",
				"Perth,+Australia4162"
			],
			"lat1": 1.000000,
			"path2": [
				"Canberra,+Australia1813",
				"Melbourne,+Australia734"
			],
			"lat2": 5.000000,
			"maxlat": 5.000000,
			"runtime": 902527978,
			"nomLat1": 1.000000,
			"nomLat2": 5.000000,
			"maxNomLat": 5.000000,
			"mincut": 5
		},
		{
			"s1": "Canberra,+Australia1814",
			"s2": "Sydney,+Australia3546",
			"t1": "Canberra,+Australia1813",
			"t2": "Adelaide,+Australia1727",
			"suurballeNbPaths": 2,
			"suurballeTime": 1137097469,
			"suurballePaths": {
				"path0": [
					"Canberra,+Australia1814",
					"Canberra,+Australia565",
					"Canberra,+Australia1813"
				],
				"lat0": 2.000000,
				"nbSeg0": 1,
				"path1": [
					"Sydney,+Australia3546",
					"Sydney,+Australia4210",
					"Melbourne,+Australia751",
					"Adelaide,+Australia1729",
					"Adelaide,+Australia1727"
				],
				"lat1": 12.000000,
				"nbSeg1": 0
			},
			"pathsExist": false,
			"runtime": 239379508,
			"nomLat1": 2.000000,
			"nomLat2": 12.000000,
			"maxNomLat": 12.000000,
			"mincut": 4
		},
		{
			"s1": "Canberra,+Australia1814",
			"s2": "Melbourne,+Australia3868",
			"t1": "Melbourne,+Australia3882",
			"t2": "Brisbane,+Australia1770",
			"suurballeNbPaths": 2,
			"suurballeTime": 490234783,
			"suurballePaths": {
				"path0": [
					"Melbourne,+Australia3868",
					"Melbourne,+Australia3882"
				],
				"lat0": 1.000000,
				"nbSeg0": 0,
				"path1": [
					"Canberra,+Australia1814",
					"Canberra,+Australia1829",
					"Sydney,+Australia4241",
					"Brisbane,+Australia1799",
					"Brisbane,+Australia1770"
				],
				"lat1": 10.000000,
				"nbSeg1": 1
			},
			"pathsExist": false,
			"runtime": 424167221,
			"nomLat1": 7.000000,
			"nomLat2": 12.000000,
			"maxNomLat": 12.000000,
			"mincut": 10
		},
		{
			"s1": "Adelaide,+Australia1727",
			"s2": "Brisbane,+Australia1800",
			"t1": "Adelaide,+Australia1733",
			"t2": "Hobart,+Australia1853",
			"suurballeNbPaths": 2,
			"suurballeTime": 490172983,
			"suurballePaths": {
				"path0": [
					"Adelaide,+Australia1727",
					"Adelaide,+Australia1729",
					"Adelaide,+Australia1733"
				],
				"lat0": 2.000000,
				"nbSeg0": 0,
				"path1": [
					"Brisbane,+Australia1800",
					"Brisbane,+Australia1799",
					"Sydney,+Australia4241",
					"Canberra,+Australia1829",
					"Canberra,+Australia1821",
					"Hobart,+Australia1853"
				],
				"lat1": 16.000000,
				"nbSeg1": 0
			},
			"pathsExist": false,
			"runtime": 600336602,
			"nomLat1": 2.000000,
			"nomLat2": 16.000000,
			"maxNomLat": 16.000000,
			"mincut": 4
		},
		{
			"s1": "Adelaide,+Australia1727",
			"s2": "Maryborough,+Australia3859",
			"t1": "Townsville,+Australia4282",
			"t2": "Mackay,+Australia3851",
			"suurballeNbPaths": 2,
			"suurballeTime": 519304038,
			"suurballePaths": {
				"path0": [
					"Maryborough,+Australia3859",
					"Brisbane,+Australia1800",
					"Mackay,+Australia3851"
				],
				"lat0": 8.000000,
				"nbSeg0": 1,
				"path1": [
					"Adelaide,+Australia1727",
					"Adelaide,+Australia1729",
					"Melbourne,+Australia751",
					"Sydney,+Australia4210",
					"Brisbane,+Australia1770",
					"Brisbane,+Australia1769",
					"Townsville,+Australia4282"
				],
				"lat1": 24.000000,
				"nbSeg1": 0
			},
			"pathsExist": false,
			"runtime": 827567524,
			"nomLat1": 24.000000,
			"nomLat2": 8.000000,
			"maxNomLat": 24.000000,
			"mincut": 4
		},
		{
			"s1": "Melbourne,+Australia3881",
			"s2": "Sydney,+Australia4237",
			"t1": "Canberra,+Australia1829",
			"t2": "Melbourne,+Australia3869",
			"suurballeNbPaths": 2,
			"suurballeTime": 652076551,
			"suurballePaths": {
				"path0": [
					"Melbourne,+Australia3881",
					"Melbourne,+Australia3869"
				],
				"lat0": 1.000000,
				"nbSeg0": 0,
				"path1": [
					"Sydney,+Australia4237",
					"Sydney,+Australia4241",
					"Canberra,+Australia1829"
				],
				"lat1": 4.000000,
				"nbSeg1": 2
			},
			"pathsExist": false,
			"runtime": 677430401,
			"nomLat1": 6.000000,
			"nomLat2": 8.000000,
			"maxNomLat": 8.000000,
			"mincut": 7
		},
		{
			"s1": "Maryborough,+Australia3859",
			"s2": "Canberra,+Australia1821",
			"t1": "Adelaide,+Australia1733",
			"t2": "Perth,+Australia4167",
			"suurballeNbPaths": 2,
			"suurballeTime": 823107877,
			"suurballePaths": {
				"path0": [
					"Canberra,+Australia1821",
					"Canberra,+Australia1813",
					"Melbourne,+Australia3868",
					"Adelaide,+Australia1722",
					"Adelaide,+Australia1733"
				],
				"lat0": 11.000000,
				"nbSeg0": 0,
				"path1": [
					"Maryborough,+Australia3859",
					"Brisbane,+Australia1769",
					"Brisbane,+Australia1770",
					"Sydney,+Australia4210",
					"Melbourne,+Australia751",
					"Adelaide,+Australia1729",
					"Perth,+Australia4162",
					"Perth,+Australia4167"
				],
				"lat1": 32.000000,
				"nbSeg1": 0
			},
			"pathsExist": false,
			"runtime": 543557372,
			"nomLat1": 20.000000,
			"nomLat2": 24.000000,
			"maxNomLat": 24.000000,
			"mincut": 2
		},
		{
			"s1": "Adelaide,+Australia1722",
			"s2": "Canberra,+Australia1813",
			"t1": "Perth,+Australia4156",
			"t2": "Melbourne,+Australia3866",
			"suurballeNbPaths": 2,
			"suurballeTime": 263226048,
			"suurballePaths": {
				"path0": [
					"Adelaide,+Australia1722",
					"Perth,+Australia4156"
				],
				"lat0": 12.000000,
				"nbSeg0": 0,
				"path1": [
					"Canberra,+Australia1813",
					"Melbourne,+Australia3868",
					"Melbourne,+Australia3866"
				],
				"lat1": 5.000000,
				"nbSeg1": 0
			},
			"pathsExist": true,
			"path1": [
				"Adelaide,+Australia1722",
				"Perth,+Australia4156"
			],
			"lat1": 12.000000,
			"path2": [
				"Canberra,+Australia1813",
				"Melbourne,+Australia3866"
			],
			"lat2": 5.000000,
			"maxlat": 12.000000,
			"runtime": 829096408,
			"nomLat1": 12.000000,
			"nomLat2": 5.000000,
			"maxNomLat": 12.000000,
			"mincut": 7
		},
		{
			"s1": "Sydney,+Australia3546",
			"s2": "Perth,+Australia4160",
			"t1": "Maryborough,+Australia3859",
			"t2": "Townsville,+Australia4282",
			"suurballeNbPaths": 2,
			"suurballeTime": 1395025437,
			"suurballePaths": {
				"path0": [
					"Sydney,+Australia3546",
					"Sydney,+Australia4241",
					"Brisbane,+Australia1799",
					"Brisbane,+Australia1800",
					"Maryborough,+Australia3859"
				],
				"lat0": 10.000000,
				"nbSeg0": 3,
				"path1": [
					"Perth,+Australia4160",
					"Perth,+Australia4162",
					"Adelaide,+Australia1729",
					"Melbourne,+Australia751",
					"Sydney,+Australia4210",
					"Brisbane,+Australia1770",
					"Brisbane,+Australia1769",
					"Townsville,+Australia4282"
				],
				"lat1": 36.000000,
				"nbSeg1": 0
			},
			"pathsExist": false,
			"runtime": 112053025,
			"nomLat1": 10.000000,
			"nomLat2": 36.000000,
			"maxNomLat": 36.000000,
			"mincut": 2
		},
		{
			"s1": "Hobart,+Australia1853",
			"s2": "Cairns,+Australia1809",
			"t1": "Melbourne,+Australia751",
			"t2": "Sydney,+Australia4208",
			"suurballeNbPaths": 2,
			"suurballeTime": 929558525,
			"suurballePaths": {
				"path0": [
					"Hobart,+Australia1853",
					"Melbourne,+Australia3867",
					"Melbourne,+Australia3868",
					"Melbourne,+Australia751"
				],
				"lat0": 6.000000,
				"nbSeg0": 0,
				"path1": [
					"Cairns,+Australia1809",
					"Brisbane,+Australia1769",
					"Brisbane,+Australia1770",
					"Sydney,+Australia4210",
					"Sydney,+Australia4208"
				],
				"lat1": 15.000000,
				"nbSeg1": 3
			},
			"pathsExist": false,
			"runtime": 464949552,
			"nomLat1": 6.000000,
			"nomLat2": 15.000000,
			"maxNomLat": 15.000000,
			"mincut": 5
		},
		{
			"s1": "Brisbane,+Australia1799",
			"s2": "Brisbane,+Australia1774",
			"t1": "Canberra,+Australia1824",
			"t2": "Canberra,+Australia1814",
			"suurballeNbPaths": 2,
			"suurballeTime": 1395386017,
			"suurballePaths": {
				"path0": [
					"Brisbane,+Australia1799",
					"Sydney,+Australia4241",
					"Canberra,+Australia1829",
					"Canberra,+Australia1814"
				],
				"lat0": 9.000000,
				"nbSeg0": 0,
				"path1": [
					"Brisbane,+Australia1774",
					"Brisbane,+Australia1770",
					"Sydney,+Australia4210",
					"Melbourne,+Australia751",
					"Melbourne,+Australia3868",
					"Canberra,+Australia1813",
					"Canberra,+Australia1824"
				],
				"lat1": 17.000000,
				"nbSeg1": 2
			},
			"pathsExist": false,
			"runtime": 111826274,
			"nomLat1": 9.000000,
			"nomLat2": 10.000000,
			"maxNomLat": 10.000000,
			"mincut": 2
		},
		{
			"s1": "Brisbane,+Australia1800",
			"s2": "Adelaide,+Australia1727",
			"t1": "Adelaide,+Australia1722",
			"t2": "Perth,+Australia284",
			"suurballeNbPaths": 2,
			"suurballeTime": 764617421,
			"suurballePaths": {
				"path0": [
					"Adelaide,+Australia1727",
					"Adelaide,+Australia1729",
					"Perth,+Australia4162",
					"Perth,+Australia284"
				],
				"lat0": 14.000000,
				"nbSeg0": 0,
				"path1": [
					"Brisbane,+Australia1800",
					"Brisbane,+Australia1799",
					"Sydney,+Australia4241",
					"Melbourne,+Australia734",
					"Melbourne,+Australia3868",
					"Adelaide,+Australia1722"
				],
				"lat1": 17.000000,
				"nbSeg1": 1
			},
			"pathsExist": false,
			"runtime": 600162800,
			"nomLat1": 18.000000,
			"nomLat2": 14.000000,
			"maxNomLat": 18.000000,
			"mincut": 4
		},
		{
			"s1": "Canberra,+Australia1814",
			"s2": "Canberra,+Australia1829",
			"t1": "Maryborough,+Australia3859",
			"t2": "Sydney,+Australia4241",
			"suurballeNbPaths": 2,
			"suurballeTime": 281946161,
			"suurballePaths": {
				"path0": [
					"Canberra,+Australia1829",
					"Sydney,+Australia4241"
				],
				"lat0": 3.000000,
				"nbSeg0": 0,
				"path1": [
					"Canberra,+Australia1814",
					"Canberra,+Australia565",
					"Canberra,+Australia1813",
					"Melbourne,+Australia3868",
					"Melbourne,+Australia751",
					"Sydney,+Australia4210",
					"Brisbane,+Australia1770",
					"Brisbane,+Australia1769",
					"Maryborough,+Australia3859"
				],
				"lat1": 21.000000,
				"nbSeg1": 2
			},
			"pathsExist": false,
			"runtime": 747933269,
			"nomLat1": 14.000000,
			"nomLat2": 3.000000,
			"maxNomLat": 14.000000,
			"mincut": 3
		},
		{
			"s1": "Hobart,+Australia1852",
			"s2": "Sydney,+Australia4241",
			"t1": "Sydney,+Australia4210",
			"t2": "Darwin,+Australia1837",
			"suurballeNbPaths": 2,
			"suurballeTime": 1341068311,
			"suurballePaths": {
				"path0": [
					"Sydney,+Australia4241",
					"Sydney,+Australia4210"
				],
				"lat0": 1.000000,
				"nbSeg0": 0,
				"path1": [
					"Hobart,+Australia1852",
					"Melbourne,+Australia3866",
					"Melbourne,+Australia3868",
					"Melbourne,+Australia751",
					"Adelaide,+Australia1729",
					"Adelaide,+Australia1727",
					"Darwin,+Australia1837"
				],
				"lat1": 27.000000,
				"nbSeg1": 1
			},
			"pathsExist": false,
			"runtime": 140030163,
			"nomLat1": 12.000000,
			"nomLat2": 27.000000,
			"maxNomLat": 27.000000,
			"mincut": 8
		},
		{
			"s1": "Canberra,+Australia1824",
			"s2": "Perth,+Australia284",
			"t1": "Sydney,+Australia3546",
			"t2": "Adelaide,+Australia1733",
			"suurballeNbPaths": 2,
			"suurballeTime": 82599185,
			"suurballePaths": {
				"path0": [
					"Canberra,+Australia1824",
					"Canberra,+Australia1829",
					"Sydney,+Australia4241",
					"Sydney,+Australia3546"
				],
				"lat0": 5.000000,
				"nbSeg0": 2,
				"path1": [
					"Perth,+Australia284",
					"Perth,+Australia4156",
					"Adelaide,+Australia1722",
					"Adelaide,+Australia1733"
				],
				"lat1": 14.000000,
				"nbSeg1": 1
			},
			"pathsExist": true,
			"path1": [
				"Canberra,+Australia1824",
				"Sydney,+Australia3546"
			],
			"lat1": 6.000000,
			"path2": [
				"Perth,+Australia284",
				"Perth,+Australia4162",
				"Adelaide,+Australia1733"
			],
			"lat2": 14.000000,
			"maxlat": 14.000000,
			"runtime": 868770835,
			"nomLat1": 6.000000,
			"nomLat2": 14.000000,
			"maxNomLat": 14.000000,
			"mincut": 4
		},
		{
			"s1": "Canberra,+Australia565",
			"s2": "Melbourne,+Australia3867",
			"t1": "Melbourne,+Australia3866",
			"t2": "Perth,+Australia4160",
			"suurballeNbPaths": 2,
			"suurballeTime": 1338854802,
			"suurballePaths": {
				"path0": [
					"Melbourne,+Australia3867",
					"Melbourne,+Australia3881",
					"Melbourne,+Australia3866"
				],
				"lat0": 2.000000,
				"nbSeg0": 2,
				"path1": [
					"Canberra,+Australia565",
					"Canberra,+Australia1813",
					"Melbourne,+Australia3868",
					"Melbourne,+Australia751",
					"Adelaide,+Australia1729",
					"Perth,+Australia4162",
					"Perth,+Australia4160"
				],
				"lat1": 24.000000,
				"nbSeg1": 0
			},
			"pathsExist": false,
			"runtime": 148413995,
			"nomLat1": 6.000000,
			"nomLat2": 20.000000,
			"maxNomLat": 20.000000,
			"mincut": 6
		},
		{
			"s1": "Melbourne,+Australia3869",
			"s2": "Melbourne,+Australia3867",
			"t1": "Townsville,+Australia4282",
			"t2": "Canberra,+Australia1832",
			"suurballeNbPaths": 2,
			"suurballeTime": 1402115791,
			"suurballePaths": {
				"path0": [
					"Melbourne,+Australia3867",
					"Melbourne,+Australia3868",
					"Canberra,+Australia1813",
					"Canberra,+Australia1832"
				],
				"lat0": 6.000000,
				"nbSeg0": 0,
				"path1": [
					"Melbourne,+Australia3869",
					"Melbourne,+Australia734",
					"Sydney,+Australia4241",
					"Brisbane,+Australia1799",
					"Brisbane,+Australia1800",
					"Townsville,+Australia4282"
				],
				"lat1": 19.000000,
				"nbSeg1": 0
			},
			"pathsExist": false,
			"runtime": 110088804,
			"nomLat1": 19.000000,
			"nomLat2": 6.000000,
			"maxNomLat": 19.000000,
			"mincut": 4
		},
		{
			"s1": "Mackay,+Australia3851",
			"s2": "Perth,+Australia4160",
			"t1": "Cairns,+Australia1809",
			"t2": "Adelaide,+Australia1722",
			"suurballeNbPaths": 2,
			"suurballeTime": 1409782602,
			"suurballePaths": {
				"path0": [
					"Mackay,+Australia3851",
					"Brisbane,+Australia1769",
					"Cairns,+Australia1809"
				],
				"lat0": 13.000000,
				"nbSeg0": 1,
				"path1": [
					"Perth,+Australia4160",
					"Perth,+Australia4162",
					"Adelaide,+Australia1729",
					"Adelaide,+Australia1722"
				],
				"lat1": 14.000000,
				"nbSeg1": 1
			},
			"pathsExist": false,
			"runtime": 109496147,
			"nomLat1": 13.000000,
			"nomLat2": 14.000000,
			"maxNomLat": 14.000000,
			"mincut": 4
		},
		{
			"s1": "Perth,+Australia4161",
			"s2": "Sydney,+Australia4210",
			"t1": "Brisbane,+Australia1774",
			"t2": "Canberra,+Australia1814",
			"suurballeNbPaths": 2,
			"suurballeTime": 1415248170,
			"suurballePaths": {
				"path0": [
					"Sydney,+Australia4210",
					"Brisbane,+Australia1770",
					"Brisbane,+Australia1774"
				],
				"lat0": 6.000000,
				"nbSeg0": 0,
				"path1": [
					"Perth,+Australia4161",
					"Perth,+Australia4156",
					"Adelaide,+Australia1722",
					"Melbourne,+Australia3868",
					"Canberra,+Australia1813",
					"Canberra,+Australia1829",
					"Canberra,+Australia1814"
				],
				"lat1": 24.000000,
				"nbSeg1": 2
			},
			"pathsExist": false,
			"runtime": 109227630,
			"nomLat1": 29.000000,
			"nomLat2": 5.000000,
			"maxNomLat": 29.000000,
			"mincut": 4
		},
		{
			"s1": "Adelaide,+Australia1727",
			"s2": "Perth,+Australia4167",
			"t1": "Perth,+Australia4162",
			"t2": "Melbourne,+Australia3882",
			"suurballeNbPaths": 2,
			"suurballeTime": 811052502,
			"suurballePaths": {
				"path0": [
					"Perth,+Australia4167",
					"Perth,+Australia4162"
				],
				"lat0": 1.000000,
				"nbSeg0": 0,
				"path1": [
					"Adelaide,+Australia1727",
					"Adelaide,+Australia1729",
					"Adelaide,+Australia1722",
					"Melbourne,+Australia3868",
					"Melbourne,+Australia3882"
				],
				"lat1": 8.000000,
				"nbSeg1": 1
			},
			"pathsExist": false,
			"runtime": 532462827,
			"nomLat1": 13.000000,
			"nomLat2": 20.000000,
			"maxNomLat": 20.000000,
			"mincut": 4
		},
		{
			"s1": "Perth,+Australia4167",
			"s2": "Adelaide,+Australia1722",
			"t1": "Perth,+Australia284",
			"t2": "Melbourne,+Australia3866",
			"suurballeNbPaths": 2,
			"suurballeTime": 271916861,
			"suurballePaths": {
				"path0": [
					"Perth,+Australia4167",
					"Perth,+Australia4156",
					"Perth,+Australia284"
				],
				"lat0": 2.000000,
				"nbSeg0": 1,
				"path1": [
					"Adelaide,+Australia1722",
					"Melbourne,+Australia3868",
					"Melbourne,+Australia3866"
				],
				"lat1": 6.000000,
				"nbSeg1": 0
			},
			"pathsExist": false,
			"runtime": 760903183,
			"nomLat1": 2.000000,
			"nomLat2": 6.000000,
			"maxNomLat": 6.000000,
			"mincut": 4
		},
		{
			"s1": "Perth,+Australia4160",
			"s2": "Canberra,+Australia1814",
			"t1": "Brisbane,+Australia1770",
			"t2": "Canberra,+Australia1824",
			"suurballeNbPaths": 2,
			"suurballeTime": 1437774384,
			"suurballePaths": {
				"path0": [
					"Canberra,+Australia1814",
					"Canberra,+Australia1829",
					"Canberra,+Australia1824"
				],
				"lat0": 2.000000,
				"nbSeg0": 0,
				"path1": [
					"Perth,+Australia4160",
					"Perth,+Australia4162",
					"Adelaide,+Australia1729",
					"Melbourne,+Australia751",
					"Sydney,+Australia4210",
					"Brisbane,+Australia1770"
				],
				"lat1": 28.000000,
				"nbSeg1": 0
			},
			"pathsExist": false,
			"runtime": 112141075,
			"nomLat1": 28.000000,
			"nomLat2": 2.000000,
			"maxNomLat": 28.000000,
			"mincut": 4
		},
		{
			"s1": "Darwin,+Australia1837",
			"s2": "Perth,+Australia4167",
			"t1": "Adelaide,+Australia1722",
			"t2": "Melbourne,+Australia3870",
			"suurballeNbPaths": 2,
			"suurballeTime": 1437920572,
			"suurballePaths": {
				"path0": [
					"Perth,+Australia4167",
					"Perth,+Australia4156",
					"Adelaide,+Australia1722"
				],
				"lat0": 13.000000,
				"nbSeg0": 0,
				"path1": [
					"Darwin,+Australia1837",
					"Adelaide,+Australia1727",
					"Adelaide,+Australia1729",
					"Adelaide,+Australia1722"
				],
				"lat1": 17.000000,
				"nbSeg1": 0
			},
			"pathsExist": false,
			"runtime": 116363241,
			"nomLat1": 17.000000,
			"nomLat2": 20.000000,
			"maxNomLat": 20.000000,
			"mincut": 3
		},
		{
			"s1": "Rockhampton,+Australia4195",
			"s2": "Hobart,+Australia1852",
			"t1": "Toowoomba,+Australia4277",
			"t2": "Perth,+Australia4160",
			"suurballeNbPaths": 2,
			"suurballeTime": 1442021967,
			"suurballePaths": {
				"path0": [
					"Rockhampton,+Australia4195",
					"Brisbane,+Australia1769",
					"Toowoomba,+Australia4277"
				],
				"lat0": 6.000000,
				"nbSeg0": 1,
				"path1": [
					"Hobart,+Australia1852",
					"Melbourne,+Australia3866",
					"Melbourne,+Australia3868",
					"Melbourne,+Australia751",
					"Adelaide,+Australia1729",
					"Perth,+Australia4162",
					"Perth,+Australia4160"
				],
				"lat1": 24.000000,
				"nbSeg1": 1
			},
			"pathsExist": false,
			"runtime": 113632344,
			"nomLat1": 6.000000,
			"nomLat2": 25.000000,
			"maxNomLat": 25.000000,
			"mincut": 4
		},
		{
			"s1": "Maroochydore,+Australia3857",
			"s2": "Brisbane,+Australia1800",
			"t1": "Melbourne,+Australia3868",
			"t2": "Perth,+Australia4160",
			"suurballeNbPaths": 2,
			"suurballeTime": 1438107071,
			"suurballePaths": {
				"path0": [
					"Brisbane,+Australia1800",
					"Brisbane,+Australia1799",
					"Sydney,+Australia4241",
					"Melbourne,+Australia734",
					"Melbourne,+Australia3868"
				],
				"lat0": 12.000000,
				"nbSeg0": 0,
				"path1": [
					"Maroochydore,+Australia3857",
					"Brisbane,+Australia1769",
					"Brisbane,+Australia1770",
					"Sydney,+Australia4210",
					"Melbourne,+Australia751",
					"Adelaide,+Australia1729",
					"Perth,+Australia4162",
					"Perth,+Australia4160"
				],
				"lat1": 31.000000,
				"nbSeg1": 0
			},
			"pathsExist": false,
			"runtime": 110163263,
			"nomLat1": 14.000000,
			"nomLat2": 30.000000,
			"maxNomLat": 30.000000,
			"mincut": 2
		},
		{
			"s1": "Sydney,+Australia4241",
			"s2": "Sydney,+Australia4208",
			"t1": "Brisbane,+Australia1800",
			"t2": "Canberra,+Australia1821",
			"suurballeNbPaths": 2,
			"suurballeTime": 651721107,
			"suurballePaths": {
				"path0": [
					"Sydney,+Australia4241",
					"Brisbane,+Australia1799",
					"Brisbane,+Australia1800"
				],
				"lat0": 6.000000,
				"nbSeg0": 0,
				"path1": [
					"Sydney,+Australia4208",
					"Sydney,+Australia4241",
					"Canberra,+Australia1829",
					"Canberra,+Australia1821"
				],
				"lat1": 5.000000,
				"nbSeg1": 0
			},
			"pathsExist": true,
			"path1": [
				"Sydney,+Australia4241",
				"Brisbane,+Australia1800"
			],
			"lat1": 6.000000,
			"path2": [
				"Sydney,+Australia4208",
				"Canberra,+Australia1821"
			],
			"lat2": 5.000000,
			"maxlat": 6.000000,
			"runtime": 451174299,
			"nomLat1": 6.000000,
			"nomLat2": 5.000000,
			"maxNomLat": 6.000000,
			"mincut": 5
		},
		{
			"s1": "Adelaide,+Australia1729",
			"s2": "Canberra,+Australia1829",
			"t1": "Sydney,+Australia3546",
			"t2": "Sydney,+Australia4237",
			"suurballeNbPaths": 2,
			"suurballeTime": 828801631,
			"suurballePaths": {
				"path0": [
					"Canberra,+Australia1829",
					"Sydney,+Australia4241",
					"Sydney,+Australia3546"
				],
				"lat0": 4.000000,
				"nbSeg0": 2,
				"path1": [
					"Adelaide,+Australia1729",
					"Melbourne,+Australia751",
					"Sydney,+Australia4210",
					"Sydney,+Australia4237"
				],
				"lat1": 11.000000,
				"nbSeg1": 0
			},
			"pathsExist": false,
			"runtime": 560776567,
			"nomLat1": 11.000000,
			"nomLat2": 5.000000,
			"maxNomLat": 11.000000,
			"mincut": 3
		},
		{
			"s1": "Adelaide,+Australia1727",
			"s2": "Perth,+Australia4162",
			"t1": "Adelaide,+Australia1729",
			"t2": "Maroochydore,+Australia3857",
			"suurballeNbPaths": 2,
			"suurballeTime": 309811454,
			"suurballePaths": {
				"path0": [
					"Adelaide,+Australia1727",
					"Adelaide,+Australia1729"
				],
				"lat0": 1.000000,
				"nbSeg0": 0,
				"path1": [
					"Perth,+Australia4162",
					"Adelaide,+Australia1729"
				],
				"lat1": 12.000000,
				"nbSeg1": 0
			},
			"pathsExist": false,
			"runtime": 768070540,
			"nomLat1": 1.000000,
			"nomLat2": 30.000000,
			"maxNomLat": 30.000000,
			"mincut": 3
		},
		{
			"s1": "Canberra,+Australia1832",
			"s2": "Perth,+Australia4162",
			"t1": "Perth,+Australia284",
			"t2": "Sydney,+Australia4210",
			"suurballeNbPaths": 2,
			"suurballeTime": 459223333,
			"suurballePaths": {
				"path0": [
					"Perth,+Australia4162",
					"Perth,+Australia284"
				],
				"lat0": 1.000000,
				"nbSeg0": 0,
				"path1": [
					"Canberra,+Australia1832",
					"Canberra,+Australia1829",
					"Sydney,+Australia4241",
					"Sydney,+Australia4210"
				],
				"lat1": 5.000000,
				"nbSeg1": 0
			},
			"pathsExist": false,
			"runtime": 674223089,
			"nomLat1": 28.000000,
			"nomLat2": 22.000000,
			"maxNomLat": 28.000000,
			"mincut": 5
		},
		{
			"s1": "Melbourne,+Australia734",
			"s2": "Adelaide,+Australia1727",
			"t1": "Perth,+Australia4156",
			"t2": "Melbourne,+Australia3870",
			"suurballeNbPaths": 2,
			"suurballeTime": 986576259,
			"suurballePaths": {
				"path0": [
					"Melbourne,+Australia734",
					"Melbourne,+Australia3870"
				],
				"lat0": 1.000000,
				"nbSeg0": 0,
				"path1": [
					"Adelaide,+Australia1727",
					"Adelaide,+Australia1729",
					"Adelaide,+Australia1722",
					"Perth,+Australia4156"
				],
				"lat1": 14.000000,
				"nbSeg1": 1
			},
			"pathsExist": false,
			"runtime": 379269803,
			"nomLat1": 18.000000,
			"nomLat2": 8.000000,
			"maxNomLat": 18.000000,
			"mincut": 7
		},
		{
			"s1": "Adelaide,+Australia1722",
			"s2": "Maroochydore,+Australia3857",
			"t1": "Canberra,+Australia565",
			"t2": "Adelaide,+Australia1727",
			"suurballeNbPaths": 2,
			"suurballeTime": 1048040617,
			"suurballePaths": {
				"path0": [
					"Adelaide,+Australia1722",
					"Adelaide,+Australia1729",
					"Adelaide,+Australia1727"
				],
				"lat0": 2.000000,
				"nbSeg0": 0,
				"path1": [
					"Maroochydore,+Australia3857",
					"Brisbane,+Australia1800",
					"Brisbane,+Australia1799",
					"Sydney,+Australia4241",
					"Canberra,+Australia1829",
					"Canberra,+Australia565"
				],
				"lat1": 12.000000,
				"nbSeg1": 2
			},
			"pathsExist": false,
			"runtime": 405023527,
			"nomLat1": 10.000000,
			"nomLat2": 19.000000,
			"maxNomLat": 19.000000,
			"mincut": 5
		},
		{
			"s1": "Canberra,+Australia1824",
			"s2": "Melbourne,+Australia3875",
			"t1": "Melbourne,+Australia3870",
			"t2": "Melbourne,+Australia3881",
			"suurballeNbPaths": 2,
			"suurballeTime": 670989821,
			"suurballePaths": {
				"path0": [
					"Melbourne,+Australia3875",
					"Melbourne,+Australia3881"
				],
				"lat0": 1.000000,
				"nbSeg0": 0,
				"path1": [
					"Canberra,+Australia1824",
					"Canberra,+Australia1813",
					"Melbourne,+Australia3868",
					"Melbourne,+Australia3870"
				],
				"lat1": 6.000000,
				"nbSeg1": 0
			},
			"pathsExist": true,
			"path1": [
				"Canberra,+Australia1824",
				"Melbourne,+Australia3870"
			],
			"lat1": 6.000000,
			"path2": [
				"Melbourne,+Australia3875",
				"Melbourne,+Australia3881"
			],
			"lat2": 1.000000,
			"maxlat": 6.000000,
			"runtime": 590878490,
			"nomLat1": 6.000000,
			"nomLat2": 1.000000,
			"maxNomLat": 6.000000,
			"mincut": 6
		},
		{
			"s1": "Brisbane,+Australia1802",
			"s2": "Melbourne,+Australia3881",
			"t1": "Canberra,+Australia1813",
			"t2": "Darwin,+Australia1837",
			"suurballeNbPaths": 2,
			"suurballeTime": 1466038888,
			"suurballePaths": {
				"path0": [
					"Brisbane,+Australia1802",
					"Brisbane,+Australia1799",
					"Sydney,+Australia4241",
					"Canberra,+Australia1829",
					"Canberra,+Australia1813"
				],
				"lat0": 10.000000,
				"nbSeg0": 0,
				"path1": [
					"Melbourne,+Australia3881",
					"Melbourne,+Australia3868",
					"Melbourne,+Australia751",
					"Adelaide,+Australia1729",
					"Adelaide,+Australia1727",
					"Darwin,+Australia1837"
				],
				"lat1": 23.000000,
				"nbSeg1": 0
			},
			"pathsExist": false,
			"runtime": 110674045,
			"nomLat1": 10.000000,
			"nomLat2": 23.000000,
			"maxNomLat": 23.000000,
			"mincut": 5
		},
		{
			"s1": "Melbourne,+Australia734",
			"s2": "Melbourne,+Australia3867",
			"t1": "Brisbane,+Australia1770",
			"t2": "Sydney,+Australia4237",
			"suurballeNbPaths": 2,
			"suurballeTime": 1261250566,
			"suurballePaths": {
				"path0": [
					"Melbourne,+Australia734",
					"Sydney,+Australia4241",
					"Sydney,+Australia4237"
				],
				"lat0": 6.000000,
				"nbSeg0": 2,
				"path1": [
					"Melbourne,+Australia3867",
					"Melbourne,+Australia3868",
					"Melbourne,+Australia751",
					"Sydney,+Australia4210",
					"Brisbane,+Australia1770"
				],
				"lat1": 12.000000,
				"nbSeg1": 1
			},
			"pathsExist": false,
			"runtime": 247361110,
			"nomLat1": 11.000000,
			"nomLat2": 9.000000,
			"maxNomLat": 11.000000,
			"mincut": 3
		},
		{
			"s1": "Sydney,+Australia4210",
			"s2": "Cairns,+Australia1809",
			"t1": "Adelaide,+Australia1727",
			"t2": "Perth,+Australia4166",
			"suurballeNbPaths": 2,
			"suurballeTime": 1027608207,
			"suurballePaths": {
				"path0": [
					"Sydney,+Australia4210",
					"Melbourne,+Australia751",
					"Adelaide,+Australia1729",
					"Adelaide,+Australia1727"
				],
				"lat0": 11.000000,
				"nbSeg0": 0,
				"path1": [
					"Cairns,+Australia1809",
					"Brisbane,+Australia1800",
					"Brisbane,+Australia1799",
					"Sydney,+Australia4241",
					"Melbourne,+Australia734",
					"Melbourne,+Australia3868",
					"Adelaide,+Australia1722",
					"Perth,+Australia4156",
					"Perth,+Australia4166"
				],
				"lat1": 38.000000,
				"nbSeg1": 2
			},
			"pathsExist": false,
			"runtime": 384566613,
			"nomLat1": 11.000000,
			"nomLat2": 38.000000,
			"maxNomLat": 38.000000,
			"mincut": 2
		},
		{
			"s1": "Melbourne,+Australia3869",
			"s2": "Maroochydore,+Australia3857",
			"t1": "Brisbane,+Australia1802",
			"t2": "Sydney,+Australia4237",
			"suurballeNbPaths": 2,
			"suurballeTime": 1472752378,
			"suurballePaths": {
				"path0": [
					"Melbourne,+Australia3869",
					"Melbourne,+Australia734",
					"Sydney,+Australia4241",
					"Sydney,+Australia4237"
				],
				"lat0": 7.000000,
				"nbSeg0": 2,
				"path1": [
					"Maroochydore,+Australia3857",
					"Brisbane,+Australia1769",
					"Brisbane,+Australia1770",
					"Brisbane,+Australia1802"
				],
				"lat1": 4.000000,
				"nbSeg1": 1
			},
			"pathsExist": false,
			"runtime": 98893876,
			"nomLat1": 12.000000,
			"nomLat2": 9.000000,
			"maxNomLat": 12.000000,
			"mincut": 4
		},
		{
			"s1": "Sydney,+Australia4237",
			"s2": "Hobart,+Australia1852",
			"t1": "Canberra,+Australia1832",
			"t2": "Adelaide,+Australia1729",
			"suurballeNbPaths": 2,
			"suurballeTime": 277467450,
			"suurballePaths": {
				"path0": [
					"Sydney,+Australia4237",
					"Sydney,+Australia4241",
					"Canberra,+Australia1829",
					"Canberra,+Australia1832"
				],
				"lat0": 5.000000,
				"nbSeg0": 2,
				"path1": [
					"Hobart,+Australia1852",
					"Melbourne,+Australia3866",
					"Melbourne,+Australia3868",
					"Melbourne,+Australia751",
					"Adelaide,+Australia1729"
				],
				"lat1": 11.000000,
				"nbSeg1": 1
			},
			"pathsExist": false,
			"runtime": 945603847,
			"nomLat1": 6.000000,
			"nomLat2": 12.000000,
			"maxNomLat": 12.000000,
			"mincut": 4
		},
		{
			"s1": "Perth,+Australia4167",
			"s2": "Brisbane,+Australia1769",
			"t1": "Mackay,+Australia3851",
			"t2": "Adelaide,+Australia1737",
			"suurballeNbPaths": 2,
			"suurballeTime": 312312398,
			"suurballePaths": {
				"path0": [
					"Brisbane,+Australia1769",
					"Mackay,+Australia3851"
				],
				"lat0": 5.000000,
				"nbSeg0": 0,
				"path1": [
					"Perth,+Australia4167",
					"Perth,+Australia4156",
					"Adelaide,+Australia1722",
					"Adelaide,+Australia1737"
				],
				"lat1": 14.000000,
				"nbSeg1": 1
			},
			"pathsExist": false,
			"runtime": 909552492,
			"nomLat1": 34.000000,
			"nomLat2": 17.000000,
			"maxNomLat": 34.000000,
			"mincut": 4
		},
		{
			"s1": "Brisbane,+Australia1799",
			"s2": "Darwin,+Australia1837",
			"t1": "Melbourne,+Australia3866",
			"t2": "Cairns,+Australia1809",
			"suurballeNbPaths": 2,
			"suurballeTime": 912618298,
			"suurballePaths": {
				"path0": [
					"Brisbane,+Australia1799",
					"Brisbane,+Australia1800",
					"Cairns,+Australia1809"
				],
				"lat0": 9.000000,
				"nbSeg0": 0,
				"path1": [
					"Darwin,+Australia1837",
					"Adelaide,+Australia1727",
					"Adelaide,+Australia1729",
					"Adelaide,+Australia1722",
					"Melbourne,+Australia3868",
					"Melbourne,+Australia3866"
				],
				"lat1": 23.000000,
				"nbSeg1": 1
			},
			"pathsExist": false,
			"runtime": 558016662,
			"nomLat1": 12.000000,
			"nomLat2": 41.000000,
			"maxNomLat": 41.000000,
			"mincut": 6
		},
		{
			"s1": "Canberra,+Australia1829",
			"s2": "Hobart,+Australia1852",
			"t1": "Canberra,+Australia1813",
			"t2": "Canberra,+Australia1832",
			"suurballeNbPaths": 2,
			"suurballeTime": 1164631748,
			"suurballePaths": {
				"path0": [
					"Canberra,+Australia1829",
					"Canberra,+Australia1832"
				],
				"lat0": 1.000000,
				"nbSeg0": 0,
				"path1": [
					"Hobart,+Australia1852",
					"Hobart,+Australia1853",
					"Canberra,+Australia1821",
					"Canberra,+Australia1813"
				],
				"lat1": 8.000000,
				"nbSeg1": 0
			},
			"pathsExist": false,
			"runtime": 357253919,
			"nomLat1": 1.000000,
			"nomLat2": 9.000000,
			"maxNomLat": 9.000000,
			"mincut": 6
		},
		{
			"s1": "Perth,+Australia4161",
			"s2": "Adelaide,+Australia1727",
			"t1": "Perth,+Australia4167",
			"t2": "Melbourne,+Australia3870",
			"suurballeNbPaths": 2,
			"suurballeTime": 1049830140,
			"suurballePaths": {
				"path0": [
					"Perth,+Australia4161",
					"Perth,+Australia4162",
					"Perth,+Australia4167"
				],
				"lat0": 2.000000,
				"nbSeg0": 0,
				"path1": [
					"Adelaide,+Australia1727",
					"Adelaide,+Australia1729",
					"Adelaide,+Australia1722",
					"Melbourne,+Australia3868",
					"Melbourne,+Australia3870"
				],
				"lat1": 8.000000,
				"nbSeg1": 1
			},
			"pathsExist": false,
			"runtime": 436064926,
			"nomLat1": 2.000000,
			"nomLat2": 8.000000,
			"maxNomLat": 8.000000,
			"mincut": 4
		},
		{
			"s1": "Melbourne,+Australia3867",
			"s2": "Brisbane,+Australia1802",
			"t1": "Sydney,+Australia4208",
			"t2": "Sydney,+Australia4237",
			"suurballeNbPaths": 2,
			"suurballeTime": 1201533831,
			"suurballePaths": {
				"path0": [
					"Brisbane,+Australia1802",
					"Brisbane,+Australia1770",
					"Sydney,+Australia4210",
					"Sydney,+Australia4237"
				],
				"lat0": 7.000000,
				"nbSeg0": 2,
				"path1": [
					"Melbourne,+Australia3867",
					"Melbourne,+Australia3868",
					"Melbourne,+Australia751",
					"Sydney,+Australia4210",
					"Sydney,+Australia4208"
				],
				"lat1": 8.000000,
				"nbSeg1": 3
			},
			"pathsExist": false,
			"runtime": 267147225,
			"nomLat1": 8.000000,
			"nomLat2": 8.000000,
			"maxNomLat": 8.000000,
			"mincut": 4
		},
		{
			"s1": "Melbourne,+Australia3875",
			"s2": "Adelaide,+Australia1727",
			"t1": "Canberra,+Australia1829",
			"t2": "Brisbane,+Australia1774",
			"suurballeNbPaths": 2,
			"suurballeTime": 879343937,
			"suurballePaths": {
				"path0": [
					"Melbourne,+Australia3875",
					"Melbourne,+Australia3868",
					"Canberra,+Australia1813",
					"Canberra,+Australia1829"
				],
				"lat0": 6.000000,
				"nbSeg0": 0,
				"path1": [
					"Adelaide,+Australia1727",
					"Adelaide,+Australia1729",
					"Melbourne,+Australia751",
					"Sydney,+Australia4210",
					"Brisbane,+Australia1770",
					"Brisbane,+Australia1774"
				],
				"lat1": 17.000000,
				"nbSeg1": 0
			},
			"pathsExist": false,
			"runtime": 614964989,
			"nomLat1": 6.000000,
			"nomLat2": 17.000000,
			"maxNomLat": 17.000000,
			"mincut": 4
		},
		{
			"s1": "Darwin,+Australia1837",
			"s2": "Melbourne,+Australia3881",
			"t1": "Canberra,+Australia1829",
			"t2": "Brisbane,+Australia1769",
			"suurballeNbPaths": 2,
			"suurballeTime": 722847566,
			"suurballePaths": {
				"path0": [
					"Melbourne,+Australia3881",
					"Melbourne,+Australia3868",
					"Canberra,+Australia1813",
					"Canberra,+Australia1829"
				],
				"lat0": 6.000000,
				"nbSeg0": 0,
				"path1": [
					"Darwin,+Australia1837",
					"Adelaide,+Australia1727",
					"Adelaide,+Australia1729",
					"Melbourne,+Australia751",
					"Sydney,+Australia4210",
					"Brisbane,+Australia1770",
					"Brisbane,+Australia1769"
				],
				"lat1": 32.000000,
				"nbSeg1": 0
			},
			"pathsExist": false,
			"runtime": 600551170,
			"nomLat1": 30.000000,
			"nomLat2": 14.000000,
			"maxNomLat": 30.000000,
			"mincut": 4
		},
		{
			"s1": "Perth,+Australia4167",
			"s2": "Brisbane,+Australia1802",
			"t1": "Melbourne,+Australia3882",
			"t2": "Rockhampton,+Australia4195",
			"suurballeNbPaths": 2,
			"suurballeTime": 446092528,
			"suurballePaths": {
				"path0": [
					"Brisbane,+Australia1802",
					"Brisbane,+Australia1799",
					"Brisbane,+Australia1800",
					"Rockhampton,+Australia4195"
				],
				"lat0": 6.000000,
				"nbSeg0": 0,
				"path1": [
					"Perth,+Australia4167",
					"Perth,+Australia4156",
					"Adelaide,+Australia1722",
					"Melbourne,+Australia3868",
					"Melbourne,+Australia3882"
				],
				"lat1": 19.000000,
				"nbSeg1": 1
			},
			"pathsExist": false,
			"runtime": 794199585,
			"nomLat1": 20.000000,
			"nomLat2": 6.000000,
			"maxNomLat": 20.000000,
			"mincut": 4
		},
		{
			"s1": "Toowoomba,+Australia4277",
			"s2": "Perth,+Australia4167",
			"t1": "Cairns,+Australia1809",
			"t2": "Melbourne,+Australia3881",
			"suurballeNbPaths": 2,
			"suurballeTime": 1040579433,
			"suurballePaths": {
				"path0": [
					"Toowoomba,+Australia4277",
					"Brisbane,+Australia1769",
					"Cairns,+Australia1809"
				],
				"lat0": 10.000000,
				"nbSeg0": 1,
				"path1": [
					"Perth,+Australia4167",
					"Perth,+Australia4156",
					"Adelaide,+Australia1722",
					"Melbourne,+Australia3868",
					"Melbourne,+Australia3881"
				],
				"lat1": 19.000000,
				"nbSeg1": 1
			},
			"pathsExist": false,
			"runtime": 350424974,
			"nomLat1": 10.000000,
			"nomLat2": 20.000000,
			"maxNomLat": 20.000000,
			"mincut": 4
		},
		{
			"s1": "Perth,+Australia4167",
			"s2": "Adelaide,+Australia1722",
			"t1": "Adelaide,+Australia1733",
			"t2": "Maryborough,+Australia3859",
			"suurballeNbPaths": 2,
			"suurballeTime": 772107135,
			"suurballePaths": {
				"path0": [
					"Adelaide,+Australia1722",
					"Adelaide,+Australia1733"
				],
				"lat0": 1.000000,
				"nbSeg0": 0,
				"path1": [
					"Perth,+Australia4167",
					"Perth,+Australia4162",
					"Adelaide,+Australia1729",
					"Melbourne,+Australia751",
					"Sydney,+Australia4210",
					"Brisbane,+Australia1770",
					"Brisbane,+Australia1769",
					"Maryborough,+Australia3859"
				],
				"lat1": 32.000000,
				"nbSeg1": 0
			},
			"pathsExist": false,
			"runtime": 569576779,
			"nomLat1": 14.000000,
			"nomLat2": 20.000000,
			"maxNomLat": 20.000000,
			"mincut": 4
		},
		{
			"s1": "Canberra,+Australia1814",
			"s2": "Sydney,+Australia3546",
			"t1": "Melbourne,+Australia3867",
			"t2": "Melbourne,+Australia3881",
			"suurballeNbPaths": 2,
			"suurballeTime": 338630031,
			"suurballePaths": {
				"path0": [
					"Sydney,+Australia3546",
					"Sydney,+Australia4241",
					"Melbourne,+Australia734",
					"Melbourne,+Australia3881"
				],
				"lat0": 7.000000,
				"nbSeg0": 4,
				"path1": [
					"Canberra,+Australia1814",
					"Canberra,+Australia565",
					"Canberra,+Australia1813",
					"Melbourne,+Australia3868",
					"Melbourne,+Australia3867"
				],
				"lat1": 7.000000,
				"nbSeg1": 1
			},
			"pathsExist": false,
			"runtime": 725706450,
			"nomLat1": 7.000000,
			"nomLat2": 9.000000,
			"maxNomLat": 9.000000,
			"mincut": 4
		},
		{
			"s1": "Adelaide,+Australia1727",
			"s2": "Cairns,+Australia1809",
			"t1": "Melbourne,+Australia3866",
			"t2": "Canberra,+Australia1814",
			"suurballeNbPaths": 2,
			"suurballeTime": 881043329,
			"suurballePaths": {
				"path0": [
					"Adelaide,+Australia1727",
					"Adelaide,+Australia1729",
					"Adelaide,+Australia1722",
					"Melbourne,+Australia3868",
					"Melbourne,+Australia3866"
				],
				"lat0": 8.000000,
				"nbSeg0": 1,
				"path1": [
					"Cairns,+Australia1809",
					"Brisbane,+Australia1800",
					"Brisbane,+Australia1799",
					"Sydney,+Australia4241",
					"Canberra,+Australia1829",
					"Canberra,+Australia1814"
				],
				"lat1": 18.000000,
				"nbSeg1": 0
			},
			"pathsExist": false,
			"runtime": 557429182,
			"nomLat1": 8.000000,
			"nomLat2": 18.000000,
			"maxNomLat": 18.000000,
			"mincut": 4
		},
		{
			"s1": "Brisbane,+Australia1800",
			"s2": "Canberra,+Australia1832",
			"t1": "Sydney,+Australia4208",
			"t2": "Perth,+Australia4161",
			"suurballeNbPaths": 2,
			"suurballeTime": 1447613416,
			"suurballePaths": {
				"path0": [
					"Brisbane,+Australia1800",
					"Brisbane,+Australia1799",
					"Sydney,+Australia4241",
					"Sydney,+Australia4208"
				],
				"lat0": 7.000000,
				"nbSeg0": 0,
				"path1": [
					"Canberra,+Australia1832",
					"Canberra,+Australia1813",
					"Melbourne,+Australia3868",
					"Adelaide,+Australia1722",
					"Perth,+Australia4156",
					"Perth,+Australia4161"
				],
				"lat1": 23.000000,
				"nbSeg1": 1
			},
			"pathsExist": false,
			"runtime": 184541015,
			"nomLat1": 7.000000,
			"nomLat2": 28.000000,
			"maxNomLat": 28.000000,
			"mincut": 4
		},
		{
			"s1": "Sydney,+Australia4237",
			"s2": "Perth,+Australia4167",
			"t1": "Adelaide,+Australia1733",
			"t2": "Brisbane,+Australia1769",
			"suurballeNbPaths": 2,
			"suurballeTime": 1515884946,
			"suurballePaths": {
				"path0": [
					"Sydney,+Australia4237",
					"Sydney,+Australia4210",
					"Brisbane,+Australia1770",
					"Brisbane,+Australia1769"
				],
				"lat0": 7.000000,
				"nbSeg0": 0,
				"path1": [
					"Perth,+Australia4167",
					"Perth,+Australia4156",
					"Adelaide,+Australia1722",
					"Adelaide,+Australia1733"
				],
				"lat1": 14.000000,
				"nbSeg1": 1
			},
			"pathsExist": false,
			"runtime": 118487940,
			"nomLat1": 12.000000,
			"nomLat2": 29.000000,
			"maxNomLat": 29.000000,
			"mincut": 4
		},
		{
			"s1": "Melbourne,+Australia3866",
			"s2": "Brisbane,+Australia1770",
			"t1": "Brisbane,+Australia1800",
			"t2": "Perth,+Australia4160",
			"suurballeNbPaths": 2,
			"suurballeTime": 865101508,
			"suurballePaths": {
				"path0": [
					"Brisbane,+Australia1770",
					"Brisbane,+Australia1799",
					"Brisbane,+Australia1800"
				],
				"lat0": 2.000000,
				"nbSeg0": 0,
				"path1": [
					"Melbourne,+Australia3866",
					"Melbourne,+Australia3868",
					"Melbourne,+Australia751",
					"Adelaide,+Australia1729",
					"Perth,+Australia4162",
					"Perth,+Australia4160"
				],
				"lat1": 20.000000,
				"nbSeg1": 0
			},
			"pathsExist": false,
			"runtime": 656866598,
			"nomLat1": 13.000000,
			"nomLat2": 28.000000,
			"maxNomLat": 28.000000,
			"mincut": 4
		},
		{
			"s1": "Melbourne,+Australia3866",
			"s2": "Brisbane,+Australia1770",
			"t1": "Perth,+Australia4162",
			"t2": "Adelaide,+Australia1727",
			"suurballeNbPaths": 2,
			"suurballeTime": 1528729904,
			"suurballePaths": {
				"path0": [
					"Melbourne,+Australia3866",
					"Melbourne,+Australia3868",
					"Adelaide,+Australia1722",
					"Adelaide,+Australia1729",
					"Perth,+Australia4162"
				],
				"lat0": 19.000000,
				"nbSeg0": 2,
				"path1": [
					"Brisbane,+Australia1770",
					"Sydney,+Australia4210",
					"Melbourne,+Australia751",
					"Adelaide,+Australia1729",
					"Adelaide,+Australia1727"
				],
				"lat1": 16.000000,
				"nbSeg1": 0
			},
			"pathsExist": false,
			"runtime": 110826299,
			"nomLat1": 19.000000,
			"nomLat2": 16.000000,
			"maxNomLat": 19.000000,
			"mincut": 2
		},
		{
			"s1": "Melbourne,+Australia3868",
			"s2": "Sydney,+Australia4208",
			"t1": "Perth,+Australia4162",
			"t2": "Melbourne,+Australia3870",
			"suurballeNbPaths": 2,
			"suurballeTime": 142725006,
			"suurballePaths": {
				"path0": [
					"Melbourne,+Australia3868",
					"Melbourne,+Australia3870"
				],
				"lat0": 1.000000,
				"nbSeg0": 0,
				"path1": [
					"Sydney,+Australia4208",
					"Sydney,+Australia4210",
					"Melbourne,+Australia751",
					"Adelaide,+Australia1729",
					"Perth,+Australia4162"
				],
				"lat1": 23.000000,
				"nbSeg1": 2
			},
			"pathsExist": true,
			"path1": [
				"Melbourne,+Australia3868",
				"Perth,+Australia4162"
			],
			"lat1": 18.000000,
			"path2": [
				"Sydney,+Australia4208",
				"Melbourne,+Australia734",
				"Melbourne,+Australia3870"
			],
			"lat2": 7.000000,
			"maxlat": 18.000000,
			"runtime": 983635642,
			"nomLat1": 18.000000,
			"nomLat2": 7.000000,
			"maxNomLat": 18.000000,
			"mincut": 6
		},
		{
			"s1": "Sydney,+Australia4237",
			"s2": "Perth,+Australia4167",
			"t1": "Hobart,+Australia1853",
			"t2": "Canberra,+Australia1829",
			"suurballeNbPaths": 2,
			"suurballeTime": 941445379,
			"suurballePaths": {
				"path0": [
					"Sydney,+Australia4237",
					"Sydney,+Australia4241",
					"Canberra,+Australia1829"
				],
				"lat0": 4.000000,
				"nbSeg0": 2,
				"path1": [
					"Perth,+Australia4167",
					"Perth,+Australia4156",
					"Adelaide,+Australia1722",
					"Melbourne,+Australia3868",
					"Melbourne,+Australia3867",
					"Hobart,+Australia1853"
				],
				"lat1": 23.000000,
				"nbSeg1": 1
			},
			"pathsExist": false,
			"runtime": 567507582,
			"nomLat1": 12.000000,
			"nomLat2": 27.000000,
			"maxNomLat": 27.000000,
			"mincut": 4
		},
		{
			"s1": "Perth,+Australia4167",
			"s2": "Melbourne,+Australia3882",
			"t1": "Perth,+Australia4161",
			"t2": "Canberra,+Australia565",
			"suurballeNbPaths": 2,
			"suurballeTime": 376215708,
			"suurballePaths": {
				"path0": [
					"Perth,+Australia4167",
					"Perth,+Australia4156",
					"Perth,+Australia4161"
				],
				"lat0": 2.000000,
				"nbSeg0": 1,
				"path1": [
					"Melbourne,+Australia3882",
					"Melbourne,+Australia3868",
					"Canberra,+Australia1813",
					"Canberra,+Australia565"
				],
				"lat1": 6.000000,
				"nbSeg1": 0
			},
			"pathsExist": false,
			"runtime": 726941698,
			"nomLat1": 2.000000,
			"nomLat2": 6.000000,
			"maxNomLat": 6.000000,
			"mincut": 5
		},
		{
			"s1": "Brisbane,+Australia1774",
			"s2": "Canberra,+Australia1832",
			"t1": "Canberra,+Australia565",
			"t2": "Canberra,+Australia1829",
			"suurballeNbPaths": 2,
			"suurballeTime": 1536808056,
			"suurballePaths": {
				"path0": [
					"Canberra,+Australia1832",
					"Canberra,+Australia1829"
				],
				"lat0": 1.000000,
				"nbSeg0": 0,
				"path1": [
					"Brisbane,+Australia1774",
					"Brisbane,+Australia1799",
					"Sydney,+Australia4241",
					"Canberra,+Australia1829"
				],
				"lat1": 9.000000,
				"nbSeg1": 0
			},
			"pathsExist": false,
			"runtime": 112120476,
			"nomLat1": 11.000000,
			"nomLat2": 1.000000,
			"maxNomLat": 11.000000,
			"mincut": 4
		},
		{
			"s1": "Maryborough,+Australia3859",
			"s2": "Melbourne,+Australia751",
			"t1": "Canberra,+Australia1821",
			"t2": "Canberra,+Australia1832",
			"suurballeNbPaths": 2,
			"suurballeTime": 1317401497,
			"suurballePaths": {
				"path0": [
					"Melbourne,+Australia751",
					"Melbourne,+Australia3868",
					"Canberra,+Australia1813",
					"Canberra,+Australia1832"
				],
				"lat0": 6.000000,
				"nbSeg0": 1,
				"path1": [
					"Maryborough,+Australia3859",
					"Brisbane,+Australia1800",
					"Brisbane,+Australia1799",
					"Sydney,+Australia4241",
					"Canberra,+Australia1829",
					"Canberra,+Australia1821"
				],
				"lat1": 13.000000,
				"nbSeg1": 1
			},
			"pathsExist": false,
			"runtime": 309694933,
			"nomLat1": 14.000000,
			"nomLat2": 10.000000,
			"maxNomLat": 14.000000,
			"mincut": 3
		},
		{
			"s1": "Maryborough,+Australia3859",
			"s2": "Canberra,+Australia1814",
			"t1": "Perth,+Australia284",
			"t2": "Perth,+Australia4160",
			"suurballeNbPaths": 2,
			"suurballeTime": 1513132605,
			"suurballePaths": {
				"path0": [
					"Canberra,+Australia1814",
					"Canberra,+Australia565",
					"Canberra,+Australia1813",
					"Melbourne,+Australia3868",
					"Adelaide,+Australia1722",
					"Perth,+Australia4156",
					"Perth,+Australia284"
				],
				"lat0": 24.000000,
				"nbSeg0": 1,
				"path1": [
					"Maryborough,+Australia3859",
					"Brisbane,+Australia1769",
					"Brisbane,+Australia1770",
					"Sydney,+Australia4210",
					"Melbourne,+Australia751",
					"Adelaide,+Australia1729",
					"Perth,+Australia4162",
					"Perth,+Australia4160"
				],
				"lat1": 32.000000,
				"nbSeg1": 0
			},
			"pathsExist": false,
			"runtime": 137330960,
			"nomLat1": 32.000000,
			"nomLat2": 28.000000,
			"maxNomLat": 32.000000,
			"mincut": 2
		},
		{
			"s1": "Cairns,+Australia1809",
			"s2": "Hobart,+Australia1852",
			"t1": "Perth,+Australia284",
			"t2": "Melbourne,+Australia3869",
			"suurballeNbPaths": 2,
			"suurballeTime": 405159627,
			"suurballePaths": {
				"path0": [
					"Hobart,+Australia1852",
					"Melbourne,+Australia3866",
					"Melbourne,+Australia3868",
					"Melbourne,+Australia3869"
				],
				"lat0": 6.000000,
				"nbSeg0": 2,
				"path1": [
					"Cairns,+Australia1809",
					"Brisbane,+Australia1769",
					"Brisbane,+Australia1770",
					"Sydney,+Australia4210",
					"Melbourne,+Australia751",
					"Adelaide,+Australia1729",
					"Perth,+Australia4162",
					"Perth,+Australia284"
				],
				"lat1": 37.000000,
				"nbSeg1": 1
			},
			"pathsExist": false,
			"runtime": 887295563,
			"nomLat1": 38.000000,
			"nomLat2": 7.000000,
			"maxNomLat": 38.000000,
			"mincut": 4
		},
		{
			"s1": "Sydney,+Australia4210",
			"s2": "Canberra,+Australia1832",
			"t1": "Adelaide,+Australia1722",
			"t2": "Rockhampton,+Australia4195",
			"suurballeNbPaths": 2,
			"suurballeTime": 1322770944,
			"suurballePaths": {
				"path0": [
					"Sydney,+Australia4210",
					"Brisbane,+Australia1770",
					"Brisbane,+Australia1769",
					"Rockhampton,+Australia4195"
				],
				"lat0": 10.000000,
				"nbSeg0": 0,
				"path1": [
					"Canberra,+Australia1832",
					"Canberra,+Australia1813",
					"Melbourne,+Australia3868",
					"Adelaide,+Australia1722"
				],
				"lat1": 10.000000,
				"nbSeg1": 0
			},
			"pathsExist": false,
			"runtime": 340152244,
			"nomLat1": 11.000000,
			"nomLat2": 14.000000,
			"maxNomLat": 14.000000,
			"mincut": 4
		},
		{
			"s1": "Canberra,+Australia565",
			"s2": "Brisbane,+Australia1800",
			"t1": "Melbourne,+Australia734",
			"t2": "Cairns,+Australia1809",
			"suurballeNbPaths": 2,
			"suurballeTime": 1490589439,
			"suurballePaths": {
				"path0": [
					"Brisbane,+Australia1800",
					"Cairns,+Australia1809"
				],
				"lat0": 8.000000,
				"nbSeg0": 0,
				"path1": [
					"Canberra,+Australia565",
					"Canberra,+Australia1813",
					"Melbourne,+Australia3868",
					"Melbourne,+Australia734"
				],
				"lat1": 6.000000,
				"nbSeg1": 0
			},
			"pathsExist": false,
			"runtime": 175418360,
			"nomLat1": 6.000000,
			"nomLat2": 8.000000,
			"maxNomLat": 8.000000,
			"mincut": 6
		},
		{
			"s1": "Canberra,+Australia1821",
			"s2": "Perth,+Australia4160",
			"t1": "Melbourne,+Australia3866",
			"t2": "Canberra,+Australia1813",
			"suurballeNbPaths": 2,
			"suurballeTime": 1499305068,
			"suurballePaths": {
				"path0": [
					"Canberra,+Australia1821",
					"Canberra,+Australia1813"
				],
				"lat0": 1.000000,
				"nbSeg0": 0,
				"path1": [
					"Perth,+Australia4160",
					"Perth,+Australia4162",
					"Adelaide,+Australia1729",
					"Adelaide,+Australia1722",
					"Melbourne,+Australia3868",
					"Melbourne,+Australia3866"
				],
				"lat1": 20.000000,
				"nbSeg1": 2
			},
			"pathsExist": false,
			"runtime": 161302958,
			"nomLat1": 6.000000,
			"nomLat2": 23.000000,
			"maxNomLat": 23.000000,
			"mincut": 5
		},
		{
			"s1": "Townsville,+Australia4282",
			"s2": "Cairns,+Australia1809",
			"t1": "Mackay,+Australia3851",
			"t2": "Adelaide,+Australia1737",
			"suurballeNbPaths": 2,
			"suurballeTime": 1550766703,
			"suurballePaths": {
				"path0": [
					"Townsville,+Australia4282",
					"Brisbane,+Australia1800",
					"Mackay,+Australia3851"
				],
				"lat0": 12.000000,
				"nbSeg0": 0,
				"path1": [
					"Cairns,+Australia1809",
					"Brisbane,+Australia1769",
					"Brisbane,+Australia1770",
					"Sydney,+Australia4210",
					"Melbourne,+Australia751",
					"Adelaide,+Australia1729",
					"Adelaide,+Australia1737"
				],
				"lat1": 25.000000,
				"nbSeg1": 1
			},
			"pathsExist": false,
			"runtime": 117636142,
			"nomLat1": 12.000000,
			"nomLat2": 26.000000,
			"maxNomLat": 26.000000,
			"mincut": 4
		},
		{
			"s1": "Perth,+Australia284",
			"s2": "Adelaide,+Australia1727",
			"t1": "Mackay,+Australia3851",
			"t2": "Melbourne,+Australia3867",
			"suurballeNbPaths": 2,
			"suurballeTime": 826763075,
			"suurballePaths": {
				"path0": [
					"Perth,+Australia284",
					"Perth,+Australia4156",
					"Adelaide,+Australia1722",
					"Melbourne,+Australia3868",
					"Melbourne,+Australia3867"
				],
				"lat0": 19.000000,
				"nbSeg0": 0,
				"path1": [
					"Adelaide,+Australia1727",
					"Adelaide,+Australia1729",
					"Melbourne,+Australia751",
					"Sydney,+Australia4210",
					"Brisbane,+Australia1770",
					"Brisbane,+Australia1769",
					"Mackay,+Australia3851"
				],
				"lat1": 22.000000,
				"nbSeg1": 0
			},
			"pathsExist": false,
			"runtime": 726337864,
			"nomLat1": 34.000000,
			"nomLat2": 8.000000,
			"maxNomLat": 34.000000,
			"mincut": 2
		},
		{
			"s1": "Perth,+Australia4167",
			"s2": "Melbourne,+Australia734",
			"t1": "Sydney,+Australia4237",
			"t2": "Sydney,+Australia4210",
			"suurballeNbPaths": 2,
			"suurballeTime": 650812493,
			"suurballePaths": {
				"path0": [
					"Melbourne,+Australia734",
					"Sydney,+Australia4241",
					"Sydney,+Australia4237"
				],
				"lat0": 6.000000,
				"nbSeg0": 2,
				"path1": [
					"Perth,+Australia4167",
					"Perth,+Australia4162",
					"Adelaide,+Australia1729",
					"Melbourne,+Australia751",
					"Sydney,+Australia4210"
				],
				"lat1": 23.000000,
				"nbSeg1": 0
			},
			"pathsExist": false,
			"runtime": 609762569,
			"nomLat1": 24.000000,
			"nomLat2": 6.000000,
			"maxNomLat": 24.000000,
			"mincut": 3
		},
		{
			"s1": "Melbourne,+Australia3867",
			"s2": "Adelaide,+Australia1722",
			"t1": "Perth,+Australia4160",
			"t2": "Canberra,+Australia1832",
			"suurballeNbPaths": 2,
			"suurballeTime": 936798900,
			"suurballePaths": {
				"path0": [
					"Melbourne,+Australia3867",
					"Melbourne,+Australia3868",
					"Canberra,+Australia1813",
					"Canberra,+Australia1832"
				],
				"lat0": 6.000000,
				"nbSeg0": 0,
				"path1": [
					"Adelaide,+Australia1722",
					"Adelaide,+Australia1729",
					"Perth,+Australia4162",
					"Perth,+Australia4160"
				],
				"lat1": 14.000000,
				"nbSeg1": 1
			},
			"pathsExist": false,
			"runtime": 626203288,
			"nomLat1": 20.000000,
			"nomLat2": 10.000000,
			"maxNomLat": 20.000000,
			"mincut": 4
		},
		{
			"s1": "Perth,+Australia4167",
			"s2": "Melbourne,+Australia3881",
			"t1": "Melbourne,+Australia3869",
			"t2": "Melbourne,+Australia3867",
			"suurballeNbPaths": 2,
			"suurballeTime": 774061166,
			"suurballePaths": {
				"path0": [
					"Melbourne,+Australia3881",
					"Melbourne,+Australia3869"
				],
				"lat0": 1.000000,
				"nbSeg0": 0,
				"path1": [
					"Perth,+Australia4167",
					"Perth,+Australia4156",
					"Adelaide,+Australia1722",
					"Melbourne,+Australia3868",
					"Melbourne,+Australia3867"
				],
				"lat1": 19.000000,
				"nbSeg1": 1
			},
			"pathsExist": false,
			"runtime": 574245940,
			"nomLat1": 20.000000,
			"nomLat2": 2.000000,
			"maxNomLat": 20.000000,
			"mincut": 8
		},
		{
			"s1": "Canberra,+Australia1814",
			"s2": "Sydney,+Australia3546",
			"t1": "Canberra,+Australia1829",
			"t2": "Sydney,+Australia4208",
			"suurballeNbPaths": 2,
			"suurballeTime": 664224939,
			"suurballePaths": {
				"path0": [
					"Canberra,+Australia1814",
					"Canberra,+Australia1829"
				],
				"lat0": 1.000000,
				"nbSeg0": 0,
				"path1": [
					"Sydney,+Australia3546",
					"Sydney,+Australia4210",
					"Sydney,+Australia4208"
				],
				"lat1": 2.000000,
				"nbSeg1": 2
			},
			"pathsExist": false,
			"runtime": 790928795,
			"nomLat1": 1.000000,
			"nomLat2": 3.000000,
			"maxNomLat": 3.000000,
			"mincut": 4
		},
		{
			"s1": "Adelaide,+Australia1727",
			"s2": "Brisbane,+Australia1770",
			"t1": "Melbourne,+Australia3870",
			"t2": "Darwin,+Australia1837",
			"suurballeNbPaths": 2,
			"suurballeTime": 1070850492,
			"suurballePaths": {
				"path0": [
					"Adelaide,+Australia1727",
					"Darwin,+Australia1837"
				],
				"lat0": 15.000000,
				"nbSeg0": 0,
				"path1": [
					"Brisbane,+Australia1770",
					"Brisbane,+Australia1799",
					"Sydney,+Australia4241",
					"Melbourne,+Australia734",
					"Melbourne,+Australia3870"
				],
				"lat1": 12.000000,
				"nbSeg1": 1
			},
			"pathsExist": false,
			"runtime": 499989427,
			"nomLat1": 8.000000,
			"nomLat2": 31.000000,
			"maxNomLat": 31.000000,
			"mincut": 4
		},
		{
			"s1": "Perth,+Australia4167",
			"s2": "Perth,+Australia4161",
			"t1": "Melbourne,+Australia3882",
			"t2": "Hobart,+Australia1852",
			"suurballeNbPaths": 2,
			"suurballeTime": 624438192,
			"suurballePaths": {
				"path0": [
					"Perth,+Australia4167",
					"Perth,+Australia4156",
					"Adelaide,+Australia1722",
					"Melbourne,+Australia3868",
					"Melbourne,+Australia3882"
				],
				"lat0": 19.000000,
				"nbSeg0": 1,
				"path1": [
					"Perth,+Australia4161",
					"Perth,+Australia4162",
					"Adelaide,+Australia1729",
					"Melbourne,+Australia751",
					"Melbourne,+Australia3868",
					"Melbourne,+Australia3866",
					"Hobart,+Australia1852"
				],
				"lat1": 24.000000,
				"nbSeg1": 2
			},
			"pathsExist": false,
			"runtime": 817955461,
			"nomLat1": 20.000000,
			"nomLat2": 24.000000,
			"maxNomLat": 24.000000,
			"mincut": 2
		},
		{
			"s1": "Adelaide,+Australia1729",
			"s2": "Adelaide,+Australia1727",
			"t1": "Brisbane,+Australia1769",
			"t2": "Maryborough,+Australia3859",
			"suurballeNbPaths": 2,
			"suurballeTime": 1511174029,
			"suurballePaths": {
				"path0": [
					"Adelaide,+Australia1729",
					"Melbourne,+Australia751",
					"Sydney,+Australia4210",
					"Brisbane,+Australia1770",
					"Brisbane,+Australia1769"
				],
				"lat0": 16.000000,
				"nbSeg0": 0,
				"path1": [
					"Adelaide,+Australia1727",
					"Adelaide,+Australia1729",
					"Adelaide,+Australia1722",
					"Melbourne,+Australia3868",
					"Melbourne,+Australia734",
					"Sydney,+Australia4241",
					"Brisbane,+Australia1799",
					"Brisbane,+Australia1800",
					"Maryborough,+Australia3859"
				],
				"lat1": 22.000000,
				"nbSeg1": 3
			},
			"pathsExist": false,
			"runtime": 186732810,
			"nomLat1": 16.000000,
			"nomLat2": 20.000000,
			"maxNomLat": 20.000000,
			"mincut": 2
		},
		{
			"s1": "Brisbane,+Australia1799",
			"s2": "Cairns,+Australia1809",
			"t1": "Melbourne,+Australia751",
			"t2": "Perth,+Australia4167",
			"suurballeNbPaths": 2,
			"suurballeTime": 1451177931,
			"suurballePaths": {
				"path0": [
					"Brisbane,+Australia1799",
					"Sydney,+Australia4241",
					"Melbourne,+Australia734",
					"Melbourne,+Australia751"
				],
				"lat0": 11.000000,
				"nbSeg0": 1,
				"path1": [
					"Cairns,+Australia1809",
					"Brisbane,+Australia1769",
					"Brisbane,+Australia1770",
					"Sydney,+Australia4210",
					"Melbourne,+Australia751"
				],
				"lat1": 19.000000,
				"nbSeg1": 1
			},
			"pathsExist": false,
			"runtime": 205890346,
			"nomLat1": 11.000000,
			"nomLat2": 38.000000,
			"maxNomLat": 38.000000,
			"mincut": 2
		},
		{
			"s1": "Adelaide,+Australia1727",
			"s2": "Melbourne,+Australia3870",
			"t1": "Melbourne,+Australia3881",
			"t2": "Adelaide,+Australia1737",
			"suurballeNbPaths": 2,
			"suurballeTime": 792126140,
			"suurballePaths": {
				"path0": [
					"Melbourne,+Australia3870",
					"Melbourne,+Australia3881"
				],
				"lat0": 1.000000,
				"nbSeg0": 0,
				"path1": [
					"Adelaide,+Australia1727",
					"Adelaide,+Australia1729",
					"Adelaide,+Australia1737"
				],
				"lat1": 2.000000,
				"nbSeg1": 0
			},
			"pathsExist": false,
			"runtime": 516184367,
			"nomLat1": 8.000000,
			"nomLat2": 7.000000,
			"maxNomLat": 8.000000,
			"mincut": 6
		},
		{
			"s1": "Perth,+Australia4167",
			"s2": "Adelaide,+Australia1722",
			"t1": "Melbourne,+Australia3875",
			"t2": "Hobart,+Australia1853",
			"suurballeNbPaths": 2,
			"suurballeTime": 894061059,
			"suurballePaths": {
				"path0": [
					"Adelaide,+Australia1722",
					"Melbourne,+Australia3868",
					"Melbourne,+Australia3875"
				],
				"lat0": 6.000000,
				"nbSeg0": 0,
				"path1": [
					"Perth,+Australia4167",
					"Perth,+Australia4162",
					"Adelaide,+Australia1729",
					"Melbourne,+Australia751",
					"Melbourne,+Australia3868",
					"Melbourne,+Australia3867",
					"Hobart,+Australia1853"
				],
				"lat1": 24.000000,
				"nbSeg1": 1
			},
			"pathsExist": false,
			"runtime": 314768744,
			"nomLat1": 20.000000,
			"nomLat2": 10.000000,
			"maxNomLat": 20.000000,
			"mincut": 2
		},
		{
			"s1": "Perth,+Australia4161",
			"s2": "Adelaide,+Australia1722",
			"t1": "Sydney,+Australia4241",
			"t2": "Perth,+Australia4160",
			"suurballeNbPaths": 2,
			"suurballeTime": 1521052390,
			"suurballePaths": {
				"path0": [
					"Perth,+Australia4161",
					"Perth,+Australia4162",
					"Perth,+Australia4160"
				],
				"lat0": 2.000000,
				"nbSeg0": 0,
				"path1": [
					"Adelaide,+Australia1722",
					"Melbourne,+Australia3868",
					"Melbourne,+Australia734",
					"Sydney,+Australia4241"
				],
				"lat1": 11.000000,
				"nbSeg1": 1
			},
			"pathsExist": false,
			"runtime": 170241148,
			"nomLat1": 24.000000,
			"nomLat2": 14.000000,
			"maxNomLat": 24.000000,
			"mincut": 4
		},
		{
			"s1": "Perth,+Australia4167",
			"s2": "Perth,+Australia4156",
			"t1": "Brisbane,+Australia1769",
			"t2": "Hobart,+Australia1852",
			"suurballeNbPaths": 2,
			"suurballeTime": 843480262,
			"suurballePaths": {
				"path0": [
					"Perth,+Australia4156",
					"Adelaide,+Australia1722",
					"Melbourne,+Australia3868",
					"Melbourne,+Australia3866",
					"Hobart,+Australia1852"
				],
				"lat0": 22.000000,
				"nbSeg0": 1,
				"path1": [
					"Perth,+Australia4167",
					"Perth,+Australia4162",
					"Adelaide,+Australia1729",
					"Melbourne,+Australia751",
					"Sydney,+Australia4210",
					"Brisbane,+Australia1770",
					"Brisbane,+Australia1769"
				],
				"lat1": 29.000000,
				"nbSeg1": 0
			},
			"pathsExist": false,
			"runtime": 617199167,
			"nomLat1": 29.000000,
			"nomLat2": 23.000000,
			"maxNomLat": 29.000000,
			"mincut": 2
		},
		{
			"s1": "Maryborough,+Australia3859",
			"s2": "Sydney,+Australia4241",
			"t1": "Perth,+Australia4167",
			"t2": "Adelaide,+Australia1727",
			"suurballeNbPaths": 2,
			"suurballeTime": 1474610699,
			"suurballePaths": {
				"path0": [
					"Sydney,+Australia4241",
					"Melbourne,+Australia734",
					"Melbourne,+Australia3868",
					"Adelaide,+Australia1722",
					"Perth,+Australia4156",
					"Perth,+Australia4167"
				],
				"lat0": 24.000000,
				"nbSeg0": 2,
				"path1": [
					"Maryborough,+Australia3859",
					"Brisbane,+Australia1769",
					"Brisbane,+Australia1770",
					"Sydney,+Australia4210",
					"Melbourne,+Australia751",
					"Adelaide,+Australia1729",
					"Adelaide,+Australia1727"
				],
				"lat1": 20.000000,
				"nbSeg1": 0
			},
			"pathsExist": false,
			"runtime": 218503870,
			"nomLat1": 32.000000,
			"nomLat2": 12.000000,
			"maxNomLat": 32.000000,
			"mincut": 2
		},
		{
			"s1": "Canberra,+Australia1814",
			"s2": "Maryborough,+Australia3859",
			"t1": "Adelaide,+Australia1722",
			"t2": "Adelaide,+Australia1729",
			"suurballeNbPaths": 2,
			"suurballeTime": 493352937,
			"suurballePaths": {
				"path0": [
					"Canberra,+Australia1814",
					"Canberra,+Australia565",
					"Canberra,+Australia1813",
					"Melbourne,+Australia3868",
					"Adelaide,+Australia1722"
				],
				"lat0": 11.000000,
				"nbSeg0": 1,
				"path1": [
					"Maryborough,+Australia3859",
					"Brisbane,+Australia1769",
					"Brisbane,+Australia1770",
					"Sydney,+Australia4210",
					"Melbourne,+Australia751",
					"Adelaide,+Australia1729"
				],
				"lat1": 19.000000,
				"nbSeg1": 0
			},
			"pathsExist": false,
			"runtime": 757185445,
			"nomLat1": 11.000000,
			"nomLat2": 19.000000,
			"maxNomLat": 19.000000,
			"mincut": 2
		},
		{
			"s1": "Maroochydore,+Australia3857",
			"s2": "Sydney,+Australia4210",
			"t1": "Brisbane,+Australia1769",
			"t2": "Canberra,+Australia1814",
			"suurballeNbPaths": 2,
			"suurballeTime": 1521628493,
			"suurballePaths": {
				"path0": [
					"Maroochydore,+Australia3857",
					"Brisbane,+Australia1769"
				],
				"lat0": 2.000000,
				"nbSeg0": 0,
				"path1": [
					"Sydney,+Australia4210",
					"Sydney,+Australia4241",
					"Canberra,+Australia1829",
					"Canberra,+Australia1814"
				],
				"lat1": 5.000000,
				"nbSeg1": 0
			},
			"pathsExist": false,
			"runtime": 173300689,
			"nomLat1": 2.000000,
			"nomLat2": 5.000000,
			"maxNomLat": 5.000000,
			"mincut": 6
		},
		{
			"s1": "Melbourne,+Australia3875",
			"s2": "Perth,+Australia4167",
			"t1": "Rockhampton,+Australia4195",
			"t2": "Canberra,+Australia1814",
			"suurballeNbPaths": 2,
			"suurballeTime": 1069300297,
			"suurballePaths": {
				"path0": [
					"Melbourne,+Australia3875",
					"Melbourne,+Australia3868",
					"Canberra,+Australia1813",
					"Canberra,+Australia565",
					"Canberra,+Australia1814"
				],
				"lat0": 7.000000,
				"nbSeg0": 1,
				"path1": [
					"Perth,+Australia4167",
					"Perth,+Australia4162",
					"Adelaide,+Australia1729",
					"Melbourne,+Australia751",
					"Sydney,+Australia4210",
					"Brisbane,+Australia1770",
					"Brisbane,+Australia1769",
					"Rockhampton,+Australia4195"
				],
				"lat1": 33.000000,
				"nbSeg1": 0
			},
			"pathsExist": false,
			"runtime": 517762357,
			"nomLat1": 16.000000,
			"nomLat2": 28.000000,
			"maxNomLat": 28.000000,
			"mincut": 4
		},
		{
			"s1": "Brisbane,+Australia1769",
			"s2": "Adelaide,+Australia1727",
			"t1": "Mackay,+Australia3851",
			"t2": "Maroochydore,+Australia3857",
			"suurballeNbPaths": 2,
			"suurballeTime": 1212026767,
			"suurballePaths": {
				"path0": [
					"Brisbane,+Australia1769",
					"Maroochydore,+Australia3857"
				],
				"lat0": 2.000000,
				"nbSeg0": 0,
				"path1": [
					"Adelaide,+Australia1727",
					"Adelaide,+Australia1729",
					"Melbourne,+Australia751",
					"Sydney,+Australia4210",
					"Brisbane,+Australia1770",
					"Brisbane,+Australia1769",
					"Mackay,+Australia3851"
				],
				"lat1": 22.000000,
				"nbSeg1": 0
			},
			"pathsExist": false,
			"runtime": 303098980,
			"nomLat1": 5.000000,
			"nomLat2": 19.000000,
			"maxNomLat": 19.000000,
			"mincut": 4
		},
		{
			"s1": "Canberra,+Australia1813",
			"s2": "Melbourne,+Australia3870",
			"t1": "Sydney,+Australia4241",
			"t2": "Canberra,+Australia1832",
			"suurballeNbPaths": 2,
			"suurballeTime": 1595029100,
			"suurballePaths": {
				"path0": [
					"Canberra,+Australia1813",
					"Canberra,+Australia1832"
				],
				"lat0": 1.000000,
				"nbSeg0": 0,
				"path1": [
					"Melbourne,+Australia3870",
					"Melbourne,+Australia734",
					"Sydney,+Australia4241"
				],
				"lat1": 6.000000,
				"nbSeg1": 0
			},
			"pathsExist": false,
			"runtime": 108355143,
			"nomLat1": 4.000000,
			"nomLat2": 6.000000,
			"maxNomLat": 6.000000,
			"mincut": 5
		},
		{
			"s1": "Brisbane,+Australia1770",
			"s2": "Sydney,+Australia3546",
			"t1": "Brisbane,+Australia1802",
			"t2": "Sydney,+Australia4210",
			"suurballeNbPaths": 2,
			"suurballeTime": 3077497,
			"suurballePaths": {
				"path0": [
					"Brisbane,+Australia1770",
					"Brisbane,+Australia1802"
				],
				"lat0": 1.000000,
				"nbSeg0": 2,
				"path1": [
					"Sydney,+Australia3546",
					"Sydney,+Australia4210"
				],
				"lat1": 1.000000,
				"nbSeg1": 0
			},
			"pathsExist": true,
			"path1": [
				"Brisbane,+Australia1770",
				"Brisbane,+Australia1802"
			],
			"lat1": 2.000000,
			"path2": [
				"Sydney,+Australia3546",
				"Sydney,+Australia4210"
			],
			"lat2": 1.000000,
			"maxlat": 2.000000,
			"runtime": 1276623979,
			"nomLat1": 2.000000,
			"nomLat2": 1.000000,
			"maxNomLat": 2.000000,
			"mincut": 6
		},
		{
			"s1": "Mackay,+Australia3851",
			"s2": "Melbourne,+Australia3868",
			"t1": "Canberra,+Australia1813",
			"t2": "Melbourne,+Australia3881",
			"suurballeNbPaths": 2,
			"suurballeTime": 3938245,
			"suurballePaths": {
				"path0": [
					"Melbourne,+Australia3868",
					"Melbourne,+Australia3881"
				],
				"lat0": 1.000000,
				"nbSeg0": 0,
				"path1": [
					"Mackay,+Australia3851",
					"Brisbane,+Australia1800",
					"Brisbane,+Australia1799",
					"Sydney,+Australia4241",
					"Canberra,+Australia1829",
					"Canberra,+Australia1813"
				],
				"lat1": 15.000000,
				"nbSeg1": 0
			},
			"pathsExist": true,
			"path1": [
				"Mackay,+Australia3851",
				"Canberra,+Australia1824",
				"Canberra,+Australia1813"
			],
			"lat1": 16.000000,
			"path2": [
				"Melbourne,+Australia3868",
				"Melbourne,+Australia3882",
				"Melbourne,+Australia3881"
			],
			"lat2": 2.000000,
			"maxlat": 16.000000,
			"runtime": 1395770306,
			"nomLat1": 15.000000,
			"nomLat2": 1.000000,
			"maxNomLat": 15.000000,
			"mincut": 11
		},
		{
			"s1": "Brisbane,+Australia1802",
			"s2": "Brisbane,+Australia1770",
			"t1": "Perth,+Australia4162",
			"t2": "Brisbane,+Australia1799",
			"suurballeNbPaths": 2,
			"suurballeTime": 3930003,
			"suurballePaths": {
				"path0": [
					"Brisbane,+Australia1802",
					"Brisbane,+Australia1799"
				],
				"lat0": 1.000000,
				"nbSeg0": 0,
				"path1": [
					"Brisbane,+Australia1770",
					"Sydney,+Australia4210",
					"Melbourne,+Australia751",
					"Adelaide,+Australia1729",
					"Perth,+Australia4162"
				],
				"lat1": 27.000000,
				"nbSeg1": 0
			},
			"pathsExist": true,
			"path1": [
				"Brisbane,+Australia1802",
				"Sydney,+Australia4241",
				"Perth,+Australia4162"
			],
			"lat1": 29.000000,
			"path2": [
				"Brisbane,+Australia1770",
				"Brisbane,+Australia1774",
				"Brisbane,+Australia1799"
			],
			"lat2": 2.000000,
			"maxlat": 29.000000,
			"runtime": 1247565992,
			"nomLat1": 29.000000,
			"nomLat2": 1.000000,
			"maxNomLat": 29.000000,
			"mincut": 5
		},
		{
			"s1": "Perth,+Australia284",
			"s2": "Canberra,+Australia565",
			"t1": "Melbourne,+Australia3875",
			"t2": "Townsville,+Australia4282",
			"suurballeNbPaths": 2,
			"suurballeTime": 3867633,
			"suurballePaths": {
				"path0": [
					"Perth,+Australia284",
					"Perth,+Australia4156",
					"Adelaide,+Australia1722",
					"Melbourne,+Australia3868",
					"Melbourne,+Australia3875"
				],
				"lat0": 19.000000,
				"nbSeg0": 0,
				"path1": [
					"Canberra,+Australia565",
					"Canberra,+Australia1829",
					"Sydney,+Australia4241",
					"Brisbane,+Australia1799",
					"Brisbane,+Australia1800",
					"Townsville,+Australia4282"
				],
				"lat1": 17.000000,
				"nbSeg1": 2
			},
			"pathsExist": false,
			"runtime": 1273925047,
			"nomLat1": 19.000000,
			"nomLat2": 18.000000,
			"maxNomLat": 19.000000,
			"mincut": 5
		},
		{
			"s1": "Brisbane,+Australia1802",
			"s2": "Perth,+Australia284",
			"t1": "Canberra,+Australia1824",
			"t2": "Melbourne,+Australia3869",
			"suurballeNbPaths": 2,
			"suurballeTime": 3296355,
			"suurballePaths": {
				"path0": [
					"Brisbane,+Australia1802",
					"Brisbane,+Australia1799",
					"Sydney,+Australia4241",
					"Canberra,+Australia1829",
					"Canberra,+Australia1824"
				],
				"lat0": 10.000000,
				"nbSeg0": 0,
				"path1": [
					"Perth,+Australia284",
					"Perth,+Australia4156",
					"Adelaide,+Australia1722",
					"Melbourne,+Australia3868",
					"Melbourne,+Australia3869"
				],
				"lat1": 19.000000,
				"nbSeg1": 0
			},
			"pathsExist": false,
			"runtime": 1284979055,
			"nomLat1": 10.000000,
			"nomLat2": 19.000000,
			"maxNomLat": 19.000000,
			"mincut": 4
		},
		{
			"s1": "Hobart,+Australia1852",
			"s2": "Melbourne,+Australia3867",
			"t1": "Adelaide,+Australia1722",
			"t2": "Sydney,+Australia3546",
			"suurballeNbPaths": 2,
			"suurballeTime": 5927820,
			"suurballePaths": {
				"path0": [
					"Melbourne,+Australia3867",
					"Melbourne,+Australia3868",
					"Adelaide,+Australia1722"
				],
				"lat0": 6.000000,
				"nbSeg0": 0,
				"path1": [
					"Hobart,+Australia1852",
					"Melbourne,+Australia3866",
					"Melbourne,+Australia3868",
					"Melbourne,+Australia751",
					"Sydney,+Australia4210",
					"Sydney,+Australia3546"
				],
				"lat1": 12.000000,
				"nbSeg1": 2
			},
			"pathsExist": false,
			"runtime": 1255613437,
			"nomLat1": 11.000000,
			"nomLat2": 9.000000,
			"maxNomLat": 11.000000,
			"mincut": 4
		},
		{
			"s1": "Perth,+Australia4166",
			"s2": "Brisbane,+Australia1799",
			"t1": "Adelaide,+Australia1733",
			"t2": "Melbourne,+Australia3869",
			"suurballeNbPaths": 2,
			"suurballeTime": 3234314,
			"suurballePaths": {
				"path0": [
					"Perth,+Australia4166",
					"Perth,+Australia4156",
					"Adelaide,+Australia1722",
					"Adelaide,+Australia1733"
				],
				"lat0": 14.000000,
				"nbSeg0": 1,
				"path1": [
					"Brisbane,+Australia1799",
					"Sydney,+Australia4241",
					"Melbourne,+Australia734",
					"Melbourne,+Australia3869"
				],
				"lat1": 11.000000,
				"nbSeg1": 0
			},
			"pathsExist": false,
			"runtime": 1343624451,
			"nomLat1": 14.000000,
			"nomLat2": 11.000000,
			"maxNomLat": 14.000000,
			"mincut": 4
		},
		{
			"s1": "Adelaide,+Australia1737",
			"s2": "Melbourne,+Australia3875",
			"t1": "Melbourne,+Australia3868",
			"t2": "Melbourne,+Australia751",
			"suurballeNbPaths": 2,
			"suurballeTime": 2970817,
			"suurballePaths": {
				"path0": [
					"Melbourne,+Australia3875",
					"Melbourne,+Australia3868"
				],
				"lat0": 1.000000,
				"nbSeg0": 0,
				"path1": [
					"Adelaide,+Australia1737",
					"Adelaide,+Australia1729",
					"Melbourne,+Australia751"
				],
				"lat1": 6.000000,
				"nbSeg1": 0
			},
			"pathsExist": false,
			"runtime": 1180114940,
			"nomLat1": 6.000000,
			"nomLat2": 2.000000,
			"maxNomLat": 6.000000,
			"mincut": 6
		}
	],
	"demandsWithSol": 9
}
