{
	"nbDemands": 100,
	"demands": [
		{
			"s1": "Stockholm,+Sweden304",
			"s2": "Paris,+France196",
			"t1": "Brussels,+Belgium135",
			"t2": "Copenhagen,+Denmark271",
			"suurballeNbPaths": 2,
			"suurballeTime": 133910816,
			"suurballePaths": {
				"path0": [
					"Stockholm,+Sweden304",
					"Copenhagen,+Denmark271"
				],
				"lat0": 4.000000,
				"nbSeg0": 0,
				"path1": [
					"Paris,+France196",
					"Paris,+France193",
					"Brussels,+Belgium135"
				],
				"lat1": 4.000000,
				"nbSeg1": 0
			},
			"pathsExist": false,
			"runtime": 710831754,
			"nomLat1": 21.000000,
			"nomLat2": 22.000000,
			"maxNomLat": 22.000000,
			"mincut": 5
		},
		{
			"s1": "Milan,+Italy220",
			"s2": "Copenhagen,+Denmark271",
			"t1": "Brussels,+Belgium247",
			"t2": "Antwerp,+Belgium244",
			"suurballeNbPaths": 2,
			"suurballeTime": 321742894,
			"suurballePaths": {
				"path0": [
					"Milan,+Italy220",
					"Geneva,+Switzerland139",
					"Paris,+France193",
					"Brussels,+Belgium135",
					"Brussels,+Belgium247"
				],
				"lat0": 11.000000,
				"nbSeg0": 1,
				"path1": [
					"Copenhagen,+Denmark271",
					"Manchester,+UnitedKingdom177",
					"Dusseldorf,+Germany163",
					"Amsterdam,+Netherlands227",
					"Brussels,+Belgium136",
					"Brussels,+Belgium247"
				],
				"lat1": 16.000000,
				"nbSeg1": 2
			},
			"pathsExist": false,
			"runtime": 666100607,
			"nomLat1": 11.000000,
			"nomLat2": 19.000000,
			"maxNomLat": 19.000000,
			"mincut": 3
		},
		{
			"s1": "Rotterdam,+Netherlands299",
			"s2": "Brussels,+Belgium247",
			"t1": "Vienna,+Austria126",
			"t2": "Copenhagen,+Denmark179",
			"suurballeNbPaths": 2,
			"suurballeTime": 210891760,
			"suurballePaths": {
				"path0": [
					"Rotterdam,+Netherlands299",
					"Rotterdam,+Netherlands228",
					"Amsterdam,+Netherlands227",
					"Dusseldorf,+Germany163",
					"Dusseldorf,+Germany260",
					"Munich,+Germany267",
					"Vienna,+Austria126"
				],
				"lat0": 13.000000,
				"nbSeg0": 2,
				"path1": [
					"Brussels,+Belgium247",
					"Brussels,+Belgium136",
					"Amsterdam,+Netherlands227",
					"London,+UnitedKingdom209",
					"London,+UnitedKingdom288",
					"Manchester,+UnitedKingdom177",
					"Copenhagen,+Denmark179"
				],
				"lat1": 16.000000,
				"nbSeg1": 2
			},
			"pathsExist": false,
			"runtime": 729028219,
			"nomLat1": 14.000000,
			"nomLat2": 16.000000,
			"maxNomLat": 16.000000,
			"mincut": 3
		},
		{
			"s1": "London,+UnitedKingdom287",
			"s2": "Milan,+Italy217",
			"t1": "Frankfurt,+Germany170",
			"t2": "Paris,+France193",
			"suurballeNbPaths": 2,
			"suurballeTime": 224689113,
			"suurballePaths": {
				"path0": [
					"London,+UnitedKingdom287",
					"London,+UnitedKingdom208",
					"Paris,+France193"
				],
				"lat0": 4.000000,
				"nbSeg0": 0,
				"path1": [
					"Milan,+Italy217",
					"Geneva,+Switzerland144",
					"Frankfurt,+Germany170"
				],
				"lat1": 7.000000,
				"nbSeg1": 0
			},
			"pathsExist": true,
			"path1": [
				"London,+UnitedKingdom287",
				"Frankfurt,+Germany170"
			],
			"lat1": 8.000000,
			"path2": [
				"Milan,+Italy217",
				"Geneva,+Switzerland146",
				"Paris,+France193"
			],
			"lat2": 8.000000,
			"maxlat": 8.000000,
			"runtime": 851285629,
			"nomLat1": 8.000000,
			"nomLat2": 8.000000,
			"maxNomLat": 8.000000,
			"mincut": 6
		},
		{
			"s1": "Antwerp,+Belgium243",
			"s2": "New+York,+NY239",
			"t1": "Brussels,+Belgium246",
			"t2": "Vienna,+Austria129",
			"suurballeNbPaths": 2,
			"suurballeTime": 70259184,
			"suurballePaths": {
				"path0": [
					"Antwerp,+Belgium243",
					"Antwerp,+Belgium244",
					"Brussels,+Belgium246"
				],
				"lat0": 3.000000,
				"nbSeg0": 0,
				"path1": [
					"New+York,+NY239",
					"London,+UnitedKingdom208",
					"Amsterdam,+Netherlands227",
					"Dusseldorf,+Germany163",
					"Dusseldorf,+Germany260",
					"Munich,+Germany267",
					"Vienna,+Austria129"
				],
				"lat1": 42.000000,
				"nbSeg1": 3
			},
			"pathsExist": false,
			"runtime": 935944820,
			"nomLat1": 3.000000,
			"nomLat2": 44.000000,
			"maxNomLat": 44.000000,
			"mincut": 6
		},
		{
			"s1": "Prague,+CzechRepublic157",
			"s2": "Brussels,+Belgium135",
			"t1": "Vienna,+Austria126",
			"t2": "Milan,+Italy218",
			"suurballeNbPaths": 2,
			"suurballeTime": 187625179,
			"suurballePaths": {
				"path0": [
					"Prague,+CzechRepublic157",
					"Vienna,+Austria123",
					"Vienna,+Austria126"
				],
				"lat0": 4.000000,
				"nbSeg0": 0,
				"path1": [
					"Brussels,+Belgium135",
					"Paris,+France193",
					"Geneva,+Switzerland139",
					"Geneva,+Switzerland144",
					"Milan,+Italy218"
				],
				"lat1": 11.000000,
				"nbSeg1": 2
			},
			"pathsExist": true,
			"path1": [
				"Prague,+CzechRepublic157",
				"Vienna,+Austria126"
			],
			"lat1": 4.000000,
			"path2": [
				"Brussels,+Belgium135",
				"Milan,+Italy218"
			],
			"lat2": 11.000000,
			"maxlat": 11.000000,
			"runtime": 852367831,
			"nomLat1": 4.000000,
			"nomLat2": 11.000000,
			"maxNomLat": 11.000000,
			"mincut": 6
		},
		{
			"s1": "Amsterdam,+Netherlands297",
			"s2": "Dusseldorf,+Germany164",
			"t1": "Vienna,+Austria124",
			"t2": "Munich,+Germany266",
			"suurballeNbPaths": 2,
			"suurballeTime": 71259258,
			"suurballePaths": {
				"path0": [
					"Dusseldorf,+Germany164",
					"Dusseldorf,+Germany261",
					"Munich,+Germany266"
				],
				"lat0": 5.000000,
				"nbSeg0": 2,
				"path1": [
					"Amsterdam,+Netherlands297",
					"Rotterdam,+Netherlands299",
					"Rotterdam,+Netherlands228",
					"Amsterdam,+Netherlands227",
					"Dusseldorf,+Germany163",
					"Dusseldorf,+Germany260",
					"Munich,+Germany267",
					"Vienna,+Austria126",
					"Vienna,+Austria130",
					"Vienna,+Austria124"
				],
				"lat1": 17.000000,
				"nbSeg1": 2
			},
			"pathsExist": false,
			"runtime": 961770806,
			"nomLat1": 17.000000,
			"nomLat2": 6.000000,
			"maxNomLat": 17.000000,
			"mincut": 5
		},
		{
			"s1": "Munich,+Germany176",
			"s2": "Milan,+Italy220",
			"t1": "Rotterdam,+Netherlands228",
			"t2": "Brussels,+Belgium247",
			"suurballeNbPaths": 2,
			"suurballeTime": 785879571,
			"suurballePaths": {
				"path0": [
					"Munich,+Germany176",
					"Frankfurt,+Germany170",
					"Frankfurt,+Germany169",
					"Amsterdam,+Netherlands227",
					"Rotterdam,+Netherlands228"
				],
				"lat0": 9.000000,
				"nbSeg0": 0,
				"path1": [
					"Milan,+Italy220",
					"Geneva,+Switzerland139",
					"Paris,+France193",
					"Brussels,+Belgium135",
					"Brussels,+Belgium247"
				],
				"lat1": 11.000000,
				"nbSeg1": 1
			},
			"pathsExist": false,
			"runtime": 297337978,
			"nomLat1": 9.000000,
			"nomLat2": 11.000000,
			"maxNomLat": 11.000000,
			"mincut": 3
		},
		{
			"s1": "Stockholm,+Sweden304",
			"s2": "Antwerp,+Belgium244",
			"t1": "Paris,+France196",
			"t2": "Berlin,+Germany162",
			"suurballeNbPaths": 2,
			"suurballeTime": 926123106,
			"suurballePaths": {
				"path0": [
					"Antwerp,+Belgium244",
					"Brussels,+Belgium246",
					"Brussels,+Belgium135",
					"Paris,+France193",
					"Paris,+France196"
				],
				"lat0": 7.000000,
				"nbSeg0": 1,
				"path1": [
					"Stockholm,+Sweden304",
					"Copenhagen,+Denmark271",
					"Stockholm,+Sweden302",
					"Stockholm,+Sweden232",
					"Berlin,+Germany161",
					"Berlin,+Germany162"
				],
				"lat1": 16.000000,
				"nbSeg1": 1
			},
			"pathsExist": false,
			"runtime": 229453160,
			"nomLat1": 26.000000,
			"nomLat2": 15.000000,
			"maxNomLat": 26.000000,
			"mincut": 5
		},
		{
			"s1": "Vienna,+Austria125",
			"s2": "Amsterdam,+Netherlands298",
			"t1": "London,+UnitedKingdom207",
			"t2": "London,+UnitedKingdom200",
			"suurballeNbPaths": 2,
			"suurballeTime": 1014133986,
			"suurballePaths": {
				"path0": [
					"Amsterdam,+Netherlands298",
					"Rotterdam,+Netherlands299",
					"Rotterdam,+Netherlands228",
					"Amsterdam,+Netherlands227",
					"London,+UnitedKingdom207"
				],
				"lat0": 8.000000,
				"nbSeg0": 2,
				"path1": [
					"Vienna,+Austria125",
					"Munich,+Germany176",
					"Frankfurt,+Germany170",
					"Paris,+France196",
					"London,+UnitedKingdom201",
					"London,+UnitedKingdom200"
				],
				"lat1": 14.000000,
				"nbSeg1": 0
			},
			"pathsExist": false,
			"runtime": 157513536,
			"nomLat1": 14.000000,
			"nomLat2": 18.000000,
			"maxNomLat": 18.000000,
			"mincut": 7
		},
		{
			"s1": "London,+UnitedKingdom289",
			"s2": "Rotterdam,+Netherlands228",
			"t1": "New+York,+NY239",
			"t2": "London,+UnitedKingdom209",
			"suurballeNbPaths": 2,
			"suurballeTime": 1014016898,
			"suurballePaths": {
				"path0": [
					"London,+UnitedKingdom289",
					"London,+UnitedKingdom209"
				],
				"lat0": 1.000000,
				"nbSeg0": 0,
				"path1": [
					"Rotterdam,+Netherlands228",
					"Amsterdam,+Netherlands227",
					"London,+UnitedKingdom208",
					"New+York,+NY239"
				],
				"lat1": 34.000000,
				"nbSeg1": 1
			},
			"pathsExist": false,
			"runtime": 168858909,
			"nomLat1": 30.000000,
			"nomLat2": 5.000000,
			"maxNomLat": 30.000000,
			"mincut": 7
		},
		{
			"s1": "Berlin,+Germany161",
			"s2": "Geneva,+Switzerland140",
			"t1": "Vienna,+Austria129",
			"t2": "Paris,+France193",
			"suurballeNbPaths": 2,
			"suurballeTime": 193186821,
			"suurballePaths": {
				"path0": [
					"Geneva,+Switzerland140",
					"Paris,+France193"
				],
				"lat0": 4.000000,
				"nbSeg0": 0,
				"path1": [
					"Berlin,+Germany161",
					"Prague,+CzechRepublic155",
					"Prague,+CzechRepublic157",
					"Vienna,+Austria123",
					"Vienna,+Austria129"
				],
				"lat1": 8.000000,
				"nbSeg1": 0
			},
			"pathsExist": true,
			"path1": [
				"Berlin,+Germany161",
				"Vienna,+Austria129"
			],
			"lat1": 8.000000,
			"path2": [
				"Geneva,+Switzerland140",
				"Paris,+France193"
			],
			"lat2": 4.000000,
			"maxlat": 8.000000,
			"runtime": 872014887,
			"nomLat1": 8.000000,
			"nomLat2": 4.000000,
			"maxNomLat": 8.000000,
			"mincut": 8
		},
		{
			"s1": "Amsterdam,+Netherlands298",
			"s2": "Paris,+France196",
			"t1": "Bracknell,+UnitedKingdom278",
			"t2": "Vienna,+Austria124",
			"suurballeNbPaths": 2,
			"suurballeTime": 123326882,
			"suurballePaths": {
				"path0": [
					"Amsterdam,+Netherlands298",
					"Rotterdam,+Netherlands299",
					"Rotterdam,+Netherlands228",
					"Amsterdam,+Netherlands227",
					"London,+UnitedKingdom209",
					"Bracknell,+UnitedKingdom278"
				],
				"lat0": 10.000000,
				"nbSeg0": 3,
				"path1": [
					"Paris,+France196",
					"Frankfurt,+Germany170",
					"Munich,+Germany176",
					"Vienna,+Austria125",
					"Vienna,+Austria130",
					"Vienna,+Austria124"
				],
				"lat1": 12.000000,
				"nbSeg1": 0
			},
			"pathsExist": false,
			"runtime": 992284086,
			"nomLat1": 12.000000,
			"nomLat2": 12.000000,
			"maxNomLat": 12.000000,
			"mincut": 5
		},
		{
			"s1": "Rotterdam,+Netherlands299",
			"s2": "London,+UnitedKingdom209",
			"t1": "Munich,+Germany267",
			"t2": "Geneva,+Switzerland141",
			"suurballeNbPaths": 2,
			"suurballeTime": 57364785,
			"suurballePaths": {
				"path0": [
					"London,+UnitedKingdom209",
					"Paris,+France193",
					"Geneva,+Switzerland141"
				],
				"lat0": 7.000000,
				"nbSeg0": 1,
				"path1": [
					"Rotterdam,+Netherlands299",
					"Rotterdam,+Netherlands228",
					"Amsterdam,+Netherlands227",
					"Dusseldorf,+Germany163",
					"Dusseldorf,+Germany260",
					"Munich,+Germany267"
				],
				"lat1": 10.000000,
				"nbSeg1": 1
			},
			"pathsExist": false,
			"runtime": 1037113901,
			"nomLat1": 11.000000,
			"nomLat2": 9.000000,
			"maxNomLat": 11.000000,
			"mincut": 7
		},
		{
			"s1": "London,+UnitedKingdom207",
			"s2": "Rotterdam,+Netherlands299",
			"t1": "Antwerp,+Belgium243",
			"t2": "Milan,+Italy220",
			"suurballeNbPaths": 2,
			"suurballeTime": 1030005428,
			"suurballePaths": {
				"path0": [
					"Rotterdam,+Netherlands299",
					"Antwerp,+Belgium243"
				],
				"lat0": 2.000000,
				"nbSeg0": 0,
				"path1": [
					"London,+UnitedKingdom207",
					"Paris,+France193",
					"Geneva,+Switzerland139",
					"Milan,+Italy220"
				],
				"lat1": 10.000000,
				"nbSeg1": 1
			},
			"pathsExist": false,
			"runtime": 121091027,
			"nomLat1": 8.000000,
			"nomLat2": 16.000000,
			"maxNomLat": 16.000000,
			"mincut": 4
		},
		{
			"s1": "Prague,+CzechRepublic155",
			"s2": "London,+UnitedKingdom293",
			"t1": "London,+UnitedKingdom207",
			"t2": "Rotterdam,+Netherlands299",
			"suurballeNbPaths": 2,
			"suurballeTime": 1029420340,
			"suurballePaths": {
				"path0": [
					"London,+UnitedKingdom293",
					"London,+UnitedKingdom207"
				],
				"lat0": 1.000000,
				"nbSeg0": 0,
				"path1": [
					"Prague,+CzechRepublic155",
					"Berlin,+Germany161",
					"Berlin,+Germany160",
					"Dusseldorf,+Germany164",
					"Dusseldorf,+Germany163",
					"Amsterdam,+Netherlands227",
					"Rotterdam,+Netherlands228",
					"Rotterdam,+Netherlands299"
				],
				"lat1": 14.000000,
				"nbSeg1": 1
			},
			"pathsExist": false,
			"runtime": 168217364,
			"nomLat1": 16.000000,
			"nomLat2": 7.000000,
			"maxNomLat": 16.000000,
			"mincut": 7
		},
		{
			"s1": "Amsterdam,+Netherlands298",
			"s2": "Stockholm,+Sweden232",
			"t1": "Antwerp,+Belgium244",
			"t2": "Geneva,+Switzerland144",
			"suurballeNbPaths": 2,
			"suurballeTime": 554900967,
			"suurballePaths": {
				"path0": [
					"Amsterdam,+Netherlands298",
					"Rotterdam,+Netherlands299",
					"Antwerp,+Belgium243",
					"Antwerp,+Belgium244"
				],
				"lat0": 5.000000,
				"nbSeg0": 2,
				"path1": [
					"Stockholm,+Sweden232",
					"Berlin,+Germany161",
					"Berlin,+Germany160",
					"Dusseldorf,+Germany164",
					"Frankfurt,+Germany169",
					"Frankfurt,+Germany170",
					"Geneva,+Switzerland144"
				],
				"lat1": 18.000000,
				"nbSeg1": 1
			},
			"pathsExist": false,
			"runtime": 673630814,
			"nomLat1": 6.000000,
			"nomLat2": 26.000000,
			"maxNomLat": 26.000000,
			"mincut": 5
		},
		{
			"s1": "London,+UnitedKingdom207",
			"s2": "Rotterdam,+Netherlands299",
			"t1": "Amsterdam,+Netherlands227",
			"t2": "Bracknell,+UnitedKingdom279",
			"suurballeNbPaths": 2,
			"suurballeTime": 1028752219,
			"suurballePaths": {
				"path0": [
					"London,+UnitedKingdom207",
					"London,+UnitedKingdom293",
					"Bracknell,+UnitedKingdom279"
				],
				"lat0": 3.000000,
				"nbSeg0": 0,
				"path1": [
					"Rotterdam,+Netherlands299",
					"Rotterdam,+Netherlands228",
					"Amsterdam,+Netherlands227"
				],
				"lat1": 3.000000,
				"nbSeg1": 0
			},
			"pathsExist": false,
			"runtime": 141542492,
			"nomLat1": 3.000000,
			"nomLat2": 9.000000,
			"maxNomLat": 9.000000,
			"mincut": 7
		},
		{
			"s1": "Stockholm,+Sweden304",
			"s2": "London,+UnitedKingdom209",
			"t1": "Paris,+France196",
			"t2": "London,+UnitedKingdom207",
			"suurballeNbPaths": 2,
			"suurballeTime": 679811658,
			"suurballePaths": {
				"path0": [
					"London,+UnitedKingdom209",
					"London,+UnitedKingdom293",
					"London,+UnitedKingdom207"
				],
				"lat0": 2.000000,
				"nbSeg0": 1,
				"path1": [
					"Stockholm,+Sweden304",
					"Copenhagen,+Denmark271",
					"Manchester,+UnitedKingdom177",
					"London,+UnitedKingdom288",
					"London,+UnitedKingdom291",
					"London,+UnitedKingdom201",
					"Paris,+France196"
				],
				"lat1": 18.000000,
				"nbSeg1": 3
			},
			"pathsExist": false,
			"runtime": 497504589,
			"nomLat1": 26.000000,
			"nomLat2": 58.000000,
			"maxNomLat": 58.000000,
			"mincut": 8
		},
		{
			"s1": "Vienna,+Austria123",
			"s2": "London,+UnitedKingdom200",
			"t1": "Stockholm,+Sweden232",
			"t2": "Rotterdam,+Netherlands228",
			"suurballeNbPaths": 2,
			"suurballeTime": 1034792661,
			"suurballePaths": {
				"path0": [
					"London,+UnitedKingdom200",
					"London,+UnitedKingdom201",
					"London,+UnitedKingdom209",
					"Amsterdam,+Netherlands227",
					"Rotterdam,+Netherlands228"
				],
				"lat0": 7.000000,
				"nbSeg0": 2,
				"path1": [
					"Vienna,+Austria123",
					"Vienna,+Austria126",
					"Berlin,+Germany259",
					"Berlin,+Germany160",
					"Berlin,+Germany161",
					"Stockholm,+Sweden232"
				],
				"lat1": 13.000000,
				"nbSeg1": 1
			},
			"pathsExist": false,
			"runtime": 116391668,
			"nomLat1": 13.000000,
			"nomLat2": 14.000000,
			"maxNomLat": 14.000000,
			"mincut": 5
		},
		{
			"s1": "Munich,+Germany266",
			"s2": "London,+UnitedKingdom288",
			"t1": "Antwerp,+Belgium243",
			"t2": "Stockholm,+Sweden304",
			"suurballeNbPaths": 2,
			"suurballeTime": 1040858049,
			"suurballePaths": {
				"path0": [
					"London,+UnitedKingdom288",
					"Manchester,+UnitedKingdom177",
					"Copenhagen,+Denmark271",
					"Stockholm,+Sweden304"
				],
				"lat0": 13.000000,
				"nbSeg0": 2,
				"path1": [
					"Munich,+Germany266",
					"Dusseldorf,+Germany261",
					"Dusseldorf,+Germany163",
					"Amsterdam,+Netherlands227",
					"Rotterdam,+Netherlands228",
					"Rotterdam,+Netherlands299",
					"Antwerp,+Belgium243"
				],
				"lat1": 12.000000,
				"nbSeg1": 2
			},
			"pathsExist": false,
			"runtime": 168865923,
			"nomLat1": 13.000000,
			"nomLat2": 14.000000,
			"maxNomLat": 14.000000,
			"mincut": 4
		},
		{
			"s1": "Paris,+France196",
			"s2": "Geneva,+Switzerland139",
			"t1": "Stockholm,+Sweden303",
			"t2": "Stockholm,+Sweden304",
			"suurballeNbPaths": 2,
			"suurballeTime": 1041959194,
			"suurballePaths": {
				"path0": [
					"Paris,+France196",
					"London,+UnitedKingdom201",
					"London,+UnitedKingdom209",
					"London,+UnitedKingdom288",
					"Manchester,+UnitedKingdom177",
					"Copenhagen,+Denmark271",
					"Stockholm,+Sweden304"
				],
				"lat0": 18.000000,
				"nbSeg0": 5,
				"path1": [
					"Geneva,+Switzerland139",
					"Geneva,+Switzerland144",
					"Frankfurt,+Germany170",
					"Frankfurt,+Germany169",
					"Dusseldorf,+Germany164",
					"Berlin,+Germany160",
					"Berlin,+Germany161",
					"Stockholm,+Sweden232",
					"Stockholm,+Sweden302",
					"Stockholm,+Sweden303"
				],
				"lat1": 21.000000,
				"nbSeg1": 3
			},
			"pathsExist": false,
			"runtime": 167465323,
			"nomLat1": 26.000000,
			"nomLat2": 28.000000,
			"maxNomLat": 28.000000,
			"mincut": 3
		},
		{
			"s1": "Vienna,+Austria242",
			"s2": "Amsterdam,+Netherlands298",
			"t1": "Vienna,+Austria129",
			"t2": "Berlin,+Germany160",
			"suurballeNbPaths": 2,
			"suurballeTime": 1041627889,
			"suurballePaths": {
				"path0": [
					"Vienna,+Austria242",
					"Vienna,+Austria126",
					"Vienna,+Austria130",
					"Vienna,+Austria129"
				],
				"lat0": 3.000000,
				"nbSeg0": 0,
				"path1": [
					"Amsterdam,+Netherlands298",
					"Rotterdam,+Netherlands299",
					"Rotterdam,+Netherlands228",
					"Amsterdam,+Netherlands227",
					"Dusseldorf,+Germany163",
					"Dusseldorf,+Germany164",
					"Berlin,+Germany160"
				],
				"lat1": 12.000000,
				"nbSeg1": 3
			},
			"pathsExist": false,
			"runtime": 167889812,
			"nomLat1": 3.000000,
			"nomLat2": 15.000000,
			"maxNomLat": 15.000000,
			"mincut": 5
		},
		{
			"s1": "Brussels,+Belgium247",
			"s2": "Antwerp,+Belgium243",
			"t1": "Stockholm,+Sweden303",
			"t2": "Bracknell,+UnitedKingdom279",
			"suurballeNbPaths": 2,
			"suurballeTime": 1046491238,
			"suurballePaths": {
				"path0": [
					"Brussels,+Belgium247",
					"Brussels,+Belgium136",
					"Amsterdam,+Netherlands227",
					"London,+UnitedKingdom209",
					"Bracknell,+UnitedKingdom279"
				],
				"lat0": 8.000000,
				"nbSeg0": 1,
				"path1": [
					"Antwerp,+Belgium243",
					"Rotterdam,+Netherlands299",
					"Rotterdam,+Netherlands228",
					"Amsterdam,+Netherlands227",
					"Dusseldorf,+Germany163",
					"Dusseldorf,+Germany164",
					"Berlin,+Germany160",
					"Berlin,+Germany161",
					"Stockholm,+Sweden232",
					"Stockholm,+Sweden302",
					"Stockholm,+Sweden303"
				],
				"lat1": 21.000000,
				"nbSeg1": 3
			},
			"pathsExist": false,
			"runtime": 121308470,
			"nomLat1": 21.000000,
			"nomLat2": 11.000000,
			"maxNomLat": 21.000000,
			"mincut": 3
		},
		{
			"s1": "Vienna,+Austria126",
			"s2": "Munich,+Germany176",
			"t1": "Vienna,+Austria242",
			"t2": "Prague,+CzechRepublic157",
			"suurballeNbPaths": 2,
			"suurballeTime": 518522079,
			"suurballePaths": {
				"path0": [
					"Vienna,+Austria126",
					"Vienna,+Austria242"
				],
				"lat0": 1.000000,
				"nbSeg0": 0,
				"path1": [
					"Munich,+Germany176",
					"Vienna,+Austria125",
					"Vienna,+Austria123",
					"Prague,+CzechRepublic157"
				],
				"lat1": 7.000000,
				"nbSeg1": 0
			},
			"pathsExist": true,
			"path1": [
				"Vienna,+Austria126",
				"Vienna,+Austria242"
			],
			"lat1": 1.000000,
			"path2": [
				"Munich,+Germany176",
				"Prague,+CzechRepublic157"
			],
			"lat2": 7.000000,
			"maxlat": 7.000000,
			"runtime": 626879841,
			"nomLat1": 1.000000,
			"nomLat2": 7.000000,
			"maxNomLat": 7.000000,
			"mincut": 6
		},
		{
			"s1": "Berlin,+Germany259",
			"s2": "Milan,+Italy220",
			"t1": "Vienna,+Austria124",
			"t2": "Vienna,+Austria242",
			"suurballeNbPaths": 2,
			"suurballeTime": 1048237274,
			"suurballePaths": {
				"path0": [
					"Berlin,+Germany259",
					"Vienna,+Austria242"
				],
				"lat0": 4.000000,
				"nbSeg0": 0,
				"path1": [
					"Milan,+Italy220",
					"Geneva,+Switzerland139",
					"Geneva,+Switzerland144",
					"Frankfurt,+Germany170",
					"Munich,+Germany176",
					"Vienna,+Austria125",
					"Vienna,+Austria130",
					"Vienna,+Austria124"
				],
				"lat1": 16.000000,
				"nbSeg1": 2
			},
			"pathsExist": false,
			"runtime": 166689848,
			"nomLat1": 6.000000,
			"nomLat2": 24.000000,
			"maxNomLat": 24.000000,
			"mincut": 5
		},
		{
			"s1": "Bracknell,+UnitedKingdom278",
			"s2": "Antwerp,+Belgium243",
			"t1": "Amsterdam,+Netherlands298",
			"t2": "Stockholm,+Sweden231",
			"suurballeNbPaths": 2,
			"suurballeTime": 1044354864,
			"suurballePaths": {
				"path0": [
					"Antwerp,+Belgium243",
					"Rotterdam,+Netherlands299",
					"Amsterdam,+Netherlands298"
				],
				"lat0": 4.000000,
				"nbSeg0": 2,
				"path1": [
					"Bracknell,+UnitedKingdom278",
					"London,+UnitedKingdom289",
					"London,+UnitedKingdom288",
					"Manchester,+UnitedKingdom177",
					"Copenhagen,+Denmark179",
					"Stockholm,+Sweden231"
				],
				"lat1": 16.000000,
				"nbSeg1": 1
			},
			"pathsExist": false,
			"runtime": 142103836,
			"nomLat1": 12.000000,
			"nomLat2": 22.000000,
			"maxNomLat": 22.000000,
			"mincut": 5
		},
		{
			"s1": "Berlin,+Germany259",
			"s2": "London,+UnitedKingdom288",
			"t1": "Geneva,+Switzerland142",
			"t2": "Manchester,+UnitedKingdom177",
			"suurballeNbPaths": 2,
			"suurballeTime": 492422460,
			"suurballePaths": {
				"path0": [
					"London,+UnitedKingdom288",
					"Manchester,+UnitedKingdom177"
				],
				"lat0": 3.000000,
				"nbSeg0": 0,
				"path1": [
					"Berlin,+Germany259",
					"Berlin,+Germany160",
					"Dusseldorf,+Germany164",
					"Frankfurt,+Germany169",
					"Frankfurt,+Germany170",
					"Geneva,+Switzerland146",
					"Geneva,+Switzerland142"
				],
				"lat1": 13.000000,
				"nbSeg1": 0
			},
			"pathsExist": true,
			"path1": [
				"Berlin,+Germany259",
				"Geneva,+Switzerland142"
			],
			"lat1": 13.000000,
			"path2": [
				"London,+UnitedKingdom288",
				"Manchester,+UnitedKingdom177"
			],
			"lat2": 3.000000,
			"maxlat": 13.000000,
			"runtime": 762032117,
			"nomLat1": 13.000000,
			"nomLat2": 3.000000,
			"maxNomLat": 13.000000,
			"mincut": 5
		},
		{
			"s1": "Geneva,+Switzerland142",
			"s2": "Stockholm,+Sweden232",
			"t1": "Vienna,+Austria242",
			"t2": "Antwerp,+Belgium243",
			"suurballeNbPaths": 2,
			"suurballeTime": 1063663722,
			"suurballePaths": {
				"path0": [
					"Stockholm,+Sweden232",
					"Berlin,+Germany161",
					"Berlin,+Germany160",
					"Berlin,+Germany259",
					"Vienna,+Austria242"
				],
				"lat0": 12.000000,
				"nbSeg0": 0,
				"path1": [
					"Geneva,+Switzerland142",
					"Paris,+France193",
					"Brussels,+Belgium135",
					"Brussels,+Belgium246",
					"Antwerp,+Belgium244",
					"Antwerp,+Belgium243"
				],
				"lat1": 11.000000,
				"nbSeg1": 1
			},
			"pathsExist": false,
			"runtime": 167890616,
			"nomLat1": 17.000000,
			"nomLat2": 23.000000,
			"maxNomLat": 23.000000,
			"mincut": 5
		},
		{
			"s1": "Copenhagen,+Denmark271",
			"s2": "Vienna,+Austria123",
			"t1": "Manchester,+UnitedKingdom177",
			"t2": "Geneva,+Switzerland145",
			"suurballeNbPaths": 2,
			"suurballeTime": 1034949083,
			"suurballePaths": {
				"path0": [
					"Copenhagen,+Denmark271",
					"Manchester,+UnitedKingdom177"
				],
				"lat0": 6.000000,
				"nbSeg0": 2,
				"path1": [
					"Vienna,+Austria123",
					"Vienna,+Austria125",
					"Munich,+Germany176",
					"Frankfurt,+Germany170",
					"Geneva,+Switzerland145"
				],
				"lat1": 11.000000,
				"nbSeg1": 0
			},
			"pathsExist": true,
			"path1": [
				"Copenhagen,+Denmark271",
				"Manchester,+UnitedKingdom177"
			],
			"lat1": 7.000000,
			"path2": [
				"Vienna,+Austria123",
				"Geneva,+Switzerland145"
			],
			"lat2": 11.000000,
			"maxlat": 11.000000,
			"runtime": 190388324,
			"nomLat1": 7.000000,
			"nomLat2": 11.000000,
			"maxNomLat": 11.000000,
			"mincut": 7
		},
		{
			"s1": "Munich,+Germany176",
			"s2": "Vienna,+Austria126",
			"t1": "Geneva,+Switzerland145",
			"t2": "London,+UnitedKingdom288",
			"suurballeNbPaths": 2,
			"suurballeTime": 5152702,
			"suurballePaths": {
				"path0": [
					"Munich,+Germany176",
					"Frankfurt,+Germany170",
					"Geneva,+Switzerland145"
				],
				"lat0": 7.000000,
				"nbSeg0": 0,
				"path1": [
					"Vienna,+Austria126",
					"Munich,+Germany267",
					"Dusseldorf,+Germany260",
					"Dusseldorf,+Germany163",
					"Amsterdam,+Netherlands227",
					"London,+UnitedKingdom209",
					"London,+UnitedKingdom288"
				],
				"lat1": 14.000000,
				"nbSeg1": 4
			},
			"pathsExist": false,
			"runtime": 956402110,
			"nomLat1": 7.000000,
			"nomLat2": 16.000000,
			"maxNomLat": 16.000000,
			"mincut": 5
		},
		{
			"s1": "Prague,+CzechRepublic155",
			"s2": "Berlin,+Germany161",
			"t1": "Vienna,+Austria130",
			"t2": "London,+UnitedKingdom291",
			"suurballeNbPaths": 2,
			"suurballeTime": 30055751,
			"suurballePaths": {
				"path0": [
					"Prague,+CzechRepublic155",
					"Prague,+CzechRepublic157",
					"Vienna,+Austria124",
					"Vienna,+Austria130"
				],
				"lat0": 5.000000,
				"nbSeg0": 0,
				"path1": [
					"Berlin,+Germany161",
					"Berlin,+Germany160",
					"Dusseldorf,+Germany164",
					"Dusseldorf,+Germany163",
					"Amsterdam,+Netherlands227",
					"London,+UnitedKingdom209",
					"London,+UnitedKingdom288",
					"London,+UnitedKingdom291"
				],
				"lat1": 13.000000,
				"nbSeg1": 3
			},
			"pathsExist": true,
			"path1": [
				"Prague,+CzechRepublic155",
				"Vienna,+Austria130"
			],
			"lat1": 5.000000,
			"path2": [
				"Berlin,+Germany161",
				"Stockholm,+Sweden231",
				"London,+UnitedKingdom291"
			],
			"lat2": 21.000000,
			"maxlat": 21.000000,
			"runtime": 1052637428,
			"nomLat1": 5.000000,
			"nomLat2": 16.000000,
			"maxNomLat": 16.000000,
			"mincut": 4
		},
		{
			"s1": "London,+UnitedKingdom201",
			"s2": "Brussels,+Belgium135",
			"t1": "Berlin,+Germany259",
			"t2": "Stockholm,+Sweden304",
			"suurballeNbPaths": 2,
			"suurballeTime": 1089245472,
			"suurballePaths": {
				"path0": [
					"London,+UnitedKingdom201",
					"London,+UnitedKingdom209",
					"London,+UnitedKingdom288",
					"Manchester,+UnitedKingdom177",
					"Copenhagen,+Denmark271",
					"Stockholm,+Sweden304"
				],
				"lat0": 15.000000,
				"nbSeg0": 5,
				"path1": [
					"Brussels,+Belgium135",
					"Brussels,+Belgium136",
					"Amsterdam,+Netherlands227",
					"Dusseldorf,+Germany163",
					"Dusseldorf,+Germany164",
					"Berlin,+Germany160",
					"Berlin,+Germany259"
				],
				"lat1": 11.000000,
				"nbSeg1": 1
			},
			"pathsExist": false,
			"runtime": 168929615,
			"nomLat1": 15.000000,
			"nomLat2": 21.000000,
			"maxNomLat": 21.000000,
			"mincut": 5
		},
		{
			"s1": "Brussels,+Belgium246",
			"s2": "London,+UnitedKingdom289",
			"t1": "Geneva,+Switzerland145",
			"t2": "Stockholm,+Sweden303",
			"suurballeNbPaths": 2,
			"suurballeTime": 5395902,
			"suurballePaths": {
				"path0": [
					"Brussels,+Belgium246",
					"Brussels,+Belgium135",
					"Paris,+France193",
					"Geneva,+Switzerland140",
					"Geneva,+Switzerland145"
				],
				"lat0": 9.000000,
				"nbSeg0": 0,
				"path1": [
					"London,+UnitedKingdom289",
					"London,+UnitedKingdom288",
					"Manchester,+UnitedKingdom177",
					"Copenhagen,+Denmark179",
					"Stockholm,+Sweden231",
					"Stockholm,+Sweden303"
				],
				"lat1": 15.000000,
				"nbSeg1": 0
			},
			"pathsExist": false,
			"runtime": 854436941,
			"nomLat1": 9.000000,
			"nomLat2": 15.000000,
			"maxNomLat": 15.000000,
			"mincut": 6
		},
		{
			"s1": "Berlin,+Germany161",
			"s2": "Antwerp,+Belgium244",
			"t1": "London,+UnitedKingdom293",
			"t2": "Copenhagen,+Denmark271",
			"suurballeNbPaths": 2,
			"suurballeTime": 13543838,
			"suurballePaths": {
				"path0": [
					"Berlin,+Germany161",
					"Stockholm,+Sweden232",
					"Stockholm,+Sweden302",
					"Copenhagen,+Denmark271"
				],
				"lat0": 11.000000,
				"nbSeg0": 1,
				"path1": [
					"Antwerp,+Belgium244",
					"Brussels,+Belgium246",
					"Brussels,+Belgium136",
					"Amsterdam,+Netherlands227",
					"London,+UnitedKingdom208",
					"London,+UnitedKingdom293"
				],
				"lat1": 9.000000,
				"nbSeg1": 1
			},
			"pathsExist": false,
			"runtime": 727167286,
			"nomLat1": 14.000000,
			"nomLat2": 19.000000,
			"maxNomLat": 19.000000,
			"mincut": 7
		},
		{
			"s1": "Milan,+Italy220",
			"s2": "Vienna,+Austria242",
			"t1": "Brussels,+Belgium246",
			"t2": "Brussels,+Belgium135",
			"suurballeNbPaths": 2,
			"suurballeTime": 1091670776,
			"suurballePaths": {
				"path0": [
					"Milan,+Italy220",
					"Geneva,+Switzerland139",
					"Paris,+France193",
					"Brussels,+Belgium135"
				],
				"lat0": 10.000000,
				"nbSeg0": 1,
				"path1": [
					"Vienna,+Austria242",
					"Munich,+Germany267",
					"Dusseldorf,+Germany260",
					"Dusseldorf,+Germany163",
					"Amsterdam,+Netherlands227",
					"Brussels,+Belgium136",
					"Brussels,+Belgium246"
				],
				"lat1": 13.000000,
				"nbSeg1": 1
			},
			"pathsExist": false,
			"runtime": 193451931,
			"nomLat1": 11.000000,
			"nomLat2": 20.000000,
			"maxNomLat": 20.000000,
			"mincut": 3
		},
		{
			"s1": "Stockholm,+Sweden302",
			"s2": "London,+UnitedKingdom209",
			"t1": "New+York,+NY240",
			"t2": "Rotterdam,+Netherlands228",
			"suurballeNbPaths": 2,
			"suurballeTime": 735007318,
			"suurballePaths": {
				"path0": [
					"London,+UnitedKingdom209",
					"New+York,+NY239",
					"New+York,+NY240"
				],
				"lat0": 30.000000,
				"nbSeg0": 0,
				"path1": [
					"Stockholm,+Sweden302",
					"Stockholm,+Sweden232",
					"Berlin,+Germany161",
					"Berlin,+Germany160",
					"Dusseldorf,+Germany164",
					"Dusseldorf,+Germany163",
					"Amsterdam,+Netherlands227",
					"Rotterdam,+Netherlands228"
				],
				"lat1": 17.000000,
				"nbSeg1": 2
			},
			"pathsExist": false,
			"runtime": 432530486,
			"nomLat1": 56.000000,
			"nomLat2": 5.000000,
			"maxNomLat": 56.000000,
			"mincut": 4
		},
		{
			"s1": "Geneva,+Switzerland144",
			"s2": "Stockholm,+Sweden304",
			"t1": "Brussels,+Belgium135",
			"t2": "Munich,+Germany267",
			"suurballeNbPaths": 2,
			"suurballeTime": 1096815284,
			"suurballePaths": {
				"path0": [
					"Geneva,+Switzerland144",
					"Frankfurt,+Germany170",
					"Munich,+Germany176",
					"Munich,+Germany267"
				],
				"lat0": 8.000000,
				"nbSeg0": 0,
				"path1": [
					"Stockholm,+Sweden304",
					"Copenhagen,+Denmark271",
					"Manchester,+UnitedKingdom177",
					"Dusseldorf,+Germany163",
					"Amsterdam,+Netherlands227",
					"Brussels,+Belgium136",
					"Brussels,+Belgium135"
				],
				"lat1": 20.000000,
				"nbSeg1": 2
			},
			"pathsExist": false,
			"runtime": 168050489,
			"nomLat1": 8.000000,
			"nomLat2": 26.000000,
			"maxNomLat": 26.000000,
			"mincut": 8
		},
		{
			"s1": "Milan,+Italy219",
			"s2": "Frankfurt,+Germany263",
			"t1": "Vienna,+Austria123",
			"t2": "Stockholm,+Sweden304",
			"suurballeNbPaths": 2,
			"suurballeTime": 1095950332,
			"suurballePaths": {
				"path0": [
					"Milan,+Italy219",
					"Geneva,+Switzerland145",
					"Frankfurt,+Germany170",
					"Munich,+Germany176",
					"Vienna,+Austria125",
					"Vienna,+Austria123"
				],
				"lat0": 14.000000,
				"nbSeg0": 1,
				"path1": [
					"Frankfurt,+Germany263",
					"Dusseldorf,+Germany260",
					"Dusseldorf,+Germany163",
					"Manchester,+UnitedKingdom177",
					"Copenhagen,+Denmark271",
					"Stockholm,+Sweden304"
				],
				"lat1": 18.000000,
				"nbSeg1": 2
			},
			"pathsExist": false,
			"runtime": 168037742,
			"nomLat1": 14.000000,
			"nomLat2": 19.000000,
			"maxNomLat": 19.000000,
			"mincut": 6
		},
		{
			"s1": "Antwerp,+Belgium244",
			"s2": "Frankfurt,+Germany166",
			"t1": "London,+UnitedKingdom208",
			"t2": "Rotterdam,+Netherlands299",
			"suurballeNbPaths": 2,
			"suurballeTime": 1098949727,
			"suurballePaths": {
				"path0": [
					"Antwerp,+Belgium244",
					"Antwerp,+Belgium243",
					"Rotterdam,+Netherlands299"
				],
				"lat0": 3.000000,
				"nbSeg0": 0,
				"path1": [
					"Frankfurt,+Germany166",
					"Frankfurt,+Germany169",
					"Amsterdam,+Netherlands227",
					"London,+UnitedKingdom208"
				],
				"lat1": 7.000000,
				"nbSeg1": 0
			},
			"pathsExist": false,
			"runtime": 158379491,
			"nomLat1": 8.000000,
			"nomLat2": 7.000000,
			"maxNomLat": 8.000000,
			"mincut": 7
		},
		{
			"s1": "Vienna,+Austria130",
			"s2": "Geneva,+Switzerland139",
			"t1": "Dusseldorf,+Germany261",
			"t2": "Amsterdam,+Netherlands297",
			"suurballeNbPaths": 2,
			"suurballeTime": 1111377441,
			"suurballePaths": {
				"path0": [
					"Vienna,+Austria130",
					"Vienna,+Austria129",
					"Munich,+Germany267",
					"Dusseldorf,+Germany260",
					"Dusseldorf,+Germany261"
				],
				"lat0": 9.000000,
				"nbSeg0": 2,
				"path1": [
					"Geneva,+Switzerland139",
					"Geneva,+Switzerland144",
					"Frankfurt,+Germany170",
					"Frankfurt,+Germany169",
					"Amsterdam,+Netherlands227",
					"Rotterdam,+Netherlands228",
					"Rotterdam,+Netherlands299",
					"Amsterdam,+Netherlands297"
				],
				"lat1": 14.000000,
				"nbSeg1": 1
			},
			"pathsExist": false,
			"runtime": 166856110,
			"nomLat1": 12.000000,
			"nomLat2": 15.000000,
			"maxNomLat": 15.000000,
			"mincut": 7
		},
		{
			"s1": "Copenhagen,+Denmark270",
			"s2": "Stockholm,+Sweden302",
			"t1": "Munich,+Germany266",
			"t2": "Amsterdam,+Netherlands227",
			"suurballeNbPaths": 2,
			"suurballeTime": 4750273,
			"suurballePaths": {
				"path0": [
					"Copenhagen,+Denmark270",
					"Copenhagen,+Denmark271",
					"Manchester,+UnitedKingdom177",
					"Dusseldorf,+Germany163",
					"Amsterdam,+Netherlands227"
				],
				"lat0": 14.000000,
				"nbSeg0": 2,
				"path1": [
					"Stockholm,+Sweden302",
					"Stockholm,+Sweden232",
					"Berlin,+Germany161",
					"Berlin,+Germany162",
					"Munich,+Germany267",
					"Munich,+Germany266"
				],
				"lat1": 13.000000,
				"nbSeg1": 2
			},
			"pathsExist": false,
			"runtime": 928569512,
			"nomLat1": 19.000000,
			"nomLat2": 19.000000,
			"maxNomLat": 19.000000,
			"mincut": 3
		},
		{
			"s1": "Munich,+Germany266",
			"s2": "Paris,+France196",
			"t1": "New+York,+NY240",
			"t2": "Milan,+Italy220",
			"suurballeNbPaths": 2,
			"suurballeTime": 1098653449,
			"suurballePaths": {
				"path0": [
					"Paris,+France196",
					"Paris,+France193",
					"New+York,+NY240"
				],
				"lat0": 32.000000,
				"nbSeg0": 0,
				"path1": [
					"Munich,+Germany266",
					"Munich,+Germany267",
					"Munich,+Germany176",
					"Frankfurt,+Germany170",
					"Geneva,+Switzerland144",
					"Geneva,+Switzerland139",
					"Milan,+Italy220"
				],
				"lat1": 13.000000,
				"nbSeg1": 3
			},
			"pathsExist": false,
			"runtime": 160473933,
			"nomLat1": 45.000000,
			"nomLat2": 8.000000,
			"maxNomLat": 45.000000,
			"mincut": 4
		},
		{
			"s1": "Geneva,+Switzerland144",
			"s2": "Brussels,+Belgium136",
			"t1": "Manchester,+UnitedKingdom177",
			"t2": "Antwerp,+Belgium243",
			"suurballeNbPaths": 2,
			"suurballeTime": 1100862558,
			"suurballePaths": {
				"path0": [
					"Brussels,+Belgium136",
					"Brussels,+Belgium247",
					"Antwerp,+Belgium244",
					"Antwerp,+Belgium243"
				],
				"lat0": 4.000000,
				"nbSeg0": 1,
				"path1": [
					"Geneva,+Switzerland144",
					"Geneva,+Switzerland139",
					"Paris,+France193",
					"London,+UnitedKingdom209",
					"London,+UnitedKingdom288",
					"Manchester,+UnitedKingdom177"
				],
				"lat1": 12.000000,
				"nbSeg1": 3
			},
			"pathsExist": false,
			"runtime": 157399935,
			"nomLat1": 15.000000,
			"nomLat2": 4.000000,
			"maxNomLat": 15.000000,
			"mincut": 5
		},
		{
			"s1": "Berlin,+Germany259",
			"s2": "Stockholm,+Sweden231",
			"t1": "Vienna,+Austria124",
			"t2": "Dusseldorf,+Germany260",
			"suurballeNbPaths": 2,
			"suurballeTime": 7118896,
			"suurballePaths": {
				"path0": [
					"Berlin,+Germany259",
					"Vienna,+Austria126",
					"Vienna,+Austria130",
					"Vienna,+Austria124"
				],
				"lat0": 6.000000,
				"nbSeg0": 0,
				"path1": [
					"Stockholm,+Sweden231",
					"Stockholm,+Sweden232",
					"Berlin,+Germany161",
					"Berlin,+Germany160",
					"Dusseldorf,+Germany164",
					"Dusseldorf,+Germany260"
				],
				"lat1": 13.000000,
				"nbSeg1": 1
			},
			"pathsExist": true,
			"path1": [
				"Berlin,+Germany259",
				"Vienna,+Austria124"
			],
			"lat1": 6.000000,
			"path2": [
				"Stockholm,+Sweden231",
				"Dusseldorf,+Germany260"
			],
			"lat2": 16.000000,
			"maxlat": 16.000000,
			"runtime": 1090922756,
			"nomLat1": 6.000000,
			"nomLat2": 16.000000,
			"maxNomLat": 16.000000,
			"mincut": 6
		},
		{
			"s1": "Munich,+Germany266",
			"s2": "Geneva,+Switzerland142",
			"t1": "Geneva,+Switzerland146",
			"t2": "Rotterdam,+Netherlands299",
			"suurballeNbPaths": 2,
			"suurballeTime": 1119923318,
			"suurballePaths": {
				"path0": [
					"Geneva,+Switzerland142",
					"Geneva,+Switzerland146"
				],
				"lat0": 1.000000,
				"nbSeg0": 0,
				"path1": [
					"Munich,+Germany266",
					"Dusseldorf,+Germany261",
					"Dusseldorf,+Germany163",
					"Amsterdam,+Netherlands227",
					"Rotterdam,+Netherlands228",
					"Rotterdam,+Netherlands299"
				],
				"lat1": 10.000000,
				"nbSeg1": 2
			},
			"pathsExist": false,
			"runtime": 168451568,
			"nomLat1": 13.000000,
			"nomLat2": 13.000000,
			"maxNomLat": 13.000000,
			"mincut": 5
		},
		{
			"s1": "New+York,+NY240",
			"s2": "London,+UnitedKingdom287",
			"t1": "New+York,+NY239",
			"t2": "London,+UnitedKingdom288",
			"suurballeNbPaths": 2,
			"suurballeTime": 12409733,
			"suurballePaths": {
				"path0": [
					"New+York,+NY240",
					"New+York,+NY239"
				],
				"lat0": 1.000000,
				"nbSeg0": 0,
				"path1": [
					"London,+UnitedKingdom287",
					"London,+UnitedKingdom291",
					"London,+UnitedKingdom288"
				],
				"lat1": 2.000000,
				"nbSeg1": 1
			},
			"pathsExist": true,
			"path1": [
				"New+York,+NY240",
				"London,+UnitedKingdom208",
				"New+York,+NY239"
			],
			"lat1": 63.000000,
			"path2": [
				"London,+UnitedKingdom287",
				"London,+UnitedKingdom291",
				"London,+UnitedKingdom288"
			],
			"lat2": 2.000000,
			"maxlat": 63.000000,
			"runtime": 1155834159,
			"nomLat1": 1.000000,
			"nomLat2": 2.000000,
			"maxNomLat": 2.000000,
			"mincut": 6
		},
		{
			"s1": "Rotterdam,+Netherlands299",
			"s2": "New+York,+NY239",
			"t1": "Paris,+France193",
			"t2": "Berlin,+Germany162",
			"suurballeNbPaths": 2,
			"suurballeTime": 549349438,
			"suurballePaths": {
				"path0": [
					"New+York,+NY239",
					"London,+UnitedKingdom208",
					"Paris,+France193"
				],
				"lat0": 32.000000,
				"nbSeg0": 1,
				"path1": [
					"Rotterdam,+Netherlands299",
					"Rotterdam,+Netherlands228",
					"Amsterdam,+Netherlands227",
					"Dusseldorf,+Germany163",
					"Dusseldorf,+Germany164",
					"Berlin,+Germany160",
					"Berlin,+Germany162"
				],
				"lat1": 11.000000,
				"nbSeg1": 1
			},
			"pathsExist": false,
			"runtime": 687918746,
			"nomLat1": 9.000000,
			"nomLat2": 42.000000,
			"maxNomLat": 42.000000,
			"mincut": 6
		},
		{
			"s1": "Stockholm,+Sweden232",
			"s2": "Stockholm,+Sweden303",
			"t1": "Geneva,+Switzerland142",
			"t2": "Berlin,+Germany162",
			"suurballeNbPaths": 2,
			"suurballeTime": 4126022,
			"suurballePaths": {
				"path0": [
					"Stockholm,+Sweden232",
					"Berlin,+Germany161",
					"Berlin,+Germany162"
				],
				"lat0": 7.000000,
				"nbSeg0": 0,
				"path1": [
					"Stockholm,+Sweden303",
					"Stockholm,+Sweden302",
					"Copenhagen,+Denmark271",
					"Manchester,+UnitedKingdom177",
					"London,+UnitedKingdom288",
					"London,+UnitedKingdom209",
					"Paris,+France193",
					"Geneva,+Switzerland142"
				],
				"lat1": 22.000000,
				"nbSeg1": 4
			},
			"pathsExist": false,
			"runtime": 1070402626,
			"nomLat1": 28.000000,
			"nomLat2": 22.000000,
			"maxNomLat": 28.000000,
			"mincut": 3
		},
		{
			"s1": "Vienna,+Austria123",
			"s2": "Stockholm,+Sweden302",
			"t1": "Vienna,+Austria125",
			"t2": "London,+UnitedKingdom291",
			"suurballeNbPaths": 2,
			"suurballeTime": 567359821,
			"suurballePaths": {
				"path0": [
					"Vienna,+Austria123",
					"Vienna,+Austria125"
				],
				"lat0": 1.000000,
				"nbSeg0": 0,
				"path1": [
					"Stockholm,+Sweden302",
					"Copenhagen,+Denmark271",
					"Manchester,+UnitedKingdom177",
					"London,+UnitedKingdom288",
					"London,+UnitedKingdom291"
				],
				"lat1": 14.000000,
				"nbSeg1": 1
			},
			"pathsExist": true,
			"path1": [
				"Vienna,+Austria123",
				"Vienna,+Austria125"
			],
			"lat1": 1.000000,
			"path2": [
				"Stockholm,+Sweden302",
				"Copenhagen,+Denmark271",
				"London,+UnitedKingdom291"
			],
			"lat2": 15.000000,
			"maxlat": 15.000000,
			"runtime": 634760709,
			"nomLat1": 1.000000,
			"nomLat2": 16.000000,
			"maxNomLat": 16.000000,
			"mincut": 7
		},
		{
			"s1": "Amsterdam,+Netherlands298",
			"s2": "Antwerp,+Belgium243",
			"t1": "London,+UnitedKingdom200",
			"t2": "Berlin,+Germany259",
			"suurballeNbPaths": 2,
			"suurballeTime": 1131118206,
			"suurballePaths": {
				"path0": [
					"Amsterdam,+Netherlands298",
					"Rotterdam,+Netherlands299",
					"Rotterdam,+Netherlands228",
					"Amsterdam,+Netherlands227",
					"London,+UnitedKingdom209",
					"London,+UnitedKingdom201",
					"London,+UnitedKingdom200"
				],
				"lat0": 10.000000,
				"nbSeg0": 4,
				"path1": [
					"Antwerp,+Belgium243",
					"Antwerp,+Belgium244",
					"Brussels,+Belgium246",
					"Brussels,+Belgium136",
					"Amsterdam,+Netherlands227",
					"Dusseldorf,+Germany163",
					"Dusseldorf,+Germany164",
					"Berlin,+Germany160",
					"Berlin,+Germany259"
				],
				"lat1": 14.000000,
				"nbSeg1": 2
			},
			"pathsExist": false,
			"runtime": 167382078,
			"nomLat1": 18.000000,
			"nomLat2": 15.000000,
			"maxNomLat": 18.000000,
			"mincut": 2
		},
		{
			"s1": "Copenhagen,+Denmark271",
			"s2": "Stockholm,+Sweden304",
			"t1": "Brussels,+Belgium135",
			"t2": "Berlin,+Germany160",
			"suurballeNbPaths": 2,
			"suurballeTime": 1129607814,
			"suurballePaths": {
				"path0": [
					"Copenhagen,+Denmark271",
					"Stockholm,+Sweden302",
					"Stockholm,+Sweden232",
					"Berlin,+Germany161",
					"Berlin,+Germany160"
				],
				"lat0": 12.000000,
				"nbSeg0": 1,
				"path1": [
					"Stockholm,+Sweden304",
					"Copenhagen,+Denmark271",
					"Manchester,+UnitedKingdom177",
					"Dusseldorf,+Germany163",
					"Amsterdam,+Netherlands227",
					"Brussels,+Belgium136",
					"Brussels,+Belgium135"
				],
				"lat1": 20.000000,
				"nbSeg1": 2
			},
			"pathsExist": false,
			"runtime": 116789644,
			"nomLat1": 17.000000,
			"nomLat2": 21.000000,
			"maxNomLat": 21.000000,
			"mincut": 3
		},
		{
			"s1": "Copenhagen,+Denmark182",
			"s2": "Geneva,+Switzerland141",
			"t1": "Vienna,+Austria124",
			"t2": "Copenhagen,+Denmark271",
			"suurballeNbPaths": 2,
			"suurballeTime": 31659038,
			"suurballePaths": {
				"path0": [
					"Copenhagen,+Denmark182",
					"Copenhagen,+Denmark179",
					"Copenhagen,+Denmark271"
				],
				"lat0": 2.000000,
				"nbSeg0": 0,
				"path1": [
					"Geneva,+Switzerland141",
					"Geneva,+Switzerland146",
					"Frankfurt,+Germany170",
					"Munich,+Germany176",
					"Vienna,+Austria125",
					"Vienna,+Austria130",
					"Vienna,+Austria124"
				],
				"lat1": 13.000000,
				"nbSeg1": 0
			},
			"pathsExist": false,
			"runtime": 687638441,
			"nomLat1": 25.000000,
			"nomLat2": 26.000000,
			"maxNomLat": 26.000000,
			"mincut": 4
		},
		{
			"s1": "Vienna,+Austria126",
			"s2": "Milan,+Italy217",
			"t1": "Brussels,+Belgium135",
			"t2": "Amsterdam,+Netherlands298",
			"suurballeNbPaths": 2,
			"suurballeTime": 1128375170,
			"suurballePaths": {
				"path0": [
					"Milan,+Italy217",
					"Geneva,+Switzerland146",
					"Geneva,+Switzerland141",
					"Paris,+France193",
					"Brussels,+Belgium135"
				],
				"lat0": 11.000000,
				"nbSeg0": 1,
				"path1": [
					"Vienna,+Austria126",
					"Munich,+Germany267",
					"Dusseldorf,+Germany260",
					"Dusseldorf,+Germany163",
					"Amsterdam,+Netherlands227",
					"Rotterdam,+Netherlands228",
					"Rotterdam,+Netherlands299",
					"Amsterdam,+Netherlands298"
				],
				"lat1": 15.000000,
				"nbSeg1": 5
			},
			"pathsExist": false,
			"runtime": 160076198,
			"nomLat1": 15.000000,
			"nomLat2": 17.000000,
			"maxNomLat": 17.000000,
			"mincut": 3
		},
		{
			"s1": "Geneva,+Switzerland142",
			"s2": "Rotterdam,+Netherlands228",
			"t1": "New+York,+NY239",
			"t2": "London,+UnitedKingdom209",
			"suurballeNbPaths": 2,
			"suurballeTime": 1130452091,
			"suurballePaths": {
				"path0": [
					"Rotterdam,+Netherlands228",
					"Amsterdam,+Netherlands227",
					"London,+UnitedKingdom209"
				],
				"lat0": 5.000000,
				"nbSeg0": 0,
				"path1": [
					"Geneva,+Switzerland142",
					"Paris,+France193",
					"London,+UnitedKingdom208",
					"New+York,+NY239"
				],
				"lat1": 36.000000,
				"nbSeg1": 1
			},
			"pathsExist": false,
			"runtime": 141191053,
			"nomLat1": 36.000000,
			"nomLat2": 5.000000,
			"maxNomLat": 36.000000,
			"mincut": 4
		},
		{
			"s1": "Manchester,+UnitedKingdom177",
			"s2": "Amsterdam,+Netherlands297",
			"t1": "Milan,+Italy217",
			"t2": "London,+UnitedKingdom208",
			"suurballeNbPaths": 2,
			"suurballeTime": 1133385653,
			"suurballePaths": {
				"path0": [
					"Manchester,+UnitedKingdom177",
					"London,+UnitedKingdom288",
					"London,+UnitedKingdom289",
					"London,+UnitedKingdom208"
				],
				"lat0": 5.000000,
				"nbSeg0": 1,
				"path1": [
					"Amsterdam,+Netherlands297",
					"Rotterdam,+Netherlands299",
					"Rotterdam,+Netherlands228",
					"Amsterdam,+Netherlands227",
					"Frankfurt,+Germany169",
					"Frankfurt,+Germany170",
					"Geneva,+Switzerland144",
					"Milan,+Italy217"
				],
				"lat1": 16.000000,
				"nbSeg1": 0
			},
			"pathsExist": false,
			"runtime": 160469883,
			"nomLat1": 18.000000,
			"nomLat2": 8.000000,
			"maxNomLat": 18.000000,
			"mincut": 5
		},
		{
			"s1": "Dusseldorf,+Germany164",
			"s2": "Geneva,+Switzerland141",
			"t1": "Antwerp,+Belgium243",
			"t2": "Prague,+CzechRepublic155",
			"suurballeNbPaths": 2,
			"suurballeTime": 3590345,
			"suurballePaths": {
				"path0": [
					"Dusseldorf,+Germany164",
					"Berlin,+Germany160",
					"Berlin,+Germany161",
					"Prague,+CzechRepublic155"
				],
				"lat0": 8.000000,
				"nbSeg0": 0,
				"path1": [
					"Geneva,+Switzerland141",
					"Paris,+France193",
					"Brussels,+Belgium135",
					"Brussels,+Belgium246",
					"Antwerp,+Belgium244",
					"Antwerp,+Belgium243"
				],
				"lat1": 11.000000,
				"nbSeg1": 2
			},
			"pathsExist": false,
			"runtime": 1185847962,
			"nomLat1": 10.000000,
			"nomLat2": 16.000000,
			"maxNomLat": 16.000000,
			"mincut": 4
		},
		{
			"s1": "Antwerp,+Belgium244",
			"s2": "Copenhagen,+Denmark182",
			"t1": "Vienna,+Austria124",
			"t2": "Bracknell,+UnitedKingdom278",
			"suurballeNbPaths": 2,
			"suurballeTime": 3101648,
			"suurballePaths": {
				"path0": [
					"Antwerp,+Belgium244",
					"Brussels,+Belgium246",
					"Brussels,+Belgium136",
					"Amsterdam,+Netherlands227",
					"London,+UnitedKingdom209",
					"Bracknell,+UnitedKingdom278"
				],
				"lat0": 10.000000,
				"nbSeg0": 2,
				"path1": [
					"Copenhagen,+Denmark182",
					"Copenhagen,+Denmark179",
					"Stockholm,+Sweden231",
					"Stockholm,+Sweden232",
					"Berlin,+Germany161",
					"Prague,+CzechRepublic155",
					"Prague,+CzechRepublic157",
					"Vienna,+Austria124"
				],
				"lat1": 19.000000,
				"nbSeg1": 1
			},
			"pathsExist": false,
			"runtime": 1083451588,
			"nomLat1": 17.000000,
			"nomLat2": 12.000000,
			"maxNomLat": 17.000000,
			"mincut": 5
		},
		{
			"s1": "Berlin,+Germany161",
			"s2": "Amsterdam,+Netherlands298",
			"t1": "Frankfurt,+Germany166",
			"t2": "New+York,+NY240",
			"suurballeNbPaths": 2,
			"suurballeTime": 1109236896,
			"suurballePaths": {
				"path0": [
					"Berlin,+Germany161",
					"Berlin,+Germany160",
					"Dusseldorf,+Germany164",
					"Frankfurt,+Germany169",
					"Frankfurt,+Germany166"
				],
				"lat0": 8.000000,
				"nbSeg0": 0,
				"path1": [
					"Amsterdam,+Netherlands298",
					"Rotterdam,+Netherlands299",
					"Rotterdam,+Netherlands228",
					"Amsterdam,+Netherlands227",
					"London,+UnitedKingdom208",
					"New+York,+NY239",
					"New+York,+NY240"
				],
				"lat1": 38.000000,
				"nbSeg1": 4
			},
			"pathsExist": false,
			"runtime": 200161938,
			"nomLat1": 8.000000,
			"nomLat2": 43.000000,
			"maxNomLat": 43.000000,
			"mincut": 6
		},
		{
			"s1": "New+York,+NY239",
			"s2": "Milan,+Italy219",
			"t1": "Frankfurt,+Germany170",
			"t2": "Brussels,+Belgium136",
			"suurballeNbPaths": 2,
			"suurballeTime": 40891262,
			"suurballePaths": {
				"path0": [
					"Milan,+Italy219",
					"Geneva,+Switzerland145",
					"Frankfurt,+Germany170"
				],
				"lat0": 7.000000,
				"nbSeg0": 1,
				"path1": [
					"New+York,+NY239",
					"London,+UnitedKingdom208",
					"Amsterdam,+Netherlands227",
					"Brussels,+Belgium136"
				],
				"lat1": 34.000000,
				"nbSeg1": 1
			},
			"pathsExist": false,
			"runtime": 704028078,
			"nomLat1": 37.000000,
			"nomLat2": 13.000000,
			"maxNomLat": 37.000000,
			"mincut": 6
		},
		{
			"s1": "London,+UnitedKingdom287",
			"s2": "Stockholm,+Sweden304",
			"t1": "London,+UnitedKingdom207",
			"t2": "London,+UnitedKingdom201",
			"suurballeNbPaths": 2,
			"suurballeTime": 1121149069,
			"suurballePaths": {
				"path0": [
					"London,+UnitedKingdom287",
					"London,+UnitedKingdom291",
					"London,+UnitedKingdom201"
				],
				"lat0": 2.000000,
				"nbSeg0": 1,
				"path1": [
					"Stockholm,+Sweden304",
					"Copenhagen,+Denmark271",
					"Manchester,+UnitedKingdom177",
					"London,+UnitedKingdom288",
					"London,+UnitedKingdom209",
					"London,+UnitedKingdom293",
					"London,+UnitedKingdom207"
				],
				"lat1": 16.000000,
				"nbSeg1": 5
			},
			"pathsExist": false,
			"runtime": 141007877,
			"nomLat1": 7.000000,
			"nomLat2": 29.000000,
			"maxNomLat": 29.000000,
			"mincut": 6
		},
		{
			"s1": "London,+UnitedKingdom287",
			"s2": "London,+UnitedKingdom200",
			"t1": "New+York,+NY239",
			"t2": "Frankfurt,+Germany263",
			"suurballeNbPaths": 2,
			"suurballeTime": 14539058,
			"suurballePaths": {
				"path0": [
					"London,+UnitedKingdom200",
					"London,+UnitedKingdom201",
					"London,+UnitedKingdom209",
					"New+York,+NY239"
				],
				"lat0": 31.000000,
				"nbSeg0": 2,
				"path1": [
					"London,+UnitedKingdom287",
					"London,+UnitedKingdom208",
					"Amsterdam,+Netherlands227",
					"Frankfurt,+Germany169",
					"Frankfurt,+Germany263"
				],
				"lat1": 8.000000,
				"nbSeg1": 2
			},
			"pathsExist": false,
			"runtime": 680560693,
			"nomLat1": 30.000000,
			"nomLat2": 10.000000,
			"maxNomLat": 30.000000,
			"mincut": 6
		},
		{
			"s1": "Rotterdam,+Netherlands228",
			"s2": "Brussels,+Belgium136",
			"t1": "Vienna,+Austria124",
			"t2": "Hamburg,+Germany264",
			"suurballeNbPaths": 2,
			"suurballeTime": 521490612,
			"suurballePaths": {
				"path0": [
					"Rotterdam,+Netherlands228",
					"Amsterdam,+Netherlands227",
					"Dusseldorf,+Germany163",
					"Dusseldorf,+Germany260",
					"Hamburg,+Germany264"
				],
				"lat0": 8.000000,
				"nbSeg0": 2,
				"path1": [
					"Brussels,+Belgium136",
					"Amsterdam,+Netherlands227",
					"Frankfurt,+Germany169",
					"Frankfurt,+Germany170",
					"Munich,+Germany176",
					"Vienna,+Austria125",
					"Vienna,+Austria130",
					"Vienna,+Austria124"
				],
				"lat1": 14.000000,
				"nbSeg1": 0
			},
			"pathsExist": false,
			"runtime": 715134045,
			"nomLat1": 14.000000,
			"nomLat2": 9.000000,
			"maxNomLat": 14.000000,
			"mincut": 3
		},
		{
			"s1": "Prague,+CzechRepublic155",
			"s2": "Munich,+Germany267",
			"t1": "Berlin,+Germany162",
			"t2": "Milan,+Italy217",
			"suurballeNbPaths": 2,
			"suurballeTime": 19366213,
			"suurballePaths": {
				"path0": [
					"Prague,+CzechRepublic155",
					"Berlin,+Germany161",
					"Berlin,+Germany162"
				],
				"lat0": 4.000000,
				"nbSeg0": 0,
				"path1": [
					"Munich,+Germany267",
					"Munich,+Germany176",
					"Frankfurt,+Germany170",
					"Geneva,+Switzerland144",
					"Milan,+Italy217"
				],
				"lat1": 11.000000,
				"nbSeg1": 0
			},
			"pathsExist": true,
			"path1": [
				"Prague,+CzechRepublic155",
				"Berlin,+Germany162"
			],
			"lat1": 4.000000,
			"path2": [
				"Munich,+Germany267",
				"Frankfurt,+Germany168",
				"Milan,+Italy217"
			],
			"lat2": 14.000000,
			"maxlat": 14.000000,
			"runtime": 1083640117,
			"nomLat1": 4.000000,
			"nomLat2": 11.000000,
			"maxNomLat": 11.000000,
			"mincut": 5
		},
		{
			"s1": "Copenhagen,+Denmark270",
			"s2": "Frankfurt,+Germany263",
			"t1": "Stockholm,+Sweden231",
			"t2": "Vienna,+Austria124",
			"suurballeNbPaths": 2,
			"suurballeTime": 3960749,
			"suurballePaths": {
				"path0": [
					"Copenhagen,+Denmark270",
					"Stockholm,+Sweden303",
					"Stockholm,+Sweden231"
				],
				"lat0": 5.000000,
				"nbSeg0": 1,
				"path1": [
					"Frankfurt,+Germany263",
					"Frankfurt,+Germany170",
					"Munich,+Germany176",
					"Vienna,+Austria125",
					"Vienna,+Austria130",
					"Vienna,+Austria124"
				],
				"lat1": 9.000000,
				"nbSeg1": 1
			},
			"pathsExist": true,
			"path1": [
				"Copenhagen,+Denmark270",
				"Stockholm,+Sweden303",
				"Stockholm,+Sweden231"
			],
			"lat1": 5.000000,
			"path2": [
				"Frankfurt,+Germany263",
				"Vienna,+Austria124"
			],
			"lat2": 10.000000,
			"maxlat": 10.000000,
			"runtime": 1244459113,
			"nomLat1": 6.000000,
			"nomLat2": 10.000000,
			"maxNomLat": 10.000000,
			"mincut": 5
		},
		{
			"s1": "Vienna,+Austria125",
			"s2": "Milan,+Italy220",
			"t1": "London,+UnitedKingdom201",
			"t2": "London,+UnitedKingdom289",
			"suurballeNbPaths": 2,
			"suurballeTime": 1140365596,
			"suurballePaths": {
				"path0": [
					"Vienna,+Austria125",
					"Munich,+Germany176",
					"Frankfurt,+Germany170",
					"Paris,+France196",
					"London,+UnitedKingdom201"
				],
				"lat0": 13.000000,
				"nbSeg0": 0,
				"path1": [
					"Milan,+Italy220",
					"Geneva,+Switzerland139",
					"Paris,+France193",
					"London,+UnitedKingdom208",
					"London,+UnitedKingdom289"
				],
				"lat1": 11.000000,
				"nbSeg1": 1
			},
			"pathsExist": false,
			"runtime": 156933930,
			"nomLat1": 13.000000,
			"nomLat2": 11.000000,
			"maxNomLat": 13.000000,
			"mincut": 7
		},
		{
			"s1": "Stockholm,+Sweden303",
			"s2": "Copenhagen,+Denmark271",
			"t1": "Paris,+France196",
			"t2": "London,+UnitedKingdom293",
			"suurballeNbPaths": 2,
			"suurballeTime": 18179224,
			"suurballePaths": {
				"path0": [
					"Copenhagen,+Denmark271",
					"Manchester,+UnitedKingdom177",
					"London,+UnitedKingdom288",
					"London,+UnitedKingdom209",
					"London,+UnitedKingdom293"
				],
				"lat0": 11.000000,
				"nbSeg0": 4,
				"path1": [
					"Stockholm,+Sweden303",
					"Stockholm,+Sweden302",
					"Stockholm,+Sweden232",
					"Berlin,+Germany161",
					"Berlin,+Germany160",
					"Dusseldorf,+Germany164",
					"Frankfurt,+Germany169",
					"Frankfurt,+Germany170",
					"Paris,+France196"
				],
				"lat1": 20.000000,
				"nbSeg1": 2
			},
			"pathsExist": false,
			"runtime": 1020433381,
			"nomLat1": 26.000000,
			"nomLat2": 18.000000,
			"maxNomLat": 26.000000,
			"mincut": 3
		},
		{
			"s1": "Stockholm,+Sweden304",
			"s2": "Manchester,+UnitedKingdom177",
			"t1": "Vienna,+Austria129",
			"t2": "New+York,+NY239",
			"suurballeNbPaths": 2,
			"suurballeTime": 1126205216,
			"suurballePaths": {
				"path0": [
					"Manchester,+UnitedKingdom177",
					"London,+UnitedKingdom288",
					"London,+UnitedKingdom209",
					"New+York,+NY239"
				],
				"lat0": 33.000000,
				"nbSeg0": 1,
				"path1": [
					"Stockholm,+Sweden304",
					"Copenhagen,+Denmark271",
					"Manchester,+UnitedKingdom177",
					"Dusseldorf,+Germany163",
					"Dusseldorf,+Germany260",
					"Munich,+Germany267",
					"Vienna,+Austria129"
				],
				"lat1": 23.000000,
				"nbSeg1": 4
			},
			"pathsExist": false,
			"runtime": 184297326,
			"nomLat1": 29.000000,
			"nomLat2": 39.000000,
			"maxNomLat": 39.000000,
			"mincut": 3
		},
		{
			"s1": "Frankfurt,+Germany263",
			"s2": "Prague,+CzechRepublic155",
			"t1": "Dusseldorf,+Germany163",
			"t2": "Antwerp,+Belgium243",
			"suurballeNbPaths": 2,
			"suurballeTime": 1155087463,
			"suurballePaths": {
				"path0": [
					"Prague,+CzechRepublic155",
					"Berlin,+Germany161",
					"Berlin,+Germany160",
					"Dusseldorf,+Germany164",
					"Dusseldorf,+Germany163"
				],
				"lat0": 9.000000,
				"nbSeg0": 0,
				"path1": [
					"Frankfurt,+Germany263",
					"Frankfurt,+Germany169",
					"Amsterdam,+Netherlands227",
					"Rotterdam,+Netherlands228",
					"Rotterdam,+Netherlands299",
					"Antwerp,+Belgium243"
				],
				"lat1": 9.000000,
				"nbSeg1": 2
			},
			"pathsExist": false,
			"runtime": 167625351,
			"nomLat1": 3.000000,
			"nomLat2": 18.000000,
			"maxNomLat": 18.000000,
			"mincut": 6
		},
		{
			"s1": "New+York,+NY240",
			"s2": "Paris,+France193",
			"t1": "Copenhagen,+Denmark182",
			"t2": "Berlin,+Germany161",
			"suurballeNbPaths": 2,
			"suurballeTime": 8247842,
			"suurballePaths": {
				"path0": [
					"New+York,+NY240",
					"New+York,+NY239",
					"London,+UnitedKingdom209",
					"London,+UnitedKingdom288",
					"Manchester,+UnitedKingdom177",
					"Copenhagen,+Denmark182"
				],
				"lat0": 40.000000,
				"nbSeg0": 1,
				"path1": [
					"Paris,+France193",
					"Paris,+France196",
					"Frankfurt,+Germany170",
					"Frankfurt,+Germany169",
					"Dusseldorf,+Germany164",
					"Berlin,+Germany160",
					"Berlin,+Germany161"
				],
				"lat1": 13.000000,
				"nbSeg1": 0
			},
			"pathsExist": false,
			"runtime": 809382004,
			"nomLat1": 50.000000,
			"nomLat2": 13.000000,
			"maxNomLat": 50.000000,
			"mincut": 5
		},
		{
			"s1": "Vienna,+Austria125",
			"s2": "Geneva,+Switzerland141",
			"t1": "Copenhagen,+Denmark182",
			"t2": "Vienna,+Austria124",
			"suurballeNbPaths": 2,
			"suurballeTime": 3964224,
			"suurballePaths": {
				"path0": [
					"Vienna,+Austria125",
					"Vienna,+Austria130",
					"Vienna,+Austria124"
				],
				"lat0": 2.000000,
				"nbSeg0": 0,
				"path1": [
					"Geneva,+Switzerland141",
					"Paris,+France193",
					"London,+UnitedKingdom209",
					"London,+UnitedKingdom288",
					"Manchester,+UnitedKingdom177",
					"Copenhagen,+Denmark182"
				],
				"lat1": 17.000000,
				"nbSeg1": 3
			},
			"pathsExist": false,
			"runtime": 1125790414,
			"nomLat1": 23.000000,
			"nomLat2": 13.000000,
			"maxNomLat": 23.000000,
			"mincut": 4
		},
		{
			"s1": "Hamburg,+Germany264",
			"s2": "Geneva,+Switzerland141",
			"t1": "London,+UnitedKingdom291",
			"t2": "London,+UnitedKingdom207",
			"suurballeNbPaths": 2,
			"suurballeTime": 4018646,
			"suurballePaths": {
				"path0": [
					"Geneva,+Switzerland141",
					"Paris,+France193",
					"London,+UnitedKingdom207"
				],
				"lat0": 7.000000,
				"nbSeg0": 1,
				"path1": [
					"Hamburg,+Germany264",
					"Dusseldorf,+Germany260",
					"Dusseldorf,+Germany163",
					"Amsterdam,+Netherlands227",
					"London,+UnitedKingdom209",
					"London,+UnitedKingdom288",
					"London,+UnitedKingdom291"
				],
				"lat1": 11.000000,
				"nbSeg1": 4
			},
			"pathsExist": false,
			"runtime": 1056398736,
			"nomLat1": 16.000000,
			"nomLat2": 9.000000,
			"maxNomLat": 16.000000,
			"mincut": 5
		},
		{
			"s1": "Paris,+France193",
			"s2": "Vienna,+Austria130",
			"t1": "Stockholm,+Sweden302",
			"t2": "Rotterdam,+Netherlands228",
			"suurballeNbPaths": 2,
			"suurballeTime": 1156964369,
			"suurballePaths": {
				"path0": [
					"Paris,+France193",
					"London,+UnitedKingdom208",
					"Amsterdam,+Netherlands227",
					"Rotterdam,+Netherlands228"
				],
				"lat0": 8.000000,
				"nbSeg0": 1,
				"path1": [
					"Vienna,+Austria130",
					"Vienna,+Austria126",
					"Berlin,+Germany259",
					"Berlin,+Germany160",
					"Berlin,+Germany161",
					"Stockholm,+Sweden232",
					"Stockholm,+Sweden302"
				],
				"lat1": 14.000000,
				"nbSeg1": 1
			},
			"pathsExist": false,
			"runtime": 159447846,
			"nomLat1": 25.000000,
			"nomLat2": 13.000000,
			"maxNomLat": 25.000000,
			"mincut": 5
		},
		{
			"s1": "Copenhagen,+Denmark179",
			"s2": "London,+UnitedKingdom293",
			"t1": "Bracknell,+UnitedKingdom278",
			"t2": "Frankfurt,+Germany169",
			"suurballeNbPaths": 2,
			"suurballeTime": 3802049,
			"suurballePaths": {
				"path0": [
					"London,+UnitedKingdom293",
					"London,+UnitedKingdom209",
					"Bracknell,+UnitedKingdom278"
				],
				"lat0": 3.000000,
				"nbSeg0": 1,
				"path1": [
					"Copenhagen,+Denmark179",
					"Manchester,+UnitedKingdom177",
					"Dusseldorf,+Germany163",
					"Dusseldorf,+Germany164",
					"Frankfurt,+Germany169"
				],
				"lat1": 14.000000,
				"nbSeg1": 1
			},
			"pathsExist": false,
			"runtime": 1196900389,
			"nomLat1": 12.000000,
			"nomLat2": 7.000000,
			"maxNomLat": 12.000000,
			"mincut": 8
		},
		{
			"s1": "Milan,+Italy218",
			"s2": "Bracknell,+UnitedKingdom279",
			"t1": "New+York,+NY239",
			"t2": "London,+UnitedKingdom289",
			"suurballeNbPaths": 2,
			"suurballeTime": 5735371,
			"suurballePaths": {
				"path0": [
					"Bracknell,+UnitedKingdom279",
					"London,+UnitedKingdom289"
				],
				"lat0": 2.000000,
				"nbSeg0": 0,
				"path1": [
					"Milan,+Italy218",
					"Geneva,+Switzerland146",
					"Geneva,+Switzerland141",
					"Paris,+France193",
					"London,+UnitedKingdom208",
					"New+York,+NY239"
				],
				"lat1": 40.000000,
				"nbSeg1": 2
			},
			"pathsExist": false,
			"runtime": 888644378,
			"nomLat1": 40.000000,
			"nomLat2": 2.000000,
			"maxNomLat": 40.000000,
			"mincut": 7
		},
		{
			"s1": "Milan,+Italy219",
			"s2": "Milan,+Italy217",
			"t1": "Berlin,+Germany259",
			"t2": "Frankfurt,+Germany166",
			"suurballeNbPaths": 2,
			"suurballeTime": 6170425,
			"suurballePaths": {
				"path0": [
					"Milan,+Italy219",
					"Geneva,+Switzerland145",
					"Frankfurt,+Germany170",
					"Frankfurt,+Germany166"
				],
				"lat0": 8.000000,
				"nbSeg0": 1,
				"path1": [
					"Milan,+Italy217",
					"Geneva,+Switzerland144",
					"Frankfurt,+Germany170",
					"Frankfurt,+Germany169",
					"Dusseldorf,+Germany164",
					"Berlin,+Germany160",
					"Berlin,+Germany259"
				],
				"lat1": 15.000000,
				"nbSeg1": 0
			},
			"pathsExist": false,
			"runtime": 1028333186,
			"nomLat1": 15.000000,
			"nomLat2": 8.000000,
			"maxNomLat": 15.000000,
			"mincut": 4
		},
		{
			"s1": "Rotterdam,+Netherlands299",
			"s2": "London,+UnitedKingdom208",
			"t1": "Geneva,+Switzerland139",
			"t2": "Geneva,+Switzerland141",
			"suurballeNbPaths": 2,
			"suurballeTime": 4884169,
			"suurballePaths": {
				"path0": [
					"London,+UnitedKingdom208",
					"Paris,+France193",
					"Geneva,+Switzerland139"
				],
				"lat0": 7.000000,
				"nbSeg0": 0,
				"path1": [
					"Rotterdam,+Netherlands299",
					"Rotterdam,+Netherlands228",
					"Amsterdam,+Netherlands227",
					"Frankfurt,+Germany169",
					"Frankfurt,+Germany170",
					"Geneva,+Switzerland146",
					"Geneva,+Switzerland141"
				],
				"lat1": 12.000000,
				"nbSeg1": 1
			},
			"pathsExist": false,
			"runtime": 1195803806,
			"nomLat1": 13.000000,
			"nomLat2": 9.000000,
			"maxNomLat": 13.000000,
			"mincut": 6
		},
		{
			"s1": "Copenhagen,+Denmark270",
			"s2": "Dusseldorf,+Germany261",
			"t1": "Stockholm,+Sweden302",
			"t2": "New+York,+NY240",
			"suurballeNbPaths": 2,
			"suurballeTime": 13279361,
			"suurballePaths": {
				"path0": [
					"Copenhagen,+Denmark270",
					"Stockholm,+Sweden303",
					"Stockholm,+Sweden302"
				],
				"lat0": 5.000000,
				"nbSeg0": 1,
				"path1": [
					"Dusseldorf,+Germany261",
					"Dusseldorf,+Germany163",
					"Amsterdam,+Netherlands227",
					"London,+UnitedKingdom208",
					"New+York,+NY239",
					"New+York,+NY240"
				],
				"lat1": 36.000000,
				"nbSeg1": 4
			},
			"pathsExist": false,
			"runtime": 866085144,
			"nomLat1": 5.000000,
			"nomLat2": 41.000000,
			"maxNomLat": 41.000000,
			"mincut": 5
		},
		{
			"s1": "Vienna,+Austria130",
			"s2": "Prague,+CzechRepublic157",
			"t1": "Munich,+Germany266",
			"t2": "Frankfurt,+Germany166",
			"suurballeNbPaths": 2,
			"suurballeTime": 19993265,
			"suurballePaths": {
				"path0": [
					"Vienna,+Austria130",
					"Vienna,+Austria129",
					"Munich,+Germany267",
					"Munich,+Germany266"
				],
				"lat0": 5.000000,
				"nbSeg0": 1,
				"path1": [
					"Prague,+CzechRepublic157",
					"Vienna,+Austria123",
					"Vienna,+Austria125",
					"Munich,+Germany176",
					"Frankfurt,+Germany170",
					"Frankfurt,+Germany166"
				],
				"lat1": 11.000000,
				"nbSeg1": 1
			},
			"pathsExist": false,
			"runtime": 809657196,
			"nomLat1": 6.000000,
			"nomLat2": 12.000000,
			"maxNomLat": 12.000000,
			"mincut": 5
		},
		{
			"s1": "Copenhagen,+Denmark182",
			"s2": "Geneva,+Switzerland144",
			"t1": "Amsterdam,+Netherlands227",
			"t2": "Milan,+Italy220",
			"suurballeNbPaths": 2,
			"suurballeTime": 1157102011,
			"suurballePaths": {
				"path0": [
					"Geneva,+Switzerland144",
					"Geneva,+Switzerland139",
					"Milan,+Italy220"
				],
				"lat0": 4.000000,
				"nbSeg0": 1,
				"path1": [
					"Copenhagen,+Denmark182",
					"Manchester,+UnitedKingdom177",
					"Dusseldorf,+Germany163",
					"Amsterdam,+Netherlands227"
				],
				"lat1": 13.000000,
				"nbSeg1": 0
			},
			"pathsExist": false,
			"runtime": 167792208,
			"nomLat1": 13.000000,
			"nomLat2": 4.000000,
			"maxNomLat": 13.000000,
			"mincut": 8
		},
		{
			"s1": "Frankfurt,+Germany166",
			"s2": "Copenhagen,+Denmark270",
			"t1": "London,+UnitedKingdom287",
			"t2": "Milan,+Italy217",
			"suurballeNbPaths": 2,
			"suurballeTime": 14168489,
			"suurballePaths": {
				"path0": [
					"Frankfurt,+Germany166",
					"Frankfurt,+Germany170",
					"Geneva,+Switzerland144",
					"Milan,+Italy217"
				],
				"lat0": 8.000000,
				"nbSeg0": 0,
				"path1": [
					"Copenhagen,+Denmark270",
					"Copenhagen,+Denmark271",
					"Manchester,+UnitedKingdom177",
					"London,+UnitedKingdom288",
					"London,+UnitedKingdom291",
					"London,+UnitedKingdom287"
				],
				"lat1": 12.000000,
				"nbSeg1": 3
			},
			"pathsExist": false,
			"runtime": 931643152,
			"nomLat1": 8.000000,
			"nomLat2": 26.000000,
			"maxNomLat": 26.000000,
			"mincut": 6
		},
		{
			"s1": "London,+UnitedKingdom207",
			"s2": "Munich,+Germany266",
			"t1": "Vienna,+Austria130",
			"t2": "New+York,+NY239",
			"suurballeNbPaths": 2,
			"suurballeTime": 3351831,
			"suurballePaths": {
				"path0": [
					"London,+UnitedKingdom207",
					"New+York,+NY239"
				],
				"lat0": 29.000000,
				"nbSeg0": 0,
				"path1": [
					"Munich,+Germany266",
					"Munich,+Germany267",
					"Vienna,+Austria126",
					"Vienna,+Austria130"
				],
				"lat1": 5.000000,
				"nbSeg1": 2
			},
			"pathsExist": false,
			"runtime": 1071340805,
			"nomLat1": 15.000000,
			"nomLat2": 40.000000,
			"maxNomLat": 40.000000,
			"mincut": 8
		},
		{
			"s1": "Munich,+Germany266",
			"s2": "Frankfurt,+Germany263",
			"t1": "Dusseldorf,+Germany261",
			"t2": "Manchester,+UnitedKingdom177",
			"suurballeNbPaths": 2,
			"suurballeTime": 4011333,
			"suurballePaths": {
				"path0": [
					"Munich,+Germany266",
					"Dusseldorf,+Germany261"
				],
				"lat0": 4.000000,
				"nbSeg0": 0,
				"path1": [
					"Frankfurt,+Germany263",
					"Dusseldorf,+Germany260",
					"Dusseldorf,+Germany163",
					"Manchester,+UnitedKingdom177"
				],
				"lat1": 8.000000,
				"nbSeg1": 0
			},
			"pathsExist": true,
			"path1": [
				"Munich,+Germany266",
				"Hamburg,+Germany264",
				"Dusseldorf,+Germany261"
			],
			"lat1": 8.000000,
			"path2": [
				"Frankfurt,+Germany263",
				"Manchester,+UnitedKingdom177"
			],
			"lat2": 8.000000,
			"maxlat": 8.000000,
			"runtime": 1244411176,
			"nomLat1": 4.000000,
			"nomLat2": 8.000000,
			"maxNomLat": 8.000000,
			"mincut": 7
		},
		{
			"s1": "Antwerp,+Belgium244",
			"s2": "Berlin,+Germany162",
			"t1": "Stockholm,+Sweden232",
			"t2": "New+York,+NY240",
			"suurballeNbPaths": 2,
			"suurballeTime": 32466587,
			"suurballePaths": {
				"path0": [
					"Berlin,+Germany162",
					"Berlin,+Germany161",
					"Stockholm,+Sweden232"
				],
				"lat0": 7.000000,
				"nbSeg0": 0,
				"path1": [
					"Antwerp,+Belgium244",
					"Brussels,+Belgium246",
					"Brussels,+Belgium135",
					"Paris,+France193",
					"New+York,+NY240"
				],
				"lat1": 37.000000,
				"nbSeg1": 1
			},
			"pathsExist": false,
			"runtime": 1015938426,
			"nomLat1": 23.000000,
			"nomLat2": 44.000000,
			"maxNomLat": 44.000000,
			"mincut": 5
		},
		{
			"s1": "Dusseldorf,+Germany260",
			"s2": "Munich,+Germany267",
			"t1": "London,+UnitedKingdom291",
			"t2": "Milan,+Italy217",
			"suurballeNbPaths": 2,
			"suurballeTime": 3669895,
			"suurballePaths": {
				"path0": [
					"Munich,+Germany267",
					"Munich,+Germany176",
					"Frankfurt,+Germany170",
					"Geneva,+Switzerland144",
					"Milan,+Italy217"
				],
				"lat0": 11.000000,
				"nbSeg0": 0,
				"path1": [
					"Dusseldorf,+Germany260",
					"Dusseldorf,+Germany163",
					"Amsterdam,+Netherlands227",
					"London,+UnitedKingdom209",
					"London,+UnitedKingdom288",
					"London,+UnitedKingdom291"
				],
				"lat1": 8.000000,
				"nbSeg1": 2
			},
			"pathsExist": true,
			"path1": [
				"Dusseldorf,+Germany260",
				"Manchester,+UnitedKingdom177",
				"London,+UnitedKingdom291"
			],
			"lat1": 10.000000,
			"path2": [
				"Munich,+Germany267",
				"Milan,+Italy217"
			],
			"lat2": 11.000000,
			"maxlat": 11.000000,
			"runtime": 1199444435,
			"nomLat1": 12.000000,
			"nomLat2": 11.000000,
			"maxNomLat": 12.000000,
			"mincut": 6
		},
		{
			"s1": "Frankfurt,+Germany168",
			"s2": "London,+UnitedKingdom200",
			"t1": "Dusseldorf,+Germany261",
			"t2": "London,+UnitedKingdom201",
			"suurballeNbPaths": 2,
			"suurballeTime": 5255515,
			"suurballePaths": {
				"path0": [
					"London,+UnitedKingdom200",
					"London,+UnitedKingdom201"
				],
				"lat0": 1.000000,
				"nbSeg0": 0,
				"path1": [
					"Frankfurt,+Germany168",
					"Dusseldorf,+Germany260",
					"Dusseldorf,+Germany261"
				],
				"lat1": 3.000000,
				"nbSeg1": 0
			},
			"pathsExist": true,
			"path1": [
				"Frankfurt,+Germany168",
				"Dusseldorf,+Germany261"
			],
			"lat1": 3.000000,
			"path2": [
				"London,+UnitedKingdom200",
				"London,+UnitedKingdom291",
				"London,+UnitedKingdom201"
			],
			"lat2": 5.000000,
			"maxlat": 5.000000,
			"runtime": 889040438,
			"nomLat1": 3.000000,
			"nomLat2": 1.000000,
			"maxNomLat": 3.000000,
			"mincut": 6
		},
		{
			"s1": "Geneva,+Switzerland140",
			"s2": "London,+UnitedKingdom289",
			"t1": "Geneva,+Switzerland146",
			"t2": "London,+UnitedKingdom288",
			"suurballeNbPaths": 2,
			"suurballeTime": 4420894,
			"suurballePaths": {
				"path0": [
					"London,+UnitedKingdom289",
					"London,+UnitedKingdom288"
				],
				"lat0": 1.000000,
				"nbSeg0": 0,
				"path1": [
					"Geneva,+Switzerland140",
					"Geneva,+Switzerland144",
					"Geneva,+Switzerland139",
					"Geneva,+Switzerland146"
				],
				"lat1": 3.000000,
				"nbSeg1": 2
			},
			"pathsExist": true,
			"path1": [
				"Geneva,+Switzerland140",
				"Geneva,+Switzerland144",
				"Geneva,+Switzerland146"
			],
			"lat1": 7.000000,
			"path2": [
				"London,+UnitedKingdom289",
				"London,+UnitedKingdom209",
				"London,+UnitedKingdom288"
			],
			"lat2": 2.000000,
			"maxlat": 7.000000,
			"runtime": 1093034288,
			"nomLat1": 9.000000,
			"nomLat2": 1.000000,
			"maxNomLat": 9.000000,
			"mincut": 9
		},
		{
			"s1": "Vienna,+Austria123",
			"s2": "London,+UnitedKingdom208",
			"t1": "Frankfurt,+Germany166",
			"t2": "Copenhagen,+Denmark272",
			"suurballeNbPaths": 2,
			"suurballeTime": 8563505,
			"suurballePaths": {
				"path0": [
					"Vienna,+Austria123",
					"Vienna,+Austria125",
					"Munich,+Germany176",
					"Frankfurt,+Germany170",
					"Frankfurt,+Germany166"
				],
				"lat0": 8.000000,
				"nbSeg0": 0,
				"path1": [
					"London,+UnitedKingdom208",
					"London,+UnitedKingdom289",
					"London,+UnitedKingdom288",
					"Manchester,+UnitedKingdom177",
					"Copenhagen,+Denmark179",
					"Copenhagen,+Denmark272"
				],
				"lat1": 12.000000,
				"nbSeg1": 1
			},
			"pathsExist": true,
			"path1": [
				"Vienna,+Austria123",
				"Frankfurt,+Germany169",
				"Frankfurt,+Germany166"
			],
			"lat1": 9.000000,
			"path2": [
				"London,+UnitedKingdom208",
				"London,+UnitedKingdom289",
				"Copenhagen,+Denmark272"
			],
			"lat2": 12.000000,
			"maxlat": 12.000000,
			"runtime": 1184409179,
			"nomLat1": 8.000000,
			"nomLat2": 17.000000,
			"maxNomLat": 17.000000,
			"mincut": 6
		},
		{
			"s1": "Antwerp,+Belgium244",
			"s2": "Geneva,+Switzerland146",
			"t1": "Berlin,+Germany161",
			"t2": "Amsterdam,+Netherlands297",
			"suurballeNbPaths": 2,
			"suurballeTime": 1161775004,
			"suurballePaths": {
				"path0": [
					"Antwerp,+Belgium244",
					"Antwerp,+Belgium243",
					"Rotterdam,+Netherlands299",
					"Amsterdam,+Netherlands297"
				],
				"lat0": 5.000000,
				"nbSeg0": 0,
				"path1": [
					"Geneva,+Switzerland146",
					"Frankfurt,+Germany170",
					"Frankfurt,+Germany169",
					"Dusseldorf,+Germany164",
					"Berlin,+Germany160",
					"Berlin,+Germany161"
				],
				"lat1": 12.000000,
				"nbSeg1": 0
			},
			"pathsExist": false,
			"runtime": 168904771,
			"nomLat1": 15.000000,
			"nomLat2": 16.000000,
			"maxNomLat": 16.000000,
			"mincut": 6
		},
		{
			"s1": "London,+UnitedKingdom293",
			"s2": "Frankfurt,+Germany263",
			"t1": "Geneva,+Switzerland144",
			"t2": "London,+UnitedKingdom208",
			"suurballeNbPaths": 2,
			"suurballeTime": 18640237,
			"suurballePaths": {
				"path0": [
					"London,+UnitedKingdom293",
					"London,+UnitedKingdom208"
				],
				"lat0": 1.000000,
				"nbSeg0": 0,
				"path1": [
					"Frankfurt,+Germany263",
					"Frankfurt,+Germany170",
					"Geneva,+Switzerland144"
				],
				"lat1": 5.000000,
				"nbSeg1": 1
			},
			"pathsExist": false,
			"runtime": 663173683,
			"nomLat1": 9.000000,
			"nomLat2": 8.000000,
			"maxNomLat": 9.000000,
			"mincut": 9
		},
		{
			"s1": "Vienna,+Austria242",
			"s2": "Berlin,+Germany259",
			"t1": "Vienna,+Austria126",
			"t2": "Munich,+Germany267",
			"suurballeNbPaths": 2,
			"suurballeTime": 4030832,
			"suurballePaths": {
				"path0": [
					"Vienna,+Austria242",
					"Vienna,+Austria126"
				],
				"lat0": 1.000000,
				"nbSeg0": 0,
				"path1": [
					"Berlin,+Germany259",
					"Berlin,+Germany160",
					"Berlin,+Germany162",
					"Munich,+Germany267"
				],
				"lat1": 6.000000,
				"nbSeg1": 1
			},
			"pathsExist": true,
			"path1": [
				"Vienna,+Austria242",
				"Vienna,+Austria126"
			],
			"lat1": 1.000000,
			"path2": [
				"Berlin,+Germany259",
				"Dusseldorf,+Germany260",
				"Munich,+Germany267"
			],
			"lat2": 10.000000,
			"maxlat": 10.000000,
			"runtime": 1252684454,
			"nomLat1": 1.000000,
			"nomLat2": 7.000000,
			"maxNomLat": 7.000000,
			"mincut": 4
		},
		{
			"s1": "London,+UnitedKingdom208",
			"s2": "Frankfurt,+Germany169",
			"t1": "Paris,+France196",
			"t2": "Geneva,+Switzerland146",
			"suurballeNbPaths": 2,
			"suurballeTime": 4467081,
			"suurballePaths": {
				"path0": [
					"London,+UnitedKingdom208",
					"Paris,+France193",
					"Paris,+France196"
				],
				"lat0": 4.000000,
				"nbSeg0": 0,
				"path1": [
					"Frankfurt,+Germany169",
					"Frankfurt,+Germany170",
					"Geneva,+Switzerland146"
				],
				"lat1": 5.000000,
				"nbSeg1": 0
			},
			"pathsExist": true,
			"path1": [
				"London,+UnitedKingdom208",
				"London,+UnitedKingdom288",
				"Paris,+France196"
			],
			"lat1": 7.000000,
			"path2": [
				"Frankfurt,+Germany169",
				"Frankfurt,+Germany166",
				"Geneva,+Switzerland146"
			],
			"lat2": 6.000000,
			"maxlat": 7.000000,
			"runtime": 745342029,
			"nomLat1": 4.000000,
			"nomLat2": 5.000000,
			"maxNomLat": 5.000000,
			"mincut": 9
		},
		{
			"s1": "Brussels,+Belgium135",
			"s2": "London,+UnitedKingdom291",
			"t1": "Geneva,+Switzerland142",
			"t2": "Brussels,+Belgium247",
			"suurballeNbPaths": 2,
			"suurballeTime": 11823312,
			"suurballePaths": {
				"path0": [
					"Brussels,+Belgium135",
					"Brussels,+Belgium247"
				],
				"lat0": 1.000000,
				"nbSeg0": 0,
				"path1": [
					"London,+UnitedKingdom291",
					"London,+UnitedKingdom201",
					"Paris,+France196",
					"Paris,+France193",
					"Geneva,+Switzerland142"
				],
				"lat1": 9.000000,
				"nbSeg1": 0
			},
			"pathsExist": false,
			"runtime": 965383626,
			"nomLat1": 7.000000,
			"nomLat2": 9.000000,
			"maxNomLat": 9.000000,
			"mincut": 5
		},
		{
			"s1": "Geneva,+Switzerland140",
			"s2": "Geneva,+Switzerland141",
			"t1": "Munich,+Germany176",
			"t2": "Dusseldorf,+Germany164",
			"suurballeNbPaths": 2,
			"suurballeTime": 2904354,
			"suurballePaths": {
				"path0": [
					"Geneva,+Switzerland140",
					"Geneva,+Switzerland144",
					"Frankfurt,+Germany170",
					"Munich,+Germany176"
				],
				"lat0": 8.000000,
				"nbSeg0": 1,
				"path1": [
					"Geneva,+Switzerland141",
					"Geneva,+Switzerland146",
					"Frankfurt,+Germany170",
					"Frankfurt,+Germany169",
					"Dusseldorf,+Germany164"
				],
				"lat1": 8.000000,
				"nbSeg1": 0
			},
			"pathsExist": false,
			"runtime": 749022938,
			"nomLat1": 12.000000,
			"nomLat2": 8.000000,
			"maxNomLat": 12.000000,
			"mincut": 6
		},
		{
			"s1": "Frankfurt,+Germany169",
			"s2": "Copenhagen,+Denmark272",
			"t1": "Dusseldorf,+Germany261",
			"t2": "Paris,+France196",
			"suurballeNbPaths": 2,
			"suurballeTime": 7551500,
			"suurballePaths": {
				"path0": [
					"Frankfurt,+Germany169",
					"Dusseldorf,+Germany164",
					"Dusseldorf,+Germany261"
				],
				"lat0": 3.000000,
				"nbSeg0": 2,
				"path1": [
					"Copenhagen,+Denmark272",
					"Copenhagen,+Denmark179",
					"Manchester,+UnitedKingdom177",
					"London,+UnitedKingdom288",
					"London,+UnitedKingdom291",
					"London,+UnitedKingdom201",
					"Paris,+France196"
				],
				"lat1": 15.000000,
				"nbSeg1": 1
			},
			"pathsExist": false,
			"runtime": 985821963,
			"nomLat1": 4.000000,
			"nomLat2": 22.000000,
			"maxNomLat": 22.000000,
			"mincut": 8
		},
		{
			"s1": "Stockholm,+Sweden232",
			"s2": "Paris,+France193",
			"t1": "Amsterdam,+Netherlands227",
			"t2": "Geneva,+Switzerland140",
			"suurballeNbPaths": 2,
			"suurballeTime": 5946516,
			"suurballePaths": {
				"path0": [
					"Paris,+France193",
					"Geneva,+Switzerland140"
				],
				"lat0": 4.000000,
				"nbSeg0": 0,
				"path1": [
					"Stockholm,+Sweden232",
					"Berlin,+Germany161",
					"Berlin,+Germany160",
					"Dusseldorf,+Germany164",
					"Dusseldorf,+Germany163",
					"Amsterdam,+Netherlands227"
				],
				"lat1": 14.000000,
				"nbSeg1": 2
			},
			"pathsExist": true,
			"path1": [
				"Stockholm,+Sweden232",
				"Berlin,+Germany160",
				"Amsterdam,+Netherlands227"
			],
			"lat1": 16.000000,
			"path2": [
				"Paris,+France193",
				"Geneva,+Switzerland140"
			],
			"lat2": 4.000000,
			"maxlat": 16.000000,
			"runtime": 1205489567,
			"nomLat1": 18.000000,
			"nomLat2": 4.000000,
			"maxNomLat": 18.000000,
			"mincut": 10
		},
		{
			"s1": "Vienna,+Austria124",
			"s2": "Dusseldorf,+Germany163",
			"t1": "Vienna,+Austria130",
			"t2": "Geneva,+Switzerland144",
			"suurballeNbPaths": 2,
			"suurballeTime": 5395011,
			"suurballePaths": {
				"path0": [
					"Vienna,+Austria124",
					"Vienna,+Austria130"
				],
				"lat0": 1.000000,
				"nbSeg0": 0,
				"path1": [
					"Dusseldorf,+Germany163",
					"Dusseldorf,+Germany260",
					"Frankfurt,+Germany168",
					"Frankfurt,+Germany170",
					"Geneva,+Switzerland144"
				],
				"lat1": 8.000000,
				"nbSeg1": 2
			},
			"pathsExist": true,
			"path1": [
				"Vienna,+Austria124",
				"Vienna,+Austria130"
			],
			"lat1": 1.000000,
			"path2": [
				"Dusseldorf,+Germany163",
				"Amsterdam,+Netherlands227",
				"Geneva,+Switzerland144"
			],
			"lat2": 10.000000,
			"maxlat": 10.000000,
			"runtime": 1225398250,
			"nomLat1": 1.000000,
			"nomLat2": 10.000000,
			"maxNomLat": 10.000000,
			"mincut": 7
		},
		{
			"s1": "Stockholm,+Sweden232",
			"s2": "Geneva,+Switzerland139",
			"t1": "Munich,+Germany267",
			"t2": "Amsterdam,+Netherlands227",
			"suurballeNbPaths": 2,
			"suurballeTime": 4639207,
			"suurballePaths": {
				"path0": [
					"Stockholm,+Sweden232",
					"Berlin,+Germany161",
					"Berlin,+Germany162",
					"Munich,+Germany267"
				],
				"lat0": 11.000000,
				"nbSeg0": 1,
				"path1": [
					"Geneva,+Switzerland139",
					"Geneva,+Switzerland144",
					"Frankfurt,+Germany170",
					"Frankfurt,+Germany169",
					"Amsterdam,+Netherlands227"
				],
				"lat1": 9.000000,
				"nbSeg1": 1
			},
			"pathsExist": true,
			"path1": [
				"Stockholm,+Sweden232",
				"Berlin,+Germany162",
				"Munich,+Germany267"
			],
			"lat1": 11.000000,
			"path2": [
				"Geneva,+Switzerland139",
				"London,+UnitedKingdom293",
				"Amsterdam,+Netherlands227"
			],
			"lat2": 12.000000,
			"maxlat": 12.000000,
			"runtime": 891859829,
			"nomLat1": 26.000000,
			"nomLat2": 10.000000,
			"maxNomLat": 26.000000,
			"mincut": 7
		},
		{
			"s1": "New+York,+NY240",
			"s2": "London,+UnitedKingdom209",
			"t1": "London,+UnitedKingdom293",
			"t2": "London,+UnitedKingdom287",
			"suurballeNbPaths": 2,
			"suurballeTime": 4550289,
			"suurballePaths": {
				"path0": [
					"London,+UnitedKingdom209",
					"London,+UnitedKingdom293"
				],
				"lat0": 1.000000,
				"nbSeg0": 0,
				"path1": [
					"New+York,+NY240",
					"New+York,+NY239",
					"London,+UnitedKingdom208",
					"London,+UnitedKingdom287"
				],
				"lat1": 31.000000,
				"nbSeg1": 2
			},
			"pathsExist": false,
			"runtime": 824963522,
			"nomLat1": 31.000000,
			"nomLat2": 1.000000,
			"maxNomLat": 31.000000,
			"mincut": 9
		},
		{
			"s1": "Dusseldorf,+Germany164",
			"s2": "Brussels,+Belgium135",
			"t1": "London,+UnitedKingdom209",
			"t2": "London,+UnitedKingdom208",
			"suurballeNbPaths": 2,
			"suurballeTime": 5250583,
			"suurballePaths": {
				"path0": [
					"Brussels,+Belgium135",
					"Paris,+France193",
					"London,+UnitedKingdom208"
				],
				"lat0": 6.000000,
				"nbSeg0": 0,
				"path1": [
					"Dusseldorf,+Germany164",
					"Dusseldorf,+Germany163",
					"Amsterdam,+Netherlands227",
					"London,+UnitedKingdom209"
				],
				"lat1": 6.000000,
				"nbSeg1": 1
			},
			"pathsExist": true,
			"path1": [
				"Dusseldorf,+Germany164",
				"London,+UnitedKingdom209"
			],
			"lat1": 8.000000,
			"path2": [
				"Brussels,+Belgium135",
				"London,+UnitedKingdom208"
			],
			"lat2": 6.000000,
			"maxlat": 8.000000,
			"runtime": 825968811,
			"nomLat1": 8.000000,
			"nomLat2": 6.000000,
			"maxNomLat": 8.000000,
			"mincut": 8
		}
	],
	"demandsWithSol": 23
}
