{
	"nbDemands": 100,
	"demands": [
		{
			"s1": "Rotterdam,+Netherlands299",
			"s2": "London,+UnitedKingdom209",
			"t1": "Munich,+Germany267",
			"t2": "Geneva,+Switzerland141",
			"suurballeNbPaths": 2,
			"suurballeTime": 46509415,
			"suurballePaths": {
				"path0": [
					"London,+UnitedKingdom209",
					"Paris,+France193",
					"Geneva,+Switzerland141"
				],
				"lat0": 7.000000,
				"nbSeg0": 1,
				"path1": [
					"Rotterdam,+Netherlands299",
					"Rotterdam,+Netherlands228",
					"Amsterdam,+Netherlands227",
					"Dusseldorf,+Germany163",
					"Dusseldorf,+Germany260",
					"Munich,+Germany267"
				],
				"lat1": 10.000000,
				"nbSeg1": 1
			},
			"pathsExist": false,
			"runtime": 21165984,
			"nomLat1": 11.000000,
			"nomLat2": 9.000000,
			"maxNomLat": 11.000000,
			"mincut": 7
		},
		{
			"s1": "London,+UnitedKingdom289",
			"s2": "Rotterdam,+Netherlands228",
			"t1": "New+York,+NY239",
			"t2": "London,+UnitedKingdom209",
			"suurballeNbPaths": 2,
			"suurballeTime": 63985311,
			"suurballePaths": {
				"path0": [
					"London,+UnitedKingdom289",
					"London,+UnitedKingdom209"
				],
				"lat0": 1.000000,
				"nbSeg0": 0,
				"path1": [
					"Rotterdam,+Netherlands228",
					"Amsterdam,+Netherlands227",
					"London,+UnitedKingdom208",
					"New+York,+NY239"
				],
				"lat1": 34.000000,
				"nbSeg1": 1
			},
			"pathsExist": false,
			"runtime": 48910444,
			"nomLat1": 30.000000,
			"nomLat2": 5.000000,
			"maxNomLat": 30.000000,
			"mincut": 7
		},
		{
			"s1": "London,+UnitedKingdom201",
			"s2": "Brussels,+Belgium135",
			"t1": "Berlin,+Germany259",
			"t2": "Stockholm,+Sweden304",
			"suurballeNbPaths": 2,
			"suurballeTime": 80933307,
			"suurballePaths": {
				"path0": [
					"London,+UnitedKingdom201",
					"London,+UnitedKingdom209",
					"London,+UnitedKingdom288",
					"Manchester,+UnitedKingdom177",
					"Copenhagen,+Denmark271",
					"Stockholm,+Sweden304"
				],
				"lat0": 15.000000,
				"nbSeg0": 5,
				"path1": [
					"Brussels,+Belgium135",
					"Brussels,+Belgium136",
					"Amsterdam,+Netherlands227",
					"Dusseldorf,+Germany163",
					"Dusseldorf,+Germany164",
					"Berlin,+Germany160",
					"Berlin,+Germany259"
				],
				"lat1": 11.000000,
				"nbSeg1": 1
			},
			"pathsExist": false,
			"runtime": 26815735,
			"nomLat1": 15.000000,
			"nomLat2": 21.000000,
			"maxNomLat": 21.000000,
			"mincut": 5
		},
		{
			"s1": "Dusseldorf,+Germany164",
			"s2": "Geneva,+Switzerland141",
			"t1": "Antwerp,+Belgium243",
			"t2": "Prague,+CzechRepublic155",
			"suurballeNbPaths": 2,
			"suurballeTime": 33176776,
			"suurballePaths": {
				"path0": [
					"Dusseldorf,+Germany164",
					"Berlin,+Germany160",
					"Berlin,+Germany161",
					"Prague,+CzechRepublic155"
				],
				"lat0": 8.000000,
				"nbSeg0": 0,
				"path1": [
					"Geneva,+Switzerland141",
					"Paris,+France193",
					"Brussels,+Belgium135",
					"Brussels,+Belgium246",
					"Antwerp,+Belgium244",
					"Antwerp,+Belgium243"
				],
				"lat1": 11.000000,
				"nbSeg1": 2
			},
			"pathsExist": false,
			"runtime": 8982057,
			"nomLat1": 10.000000,
			"nomLat2": 16.000000,
			"maxNomLat": 16.000000,
			"mincut": 4
		},
		{
			"s1": "London,+UnitedKingdom287",
			"s2": "Stockholm,+Sweden304",
			"t1": "London,+UnitedKingdom207",
			"t2": "London,+UnitedKingdom201",
			"suurballeNbPaths": 2,
			"suurballeTime": 81053532,
			"suurballePaths": {
				"path0": [
					"London,+UnitedKingdom287",
					"London,+UnitedKingdom291",
					"London,+UnitedKingdom201"
				],
				"lat0": 2.000000,
				"nbSeg0": 1,
				"path1": [
					"Stockholm,+Sweden304",
					"Copenhagen,+Denmark271",
					"Manchester,+UnitedKingdom177",
					"London,+UnitedKingdom288",
					"London,+UnitedKingdom209",
					"London,+UnitedKingdom293",
					"London,+UnitedKingdom207"
				],
				"lat1": 16.000000,
				"nbSeg1": 5
			},
			"pathsExist": false,
			"runtime": 50156884,
			"nomLat1": 7.000000,
			"nomLat2": 29.000000,
			"maxNomLat": 29.000000,
			"mincut": 6
		},
		{
			"s1": "Vienna,+Austria124",
			"s2": "New+York,+NY239",
			"t1": "London,+UnitedKingdom207",
			"t2": "Vienna,+Austria125",
			"suurballeNbPaths": 2,
			"suurballeTime": 3149712,
			"suurballePaths": {
				"path0": [
					"New+York,+NY239",
					"London,+UnitedKingdom207"
				],
				"lat0": 29.000000,
				"nbSeg0": 0,
				"path1": [
					"Vienna,+Austria124",
					"Vienna,+Austria130",
					"Vienna,+Austria125"
				],
				"lat1": 2.000000,
				"nbSeg1": 0
			},
			"pathsExist": false,
			"runtime": 1069584450,
			"nomLat1": 16.000000,
			"nomLat2": 43.000000,
			"maxNomLat": 43.000000,
			"mincut": 6
		},
		{
			"s1": "Rotterdam,+Netherlands299",
			"s2": "New+York,+NY239",
			"t1": "Paris,+France193",
			"t2": "Berlin,+Germany162",
			"suurballeNbPaths": 2,
			"suurballeTime": 2098862,
			"suurballePaths": {
				"path0": [
					"New+York,+NY239",
					"London,+UnitedKingdom208",
					"Paris,+France193"
				],
				"lat0": 32.000000,
				"nbSeg0": 1,
				"path1": [
					"Rotterdam,+Netherlands299",
					"Rotterdam,+Netherlands228",
					"Amsterdam,+Netherlands227",
					"Dusseldorf,+Germany163",
					"Dusseldorf,+Germany164",
					"Berlin,+Germany160",
					"Berlin,+Germany162"
				],
				"lat1": 11.000000,
				"nbSeg1": 1
			},
			"pathsExist": false,
			"runtime": 698302856,
			"nomLat1": 9.000000,
			"nomLat2": 42.000000,
			"maxNomLat": 42.000000,
			"mincut": 6
		},
		{
			"s1": "Milan,+Italy218",
			"s2": "Copenhagen,+Denmark270",
			"t1": "Geneva,+Switzerland145",
			"t2": "Geneva,+Switzerland140",
			"suurballeNbPaths": 2,
			"suurballeTime": 3932093,
			"suurballePaths": {
				"path0": [
					"Milan,+Italy218",
					"Geneva,+Switzerland144",
					"Geneva,+Switzerland140"
				],
				"lat0": 4.000000,
				"nbSeg0": 0,
				"path1": [
					"Copenhagen,+Denmark270",
					"Copenhagen,+Denmark271",
					"Manchester,+UnitedKingdom177",
					"London,+UnitedKingdom288",
					"London,+UnitedKingdom209",
					"Paris,+France193",
					"Geneva,+Switzerland140"
				],
				"lat1": 18.000000,
				"nbSeg1": 4
			},
			"pathsExist": false,
			"runtime": 1859099464,
			"nomLat1": 9.000000,
			"nomLat2": 25.000000,
			"maxNomLat": 25.000000,
			"mincut": 4
		},
		{
			"s1": "Geneva,+Switzerland142",
			"s2": "Rotterdam,+Netherlands228",
			"t1": "New+York,+NY239",
			"t2": "London,+UnitedKingdom209",
			"suurballeNbPaths": 2,
			"suurballeTime": 2072174,
			"suurballePaths": {
				"path0": [
					"Rotterdam,+Netherlands228",
					"Amsterdam,+Netherlands227",
					"London,+UnitedKingdom209"
				],
				"lat0": 5.000000,
				"nbSeg0": 0,
				"path1": [
					"Geneva,+Switzerland142",
					"Paris,+France193",
					"London,+UnitedKingdom208",
					"New+York,+NY239"
				],
				"lat1": 36.000000,
				"nbSeg1": 1
			},
			"pathsExist": false,
			"runtime": 2534060,
			"nomLat1": 36.000000,
			"nomLat2": 5.000000,
			"maxNomLat": 36.000000,
			"mincut": 4
		},
		{
			"s1": "Stockholm,+Sweden304",
			"s2": "London,+UnitedKingdom209",
			"t1": "Paris,+France196",
			"t2": "London,+UnitedKingdom207",
			"suurballeNbPaths": 2,
			"suurballeTime": 2311442,
			"suurballePaths": {
				"path0": [
					"London,+UnitedKingdom209",
					"London,+UnitedKingdom293",
					"London,+UnitedKingdom207"
				],
				"lat0": 2.000000,
				"nbSeg0": 1,
				"path1": [
					"Stockholm,+Sweden304",
					"Copenhagen,+Denmark271",
					"Manchester,+UnitedKingdom177",
					"London,+UnitedKingdom288",
					"London,+UnitedKingdom291",
					"London,+UnitedKingdom201",
					"Paris,+France196"
				],
				"lat1": 18.000000,
				"nbSeg1": 3
			},
			"pathsExist": false,
			"runtime": 25864120,
			"nomLat1": 26.000000,
			"nomLat2": 58.000000,
			"maxNomLat": 58.000000,
			"mincut": 8
		},
		{
			"s1": "Dusseldorf,+Germany164",
			"s2": "Brussels,+Belgium135",
			"t1": "London,+UnitedKingdom209",
			"t2": "London,+UnitedKingdom208",
			"suurballeNbPaths": 2,
			"suurballeTime": 2108656,
			"suurballePaths": {
				"path0": [
					"Brussels,+Belgium135",
					"Paris,+France193",
					"London,+UnitedKingdom208"
				],
				"lat0": 6.000000,
				"nbSeg0": 0,
				"path1": [
					"Dusseldorf,+Germany164",
					"Dusseldorf,+Germany163",
					"Amsterdam,+Netherlands227",
					"London,+UnitedKingdom209"
				],
				"lat1": 6.000000,
				"nbSeg1": 1
			},
			"pathsExist": true,
			"path1": [
				"Dusseldorf,+Germany164",
				"Dusseldorf,+Germany163",
				"London,+UnitedKingdom209"
			],
			"lat1": 6.000000,
			"path2": [
				"Brussels,+Belgium135",
				"London,+UnitedKingdom208"
			],
			"lat2": 6.000000,
			"maxlat": 6.000000,
			"runtime": 282996295,
			"nomLat1": 8.000000,
			"nomLat2": 6.000000,
			"maxNomLat": 8.000000,
			"mincut": 8
		},
		{
			"s1": "Berlin,+Germany161",
			"s2": "Antwerp,+Belgium244",
			"t1": "London,+UnitedKingdom293",
			"t2": "Copenhagen,+Denmark271",
			"suurballeNbPaths": 2,
			"suurballeTime": 2068655,
			"suurballePaths": {
				"path0": [
					"Berlin,+Germany161",
					"Stockholm,+Sweden232",
					"Stockholm,+Sweden302",
					"Copenhagen,+Denmark271"
				],
				"lat0": 11.000000,
				"nbSeg0": 1,
				"path1": [
					"Antwerp,+Belgium244",
					"Brussels,+Belgium246",
					"Brussels,+Belgium136",
					"Amsterdam,+Netherlands227",
					"London,+UnitedKingdom208",
					"London,+UnitedKingdom293"
				],
				"lat1": 9.000000,
				"nbSeg1": 1
			},
			"pathsExist": false,
			"runtime": 2974350345,
			"nomLat1": 14.000000,
			"nomLat2": 19.000000,
			"maxNomLat": 19.000000,
			"mincut": 7
		},
		{
			"s1": "Stockholm,+Sweden304",
			"s2": "Antwerp,+Belgium244",
			"t1": "Paris,+France196",
			"t2": "Berlin,+Germany162",
			"suurballeNbPaths": 2,
			"suurballeTime": 2097033,
			"suurballePaths": {
				"path0": [
					"Antwerp,+Belgium244",
					"Brussels,+Belgium246",
					"Brussels,+Belgium135",
					"Paris,+France193",
					"Paris,+France196"
				],
				"lat0": 7.000000,
				"nbSeg0": 1,
				"path1": [
					"Stockholm,+Sweden304",
					"Copenhagen,+Denmark271",
					"Stockholm,+Sweden302",
					"Stockholm,+Sweden232",
					"Berlin,+Germany161",
					"Berlin,+Germany162"
				],
				"lat1": 16.000000,
				"nbSeg1": 1
			},
			"pathsExist": false,
			"runtime": 14429588,
			"nomLat1": 26.000000,
			"nomLat2": 15.000000,
			"maxNomLat": 26.000000,
			"mincut": 5
		},
		{
			"s1": "Vienna,+Austria125",
			"s2": "Amsterdam,+Netherlands298",
			"t1": "London,+UnitedKingdom207",
			"t2": "London,+UnitedKingdom200",
			"suurballeNbPaths": 2,
			"suurballeTime": 2053818,
			"suurballePaths": {
				"path0": [
					"Amsterdam,+Netherlands298",
					"Rotterdam,+Netherlands299",
					"Rotterdam,+Netherlands228",
					"Amsterdam,+Netherlands227",
					"London,+UnitedKingdom207"
				],
				"lat0": 8.000000,
				"nbSeg0": 2,
				"path1": [
					"Vienna,+Austria125",
					"Munich,+Germany176",
					"Frankfurt,+Germany170",
					"Paris,+France196",
					"London,+UnitedKingdom201",
					"London,+UnitedKingdom200"
				],
				"lat1": 14.000000,
				"nbSeg1": 0
			},
			"pathsExist": false,
			"runtime": 9994490,
			"nomLat1": 14.000000,
			"nomLat2": 18.000000,
			"maxNomLat": 18.000000,
			"mincut": 7
		},
		{
			"s1": "Brussels,+Belgium135",
			"s2": "London,+UnitedKingdom291",
			"t1": "Geneva,+Switzerland142",
			"t2": "Brussels,+Belgium247",
			"suurballeNbPaths": 2,
			"suurballeTime": 2101055,
			"suurballePaths": {
				"path0": [
					"Brussels,+Belgium135",
					"Brussels,+Belgium247"
				],
				"lat0": 1.000000,
				"nbSeg0": 0,
				"path1": [
					"London,+UnitedKingdom291",
					"London,+UnitedKingdom201",
					"Paris,+France196",
					"Paris,+France193",
					"Geneva,+Switzerland142"
				],
				"lat1": 9.000000,
				"nbSeg1": 0
			},
			"pathsExist": false,
			"runtime": 1628602044,
			"nomLat1": 7.000000,
			"nomLat2": 9.000000,
			"maxNomLat": 9.000000,
			"mincut": 5
		},
		{
			"s1": "New+York,+NY239",
			"s2": "Milan,+Italy219",
			"t1": "Frankfurt,+Germany170",
			"t2": "Brussels,+Belgium136",
			"suurballeNbPaths": 2,
			"suurballeTime": 1918331,
			"suurballePaths": {
				"path0": [
					"Milan,+Italy219",
					"Geneva,+Switzerland145",
					"Frankfurt,+Germany170"
				],
				"lat0": 7.000000,
				"nbSeg0": 1,
				"path1": [
					"New+York,+NY239",
					"London,+UnitedKingdom208",
					"Amsterdam,+Netherlands227",
					"Brussels,+Belgium136"
				],
				"lat1": 34.000000,
				"nbSeg1": 1
			},
			"pathsExist": false,
			"runtime": 4085295097,
			"nomLat1": 37.000000,
			"nomLat2": 13.000000,
			"maxNomLat": 37.000000,
			"mincut": 6
		},
		{
			"s1": "Vienna,+Austria124",
			"s2": "Vienna,+Austria126",
			"t1": "Frankfurt,+Germany168",
			"t2": "London,+UnitedKingdom293",
			"suurballeNbPaths": 2,
			"suurballeTime": 2453224,
			"suurballePaths": {
				"path0": [
					"Vienna,+Austria124",
					"Vienna,+Austria130",
					"Vienna,+Austria125",
					"Munich,+Germany176",
					"Frankfurt,+Germany170",
					"Frankfurt,+Germany168"
				],
				"lat0": 9.000000,
				"nbSeg0": 0,
				"path1": [
					"Vienna,+Austria126",
					"Munich,+Germany267",
					"Dusseldorf,+Germany260",
					"Dusseldorf,+Germany163",
					"Amsterdam,+Netherlands227",
					"London,+UnitedKingdom208",
					"London,+UnitedKingdom293"
				],
				"lat1": 14.000000,
				"nbSeg1": 3
			},
			"pathsExist": false,
			"runtime": 542438952,
			"nomLat1": 9.000000,
			"nomLat2": 16.000000,
			"maxNomLat": 16.000000,
			"mincut": 5
		},
		{
			"s1": "Munich,+Germany176",
			"s2": "Geneva,+Switzerland139",
			"t1": "Milan,+Italy220",
			"t2": "Copenhagen,+Denmark270",
			"suurballeNbPaths": 2,
			"suurballeTime": 2236375,
			"suurballePaths": {
				"path0": [
					"Geneva,+Switzerland139",
					"Milan,+Italy220"
				],
				"lat0": 3.000000,
				"nbSeg0": 0,
				"path1": [
					"Munich,+Germany176",
					"Munich,+Germany267",
					"Dusseldorf,+Germany260",
					"Dusseldorf,+Germany163",
					"Manchester,+UnitedKingdom177",
					"Copenhagen,+Denmark271",
					"Copenhagen,+Denmark270"
				],
				"lat1": 18.000000,
				"nbSeg1": 4
			},
			"pathsExist": false,
			"runtime": 2248696577,
			"nomLat1": 15.000000,
			"nomLat2": 25.000000,
			"maxNomLat": 25.000000,
			"mincut": 4
		},
		{
			"s1": "Berlin,+Germany259",
			"s2": "Milan,+Italy220",
			"t1": "Vienna,+Austria124",
			"t2": "Vienna,+Austria242",
			"suurballeNbPaths": 2,
			"suurballeTime": 3966637,
			"suurballePaths": {
				"path0": [
					"Berlin,+Germany259",
					"Vienna,+Austria242"
				],
				"lat0": 4.000000,
				"nbSeg0": 0,
				"path1": [
					"Milan,+Italy220",
					"Geneva,+Switzerland139",
					"Geneva,+Switzerland144",
					"Frankfurt,+Germany170",
					"Munich,+Germany176",
					"Vienna,+Austria125",
					"Vienna,+Austria130",
					"Vienna,+Austria124"
				],
				"lat1": 16.000000,
				"nbSeg1": 2
			},
			"pathsExist": false,
			"runtime": 1842777,
			"nomLat1": 6.000000,
			"nomLat2": 24.000000,
			"maxNomLat": 24.000000,
			"mincut": 5
		},
		{
			"s1": "Brussels,+Belgium135",
			"s2": "Vienna,+Austria242",
			"t1": "Frankfurt,+Germany166",
			"t2": "Copenhagen,+Denmark272",
			"suurballeNbPaths": 2,
			"suurballeTime": 2321193,
			"suurballePaths": {
				"path0": [
					"Brussels,+Belgium135",
					"Brussels,+Belgium136",
					"Amsterdam,+Netherlands227",
					"Frankfurt,+Germany169",
					"Frankfurt,+Germany166"
				],
				"lat0": 7.000000,
				"nbSeg0": 1,
				"path1": [
					"Vienna,+Austria242",
					"Berlin,+Germany259",
					"Berlin,+Germany160",
					"Berlin,+Germany161",
					"Stockholm,+Sweden232",
					"Stockholm,+Sweden231",
					"Copenhagen,+Denmark179",
					"Copenhagen,+Denmark272"
				],
				"lat1": 18.000000,
				"nbSeg1": 1
			},
			"pathsExist": false,
			"runtime": 3433938,
			"nomLat1": 9.000000,
			"nomLat2": 22.000000,
			"maxNomLat": 22.000000,
			"mincut": 6
		},
		{
			"s1": "Geneva,+Switzerland140",
			"s2": "London,+UnitedKingdom289",
			"t1": "Geneva,+Switzerland146",
			"t2": "London,+UnitedKingdom288",
			"suurballeNbPaths": 2,
			"suurballeTime": 2298064,
			"suurballePaths": {
				"path0": [
					"London,+UnitedKingdom289",
					"London,+UnitedKingdom288"
				],
				"lat0": 1.000000,
				"nbSeg0": 0,
				"path1": [
					"Geneva,+Switzerland140",
					"Geneva,+Switzerland144",
					"Geneva,+Switzerland139",
					"Geneva,+Switzerland146"
				],
				"lat1": 3.000000,
				"nbSeg1": 2
			},
			"pathsExist": true,
			"path1": [
				"Geneva,+Switzerland140",
				"Geneva,+Switzerland145",
				"Frankfurt,+Germany170",
				"Geneva,+Switzerland146"
			],
			"lat1": 9.000000,
			"path2": [
				"London,+UnitedKingdom289",
				"Amsterdam,+Netherlands227",
				"Manchester,+UnitedKingdom177",
				"London,+UnitedKingdom288"
			],
			"lat2": 14.000000,
			"maxlat": 14.000000,
			"runtime": 2515652357,
			"nomLat1": 9.000000,
			"nomLat2": 1.000000,
			"maxNomLat": 9.000000,
			"mincut": 9
		},
		{
			"s1": "Antwerp,+Belgium244",
			"s2": "Copenhagen,+Denmark182",
			"t1": "Vienna,+Austria124",
			"t2": "Bracknell,+UnitedKingdom278",
			"suurballeNbPaths": 2,
			"suurballeTime": 2009675,
			"suurballePaths": {
				"path0": [
					"Antwerp,+Belgium244",
					"Brussels,+Belgium246",
					"Brussels,+Belgium136",
					"Amsterdam,+Netherlands227",
					"London,+UnitedKingdom209",
					"Bracknell,+UnitedKingdom278"
				],
				"lat0": 10.000000,
				"nbSeg0": 2,
				"path1": [
					"Copenhagen,+Denmark182",
					"Copenhagen,+Denmark179",
					"Stockholm,+Sweden231",
					"Stockholm,+Sweden232",
					"Berlin,+Germany161",
					"Prague,+CzechRepublic155",
					"Prague,+CzechRepublic157",
					"Vienna,+Austria124"
				],
				"lat1": 19.000000,
				"nbSeg1": 1
			},
			"pathsExist": false,
			"runtime": 981277087,
			"nomLat1": 17.000000,
			"nomLat2": 12.000000,
			"maxNomLat": 17.000000,
			"mincut": 5
		},
		{
			"s1": "Dusseldorf,+Germany260",
			"s2": "Munich,+Germany267",
			"t1": "London,+UnitedKingdom291",
			"t2": "Milan,+Italy217",
			"suurballeNbPaths": 2,
			"suurballeTime": 21432712,
			"suurballePaths": {
				"path0": [
					"Munich,+Germany267",
					"Munich,+Germany176",
					"Frankfurt,+Germany170",
					"Geneva,+Switzerland144",
					"Milan,+Italy217"
				],
				"lat0": 11.000000,
				"nbSeg0": 0,
				"path1": [
					"Dusseldorf,+Germany260",
					"Dusseldorf,+Germany163",
					"Amsterdam,+Netherlands227",
					"London,+UnitedKingdom209",
					"London,+UnitedKingdom288",
					"London,+UnitedKingdom291"
				],
				"lat1": 8.000000,
				"nbSeg1": 2
			},
			"pathsExist": false,
			"runtime": 4940192,
			"nomLat1": 12.000000,
			"nomLat2": 11.000000,
			"maxNomLat": 12.000000,
			"mincut": 6
		},
		{
			"s1": "Prague,+CzechRepublic155",
			"s2": "London,+UnitedKingdom293",
			"t1": "London,+UnitedKingdom207",
			"t2": "Rotterdam,+Netherlands299",
			"suurballeNbPaths": 2,
			"suurballeTime": 1918685,
			"suurballePaths": {
				"path0": [
					"London,+UnitedKingdom293",
					"London,+UnitedKingdom207"
				],
				"lat0": 1.000000,
				"nbSeg0": 0,
				"path1": [
					"Prague,+CzechRepublic155",
					"Berlin,+Germany161",
					"Berlin,+Germany160",
					"Dusseldorf,+Germany164",
					"Dusseldorf,+Germany163",
					"Amsterdam,+Netherlands227",
					"Rotterdam,+Netherlands228",
					"Rotterdam,+Netherlands299"
				],
				"lat1": 14.000000,
				"nbSeg1": 1
			},
			"pathsExist": false,
			"runtime": 3540230542,
			"nomLat1": 16.000000,
			"nomLat2": 7.000000,
			"maxNomLat": 16.000000,
			"mincut": 7
		},
		{
			"s1": "Dusseldorf,+Germany260",
			"s2": "Brussels,+Belgium135",
			"t1": "Frankfurt,+Germany170",
			"t2": "Munich,+Germany266",
			"suurballeNbPaths": 2,
			"suurballeTime": 2195751,
			"suurballePaths": {
				"path0": [
					"Dusseldorf,+Germany260",
					"Dusseldorf,+Germany261",
					"Munich,+Germany266"
				],
				"lat0": 5.000000,
				"nbSeg0": 0,
				"path1": [
					"Brussels,+Belgium135",
					"Brussels,+Belgium136",
					"Amsterdam,+Netherlands227",
					"Frankfurt,+Germany169",
					"Frankfurt,+Germany170"
				],
				"lat1": 7.000000,
				"nbSeg1": 1
			},
			"pathsExist": false,
			"runtime": 2210508994,
			"nomLat1": 4.000000,
			"nomLat2": 11.000000,
			"maxNomLat": 11.000000,
			"mincut": 10
		},
		{
			"s1": "Vienna,+Austria124",
			"s2": "London,+UnitedKingdom288",
			"t1": "London,+UnitedKingdom289",
			"t2": "Copenhagen,+Denmark182",
			"suurballeNbPaths": 2,
			"suurballeTime": 5229030,
			"suurballePaths": {
				"path0": [
					"London,+UnitedKingdom288",
					"London,+UnitedKingdom289"
				],
				"lat0": 1.000000,
				"nbSeg0": 0,
				"path1": [
					"Vienna,+Austria124",
					"Prague,+CzechRepublic157",
					"Prague,+CzechRepublic155",
					"Berlin,+Germany161",
					"Stockholm,+Sweden232",
					"Stockholm,+Sweden231",
					"Copenhagen,+Denmark179",
					"Copenhagen,+Denmark182"
				],
				"lat1": 19.000000,
				"nbSeg1": 1
			},
			"pathsExist": false,
			"runtime": 8677864368,
			"nomLat1": 20.000000,
			"nomLat2": 9.000000,
			"maxNomLat": 20.000000,
			"mincut": 6
		},
		{
			"s1": "Munich,+Germany266",
			"s2": "Brussels,+Belgium247",
			"t1": "Brussels,+Belgium135",
			"t2": "Berlin,+Germany161",
			"suurballeNbPaths": 2,
			"suurballeTime": 2072106,
			"suurballePaths": {
				"path0": [
					"Brussels,+Belgium247",
					"Brussels,+Belgium135"
				],
				"lat0": 1.000000,
				"nbSeg0": 0,
				"path1": [
					"Munich,+Germany266",
					"Munich,+Germany267",
					"Berlin,+Germany162",
					"Berlin,+Germany161"
				],
				"lat1": 6.000000,
				"nbSeg1": 2
			},
			"pathsExist": false,
			"runtime": 1626522574,
			"nomLat1": 11.000000,
			"nomLat2": 13.000000,
			"maxNomLat": 13.000000,
			"mincut": 6
		},
		{
			"s1": "Vienna,+Austria126",
			"s2": "Bracknell,+UnitedKingdom279",
			"t1": "Prague,+CzechRepublic155",
			"t2": "Brussels,+Belgium136",
			"suurballeNbPaths": 2,
			"suurballeTime": 2986143,
			"suurballePaths": {
				"path0": [
					"Vienna,+Austria126",
					"Vienna,+Austria123",
					"Prague,+CzechRepublic157",
					"Prague,+CzechRepublic155"
				],
				"lat0": 5.000000,
				"nbSeg0": 0,
				"path1": [
					"Bracknell,+UnitedKingdom279",
					"London,+UnitedKingdom209",
					"Amsterdam,+Netherlands227",
					"Brussels,+Belgium136"
				],
				"lat1": 7.000000,
				"nbSeg1": 1
			},
			"pathsExist": true,
			"path1": [
				"Vienna,+Austria126",
				"Prague,+CzechRepublic155"
			],
			"lat1": 5.000000,
			"path2": [
				"Bracknell,+UnitedKingdom279",
				"London,+UnitedKingdom209",
				"London,+UnitedKingdom288",
				"Manchester,+UnitedKingdom177",
				"Brussels,+Belgium136"
			],
			"lat2": 15.000000,
			"maxlat": 15.000000,
			"runtime": 5967447715,
			"nomLat1": 5.000000,
			"nomLat2": 8.000000,
			"maxNomLat": 8.000000,
			"mincut": 5
		},
		{
			"s1": "Brussels,+Belgium246",
			"s2": "Prague,+CzechRepublic155",
			"t1": "Berlin,+Germany162",
			"t2": "Geneva,+Switzerland140",
			"suurballeNbPaths": 2,
			"suurballeTime": 3943923,
			"suurballePaths": {
				"path0": [
					"Prague,+CzechRepublic155",
					"Berlin,+Germany161",
					"Berlin,+Germany162"
				],
				"lat0": 4.000000,
				"nbSeg0": 0,
				"path1": [
					"Brussels,+Belgium246",
					"Brussels,+Belgium135",
					"Paris,+France193",
					"Geneva,+Switzerland140"
				],
				"lat1": 8.000000,
				"nbSeg1": 0
			},
			"pathsExist": false,
			"runtime": 1863395007,
			"nomLat1": 13.000000,
			"nomLat2": 20.000000,
			"maxNomLat": 20.000000,
			"mincut": 5
		},
		{
			"s1": "Copenhagen,+Denmark271",
			"s2": "Copenhagen,+Denmark182",
			"t1": "Dusseldorf,+Germany261",
			"t2": "Geneva,+Switzerland139",
			"suurballeNbPaths": 2,
			"suurballeTime": 8755380,
			"suurballePaths": {
				"path0": [
					"Copenhagen,+Denmark271",
					"Manchester,+UnitedKingdom177",
					"Dusseldorf,+Germany163",
					"Dusseldorf,+Germany261"
				],
				"lat0": 12.000000,
				"nbSeg0": 4,
				"path1": [
					"Copenhagen,+Denmark182",
					"Manchester,+UnitedKingdom177",
					"London,+UnitedKingdom288",
					"London,+UnitedKingdom209",
					"Paris,+France193",
					"Geneva,+Switzerland139"
				],
				"lat1": 17.000000,
				"nbSeg1": 2
			},
			"pathsExist": false,
			"runtime": 1710414202,
			"nomLat1": 14.000000,
			"nomLat2": 23.000000,
			"maxNomLat": 23.000000,
			"mincut": 3
		},
		{
			"s1": "Geneva,+Switzerland141",
			"s2": "Paris,+France193",
			"t1": "Vienna,+Austria129",
			"t2": "Munich,+Germany176",
			"suurballeNbPaths": 2,
			"suurballeTime": 1943735,
			"suurballePaths": {
				"path0": [
					"Geneva,+Switzerland141",
					"Geneva,+Switzerland146",
					"Frankfurt,+Germany170",
					"Munich,+Germany176"
				],
				"lat0": 8.000000,
				"nbSeg0": 0,
				"path1": [
					"Paris,+France193",
					"Paris,+France196",
					"Frankfurt,+Germany170",
					"Frankfurt,+Germany168",
					"Dusseldorf,+Germany260",
					"Munich,+Germany267",
					"Vienna,+Austria129"
				],
				"lat1": 15.000000,
				"nbSeg1": 2
			},
			"pathsExist": false,
			"runtime": 12146370,
			"nomLat1": 12.000000,
			"nomLat2": 8.000000,
			"maxNomLat": 12.000000,
			"mincut": 5
		},
		{
			"s1": "Paris,+France196",
			"s2": "Frankfurt,+Germany170",
			"t1": "Geneva,+Switzerland146",
			"t2": "London,+UnitedKingdom291",
			"suurballeNbPaths": 2,
			"suurballeTime": 8521829,
			"suurballePaths": {
				"path0": [
					"Frankfurt,+Germany170",
					"Geneva,+Switzerland146"
				],
				"lat0": 4.000000,
				"nbSeg0": 0,
				"path1": [
					"Paris,+France196",
					"London,+UnitedKingdom201",
					"London,+UnitedKingdom291"
				],
				"lat1": 4.000000,
				"nbSeg1": 0
			},
			"pathsExist": false,
			"runtime": 3310223784,
			"nomLat1": 6.000000,
			"nomLat2": 8.000000,
			"maxNomLat": 8.000000,
			"mincut": 8
		},
		{
			"s1": "Dusseldorf,+Germany260",
			"s2": "Antwerp,+Belgium244",
			"t1": "Dusseldorf,+Germany164",
			"t2": "Vienna,+Austria129",
			"suurballeNbPaths": 2,
			"suurballeTime": 5096353,
			"suurballePaths": {
				"path0": [
					"Dusseldorf,+Germany260",
					"Munich,+Germany267",
					"Vienna,+Austria129"
				],
				"lat0": 7.000000,
				"nbSeg0": 1,
				"path1": [
					"Antwerp,+Belgium244",
					"Brussels,+Belgium246",
					"Brussels,+Belgium136",
					"Amsterdam,+Netherlands227",
					"Dusseldorf,+Germany163",
					"Dusseldorf,+Germany164"
				],
				"lat1": 8.000000,
				"nbSeg1": 2
			},
			"pathsExist": true,
			"path1": [
				"Dusseldorf,+Germany260",
				"Dusseldorf,+Germany164"
			],
			"lat1": 1.000000,
			"path2": [
				"Antwerp,+Belgium244",
				"Rotterdam,+Netherlands299",
				"Frankfurt,+Germany168",
				"Vienna,+Austria129"
			],
			"lat2": 18.000000,
			"maxlat": 18.000000,
			"runtime": 558721412,
			"nomLat1": 1.000000,
			"nomLat2": 16.000000,
			"maxNomLat": 16.000000,
			"mincut": 8
		},
		{
			"s1": "Milan,+Italy219",
			"s2": "Milan,+Italy217",
			"t1": "Berlin,+Germany259",
			"t2": "Frankfurt,+Germany166",
			"suurballeNbPaths": 2,
			"suurballeTime": 2256582,
			"suurballePaths": {
				"path0": [
					"Milan,+Italy219",
					"Geneva,+Switzerland145",
					"Frankfurt,+Germany170",
					"Frankfurt,+Germany166"
				],
				"lat0": 8.000000,
				"nbSeg0": 1,
				"path1": [
					"Milan,+Italy217",
					"Geneva,+Switzerland144",
					"Frankfurt,+Germany170",
					"Frankfurt,+Germany169",
					"Dusseldorf,+Germany164",
					"Berlin,+Germany160",
					"Berlin,+Germany259"
				],
				"lat1": 15.000000,
				"nbSeg1": 0
			},
			"pathsExist": false,
			"runtime": 2991208,
			"nomLat1": 15.000000,
			"nomLat2": 8.000000,
			"maxNomLat": 15.000000,
			"mincut": 4
		},
		{
			"s1": "Munich,+Germany176",
			"s2": "Milan,+Italy220",
			"t1": "Rotterdam,+Netherlands228",
			"t2": "Brussels,+Belgium247",
			"suurballeNbPaths": 2,
			"suurballeTime": 2243611,
			"suurballePaths": {
				"path0": [
					"Munich,+Germany176",
					"Frankfurt,+Germany170",
					"Frankfurt,+Germany169",
					"Amsterdam,+Netherlands227",
					"Rotterdam,+Netherlands228"
				],
				"lat0": 9.000000,
				"nbSeg0": 0,
				"path1": [
					"Milan,+Italy220",
					"Geneva,+Switzerland139",
					"Paris,+France193",
					"Brussels,+Belgium135",
					"Brussels,+Belgium247"
				],
				"lat1": 11.000000,
				"nbSeg1": 1
			},
			"pathsExist": false,
			"runtime": 1741880,
			"nomLat1": 9.000000,
			"nomLat2": 11.000000,
			"maxNomLat": 11.000000,
			"mincut": 3
		},
		{
			"s1": "London,+UnitedKingdom201",
			"s2": "Milan,+Italy217",
			"t1": "Munich,+Germany266",
			"t2": "London,+UnitedKingdom287",
			"suurballeNbPaths": 2,
			"suurballeTime": 12776733,
			"suurballePaths": {
				"path0": [
					"London,+UnitedKingdom201",
					"London,+UnitedKingdom209",
					"London,+UnitedKingdom287"
				],
				"lat0": 2.000000,
				"nbSeg0": 2,
				"path1": [
					"Milan,+Italy217",
					"Geneva,+Switzerland144",
					"Frankfurt,+Germany170",
					"Munich,+Germany176",
					"Munich,+Germany267",
					"Munich,+Germany266"
				],
				"lat1": 12.000000,
				"nbSeg1": 1
			},
			"pathsExist": false,
			"runtime": 2617355,
			"nomLat1": 16.000000,
			"nomLat2": 12.000000,
			"maxNomLat": 16.000000,
			"mincut": 7
		},
		{
			"s1": "Geneva,+Switzerland140",
			"s2": "Geneva,+Switzerland141",
			"t1": "Munich,+Germany176",
			"t2": "Dusseldorf,+Germany164",
			"suurballeNbPaths": 2,
			"suurballeTime": 2053888,
			"suurballePaths": {
				"path0": [
					"Geneva,+Switzerland140",
					"Geneva,+Switzerland144",
					"Frankfurt,+Germany170",
					"Munich,+Germany176"
				],
				"lat0": 8.000000,
				"nbSeg0": 1,
				"path1": [
					"Geneva,+Switzerland141",
					"Geneva,+Switzerland146",
					"Frankfurt,+Germany170",
					"Frankfurt,+Germany169",
					"Dusseldorf,+Germany164"
				],
				"lat1": 8.000000,
				"nbSeg1": 0
			},
			"pathsExist": false,
			"runtime": 1704395,
			"nomLat1": 12.000000,
			"nomLat2": 8.000000,
			"maxNomLat": 12.000000,
			"mincut": 6
		},
		{
			"s1": "Copenhagen,+Denmark182",
			"s2": "Vienna,+Austria126",
			"t1": "Vienna,+Austria130",
			"t2": "Dusseldorf,+Germany260",
			"suurballeNbPaths": 2,
			"suurballeTime": 4463209,
			"suurballePaths": {
				"path0": [
					"Vienna,+Austria126",
					"Vienna,+Austria130"
				],
				"lat0": 1.000000,
				"nbSeg0": 0,
				"path1": [
					"Copenhagen,+Denmark182",
					"Manchester,+UnitedKingdom177",
					"Dusseldorf,+Germany163",
					"Dusseldorf,+Germany260"
				],
				"lat1": 12.000000,
				"nbSeg1": 0
			},
			"pathsExist": false,
			"runtime": 5067533604,
			"nomLat1": 24.000000,
			"nomLat2": 11.000000,
			"maxNomLat": 24.000000,
			"mincut": 8
		},
		{
			"s1": "Hamburg,+Germany264",
			"s2": "Geneva,+Switzerland139",
			"t1": "Amsterdam,+Netherlands298",
			"t2": "Bracknell,+UnitedKingdom278",
			"suurballeNbPaths": 2,
			"suurballeTime": 2495840,
			"suurballePaths": {
				"path0": [
					"Geneva,+Switzerland139",
					"Paris,+France193",
					"London,+UnitedKingdom209",
					"Bracknell,+UnitedKingdom278"
				],
				"lat0": 9.000000,
				"nbSeg0": 1,
				"path1": [
					"Hamburg,+Germany264",
					"Dusseldorf,+Germany260",
					"Dusseldorf,+Germany163",
					"Amsterdam,+Netherlands227",
					"Rotterdam,+Netherlands228",
					"Rotterdam,+Netherlands299",
					"Amsterdam,+Netherlands298"
				],
				"lat1": 11.000000,
				"nbSeg1": 4
			},
			"pathsExist": false,
			"runtime": 1952989661,
			"nomLat1": 13.000000,
			"nomLat2": 11.000000,
			"maxNomLat": 13.000000,
			"mincut": 6
		},
		{
			"s1": "Geneva,+Switzerland144",
			"s2": "Brussels,+Belgium136",
			"t1": "Manchester,+UnitedKingdom177",
			"t2": "Antwerp,+Belgium243",
			"suurballeNbPaths": 2,
			"suurballeTime": 1971611,
			"suurballePaths": {
				"path0": [
					"Brussels,+Belgium136",
					"Brussels,+Belgium247",
					"Antwerp,+Belgium244",
					"Antwerp,+Belgium243"
				],
				"lat0": 4.000000,
				"nbSeg0": 1,
				"path1": [
					"Geneva,+Switzerland144",
					"Geneva,+Switzerland139",
					"Paris,+France193",
					"London,+UnitedKingdom209",
					"London,+UnitedKingdom288",
					"Manchester,+UnitedKingdom177"
				],
				"lat1": 12.000000,
				"nbSeg1": 3
			},
			"pathsExist": false,
			"runtime": 1610276,
			"nomLat1": 15.000000,
			"nomLat2": 4.000000,
			"maxNomLat": 15.000000,
			"mincut": 5
		},
		{
			"s1": "Munich,+Germany266",
			"s2": "London,+UnitedKingdom288",
			"t1": "Antwerp,+Belgium243",
			"t2": "Stockholm,+Sweden304",
			"suurballeNbPaths": 2,
			"suurballeTime": 4266726,
			"suurballePaths": {
				"path0": [
					"London,+UnitedKingdom288",
					"Manchester,+UnitedKingdom177",
					"Copenhagen,+Denmark271",
					"Stockholm,+Sweden304"
				],
				"lat0": 13.000000,
				"nbSeg0": 2,
				"path1": [
					"Munich,+Germany266",
					"Dusseldorf,+Germany261",
					"Dusseldorf,+Germany163",
					"Amsterdam,+Netherlands227",
					"Rotterdam,+Netherlands228",
					"Rotterdam,+Netherlands299",
					"Antwerp,+Belgium243"
				],
				"lat1": 12.000000,
				"nbSeg1": 2
			},
			"pathsExist": false,
			"runtime": 1545977,
			"nomLat1": 13.000000,
			"nomLat2": 14.000000,
			"maxNomLat": 14.000000,
			"mincut": 4
		},
		{
			"s1": "Amsterdam,+Netherlands297",
			"s2": "Dusseldorf,+Germany164",
			"t1": "Vienna,+Austria124",
			"t2": "Munich,+Germany266",
			"suurballeNbPaths": 2,
			"suurballeTime": 2097574,
			"suurballePaths": {
				"path0": [
					"Dusseldorf,+Germany164",
					"Dusseldorf,+Germany261",
					"Munich,+Germany266"
				],
				"lat0": 5.000000,
				"nbSeg0": 2,
				"path1": [
					"Amsterdam,+Netherlands297",
					"Rotterdam,+Netherlands299",
					"Rotterdam,+Netherlands228",
					"Amsterdam,+Netherlands227",
					"Dusseldorf,+Germany163",
					"Dusseldorf,+Germany260",
					"Munich,+Germany267",
					"Vienna,+Austria126",
					"Vienna,+Austria130",
					"Vienna,+Austria124"
				],
				"lat1": 17.000000,
				"nbSeg1": 2
			},
			"pathsExist": false,
			"runtime": 6810385261,
			"nomLat1": 17.000000,
			"nomLat2": 6.000000,
			"maxNomLat": 17.000000,
			"mincut": 5
		},
		{
			"s1": "London,+UnitedKingdom287",
			"s2": "London,+UnitedKingdom200",
			"t1": "New+York,+NY239",
			"t2": "Frankfurt,+Germany263",
			"suurballeNbPaths": 2,
			"suurballeTime": 2674350,
			"suurballePaths": {
				"path0": [
					"London,+UnitedKingdom200",
					"London,+UnitedKingdom201",
					"London,+UnitedKingdom209",
					"New+York,+NY239"
				],
				"lat0": 31.000000,
				"nbSeg0": 2,
				"path1": [
					"London,+UnitedKingdom287",
					"London,+UnitedKingdom208",
					"Amsterdam,+Netherlands227",
					"Frankfurt,+Germany169",
					"Frankfurt,+Germany263"
				],
				"lat1": 8.000000,
				"nbSeg1": 2
			},
			"pathsExist": false,
			"runtime": 2457678905,
			"nomLat1": 30.000000,
			"nomLat2": 10.000000,
			"maxNomLat": 30.000000,
			"mincut": 6
		},
		{
			"s1": "Antwerp,+Belgium243",
			"s2": "New+York,+NY239",
			"t1": "Brussels,+Belgium246",
			"t2": "Vienna,+Austria129",
			"suurballeNbPaths": 2,
			"suurballeTime": 2604571,
			"suurballePaths": {
				"path0": [
					"Antwerp,+Belgium243",
					"Antwerp,+Belgium244",
					"Brussels,+Belgium246"
				],
				"lat0": 3.000000,
				"nbSeg0": 0,
				"path1": [
					"New+York,+NY239",
					"London,+UnitedKingdom208",
					"Amsterdam,+Netherlands227",
					"Dusseldorf,+Germany163",
					"Dusseldorf,+Germany260",
					"Munich,+Germany267",
					"Vienna,+Austria129"
				],
				"lat1": 42.000000,
				"nbSeg1": 3
			},
			"pathsExist": false,
			"runtime": 16429073,
			"nomLat1": 3.000000,
			"nomLat2": 44.000000,
			"maxNomLat": 44.000000,
			"mincut": 6
		},
		{
			"s1": "Vienna,+Austria124",
			"s2": "London,+UnitedKingdom209",
			"t1": "Dusseldorf,+Germany261",
			"t2": "Antwerp,+Belgium244",
			"suurballeNbPaths": 2,
			"suurballeTime": 2031592,
			"suurballePaths": {
				"path0": [
					"London,+UnitedKingdom209",
					"Amsterdam,+Netherlands227",
					"Brussels,+Belgium136",
					"Brussels,+Belgium247",
					"Antwerp,+Belgium244"
				],
				"lat0": 8.000000,
				"nbSeg0": 1,
				"path1": [
					"Vienna,+Austria124",
					"Vienna,+Austria130",
					"Vienna,+Austria129",
					"Munich,+Germany267",
					"Dusseldorf,+Germany260",
					"Dusseldorf,+Germany261"
				],
				"lat1": 10.000000,
				"nbSeg1": 2
			},
			"pathsExist": false,
			"runtime": 1717712490,
			"nomLat1": 13.000000,
			"nomLat2": 8.000000,
			"maxNomLat": 13.000000,
			"mincut": 8
		},
		{
			"s1": "Hamburg,+Germany264",
			"s2": "Brussels,+Belgium135",
			"t1": "Berlin,+Germany162",
			"t2": "London,+UnitedKingdom207",
			"suurballeNbPaths": 2,
			"suurballeTime": 1883656,
			"suurballePaths": {
				"path0": [
					"Brussels,+Belgium135",
					"Paris,+France193",
					"London,+UnitedKingdom207"
				],
				"lat0": 6.000000,
				"nbSeg0": 0,
				"path1": [
					"Hamburg,+Germany264",
					"Dusseldorf,+Germany260",
					"Dusseldorf,+Germany164",
					"Berlin,+Germany160",
					"Berlin,+Germany162"
				],
				"lat1": 9.000000,
				"nbSeg1": 2
			},
			"pathsExist": true,
			"path1": [
				"Hamburg,+Germany264",
				"Dusseldorf,+Germany261",
				"Munich,+Germany267",
				"Berlin,+Germany162"
			],
			"lat1": 12.000000,
			"path2": [
				"Brussels,+Belgium135",
				"London,+UnitedKingdom209",
				"New+York,+NY239",
				"London,+UnitedKingdom207"
			],
			"lat2": 64.000000,
			"maxlat": 64.000000,
			"runtime": 1059663686,
			"nomLat1": 10.000000,
			"nomLat2": 6.000000,
			"maxNomLat": 10.000000,
			"mincut": 6
		},
		{
			"s1": "Geneva,+Switzerland142",
			"s2": "Geneva,+Switzerland146",
			"t1": "Hamburg,+Germany264",
			"t2": "Dusseldorf,+Germany260",
			"suurballeNbPaths": 2,
			"suurballeTime": 7684046,
			"suurballePaths": {
				"path0": [
					"Geneva,+Switzerland146",
					"Frankfurt,+Germany170",
					"Frankfurt,+Germany168",
					"Dusseldorf,+Germany260"
				],
				"lat0": 7.000000,
				"nbSeg0": 1,
				"path1": [
					"Geneva,+Switzerland142",
					"Geneva,+Switzerland146",
					"Geneva,+Switzerland139",
					"Geneva,+Switzerland144",
					"Frankfurt,+Germany170",
					"Frankfurt,+Germany263",
					"Dusseldorf,+Germany260"
				],
				"lat1": 10.000000,
				"nbSeg1": 4
			},
			"pathsExist": false,
			"runtime": 26129406,
			"nomLat1": 13.000000,
			"nomLat2": 8.000000,
			"maxNomLat": 13.000000,
			"mincut": 6
		},
		{
			"s1": "Paris,+France196",
			"s2": "Vienna,+Austria126",
			"t1": "Frankfurt,+Germany168",
			"t2": "Geneva,+Switzerland144",
			"suurballeNbPaths": 2,
			"suurballeTime": 2082284,
			"suurballePaths": {
				"path0": [
					"Paris,+France196",
					"Paris,+France193",
					"Geneva,+Switzerland139",
					"Geneva,+Switzerland144"
				],
				"lat0": 6.000000,
				"nbSeg0": 1,
				"path1": [
					"Vienna,+Austria126",
					"Vienna,+Austria125",
					"Munich,+Germany176",
					"Frankfurt,+Germany170",
					"Frankfurt,+Germany168"
				],
				"lat1": 8.000000,
				"nbSeg1": 0
			},
			"pathsExist": false,
			"runtime": 931426991,
			"nomLat1": 5.000000,
			"nomLat2": 11.000000,
			"maxNomLat": 11.000000,
			"mincut": 8
		},
		{
			"s1": "Munich,+Germany266",
			"s2": "Frankfurt,+Germany263",
			"t1": "Dusseldorf,+Germany261",
			"t2": "Manchester,+UnitedKingdom177",
			"suurballeNbPaths": 2,
			"suurballeTime": 12094079,
			"suurballePaths": {
				"path0": [
					"Munich,+Germany266",
					"Dusseldorf,+Germany261"
				],
				"lat0": 4.000000,
				"nbSeg0": 0,
				"path1": [
					"Frankfurt,+Germany263",
					"Dusseldorf,+Germany260",
					"Dusseldorf,+Germany163",
					"Manchester,+UnitedKingdom177"
				],
				"lat1": 8.000000,
				"nbSeg1": 0
			},
			"pathsExist": true,
			"path1": [
				"Munich,+Germany266",
				"Dusseldorf,+Germany261"
			],
			"lat1": 4.000000,
			"path2": [
				"Frankfurt,+Germany263",
				"Manchester,+UnitedKingdom177"
			],
			"lat2": 8.000000,
			"maxlat": 8.000000,
			"runtime": 50299600,
			"nomLat1": 4.000000,
			"nomLat2": 8.000000,
			"maxNomLat": 8.000000,
			"mincut": 7
		},
		{
			"s1": "Manchester,+UnitedKingdom177",
			"s2": "Dusseldorf,+Germany260",
			"t1": "Dusseldorf,+Germany164",
			"t2": "Vienna,+Austria126",
			"suurballeNbPaths": 2,
			"suurballeTime": 1848694,
			"suurballePaths": {
				"path0": [
					"Manchester,+UnitedKingdom177",
					"Dusseldorf,+Germany163",
					"Dusseldorf,+Germany164"
				],
				"lat0": 6.000000,
				"nbSeg0": 0,
				"path1": [
					"Dusseldorf,+Germany260",
					"Munich,+Germany267",
					"Vienna,+Austria126"
				],
				"lat1": 7.000000,
				"nbSeg1": 1
			},
			"pathsExist": true,
			"path1": [
				"Manchester,+UnitedKingdom177",
				"Dusseldorf,+Germany164"
			],
			"lat1": 6.000000,
			"path2": [
				"Dusseldorf,+Germany260",
				"Munich,+Germany267",
				"Berlin,+Germany259",
				"Vienna,+Austria126"
			],
			"lat2": 15.000000,
			"maxlat": 15.000000,
			"runtime": 5229714217,
			"nomLat1": 6.000000,
			"nomLat2": 11.000000,
			"maxNomLat": 11.000000,
			"mincut": 8
		},
		{
			"s1": "Copenhagen,+Denmark270",
			"s2": "Frankfurt,+Germany169",
			"t1": "Geneva,+Switzerland141",
			"t2": "Amsterdam,+Netherlands227",
			"suurballeNbPaths": 2,
			"suurballeTime": 1859875,
			"suurballePaths": {
				"path0": [
					"Frankfurt,+Germany169",
					"Frankfurt,+Germany170",
					"Geneva,+Switzerland146",
					"Geneva,+Switzerland141"
				],
				"lat0": 6.000000,
				"nbSeg0": 0,
				"path1": [
					"Copenhagen,+Denmark270",
					"Copenhagen,+Denmark271",
					"Manchester,+UnitedKingdom177",
					"Dusseldorf,+Germany163",
					"Amsterdam,+Netherlands227"
				],
				"lat1": 14.000000,
				"nbSeg1": 2
			},
			"pathsExist": false,
			"runtime": 20835334012,
			"nomLat1": 27.000000,
			"nomLat2": 3.000000,
			"maxNomLat": 27.000000,
			"mincut": 7
		},
		{
			"s1": "Stockholm,+Sweden304",
			"s2": "Manchester,+UnitedKingdom177",
			"t1": "Vienna,+Austria129",
			"t2": "New+York,+NY239",
			"suurballeNbPaths": 2,
			"suurballeTime": 1932088,
			"suurballePaths": {
				"path0": [
					"Manchester,+UnitedKingdom177",
					"London,+UnitedKingdom288",
					"London,+UnitedKingdom209",
					"New+York,+NY239"
				],
				"lat0": 33.000000,
				"nbSeg0": 1,
				"path1": [
					"Stockholm,+Sweden304",
					"Copenhagen,+Denmark271",
					"Manchester,+UnitedKingdom177",
					"Dusseldorf,+Germany163",
					"Dusseldorf,+Germany260",
					"Munich,+Germany267",
					"Vienna,+Austria129"
				],
				"lat1": 23.000000,
				"nbSeg1": 4
			},
			"pathsExist": false,
			"runtime": 29791849,
			"nomLat1": 29.000000,
			"nomLat2": 39.000000,
			"maxNomLat": 39.000000,
			"mincut": 3
		},
		{
			"s1": "Prague,+CzechRepublic155",
			"s2": "Berlin,+Germany161",
			"t1": "Vienna,+Austria130",
			"t2": "London,+UnitedKingdom291",
			"suurballeNbPaths": 2,
			"suurballeTime": 1922341,
			"suurballePaths": {
				"path0": [
					"Prague,+CzechRepublic155",
					"Prague,+CzechRepublic157",
					"Vienna,+Austria124",
					"Vienna,+Austria130"
				],
				"lat0": 5.000000,
				"nbSeg0": 0,
				"path1": [
					"Berlin,+Germany161",
					"Berlin,+Germany160",
					"Dusseldorf,+Germany164",
					"Dusseldorf,+Germany163",
					"Amsterdam,+Netherlands227",
					"London,+UnitedKingdom209",
					"London,+UnitedKingdom288",
					"London,+UnitedKingdom291"
				],
				"lat1": 13.000000,
				"nbSeg1": 3
			},
			"pathsExist": false,
			"runtime": 1662366978,
			"nomLat1": 5.000000,
			"nomLat2": 16.000000,
			"maxNomLat": 16.000000,
			"mincut": 4
		},
		{
			"s1": "Paris,+France196",
			"s2": "Geneva,+Switzerland139",
			"t1": "Stockholm,+Sweden303",
			"t2": "Stockholm,+Sweden304",
			"suurballeNbPaths": 2,
			"suurballeTime": 2789394,
			"suurballePaths": {
				"path0": [
					"Paris,+France196",
					"London,+UnitedKingdom201",
					"London,+UnitedKingdom209",
					"London,+UnitedKingdom288",
					"Manchester,+UnitedKingdom177",
					"Copenhagen,+Denmark271",
					"Stockholm,+Sweden304"
				],
				"lat0": 18.000000,
				"nbSeg0": 5,
				"path1": [
					"Geneva,+Switzerland139",
					"Geneva,+Switzerland144",
					"Frankfurt,+Germany170",
					"Frankfurt,+Germany169",
					"Dusseldorf,+Germany164",
					"Berlin,+Germany160",
					"Berlin,+Germany161",
					"Stockholm,+Sweden232",
					"Stockholm,+Sweden302",
					"Stockholm,+Sweden303"
				],
				"lat1": 21.000000,
				"nbSeg1": 3
			},
			"pathsExist": false,
			"runtime": 6302047,
			"nomLat1": 26.000000,
			"nomLat2": 28.000000,
			"maxNomLat": 28.000000,
			"mincut": 3
		},
		{
			"s1": "Vienna,+Austria124",
			"s2": "Dusseldorf,+Germany163",
			"t1": "Vienna,+Austria130",
			"t2": "Geneva,+Switzerland144",
			"suurballeNbPaths": 2,
			"suurballeTime": 2186875,
			"suurballePaths": {
				"path0": [
					"Vienna,+Austria124",
					"Vienna,+Austria130"
				],
				"lat0": 1.000000,
				"nbSeg0": 0,
				"path1": [
					"Dusseldorf,+Germany163",
					"Dusseldorf,+Germany260",
					"Frankfurt,+Germany168",
					"Frankfurt,+Germany170",
					"Geneva,+Switzerland144"
				],
				"lat1": 8.000000,
				"nbSeg1": 2
			},
			"pathsExist": true,
			"path1": [
				"Vienna,+Austria124",
				"Vienna,+Austria130"
			],
			"lat1": 1.000000,
			"path2": [
				"Dusseldorf,+Germany163",
				"Amsterdam,+Netherlands227",
				"Frankfurt,+Germany166",
				"Geneva,+Switzerland144"
			],
			"lat2": 11.000000,
			"maxlat": 11.000000,
			"runtime": 794740701,
			"nomLat1": 1.000000,
			"nomLat2": 10.000000,
			"maxNomLat": 10.000000,
			"mincut": 7
		},
		{
			"s1": "Geneva,+Switzerland142",
			"s2": "New+York,+NY239",
			"t1": "London,+UnitedKingdom209",
			"t2": "Vienna,+Austria130",
			"suurballeNbPaths": 2,
			"suurballeTime": 2149403,
			"suurballePaths": {
				"path0": [
					"New+York,+NY239",
					"London,+UnitedKingdom209"
				],
				"lat0": 29.000000,
				"nbSeg0": 0,
				"path1": [
					"Geneva,+Switzerland142",
					"Geneva,+Switzerland146",
					"Frankfurt,+Germany170",
					"Munich,+Germany176",
					"Vienna,+Austria125",
					"Vienna,+Austria130"
				],
				"lat1": 12.000000,
				"nbSeg1": 0
			},
			"pathsExist": false,
			"runtime": 24461204,
			"nomLat1": 7.000000,
			"nomLat2": 44.000000,
			"maxNomLat": 44.000000,
			"mincut": 6
		},
		{
			"s1": "Dusseldorf,+Germany164",
			"s2": "Berlin,+Germany160",
			"t1": "Copenhagen,+Denmark270",
			"t2": "New+York,+NY239",
			"suurballeNbPaths": 2,
			"suurballeTime": 17711736,
			"suurballePaths": {
				"path0": [
					"Dusseldorf,+Germany164",
					"Dusseldorf,+Germany163",
					"Amsterdam,+Netherlands227",
					"London,+UnitedKingdom208",
					"New+York,+NY239"
				],
				"lat0": 35.000000,
				"nbSeg0": 2,
				"path1": [
					"Berlin,+Germany160",
					"Berlin,+Germany161",
					"Stockholm,+Sweden232",
					"Stockholm,+Sweden302",
					"Copenhagen,+Denmark271",
					"Copenhagen,+Denmark270"
				],
				"lat1": 13.000000,
				"nbSeg1": 1
			},
			"pathsExist": false,
			"runtime": 1291441830,
			"nomLat1": 14.000000,
			"nomLat2": 41.000000,
			"maxNomLat": 41.000000,
			"mincut": 6
		},
		{
			"s1": "Manchester,+UnitedKingdom177",
			"s2": "Berlin,+Germany161",
			"t1": "Rotterdam,+Netherlands228",
			"t2": "Stockholm,+Sweden232",
			"suurballeNbPaths": 2,
			"suurballeTime": 15741339,
			"suurballePaths": {
				"path0": [
					"Berlin,+Germany161",
					"Stockholm,+Sweden232"
				],
				"lat0": 6.000000,
				"nbSeg0": 0,
				"path1": [
					"Manchester,+UnitedKingdom177",
					"Dusseldorf,+Germany163",
					"Amsterdam,+Netherlands227",
					"Rotterdam,+Netherlands228"
				],
				"lat1": 9.000000,
				"nbSeg1": 0
			},
			"pathsExist": false,
			"runtime": 2329893235,
			"nomLat1": 9.000000,
			"nomLat2": 6.000000,
			"maxNomLat": 9.000000,
			"mincut": 5
		},
		{
			"s1": "Vienna,+Austria130",
			"s2": "Prague,+CzechRepublic157",
			"t1": "Munich,+Germany266",
			"t2": "Frankfurt,+Germany166",
			"suurballeNbPaths": 2,
			"suurballeTime": 7691052,
			"suurballePaths": {
				"path0": [
					"Vienna,+Austria130",
					"Vienna,+Austria129",
					"Munich,+Germany267",
					"Munich,+Germany266"
				],
				"lat0": 5.000000,
				"nbSeg0": 1,
				"path1": [
					"Prague,+CzechRepublic157",
					"Vienna,+Austria123",
					"Vienna,+Austria125",
					"Munich,+Germany176",
					"Frankfurt,+Germany170",
					"Frankfurt,+Germany166"
				],
				"lat1": 11.000000,
				"nbSeg1": 1
			},
			"pathsExist": false,
			"runtime": 1844630029,
			"nomLat1": 6.000000,
			"nomLat2": 12.000000,
			"maxNomLat": 12.000000,
			"mincut": 5
		},
		{
			"s1": "Vienna,+Austria242",
			"s2": "Amsterdam,+Netherlands298",
			"t1": "Vienna,+Austria129",
			"t2": "Berlin,+Germany160",
			"suurballeNbPaths": 2,
			"suurballeTime": 7572425,
			"suurballePaths": {
				"path0": [
					"Vienna,+Austria242",
					"Vienna,+Austria126",
					"Vienna,+Austria130",
					"Vienna,+Austria129"
				],
				"lat0": 3.000000,
				"nbSeg0": 0,
				"path1": [
					"Amsterdam,+Netherlands298",
					"Rotterdam,+Netherlands299",
					"Rotterdam,+Netherlands228",
					"Amsterdam,+Netherlands227",
					"Dusseldorf,+Germany163",
					"Dusseldorf,+Germany164",
					"Berlin,+Germany160"
				],
				"lat1": 12.000000,
				"nbSeg1": 3
			},
			"pathsExist": false,
			"runtime": 1594339,
			"nomLat1": 3.000000,
			"nomLat2": 15.000000,
			"maxNomLat": 15.000000,
			"mincut": 5
		},
		{
			"s1": "Antwerp,+Belgium244",
			"s2": "Copenhagen,+Denmark271",
			"t1": "Milan,+Italy217",
			"t2": "Manchester,+UnitedKingdom177",
			"suurballeNbPaths": 2,
			"suurballeTime": 2009026,
			"suurballePaths": {
				"path0": [
					"Copenhagen,+Denmark271",
					"Manchester,+UnitedKingdom177"
				],
				"lat0": 6.000000,
				"nbSeg0": 2,
				"path1": [
					"Antwerp,+Belgium244",
					"Brussels,+Belgium246",
					"Brussels,+Belgium135",
					"Paris,+France193",
					"Geneva,+Switzerland139",
					"Geneva,+Switzerland144",
					"Milan,+Italy217"
				],
				"lat1": 14.000000,
				"nbSeg1": 3
			},
			"pathsExist": false,
			"runtime": 2588415249,
			"nomLat1": 14.000000,
			"nomLat2": 7.000000,
			"maxNomLat": 14.000000,
			"mincut": 7
		},
		{
			"s1": "Milan,+Italy220",
			"s2": "Vienna,+Austria242",
			"t1": "Brussels,+Belgium246",
			"t2": "Brussels,+Belgium135",
			"suurballeNbPaths": 2,
			"suurballeTime": 3434420,
			"suurballePaths": {
				"path0": [
					"Milan,+Italy220",
					"Geneva,+Switzerland139",
					"Paris,+France193",
					"Brussels,+Belgium135"
				],
				"lat0": 10.000000,
				"nbSeg0": 1,
				"path1": [
					"Vienna,+Austria242",
					"Munich,+Germany267",
					"Dusseldorf,+Germany260",
					"Dusseldorf,+Germany163",
					"Amsterdam,+Netherlands227",
					"Brussels,+Belgium136",
					"Brussels,+Belgium246"
				],
				"lat1": 13.000000,
				"nbSeg1": 1
			},
			"pathsExist": false,
			"runtime": 44348882,
			"nomLat1": 11.000000,
			"nomLat2": 20.000000,
			"maxNomLat": 20.000000,
			"mincut": 3
		},
		{
			"s1": "London,+UnitedKingdom207",
			"s2": "Rotterdam,+Netherlands299",
			"t1": "Antwerp,+Belgium243",
			"t2": "Milan,+Italy220",
			"suurballeNbPaths": 2,
			"suurballeTime": 1973807,
			"suurballePaths": {
				"path0": [
					"Rotterdam,+Netherlands299",
					"Antwerp,+Belgium243"
				],
				"lat0": 2.000000,
				"nbSeg0": 0,
				"path1": [
					"London,+UnitedKingdom207",
					"Paris,+France193",
					"Geneva,+Switzerland139",
					"Milan,+Italy220"
				],
				"lat1": 10.000000,
				"nbSeg1": 1
			},
			"pathsExist": false,
			"runtime": 2164348,
			"nomLat1": 8.000000,
			"nomLat2": 16.000000,
			"maxNomLat": 16.000000,
			"mincut": 4
		},
		{
			"s1": "Vienna,+Austria123",
			"s2": "London,+UnitedKingdom288",
			"t1": "Bracknell,+UnitedKingdom279",
			"t2": "Frankfurt,+Germany166",
			"suurballeNbPaths": 2,
			"suurballeTime": 2007798,
			"suurballePaths": {
				"path0": [
					"London,+UnitedKingdom288",
					"London,+UnitedKingdom291",
					"Bracknell,+UnitedKingdom279"
				],
				"lat0": 3.000000,
				"nbSeg0": 1,
				"path1": [
					"Vienna,+Austria123",
					"Vienna,+Austria125",
					"Munich,+Germany176",
					"Frankfurt,+Germany170",
					"Frankfurt,+Germany166"
				],
				"lat1": 8.000000,
				"nbSeg1": 0
			},
			"pathsExist": false,
			"runtime": 12919286738,
			"nomLat1": 17.000000,
			"nomLat2": 10.000000,
			"maxNomLat": 17.000000,
			"mincut": 8
		},
		{
			"s1": "Vienna,+Austria125",
			"s2": "Geneva,+Switzerland139",
			"t1": "Copenhagen,+Denmark271",
			"t2": "New+York,+NY239",
			"suurballeNbPaths": 2,
			"suurballeTime": 1944221,
			"suurballePaths": {
				"path0": [
					"Geneva,+Switzerland139",
					"Paris,+France193",
					"London,+UnitedKingdom209",
					"New+York,+NY239"
				],
				"lat0": 36.000000,
				"nbSeg0": 1,
				"path1": [
					"Vienna,+Austria125",
					"Vienna,+Austria126",
					"Berlin,+Germany259",
					"Berlin,+Germany160",
					"Berlin,+Germany161",
					"Stockholm,+Sweden232",
					"Stockholm,+Sweden302",
					"Copenhagen,+Denmark271"
				],
				"lat1": 18.000000,
				"nbSeg1": 2
			},
			"pathsExist": false,
			"runtime": 12536512669,
			"nomLat1": 24.000000,
			"nomLat2": 36.000000,
			"maxNomLat": 36.000000,
			"mincut": 7
		},
		{
			"s1": "London,+UnitedKingdom200",
			"s2": "London,+UnitedKingdom293",
			"t1": "Munich,+Germany176",
			"t2": "Copenhagen,+Denmark272",
			"suurballeNbPaths": 2,
			"suurballeTime": 2412687,
			"suurballePaths": {
				"path0": [
					"London,+UnitedKingdom200",
					"London,+UnitedKingdom201",
					"Paris,+France196",
					"Frankfurt,+Germany170",
					"Munich,+Germany176"
				],
				"lat0": 11.000000,
				"nbSeg0": 0,
				"path1": [
					"London,+UnitedKingdom293",
					"London,+UnitedKingdom209",
					"London,+UnitedKingdom288",
					"Manchester,+UnitedKingdom177",
					"Copenhagen,+Denmark179",
					"Copenhagen,+Denmark272"
				],
				"lat1": 12.000000,
				"nbSeg1": 2
			},
			"pathsExist": false,
			"runtime": 6293743,
			"nomLat1": 11.000000,
			"nomLat2": 18.000000,
			"maxNomLat": 18.000000,
			"mincut": 5
		},
		{
			"s1": "Frankfurt,+Germany263",
			"s2": "Brussels,+Belgium136",
			"t1": "Rotterdam,+Netherlands299",
			"t2": "Vienna,+Austria242",
			"suurballeNbPaths": 2,
			"suurballeTime": 1999884,
			"suurballePaths": {
				"path0": [
					"Brussels,+Belgium136",
					"Amsterdam,+Netherlands227",
					"Rotterdam,+Netherlands228",
					"Rotterdam,+Netherlands299"
				],
				"lat0": 5.000000,
				"nbSeg0": 0,
				"path1": [
					"Frankfurt,+Germany263",
					"Frankfurt,+Germany170",
					"Munich,+Germany176",
					"Munich,+Germany267",
					"Vienna,+Austria242"
				],
				"lat1": 8.000000,
				"nbSeg1": 2
			},
			"pathsExist": false,
			"runtime": 4678925177,
			"nomLat1": 8.000000,
			"nomLat2": 16.000000,
			"maxNomLat": 16.000000,
			"mincut": 5
		},
		{
			"s1": "Copenhagen,+Denmark270",
			"s2": "Dusseldorf,+Germany261",
			"t1": "Stockholm,+Sweden302",
			"t2": "New+York,+NY240",
			"suurballeNbPaths": 2,
			"suurballeTime": 4192486,
			"suurballePaths": {
				"path0": [
					"Copenhagen,+Denmark270",
					"Stockholm,+Sweden303",
					"Stockholm,+Sweden302"
				],
				"lat0": 5.000000,
				"nbSeg0": 1,
				"path1": [
					"Dusseldorf,+Germany261",
					"Dusseldorf,+Germany163",
					"Amsterdam,+Netherlands227",
					"London,+UnitedKingdom208",
					"New+York,+NY239",
					"New+York,+NY240"
				],
				"lat1": 36.000000,
				"nbSeg1": 4
			},
			"pathsExist": false,
			"runtime": 1306616354,
			"nomLat1": 5.000000,
			"nomLat2": 41.000000,
			"maxNomLat": 41.000000,
			"mincut": 5
		},
		{
			"s1": "Geneva,+Switzerland145",
			"s2": "Copenhagen,+Denmark182",
			"t1": "Vienna,+Austria129",
			"t2": "Munich,+Germany267",
			"suurballeNbPaths": 2,
			"suurballeTime": 1949748,
			"suurballePaths": {
				"path0": [
					"Geneva,+Switzerland145",
					"Frankfurt,+Germany170",
					"Munich,+Germany176",
					"Munich,+Germany267"
				],
				"lat0": 8.000000,
				"nbSeg0": 0,
				"path1": [
					"Copenhagen,+Denmark182",
					"Manchester,+UnitedKingdom177",
					"Dusseldorf,+Germany163",
					"Dusseldorf,+Germany260",
					"Munich,+Germany267"
				],
				"lat1": 16.000000,
				"nbSeg1": 1
			},
			"pathsExist": false,
			"runtime": 4808460103,
			"nomLat1": 11.000000,
			"nomLat2": 21.000000,
			"maxNomLat": 21.000000,
			"mincut": 5
		},
		{
			"s1": "Amsterdam,+Netherlands298",
			"s2": "Paris,+France196",
			"t1": "Bracknell,+UnitedKingdom278",
			"t2": "Vienna,+Austria124",
			"suurballeNbPaths": 2,
			"suurballeTime": 7204728,
			"suurballePaths": {
				"path0": [
					"Amsterdam,+Netherlands298",
					"Rotterdam,+Netherlands299",
					"Rotterdam,+Netherlands228",
					"Amsterdam,+Netherlands227",
					"London,+UnitedKingdom209",
					"Bracknell,+UnitedKingdom278"
				],
				"lat0": 10.000000,
				"nbSeg0": 3,
				"path1": [
					"Paris,+France196",
					"Frankfurt,+Germany170",
					"Munich,+Germany176",
					"Vienna,+Austria125",
					"Vienna,+Austria130",
					"Vienna,+Austria124"
				],
				"lat1": 12.000000,
				"nbSeg1": 0
			},
			"pathsExist": false,
			"runtime": 8187213,
			"nomLat1": 12.000000,
			"nomLat2": 12.000000,
			"maxNomLat": 12.000000,
			"mincut": 5
		},
		{
			"s1": "Vienna,+Austria130",
			"s2": "Geneva,+Switzerland139",
			"t1": "Dusseldorf,+Germany261",
			"t2": "Amsterdam,+Netherlands297",
			"suurballeNbPaths": 2,
			"suurballeTime": 1948561,
			"suurballePaths": {
				"path0": [
					"Vienna,+Austria130",
					"Vienna,+Austria129",
					"Munich,+Germany267",
					"Dusseldorf,+Germany260",
					"Dusseldorf,+Germany261"
				],
				"lat0": 9.000000,
				"nbSeg0": 2,
				"path1": [
					"Geneva,+Switzerland139",
					"Geneva,+Switzerland144",
					"Frankfurt,+Germany170",
					"Frankfurt,+Germany169",
					"Amsterdam,+Netherlands227",
					"Rotterdam,+Netherlands228",
					"Rotterdam,+Netherlands299",
					"Amsterdam,+Netherlands297"
				],
				"lat1": 14.000000,
				"nbSeg1": 1
			},
			"pathsExist": false,
			"runtime": 6614256452,
			"nomLat1": 12.000000,
			"nomLat2": 15.000000,
			"maxNomLat": 15.000000,
			"mincut": 7
		},
		{
			"s1": "Vienna,+Austria242",
			"s2": "Frankfurt,+Germany263",
			"t1": "Milan,+Italy218",
			"t2": "London,+UnitedKingdom209",
			"suurballeNbPaths": 2,
			"suurballeTime": 2046621,
			"suurballePaths": {
				"path0": [
					"Frankfurt,+Germany263",
					"Frankfurt,+Germany169",
					"Amsterdam,+Netherlands227",
					"London,+UnitedKingdom209"
				],
				"lat0": 7.000000,
				"nbSeg0": 2,
				"path1": [
					"Vienna,+Austria242",
					"Munich,+Germany267",
					"Munich,+Germany176",
					"Frankfurt,+Germany170",
					"Geneva,+Switzerland144",
					"Milan,+Italy218"
				],
				"lat1": 14.000000,
				"nbSeg1": 2
			},
			"pathsExist": false,
			"runtime": 8520226813,
			"nomLat1": 19.000000,
			"nomLat2": 8.000000,
			"maxNomLat": 19.000000,
			"mincut": 7
		},
		{
			"s1": "Rotterdam,+Netherlands299",
			"s2": "London,+UnitedKingdom208",
			"t1": "Geneva,+Switzerland139",
			"t2": "Geneva,+Switzerland141",
			"suurballeNbPaths": 2,
			"suurballeTime": 1760151,
			"suurballePaths": {
				"path0": [
					"London,+UnitedKingdom208",
					"Paris,+France193",
					"Geneva,+Switzerland139"
				],
				"lat0": 7.000000,
				"nbSeg0": 0,
				"path1": [
					"Rotterdam,+Netherlands299",
					"Rotterdam,+Netherlands228",
					"Amsterdam,+Netherlands227",
					"Frankfurt,+Germany169",
					"Frankfurt,+Germany170",
					"Geneva,+Switzerland146",
					"Geneva,+Switzerland141"
				],
				"lat1": 12.000000,
				"nbSeg1": 1
			},
			"pathsExist": false,
			"runtime": 1578991,
			"nomLat1": 13.000000,
			"nomLat2": 9.000000,
			"maxNomLat": 13.000000,
			"mincut": 6
		},
		{
			"s1": "Copenhagen,+Denmark271",
			"s2": "Stockholm,+Sweden304",
			"t1": "Brussels,+Belgium135",
			"t2": "Berlin,+Germany160",
			"suurballeNbPaths": 2,
			"suurballeTime": 5641342,
			"suurballePaths": {
				"path0": [
					"Copenhagen,+Denmark271",
					"Stockholm,+Sweden302",
					"Stockholm,+Sweden232",
					"Berlin,+Germany161",
					"Berlin,+Germany160"
				],
				"lat0": 12.000000,
				"nbSeg0": 1,
				"path1": [
					"Stockholm,+Sweden304",
					"Copenhagen,+Denmark271",
					"Manchester,+UnitedKingdom177",
					"Dusseldorf,+Germany163",
					"Amsterdam,+Netherlands227",
					"Brussels,+Belgium136",
					"Brussels,+Belgium135"
				],
				"lat1": 20.000000,
				"nbSeg1": 2
			},
			"pathsExist": false,
			"runtime": 1567304,
			"nomLat1": 17.000000,
			"nomLat2": 21.000000,
			"maxNomLat": 21.000000,
			"mincut": 3
		},
		{
			"s1": "Frankfurt,+Germany263",
			"s2": "Vienna,+Austria129",
			"t1": "Berlin,+Germany162",
			"t2": "London,+UnitedKingdom291",
			"suurballeNbPaths": 2,
			"suurballeTime": 1952232,
			"suurballePaths": {
				"path0": [
					"Vienna,+Austria129",
					"Munich,+Germany267",
					"Berlin,+Germany162"
				],
				"lat0": 7.000000,
				"nbSeg0": 2,
				"path1": [
					"Frankfurt,+Germany263",
					"Frankfurt,+Germany170",
					"Paris,+France196",
					"London,+UnitedKingdom201",
					"London,+UnitedKingdom291"
				],
				"lat1": 9.000000,
				"nbSeg1": 1
			},
			"pathsExist": false,
			"runtime": 1956561622,
			"nomLat1": 9.000000,
			"nomLat2": 15.000000,
			"maxNomLat": 15.000000,
			"mincut": 8
		},
		{
			"s1": "Rotterdam,+Netherlands228",
			"s2": "Brussels,+Belgium136",
			"t1": "Vienna,+Austria124",
			"t2": "Hamburg,+Germany264",
			"suurballeNbPaths": 2,
			"suurballeTime": 6143336,
			"suurballePaths": {
				"path0": [
					"Rotterdam,+Netherlands228",
					"Amsterdam,+Netherlands227",
					"Dusseldorf,+Germany163",
					"Dusseldorf,+Germany260",
					"Hamburg,+Germany264"
				],
				"lat0": 8.000000,
				"nbSeg0": 2,
				"path1": [
					"Brussels,+Belgium136",
					"Amsterdam,+Netherlands227",
					"Frankfurt,+Germany169",
					"Frankfurt,+Germany170",
					"Munich,+Germany176",
					"Vienna,+Austria125",
					"Vienna,+Austria130",
					"Vienna,+Austria124"
				],
				"lat1": 14.000000,
				"nbSeg1": 0
			},
			"pathsExist": false,
			"runtime": 33977776,
			"nomLat1": 14.000000,
			"nomLat2": 9.000000,
			"maxNomLat": 14.000000,
			"mincut": 3
		},
		{
			"s1": "Frankfurt,+Germany263",
			"s2": "Prague,+CzechRepublic155",
			"t1": "Dusseldorf,+Germany163",
			"t2": "Antwerp,+Belgium243",
			"suurballeNbPaths": 2,
			"suurballeTime": 12199714,
			"suurballePaths": {
				"path0": [
					"Prague,+CzechRepublic155",
					"Berlin,+Germany161",
					"Berlin,+Germany160",
					"Dusseldorf,+Germany164",
					"Dusseldorf,+Germany163"
				],
				"lat0": 9.000000,
				"nbSeg0": 0,
				"path1": [
					"Frankfurt,+Germany263",
					"Frankfurt,+Germany169",
					"Amsterdam,+Netherlands227",
					"Rotterdam,+Netherlands228",
					"Rotterdam,+Netherlands299",
					"Antwerp,+Belgium243"
				],
				"lat1": 9.000000,
				"nbSeg1": 2
			},
			"pathsExist": false,
			"runtime": 2545376,
			"nomLat1": 3.000000,
			"nomLat2": 18.000000,
			"maxNomLat": 18.000000,
			"mincut": 6
		},
		{
			"s1": "Berlin,+Germany161",
			"s2": "Geneva,+Switzerland140",
			"t1": "London,+UnitedKingdom293",
			"t2": "Frankfurt,+Germany166",
			"suurballeNbPaths": 2,
			"suurballeTime": 12392769,
			"suurballePaths": {
				"path0": [
					"Geneva,+Switzerland140",
					"Paris,+France193",
					"London,+UnitedKingdom208",
					"London,+UnitedKingdom293"
				],
				"lat0": 8.000000,
				"nbSeg0": 1,
				"path1": [
					"Berlin,+Germany161",
					"Berlin,+Germany160",
					"Dusseldorf,+Germany164",
					"Frankfurt,+Germany169",
					"Frankfurt,+Germany166"
				],
				"lat1": 8.000000,
				"nbSeg1": 0
			},
			"pathsExist": false,
			"runtime": 3331328687,
			"nomLat1": 14.000000,
			"nomLat2": 10.000000,
			"maxNomLat": 14.000000,
			"mincut": 8
		},
		{
			"s1": "London,+UnitedKingdom207",
			"s2": "Rotterdam,+Netherlands299",
			"t1": "Amsterdam,+Netherlands227",
			"t2": "Bracknell,+UnitedKingdom279",
			"suurballeNbPaths": 2,
			"suurballeTime": 7754220,
			"suurballePaths": {
				"path0": [
					"London,+UnitedKingdom207",
					"London,+UnitedKingdom293",
					"Bracknell,+UnitedKingdom279"
				],
				"lat0": 3.000000,
				"nbSeg0": 0,
				"path1": [
					"Rotterdam,+Netherlands299",
					"Rotterdam,+Netherlands228",
					"Amsterdam,+Netherlands227"
				],
				"lat1": 3.000000,
				"nbSeg1": 0
			},
			"pathsExist": false,
			"runtime": 2340818317,
			"nomLat1": 3.000000,
			"nomLat2": 9.000000,
			"maxNomLat": 9.000000,
			"mincut": 7
		},
		{
			"s1": "Dusseldorf,+Germany163",
			"s2": "Brussels,+Belgium247",
			"t1": "Amsterdam,+Netherlands298",
			"t2": "Dusseldorf,+Germany164",
			"suurballeNbPaths": 2,
			"suurballeTime": 7126182,
			"suurballePaths": {
				"path0": [
					"Dusseldorf,+Germany163",
					"Dusseldorf,+Germany164"
				],
				"lat0": 1.000000,
				"nbSeg0": 0,
				"path1": [
					"Brussels,+Belgium247",
					"Antwerp,+Belgium244",
					"Antwerp,+Belgium243",
					"Rotterdam,+Netherlands299",
					"Amsterdam,+Netherlands298"
				],
				"lat1": 7.000000,
				"nbSeg1": 2
			},
			"pathsExist": false,
			"runtime": 1218138807,
			"nomLat1": 8.000000,
			"nomLat2": 8.000000,
			"maxNomLat": 8.000000,
			"mincut": 7
		},
		{
			"s1": "Frankfurt,+Germany166",
			"s2": "Copenhagen,+Denmark270",
			"t1": "London,+UnitedKingdom287",
			"t2": "Milan,+Italy217",
			"suurballeNbPaths": 2,
			"suurballeTime": 10152662,
			"suurballePaths": {
				"path0": [
					"Frankfurt,+Germany166",
					"Frankfurt,+Germany170",
					"Geneva,+Switzerland144",
					"Milan,+Italy217"
				],
				"lat0": 8.000000,
				"nbSeg0": 0,
				"path1": [
					"Copenhagen,+Denmark270",
					"Copenhagen,+Denmark271",
					"Manchester,+UnitedKingdom177",
					"London,+UnitedKingdom288",
					"London,+UnitedKingdom291",
					"London,+UnitedKingdom287"
				],
				"lat1": 12.000000,
				"nbSeg1": 3
			},
			"pathsExist": false,
			"runtime": 6035721,
			"nomLat1": 8.000000,
			"nomLat2": 26.000000,
			"maxNomLat": 26.000000,
			"mincut": 6
		},
		{
			"s1": "Paris,+France196",
			"s2": "Copenhagen,+Denmark270",
			"t1": "Frankfurt,+Germany168",
			"t2": "Hamburg,+Germany264",
			"suurballeNbPaths": 2,
			"suurballeTime": 1999721,
			"suurballePaths": {
				"path0": [
					"Paris,+France196",
					"Frankfurt,+Germany170",
					"Frankfurt,+Germany168"
				],
				"lat0": 5.000000,
				"nbSeg0": 0,
				"path1": [
					"Copenhagen,+Denmark270",
					"Copenhagen,+Denmark271",
					"Manchester,+UnitedKingdom177",
					"Dusseldorf,+Germany163",
					"Dusseldorf,+Germany260",
					"Hamburg,+Germany264"
				],
				"lat1": 16.000000,
				"nbSeg1": 4
			},
			"pathsExist": false,
			"runtime": 2146603855,
			"nomLat1": 5.000000,
			"nomLat2": 18.000000,
			"maxNomLat": 18.000000,
			"mincut": 5
		},
		{
			"s1": "Bracknell,+UnitedKingdom279",
			"s2": "Copenhagen,+Denmark271",
			"t1": "London,+UnitedKingdom208",
			"t2": "Paris,+France193",
			"suurballeNbPaths": 2,
			"suurballeTime": 2375916,
			"suurballePaths": {
				"path0": [
					"Bracknell,+UnitedKingdom279",
					"London,+UnitedKingdom289",
					"London,+UnitedKingdom208"
				],
				"lat0": 3.000000,
				"nbSeg0": 0,
				"path1": [
					"Copenhagen,+Denmark271",
					"Manchester,+UnitedKingdom177",
					"London,+UnitedKingdom288",
					"London,+UnitedKingdom209",
					"Paris,+France193"
				],
				"lat1": 13.000000,
				"nbSeg1": 4
			},
			"pathsExist": true,
			"path1": [
				"Bracknell,+UnitedKingdom279",
				"London,+UnitedKingdom293",
				"London,+UnitedKingdom208"
			],
			"lat1": 3.000000,
			"path2": [
				"Copenhagen,+Denmark271",
				"Brussels,+Belgium136",
				"Paris,+France193"
			],
			"lat2": 20.000000,
			"maxlat": 20.000000,
			"runtime": 2083026486,
			"nomLat1": 3.000000,
			"nomLat2": 20.000000,
			"maxNomLat": 20.000000,
			"mincut": 8
		},
		{
			"s1": "Vienna,+Austria242",
			"s2": "Berlin,+Germany259",
			"t1": "Vienna,+Austria126",
			"t2": "Munich,+Germany267",
			"suurballeNbPaths": 2,
			"suurballeTime": 1971472,
			"suurballePaths": {
				"path0": [
					"Vienna,+Austria242",
					"Vienna,+Austria126"
				],
				"lat0": 1.000000,
				"nbSeg0": 0,
				"path1": [
					"Berlin,+Germany259",
					"Berlin,+Germany160",
					"Berlin,+Germany162",
					"Munich,+Germany267"
				],
				"lat1": 6.000000,
				"nbSeg1": 1
			},
			"pathsExist": false,
			"runtime": 468111280,
			"nomLat1": 1.000000,
			"nomLat2": 7.000000,
			"maxNomLat": 7.000000,
			"mincut": 4
		},
		{
			"s1": "Frankfurt,+Germany169",
			"s2": "Copenhagen,+Denmark272",
			"t1": "Dusseldorf,+Germany261",
			"t2": "Paris,+France196",
			"suurballeNbPaths": 2,
			"suurballeTime": 2083635,
			"suurballePaths": {
				"path0": [
					"Frankfurt,+Germany169",
					"Dusseldorf,+Germany164",
					"Dusseldorf,+Germany261"
				],
				"lat0": 3.000000,
				"nbSeg0": 2,
				"path1": [
					"Copenhagen,+Denmark272",
					"Copenhagen,+Denmark179",
					"Manchester,+UnitedKingdom177",
					"London,+UnitedKingdom288",
					"London,+UnitedKingdom291",
					"London,+UnitedKingdom201",
					"Paris,+France196"
				],
				"lat1": 15.000000,
				"nbSeg1": 1
			},
			"pathsExist": false,
			"runtime": 2335056,
			"nomLat1": 4.000000,
			"nomLat2": 22.000000,
			"maxNomLat": 22.000000,
			"mincut": 8
		},
		{
			"s1": "London,+UnitedKingdom293",
			"s2": "Frankfurt,+Germany263",
			"t1": "Geneva,+Switzerland144",
			"t2": "London,+UnitedKingdom208",
			"suurballeNbPaths": 2,
			"suurballeTime": 3969278,
			"suurballePaths": {
				"path0": [
					"London,+UnitedKingdom293",
					"London,+UnitedKingdom208"
				],
				"lat0": 1.000000,
				"nbSeg0": 0,
				"path1": [
					"Frankfurt,+Germany263",
					"Frankfurt,+Germany170",
					"Geneva,+Switzerland144"
				],
				"lat1": 5.000000,
				"nbSeg1": 1
			},
			"pathsExist": false,
			"runtime": 4542233141,
			"nomLat1": 9.000000,
			"nomLat2": 8.000000,
			"maxNomLat": 9.000000,
			"mincut": 9
		},
		{
			"s1": "Stockholm,+Sweden303",
			"s2": "Copenhagen,+Denmark271",
			"t1": "Paris,+France196",
			"t2": "London,+UnitedKingdom293",
			"suurballeNbPaths": 2,
			"suurballeTime": 2042340,
			"suurballePaths": {
				"path0": [
					"Copenhagen,+Denmark271",
					"Manchester,+UnitedKingdom177",
					"London,+UnitedKingdom288",
					"London,+UnitedKingdom209",
					"London,+UnitedKingdom293"
				],
				"lat0": 11.000000,
				"nbSeg0": 4,
				"path1": [
					"Stockholm,+Sweden303",
					"Stockholm,+Sweden302",
					"Stockholm,+Sweden232",
					"Berlin,+Germany161",
					"Berlin,+Germany160",
					"Dusseldorf,+Germany164",
					"Frankfurt,+Germany169",
					"Frankfurt,+Germany170",
					"Paris,+France196"
				],
				"lat1": 20.000000,
				"nbSeg1": 2
			},
			"pathsExist": false,
			"runtime": 574590051,
			"nomLat1": 26.000000,
			"nomLat2": 18.000000,
			"maxNomLat": 26.000000,
			"mincut": 3
		},
		{
			"s1": "Prague,+CzechRepublic155",
			"s2": "Munich,+Germany267",
			"t1": "Berlin,+Germany162",
			"t2": "Milan,+Italy217",
			"suurballeNbPaths": 2,
			"suurballeTime": 1943498,
			"suurballePaths": {
				"path0": [
					"Prague,+CzechRepublic155",
					"Berlin,+Germany161",
					"Berlin,+Germany162"
				],
				"lat0": 4.000000,
				"nbSeg0": 0,
				"path1": [
					"Munich,+Germany267",
					"Munich,+Germany176",
					"Frankfurt,+Germany170",
					"Geneva,+Switzerland144",
					"Milan,+Italy217"
				],
				"lat1": 11.000000,
				"nbSeg1": 0
			},
			"pathsExist": false,
			"runtime": 1921660,
			"nomLat1": 4.000000,
			"nomLat2": 11.000000,
			"maxNomLat": 11.000000,
			"mincut": 5
		},
		{
			"s1": "Copenhagen,+Denmark179",
			"s2": "London,+UnitedKingdom293",
			"t1": "Bracknell,+UnitedKingdom278",
			"t2": "Frankfurt,+Germany169",
			"suurballeNbPaths": 2,
			"suurballeTime": 1864893,
			"suurballePaths": {
				"path0": [
					"London,+UnitedKingdom293",
					"London,+UnitedKingdom209",
					"Bracknell,+UnitedKingdom278"
				],
				"lat0": 3.000000,
				"nbSeg0": 1,
				"path1": [
					"Copenhagen,+Denmark179",
					"Manchester,+UnitedKingdom177",
					"Dusseldorf,+Germany163",
					"Dusseldorf,+Germany164",
					"Frankfurt,+Germany169"
				],
				"lat1": 14.000000,
				"nbSeg1": 1
			},
			"pathsExist": false,
			"runtime": 7676333725,
			"nomLat1": 12.000000,
			"nomLat2": 7.000000,
			"maxNomLat": 12.000000,
			"mincut": 8
		},
		{
			"s1": "London,+UnitedKingdom208",
			"s2": "London,+UnitedKingdom287",
			"t1": "Dusseldorf,+Germany164",
			"t2": "Geneva,+Switzerland141",
			"suurballeNbPaths": 2,
			"suurballeTime": 2651679,
			"suurballePaths": {
				"path0": [
					"London,+UnitedKingdom208",
					"Paris,+France193",
					"Geneva,+Switzerland141"
				],
				"lat0": 7.000000,
				"nbSeg0": 1,
				"path1": [
					"London,+UnitedKingdom287",
					"London,+UnitedKingdom208",
					"Amsterdam,+Netherlands227",
					"Dusseldorf,+Germany163",
					"Dusseldorf,+Germany164"
				],
				"lat1": 7.000000,
				"nbSeg1": 1
			},
			"pathsExist": false,
			"runtime": 6278660,
			"nomLat1": 8.000000,
			"nomLat2": 10.000000,
			"maxNomLat": 10.000000,
			"mincut": 7
		},
		{
			"s1": "Prague,+CzechRepublic155",
			"s2": "Dusseldorf,+Germany261",
			"t1": "Amsterdam,+Netherlands298",
			"t2": "Bracknell,+UnitedKingdom278",
			"suurballeNbPaths": 2,
			"suurballeTime": 2065388,
			"suurballePaths": {
				"path0": [
					"Dusseldorf,+Germany261",
					"Dusseldorf,+Germany163",
					"Amsterdam,+Netherlands227",
					"London,+UnitedKingdom209",
					"Bracknell,+UnitedKingdom278"
				],
				"lat0": 8.000000,
				"nbSeg0": 3,
				"path1": [
					"Prague,+CzechRepublic155",
					"Berlin,+Germany161",
					"Berlin,+Germany160",
					"Dusseldorf,+Germany164",
					"Frankfurt,+Germany169",
					"Amsterdam,+Netherlands227",
					"Rotterdam,+Netherlands228",
					"Rotterdam,+Netherlands299",
					"Amsterdam,+Netherlands298"
				],
				"lat1": 18.000000,
				"nbSeg1": 3
			},
			"pathsExist": false,
			"runtime": 1920047950,
			"nomLat1": 19.000000,
			"nomLat2": 10.000000,
			"maxNomLat": 19.000000,
			"mincut": 6
		},
		{
			"s1": "Copenhagen,+Denmark182",
			"s2": "London,+UnitedKingdom200",
			"t1": "Milan,+Italy220",
			"t2": "Geneva,+Switzerland145",
			"suurballeNbPaths": 2,
			"suurballeTime": 3648888,
			"suurballePaths": {
				"path0": [
					"London,+UnitedKingdom200",
					"London,+UnitedKingdom201",
					"Paris,+France196",
					"Paris,+France193",
					"Geneva,+Switzerland139",
					"Milan,+Italy220"
				],
				"lat0": 12.000000,
				"nbSeg0": 1,
				"path1": [
					"Copenhagen,+Denmark182",
					"Manchester,+UnitedKingdom177",
					"London,+UnitedKingdom288",
					"London,+UnitedKingdom209",
					"Paris,+France193",
					"Geneva,+Switzerland140",
					"Geneva,+Switzerland145"
				],
				"lat1": 18.000000,
				"nbSeg1": 2
			},
			"pathsExist": false,
			"runtime": 4419363997,
			"nomLat1": 26.000000,
			"nomLat2": 10.000000,
			"maxNomLat": 26.000000,
			"mincut": 4
		},
		{
			"s1": "Vienna,+Austria126",
			"s2": "Munich,+Germany176",
			"t1": "Vienna,+Austria242",
			"t2": "Prague,+CzechRepublic157",
			"suurballeNbPaths": 2,
			"suurballeTime": 6991855,
			"suurballePaths": {
				"path0": [
					"Vienna,+Austria126",
					"Vienna,+Austria242"
				],
				"lat0": 1.000000,
				"nbSeg0": 0,
				"path1": [
					"Munich,+Germany176",
					"Vienna,+Austria125",
					"Vienna,+Austria123",
					"Prague,+CzechRepublic157"
				],
				"lat1": 7.000000,
				"nbSeg1": 0
			},
			"pathsExist": false,
			"runtime": 1391521419,
			"nomLat1": 1.000000,
			"nomLat2": 7.000000,
			"maxNomLat": 7.000000,
			"mincut": 6
		},
		{
			"s1": "Vienna,+Austria242",
			"s2": "Dusseldorf,+Germany261",
			"t1": "Amsterdam,+Netherlands298",
			"t2": "Manchester,+UnitedKingdom177",
			"suurballeNbPaths": 2,
			"suurballeTime": 5110238,
			"suurballePaths": {
				"path0": [
					"Dusseldorf,+Germany261",
					"Dusseldorf,+Germany163",
					"Manchester,+UnitedKingdom177"
				],
				"lat0": 6.000000,
				"nbSeg0": 2,
				"path1": [
					"Vienna,+Austria242",
					"Munich,+Germany267",
					"Dusseldorf,+Germany260",
					"Dusseldorf,+Germany163",
					"Amsterdam,+Netherlands227",
					"Rotterdam,+Netherlands228",
					"Rotterdam,+Netherlands299",
					"Amsterdam,+Netherlands298"
				],
				"lat1": 15.000000,
				"nbSeg1": 3
			},
			"pathsExist": false,
			"runtime": 5961066716,
			"nomLat1": 20.000000,
			"nomLat2": 7.000000,
			"maxNomLat": 20.000000,
			"mincut": 5
		},
		{
			"s1": "Geneva,+Switzerland144",
			"s2": "Vienna,+Austria129",
			"t1": "Manchester,+UnitedKingdom177",
			"t2": "Dusseldorf,+Germany261",
			"suurballeNbPaths": 2,
			"suurballeTime": 3353420,
			"suurballePaths": {
				"path0": [
					"Vienna,+Austria129",
					"Munich,+Germany267",
					"Dusseldorf,+Germany260",
					"Dusseldorf,+Germany261"
				],
				"lat0": 8.000000,
				"nbSeg0": 3,
				"path1": [
					"Geneva,+Switzerland144",
					"Geneva,+Switzerland139",
					"Paris,+France193",
					"London,+UnitedKingdom209",
					"London,+UnitedKingdom288",
					"Manchester,+UnitedKingdom177"
				],
				"lat1": 12.000000,
				"nbSeg1": 3
			},
			"pathsExist": false,
			"runtime": 1443649328,
			"nomLat1": 15.000000,
			"nomLat2": 12.000000,
			"maxNomLat": 15.000000,
			"mincut": 8
		},
		{
			"s1": "Stockholm,+Sweden231",
			"s2": "Vienna,+Austria130",
			"t1": "Vienna,+Austria124",
			"t2": "Geneva,+Switzerland146",
			"suurballeNbPaths": 2,
			"suurballeTime": 5176200,
			"suurballePaths": {
				"path0": [
					"Vienna,+Austria130",
					"Vienna,+Austria124"
				],
				"lat0": 1.000000,
				"nbSeg0": 0,
				"path1": [
					"Stockholm,+Sweden231",
					"Stockholm,+Sweden232",
					"Berlin,+Germany161",
					"Berlin,+Germany160",
					"Dusseldorf,+Germany164",
					"Frankfurt,+Germany169",
					"Frankfurt,+Germany170",
					"Geneva,+Switzerland146"
				],
				"lat1": 19.000000,
				"nbSeg1": 1
			},
			"pathsExist": false,
			"runtime": 1580025933,
			"nomLat1": 14.000000,
			"nomLat2": 11.000000,
			"maxNomLat": 14.000000,
			"mincut": 7
		},
		{
			"s1": "Vienna,+Austria125",
			"s2": "Geneva,+Switzerland145",
			"t1": "Rotterdam,+Netherlands228",
			"t2": "London,+UnitedKingdom209",
			"suurballeNbPaths": 2,
			"suurballeTime": 2039013,
			"suurballePaths": {
				"path0": [
					"Geneva,+Switzerland145",
					"Geneva,+Switzerland140",
					"Paris,+France193",
					"London,+UnitedKingdom209"
				],
				"lat0": 8.000000,
				"nbSeg0": 0,
				"path1": [
					"Vienna,+Austria125",
					"Munich,+Germany176",
					"Frankfurt,+Germany170",
					"Frankfurt,+Germany169",
					"Amsterdam,+Netherlands227",
					"Rotterdam,+Netherlands228"
				],
				"lat1": 12.000000,
				"nbSeg1": 0
			},
			"pathsExist": false,
			"runtime": 8374616389,
			"nomLat1": 12.000000,
			"nomLat2": 8.000000,
			"maxNomLat": 12.000000,
			"mincut": 8
		},
		{
			"s1": "Vienna,+Austria129",
			"s2": "Copenhagen,+Denmark179",
			"t1": "Antwerp,+Belgium244",
			"t2": "Amsterdam,+Netherlands227",
			"suurballeNbPaths": 2,
			"suurballeTime": 2324339,
			"suurballePaths": {
				"path0": [
					"Vienna,+Austria129",
					"Munich,+Germany267",
					"Dusseldorf,+Germany260",
					"Dusseldorf,+Germany163",
					"Amsterdam,+Netherlands227"
				],
				"lat0": 10.000000,
				"nbSeg0": 3,
				"path1": [
					"Copenhagen,+Denmark179",
					"Manchester,+UnitedKingdom177",
					"London,+UnitedKingdom288",
					"London,+UnitedKingdom209",
					"Amsterdam,+Netherlands227"
				],
				"lat1": 13.000000,
				"nbSeg1": 2
			},
			"pathsExist": false,
			"runtime": 7319700898,
			"nomLat1": 16.000000,
			"nomLat2": 13.000000,
			"maxNomLat": 16.000000,
			"mincut": 6
		},
		{
			"s1": "Paris,+France193",
			"s2": "Berlin,+Germany160",
			"t1": "Prague,+CzechRepublic155",
			"t2": "Frankfurt,+Germany263",
			"suurballeNbPaths": 2,
			"suurballeTime": 1925256,
			"suurballePaths": {
				"path0": [
					"Berlin,+Germany160",
					"Berlin,+Germany161",
					"Prague,+CzechRepublic155"
				],
				"lat0": 4.000000,
				"nbSeg0": 0,
				"path1": [
					"Paris,+France193",
					"Paris,+France196",
					"Frankfurt,+Germany170",
					"Frankfurt,+Germany263"
				],
				"lat1": 6.000000,
				"nbSeg1": 1
			},
			"pathsExist": false,
			"runtime": 9399182745,
			"nomLat1": 16.000000,
			"nomLat2": 8.000000,
			"maxNomLat": 16.000000,
			"mincut": 6
		},
		{
			"s1": "London,+UnitedKingdom201",
			"s2": "Frankfurt,+Germany168",
			"t1": "Copenhagen,+Denmark270",
			"t2": "Dusseldorf,+Germany260",
			"suurballeNbPaths": 2,
			"suurballeTime": 1344911,
			"suurballePaths": {
				"path0": [
					"Frankfurt,+Germany168",
					"Dusseldorf,+Germany260"
				],
				"lat0": 2.000000,
				"nbSeg0": 0,
				"path1": [
					"London,+UnitedKingdom201",
					"London,+UnitedKingdom209",
					"London,+UnitedKingdom288",
					"Manchester,+UnitedKingdom177",
					"Copenhagen,+Denmark271",
					"Copenhagen,+Denmark270"
				],
				"lat1": 12.000000,
				"nbSeg1": 5
			},
			"pathsExist": true,
			"path1": [
				"London,+UnitedKingdom201",
				"London,+UnitedKingdom288",
				"Stockholm,+Sweden303",
				"Copenhagen,+Denmark270"
			],
			"lat1": 20.000000,
			"path2": [
				"Frankfurt,+Germany168",
				"Dusseldorf,+Germany260"
			],
			"lat2": 2.000000,
			"maxlat": 20.000000,
			"runtime": 5130835125,
			"nomLat1": 26.000000,
			"nomLat2": 2.000000,
			"maxNomLat": 26.000000,
			"mincut": 6
		}
	],
	"demandsWithSol": 10
}
