{
	"nbDemands": 100,
	"demands": [
		{
			"s1": "Oslo,+Norway246",
			"s2": "Frankfurt,+Germany340",
			"t1": "Cagliari,+Italy439",
			"t2": "Barcelona,+Spain181",
			"suurballeNbPaths": 2,
			"suurballeTime": 92990735,
			"suurballePaths": {
				"path0": [
					"Frankfurt,+Germany340",
					"Frankfurt,+Germany151",
					"Frankfurt208",
					"Barcelona,+Spain181"
				],
				"lat0": 9.000000,
				"nbSeg0": 3,
				"path1": [
					"Oslo,+Norway246",
					"Oslo,+Norway245",
					"Copenhagen,+Denmark199",
					"Milan,+Italy227",
					"Milan,+Italy226",
					"Cagliari,+Italy439"
				],
				"lat1": 18.000000,
				"nbSeg1": 2
			},
			"pathsExist": false,
			"runtime": 194359278,
			"nomLat1": 28.000000,
			"nomLat2": 15.000000,
			"maxNomLat": 28.000000,
			"mincut": 11
		},
		{
			"s1": "Barcelona,+Spain184",
			"s2": "Amsterdam180",
			"t1": "Milan,+Italy232",
			"t2": "London221",
			"suurballeNbPaths": 2,
			"suurballeTime": 44447553,
			"suurballePaths": {
				"path0": [
					"Amsterdam180",
					"Frankfurt209",
					"Paris249",
					"London221"
				],
				"lat0": 10.000000,
				"nbSeg0": 2,
				"path1": [
					"Barcelona,+Spain184",
					"Barcelona,+Spain181",
					"Barcelona,+Spain185",
					"Milan,+Italy227",
					"Milan,+Italy232"
				],
				"lat1": 8.000000,
				"nbSeg1": 2
			},
			"pathsExist": true,
			"path1": [
				"Barcelona,+Spain184",
				"Milan,+Italy232"
			],
			"lat1": 12.000000,
			"path2": [
				"Amsterdam180",
				"London221"
			],
			"lat2": 11.000000,
			"maxlat": 12.000000,
			"runtime": 481558055,
			"nomLat1": 12.000000,
			"nomLat2": 11.000000,
			"maxNomLat": 12.000000,
			"mincut": 5
		},
		{
			"s1": "Stuttgart,+Germany392",
			"s2": "New+York,+NY236",
			"t1": "Hamburg,+Germany362",
			"t2": "Brussels,+Belgium187",
			"suurballeNbPaths": 2,
			"suurballeTime": 402013722,
			"suurballePaths": {
				"path0": [
					"New+York,+NY236",
					"London217",
					"Brussels,+Belgium187"
				],
				"lat0": 32.000000,
				"nbSeg0": 0,
				"path1": [
					"Stuttgart,+Germany392",
					"Stuttgart,+Germany393",
					"Frankfurt,+Germany151",
					"Hamburg,+Germany362"
				],
				"lat1": 7.000000,
				"nbSeg1": 1
			},
			"pathsExist": false,
			"runtime": 195627413,
			"nomLat1": 11.000000,
			"nomLat2": 32.000000,
			"maxNomLat": 32.000000,
			"mincut": 5
		},
		{
			"s1": "London590",
			"s2": "Milan,+Italy232",
			"t1": "Frankfurt,+Germany346",
			"t2": "Amsterdam177",
			"suurballeNbPaths": 2,
			"suurballeTime": 398055147,
			"suurballePaths": {
				"path0": [
					"London590",
					"Amsterdam177"
				],
				"lat0": 3.000000,
				"nbSeg0": 0,
				"path1": [
					"Milan,+Italy232",
					"Milan,+Italy229",
					"Milan,+Italy230",
					"Milan,+Italy228",
					"Frankfurt209",
					"Frankfurt,+Germany151",
					"Frankfurt,+Germany346"
				],
				"lat1": 9.000000,
				"nbSeg1": 2
			},
			"pathsExist": true,
			"path1": [
				"London590",
				"Frankfurt,+Germany346"
			],
			"lat1": 7.000000,
			"path2": [
				"Milan,+Italy232",
				"Amsterdam177"
			],
			"lat2": 9.000000,
			"maxlat": 9.000000,
			"runtime": 200308096,
			"nomLat1": 7.000000,
			"nomLat2": 9.000000,
			"maxNomLat": 9.000000,
			"mincut": 9
		},
		{
			"s1": "Frankfurt210",
			"s2": "London218",
			"t1": "Frankfurt,+Germany341",
			"t2": "Milan,+Italy228",
			"suurballeNbPaths": 2,
			"suurballeTime": 13226782,
			"suurballePaths": {
				"path0": [
					"Frankfurt210",
					"Frankfurt207",
					"Frankfurt,+Germany151",
					"Frankfurt,+Germany341"
				],
				"lat0": 3.000000,
				"nbSeg0": 2,
				"path1": [
					"London218",
					"London220",
					"London217",
					"Milan,+Italy228"
				],
				"lat1": 8.000000,
				"nbSeg1": 1
			},
			"pathsExist": true,
			"path1": [
				"Frankfurt210",
				"Frankfurt,+Germany341"
			],
			"lat1": 4.000000,
			"path2": [
				"London218",
				"Milan,+Italy228"
			],
			"lat2": 9.000000,
			"maxlat": 9.000000,
			"runtime": 625713025,
			"nomLat1": 4.000000,
			"nomLat2": 9.000000,
			"maxNomLat": 9.000000,
			"mincut": 12
		},
		{
			"s1": "Dusseldorf,+Germany152",
			"s2": "Brussels,+Belgium189",
			"t1": "Frankfurt214",
			"t2": "Paris250",
			"suurballeNbPaths": 2,
			"suurballeTime": 404690639,
			"suurballePaths": {
				"path0": [
					"Dusseldorf,+Germany152",
					"Frankfurt210",
					"Frankfurt207",
					"Frankfurt214"
				],
				"lat0": 4.000000,
				"nbSeg0": 0,
				"path1": [
					"Brussels,+Belgium189",
					"London217",
					"London222",
					"Paris250"
				],
				"lat1": 7.000000,
				"nbSeg1": 0
			},
			"pathsExist": true,
			"path1": [
				"Dusseldorf,+Germany152",
				"Frankfurt214"
			],
			"lat1": 4.000000,
			"path2": [
				"Brussels,+Belgium189",
				"Paris250"
			],
			"lat2": 7.000000,
			"maxlat": 7.000000,
			"runtime": 195228152,
			"nomLat1": 4.000000,
			"nomLat2": 7.000000,
			"maxNomLat": 7.000000,
			"mincut": 13
		},
		{
			"s1": "Milan,+Italy231",
			"s2": "Dusseldorf,+Germany203",
			"t1": "Rome,+Italy457",
			"t2": "Oslo,+Norway246",
			"suurballeNbPaths": 2,
			"suurballeTime": 97468825,
			"suurballePaths": {
				"path0": [
					"Milan,+Italy231",
					"Milan,+Italy229",
					"Cagliari,+Italy438",
					"Rome,+Italy457"
				],
				"lat0": 10.000000,
				"nbSeg0": 0,
				"path1": [
					"Dusseldorf,+Germany203",
					"Copenhagen,+Denmark201",
					"Copenhagen,+Denmark196",
					"Oslo,+Norway245",
					"Oslo,+Norway246"
				],
				"lat1": 11.000000,
				"nbSeg1": 2
			},
			"pathsExist": false,
			"runtime": 593274619,
			"nomLat1": 10.000000,
			"nomLat2": 11.000000,
			"maxNomLat": 11.000000,
			"mincut": 4
		},
		{
			"s1": "Stockholm,+Sweden261",
			"s2": "Rome,+Italy416",
			"t1": "Cagliari,+Italy438",
			"t2": "Frankfurt,+Germany347",
			"suurballeNbPaths": 2,
			"suurballeTime": 12879174,
			"suurballePaths": {
				"path0": [
					"Rome,+Italy416",
					"Cagliari,+Italy438"
				],
				"lat0": 4.000000,
				"nbSeg0": 0,
				"path1": [
					"Stockholm,+Sweden261",
					"Stockholm,+Sweden259",
					"Copenhagen,+Denmark200",
					"Dusseldorf,+Germany203",
					"Dusseldorf,+Germany153",
					"Dusseldorf,+Germany319",
					"Frankfurt,+Germany345",
					"Frankfurt,+Germany347"
				],
				"lat1": 15.000000,
				"nbSeg1": 2
			},
			"pathsExist": false,
			"runtime": 697032715,
			"nomLat1": 27.000000,
			"nomLat2": 24.000000,
			"maxNomLat": 27.000000,
			"mincut": 4
		},
		{
			"s1": "Hamburg,+Germany362",
			"s2": "London590",
			"t1": "Offenbach,+Germany391",
			"t2": "Madrid,+Spain224",
			"suurballeNbPaths": 2,
			"suurballeTime": 13250730,
			"suurballePaths": {
				"path0": [
					"London590",
					"Madrid,+Spain224"
				],
				"lat0": 8.000000,
				"nbSeg0": 2,
				"path1": [
					"Hamburg,+Germany362",
					"Hamburg,+Germany363",
					"Dusseldorf,+Germany153",
					"Offenbach,+Germany391"
				],
				"lat1": 6.000000,
				"nbSeg1": 0
			},
			"pathsExist": false,
			"runtime": 717550143,
			"nomLat1": 6.000000,
			"nomLat2": 14.000000,
			"maxNomLat": 14.000000,
			"mincut": 8
		},
		{
			"s1": "Stockholm,+Sweden261",
			"s2": "Stuttgart,+Germany392",
			"t1": "Frankfurt,+Germany342",
			"t2": "Genoa,+Italy411",
			"suurballeNbPaths": 2,
			"suurballeTime": 536376987,
			"suurballePaths": {
				"path0": [
					"Stuttgart,+Germany392",
					"Stuttgart,+Germany393",
					"Frankfurt,+Germany151",
					"Frankfurt,+Germany346",
					"Frankfurt,+Germany342"
				],
				"lat0": 5.000000,
				"nbSeg0": 0,
				"path1": [
					"Stockholm,+Sweden261",
					"Stockholm,+Sweden259",
					"Copenhagen,+Denmark201",
					"Copenhagen,+Denmark199",
					"Milan,+Italy227",
					"Milan,+Italy226",
					"Cagliari,+Italy439",
					"Genoa,+Italy411"
				],
				"lat1": 23.000000,
				"nbSeg1": 2
			},
			"pathsExist": false,
			"runtime": 194701922,
			"nomLat1": 15.000000,
			"nomLat2": 22.000000,
			"maxNomLat": 22.000000,
			"mincut": 4
		},
		{
			"s1": "Zurich,+Switzerland270",
			"s2": "Stockholm,+Sweden259",
			"t1": "Stockholm,+Sweden261",
			"t2": "Oslo,+Norway246",
			"suurballeNbPaths": 2,
			"suurballeTime": 351371196,
			"suurballePaths": {
				"path0": [
					"Stockholm,+Sweden259",
					"Stockholm,+Sweden261"
				],
				"lat0": 1.000000,
				"nbSeg0": 0,
				"path1": [
					"Zurich,+Switzerland270",
					"Basel,+Switzerland192",
					"Frankfurt207",
					"Copenhagen,+Denmark198",
					"Oslo,+Norway245",
					"Oslo,+Norway246"
				],
				"lat1": 15.000000,
				"nbSeg1": 2
			},
			"pathsExist": false,
			"runtime": 467289296,
			"nomLat1": 18.000000,
			"nomLat2": 5.000000,
			"maxNomLat": 18.000000,
			"mincut": 2
		},
		{
			"s1": "Dusseldorf,+Germany330",
			"s2": "Madrid,+Spain224",
			"t1": "New+York,+NY161",
			"t2": "Stockholm,+Sweden261",
			"suurballeNbPaths": 2,
			"suurballeTime": 547424891,
			"suurballePaths": {
				"path0": [
					"Madrid,+Spain224",
					"London590",
					"London220",
					"London217",
					"New+York,+NY161"
				],
				"lat0": 39.000000,
				"nbSeg0": 3,
				"path1": [
					"Dusseldorf,+Germany330",
					"Dusseldorf,+Germany327",
					"Berlin,+Germany303",
					"Dusseldorf,+Germany153",
					"Dusseldorf,+Germany203",
					"Copenhagen,+Denmark200",
					"Stockholm,+Sweden259",
					"Stockholm,+Sweden261"
				],
				"lat1": 20.000000,
				"nbSeg1": 2
			},
			"pathsExist": false,
			"runtime": 279656784,
			"nomLat1": 47.000000,
			"nomLat2": 26.000000,
			"maxNomLat": 47.000000,
			"mincut": 4
		},
		{
			"s1": "New+York,+NY236",
			"s2": "Copenhagen,+Denmark197",
			"t1": "London589",
			"t2": "Frankfurt208",
			"suurballeNbPaths": 2,
			"suurballeTime": 443483232,
			"suurballePaths": {
				"path0": [
					"New+York,+NY236",
					"London217",
					"London589"
				],
				"lat0": 30.000000,
				"nbSeg0": 0,
				"path1": [
					"Copenhagen,+Denmark197",
					"Copenhagen,+Denmark201",
					"Dusseldorf,+Germany203",
					"Frankfurt211",
					"Frankfurt208"
				],
				"lat1": 9.000000,
				"nbSeg1": 1
			},
			"pathsExist": true,
			"path1": [
				"New+York,+NY236",
				"London589"
			],
			"lat1": 30.000000,
			"path2": [
				"Copenhagen,+Denmark197",
				"Frankfurt208"
			],
			"lat2": 9.000000,
			"maxlat": 30.000000,
			"runtime": 392509277,
			"nomLat1": 30.000000,
			"nomLat2": 9.000000,
			"maxNomLat": 30.000000,
			"mincut": 9
		},
		{
			"s1": "Paris254",
			"s2": "Paris249",
			"t1": "Zurich,+Switzerland269",
			"t2": "Stuttgart,+Germany392",
			"suurballeNbPaths": 2,
			"suurballeTime": 528217966,
			"suurballePaths": {
				"path0": [
					"Paris249",
					"London589",
					"London217",
					"Zurich,+Switzerland269"
				],
				"lat0": 9.000000,
				"nbSeg0": 1,
				"path1": [
					"Paris254",
					"Frankfurt209",
					"Frankfurt,+Germany151",
					"Stuttgart,+Germany393",
					"Stuttgart,+Germany392"
				],
				"lat1": 8.000000,
				"nbSeg1": 0
			},
			"pathsExist": false,
			"runtime": 317437768,
			"nomLat1": 10.000000,
			"nomLat2": 9.000000,
			"maxNomLat": 10.000000,
			"mincut": 6
		},
		{
			"s1": "London222",
			"s2": "Stuttgart,+Germany392",
			"t1": "Copenhagen,+Denmark201",
			"t2": "Copenhagen,+Denmark197",
			"suurballeNbPaths": 2,
			"suurballeTime": 432628864,
			"suurballePaths": {
				"path0": [
					"London222",
					"London217",
					"Copenhagen,+Denmark197"
				],
				"lat0": 7.000000,
				"nbSeg0": 1,
				"path1": [
					"Stuttgart,+Germany392",
					"Stuttgart,+Germany393",
					"Frankfurt,+Germany151",
					"Frankfurt207",
					"Copenhagen,+Denmark198",
					"Copenhagen,+Denmark201"
				],
				"lat1": 10.000000,
				"nbSeg1": 2
			},
			"pathsExist": false,
			"runtime": 451707943,
			"nomLat1": 14.000000,
			"nomLat2": 16.000000,
			"maxNomLat": 16.000000,
			"mincut": 9
		},
		{
			"s1": "London589",
			"s2": "Stockholm,+Sweden261",
			"t1": "Oslo,+Norway245",
			"t2": "Madrid,+Spain224",
			"suurballeNbPaths": 2,
			"suurballeTime": 512184818,
			"suurballePaths": {
				"path0": [
					"Stockholm,+Sweden261",
					"Oslo,+Norway246",
					"Oslo,+Norway245"
				],
				"lat0": 5.000000,
				"nbSeg0": 0,
				"path1": [
					"London589",
					"London217",
					"London220",
					"London218",
					"Madrid,+Spain224"
				],
				"lat1": 11.000000,
				"nbSeg1": 1
			},
			"pathsExist": false,
			"runtime": 383854520,
			"nomLat1": 14.000000,
			"nomLat2": 26.000000,
			"maxNomLat": 26.000000,
			"mincut": 4
		},
		{
			"s1": "Copenhagen,+Denmark197",
			"s2": "New+York,+NY235",
			"t1": "Barcelona,+Spain184",
			"t2": "Oslo,+Norway246",
			"suurballeNbPaths": 2,
			"suurballeTime": 104104470,
			"suurballePaths": {
				"path0": [
					"Copenhagen,+Denmark197",
					"Oslo,+Norway245",
					"Oslo,+Norway246"
				],
				"lat0": 5.000000,
				"nbSeg0": 0,
				"path1": [
					"New+York,+NY235",
					"London217",
					"Barcelona,+Spain181",
					"Barcelona,+Spain184"
				],
				"lat1": 37.000000,
				"nbSeg1": 2
			},
			"pathsExist": false,
			"runtime": 743977407,
			"nomLat1": 18.000000,
			"nomLat2": 43.000000,
			"maxNomLat": 43.000000,
			"mincut": 7
		},
		{
			"s1": "Stockholm,+Sweden261",
			"s2": "London221",
			"t1": "Rome,+Italy455",
			"t2": "Basel,+Switzerland192",
			"suurballeNbPaths": 2,
			"suurballeTime": 499070324,
			"suurballePaths": {
				"path0": [
					"Stockholm,+Sweden261",
					"Stockholm,+Sweden259",
					"Copenhagen,+Denmark200",
					"Copenhagen,+Denmark198",
					"Frankfurt207",
					"Basel,+Switzerland192"
				],
				"lat0": 14.000000,
				"nbSeg0": 3,
				"path1": [
					"London221",
					"Paris249",
					"Milan,+Italy228",
					"Milan,+Italy226",
					"Cagliari,+Italy439",
					"Rome,+Italy455"
				],
				"lat1": 18.000000,
				"nbSeg1": 1
			},
			"pathsExist": false,
			"runtime": 365459954,
			"nomLat1": 31.000000,
			"nomLat2": 11.000000,
			"maxNomLat": 31.000000,
			"mincut": 4
		},
		{
			"s1": "Frankfurt206",
			"s2": "Stockholm,+Sweden259",
			"t1": "Copenhagen,+Denmark196",
			"t2": "Oslo,+Norway246",
			"suurballeNbPaths": 2,
			"suurballeTime": 446429255,
			"suurballePaths": {
				"path0": [
					"Stockholm,+Sweden259",
					"Stockholm,+Sweden261",
					"Oslo,+Norway246"
				],
				"lat0": 5.000000,
				"nbSeg0": 0,
				"path1": [
					"Frankfurt206",
					"Frankfurt212",
					"Copenhagen,+Denmark199",
					"Copenhagen,+Denmark201",
					"Copenhagen,+Denmark196"
				],
				"lat1": 8.000000,
				"nbSeg1": 1
			},
			"pathsExist": false,
			"runtime": 478826186,
			"nomLat1": 10.000000,
			"nomLat2": 5.000000,
			"maxNomLat": 10.000000,
			"mincut": 6
		},
		{
			"s1": "Munich,+Germany374",
			"s2": "Genoa,+Italy411",
			"t1": "Dusseldorf,+Germany327",
			"t2": "Oslo,+Norway246",
			"suurballeNbPaths": 2,
			"suurballeTime": 539324945,
			"suurballePaths": {
				"path0": [
					"Munich,+Germany374",
					"Berlin,+Germany304",
					"Dusseldorf,+Germany327"
				],
				"lat0": 8.000000,
				"nbSeg0": 0,
				"path1": [
					"Genoa,+Italy411",
					"Cagliari,+Italy438",
					"Milan,+Italy229",
					"Milan,+Italy231",
					"Copenhagen,+Denmark199",
					"Oslo,+Norway245",
					"Oslo,+Norway246"
				],
				"lat1": 22.000000,
				"nbSeg1": 1
			},
			"pathsExist": false,
			"runtime": 394814654,
			"nomLat1": 8.000000,
			"nomLat2": 32.000000,
			"maxNomLat": 32.000000,
			"mincut": 6
		},
		{
			"s1": "Brussels,+Belgium189",
			"s2": "Milan,+Italy226",
			"t1": "Amsterdam178",
			"t2": "Paris249",
			"suurballeNbPaths": 2,
			"suurballeTime": 597724893,
			"suurballePaths": {
				"path0": [
					"Milan,+Italy226",
					"Milan,+Italy228",
					"Paris249"
				],
				"lat0": 6.000000,
				"nbSeg0": 1,
				"path1": [
					"Brussels,+Belgium189",
					"London217",
					"Amsterdam177",
					"Amsterdam178"
				],
				"lat1": 7.000000,
				"nbSeg1": 0
			},
			"pathsExist": true,
			"path1": [
				"Brussels,+Belgium189",
				"Amsterdam178"
			],
			"lat1": 7.000000,
			"path2": [
				"Milan,+Italy226",
				"Paris249"
			],
			"lat2": 6.000000,
			"maxlat": 7.000000,
			"runtime": 320475293,
			"nomLat1": 7.000000,
			"nomLat2": 6.000000,
			"maxNomLat": 7.000000,
			"mincut": 8
		},
		{
			"s1": "London590",
			"s2": "Frankfurt209",
			"t1": "Basel,+Switzerland193",
			"t2": "Washington,+DC266",
			"suurballeNbPaths": 2,
			"suurballeTime": 110850785,
			"suurballePaths": {
				"path0": [
					"London590",
					"New+York,+NY235",
					"Washington,+DC266"
				],
				"lat0": 32.000000,
				"nbSeg0": 0,
				"path1": [
					"Frankfurt209",
					"Frankfurt214",
					"Frankfurt208",
					"Basel,+Switzerland193"
				],
				"lat1": 5.000000,
				"nbSeg1": 1
			},
			"pathsExist": false,
			"runtime": 767196413,
			"nomLat1": 14.000000,
			"nomLat2": 37.000000,
			"maxNomLat": 37.000000,
			"mincut": 7
		},
		{
			"s1": "Frankfurt211",
			"s2": "Paris253",
			"t1": "Paris254",
			"t2": "Barcelona,+Spain181",
			"suurballeNbPaths": 2,
			"suurballeTime": 15142864,
			"suurballePaths": {
				"path0": [
					"Frankfurt211",
					"Frankfurt208",
					"Barcelona,+Spain181"
				],
				"lat0": 8.000000,
				"nbSeg0": 1,
				"path1": [
					"Paris253",
					"Paris250",
					"Paris254"
				],
				"lat1": 2.000000,
				"nbSeg1": 0
			},
			"pathsExist": true,
			"path1": [
				"Frankfurt211",
				"Paris254"
			],
			"lat1": 5.000000,
			"path2": [
				"Paris253",
				"Barcelona,+Spain181"
			],
			"lat2": 8.000000,
			"maxlat": 8.000000,
			"runtime": 949559557,
			"nomLat1": 5.000000,
			"nomLat2": 8.000000,
			"maxNomLat": 8.000000,
			"mincut": 10
		},
		{
			"s1": "Offenbach,+Germany389",
			"s2": "London222",
			"t1": "Copenhagen,+Denmark200",
			"t2": "Oslo,+Norway246",
			"suurballeNbPaths": 2,
			"suurballeTime": 570500594,
			"suurballePaths": {
				"path0": [
					"Offenbach,+Germany389",
					"Offenbach,+Germany391",
					"Dusseldorf,+Germany153",
					"Dusseldorf,+Germany203",
					"Copenhagen,+Denmark200"
				],
				"lat0": 9.000000,
				"nbSeg0": 0,
				"path1": [
					"London222",
					"London217",
					"Copenhagen,+Denmark198",
					"Oslo,+Norway245",
					"Oslo,+Norway246"
				],
				"lat1": 12.000000,
				"nbSeg1": 2
			},
			"pathsExist": false,
			"runtime": 425117469,
			"nomLat1": 9.000000,
			"nomLat2": 20.000000,
			"maxNomLat": 20.000000,
			"mincut": 5
		},
		{
			"s1": "New+York,+NY238",
			"s2": "Oslo,+Norway245",
			"t1": "Copenhagen,+Denmark198",
			"t2": "Copenhagen,+Denmark197",
			"suurballeNbPaths": 2,
			"suurballeTime": 24056005,
			"suurballePaths": {
				"path0": [
					"Oslo,+Norway245",
					"Copenhagen,+Denmark198"
				],
				"lat0": 4.000000,
				"nbSeg0": 0,
				"path1": [
					"New+York,+NY238",
					"New+York,+NY235",
					"London217",
					"Copenhagen,+Denmark197"
				],
				"lat1": 36.000000,
				"nbSeg1": 0
			},
			"pathsExist": false,
			"runtime": 843677521,
			"nomLat1": 36.000000,
			"nomLat2": 4.000000,
			"maxNomLat": 36.000000,
			"mincut": 7
		},
		{
			"s1": "Modena,+Italy412",
			"s2": "Berlin,+Germany302",
			"t1": "Paris252",
			"t2": "Milan,+Italy436",
			"suurballeNbPaths": 2,
			"suurballeTime": 23397983,
			"suurballePaths": {
				"path0": [
					"Modena,+Italy412",
					"Milan,+Italy436"
				],
				"lat0": 2.000000,
				"nbSeg0": 0,
				"path1": [
					"Berlin,+Germany302",
					"Berlin,+Germany300",
					"Hamburg,+Germany362",
					"Frankfurt,+Germany151",
					"Frankfurt208",
					"Paris252"
				],
				"lat1": 13.000000,
				"nbSeg1": 2
			},
			"pathsExist": false,
			"runtime": 1034064096,
			"nomLat1": 9.000000,
			"nomLat2": 23.000000,
			"maxNomLat": 23.000000,
			"mincut": 6
		},
		{
			"s1": "Frankfurt213",
			"s2": "Zurich,+Switzerland269",
			"t1": "Dusseldorf,+Germany330",
			"t2": "Stockholm,+Sweden261",
			"suurballeNbPaths": 2,
			"suurballeTime": 13200094,
			"suurballePaths": {
				"path0": [
					"Frankfurt213",
					"Frankfurt207",
					"Copenhagen,+Denmark198",
					"Copenhagen,+Denmark200",
					"Stockholm,+Sweden259",
					"Stockholm,+Sweden261"
				],
				"lat0": 12.000000,
				"nbSeg0": 3,
				"path1": [
					"Zurich,+Switzerland269",
					"Basel,+Switzerland193",
					"Frankfurt208",
					"Frankfurt,+Germany151",
					"Berlin,+Germany304",
					"Dusseldorf,+Germany327",
					"Dusseldorf,+Germany330"
				],
				"lat1": 15.000000,
				"nbSeg1": 2
			},
			"pathsExist": false,
			"runtime": 1044158151,
			"nomLat1": 20.000000,
			"nomLat2": 18.000000,
			"maxNomLat": 20.000000,
			"mincut": 4
		},
		{
			"s1": "London218",
			"s2": "Paris250",
			"t1": "Stockholm,+Sweden259",
			"t2": "New+York,+NY161",
			"suurballeNbPaths": 2,
			"suurballeTime": 10731682,
			"suurballePaths": {
				"path0": [
					"Paris250",
					"Paris253",
					"London217",
					"New+York,+NY161"
				],
				"lat0": 33.000000,
				"nbSeg0": 1,
				"path1": [
					"London218",
					"London220",
					"Copenhagen,+Denmark198",
					"Copenhagen,+Denmark200",
					"Stockholm,+Sweden259"
				],
				"lat1": 12.000000,
				"nbSeg1": 2
			},
			"pathsExist": false,
			"runtime": 972928527,
			"nomLat1": 33.000000,
			"nomLat2": 33.000000,
			"maxNomLat": 33.000000,
			"mincut": 5
		},
		{
			"s1": "Frankfurt207",
			"s2": "London218",
			"t1": "Stockholm,+Sweden259",
			"t2": "New+York,+NY161",
			"suurballeNbPaths": 2,
			"suurballeTime": 29550953,
			"suurballePaths": {
				"path0": [
					"Frankfurt207",
					"Copenhagen,+Denmark198",
					"Copenhagen,+Denmark200",
					"Stockholm,+Sweden259"
				],
				"lat0": 10.000000,
				"nbSeg0": 4,
				"path1": [
					"London218",
					"London220",
					"London217",
					"New+York,+NY161"
				],
				"lat1": 31.000000,
				"nbSeg1": 0
			},
			"pathsExist": false,
			"runtime": 851479495,
			"nomLat1": 12.000000,
			"nomLat2": 31.000000,
			"maxNomLat": 31.000000,
			"mincut": 5
		},
		{
			"s1": "Zurich,+Switzerland270",
			"s2": "Copenhagen,+Denmark201",
			"t1": "Genoa,+Italy411",
			"t2": "Offenbach,+Germany389",
			"suurballeNbPaths": 2,
			"suurballeTime": 23036719,
			"suurballePaths": {
				"path0": [
					"Zurich,+Switzerland270",
					"Milan,+Italy230",
					"Milan,+Italy229",
					"Cagliari,+Italy438",
					"Genoa,+Italy411"
				],
				"lat0": 13.000000,
				"nbSeg0": 0,
				"path1": [
					"Copenhagen,+Denmark201",
					"Dusseldorf,+Germany203",
					"Dusseldorf,+Germany153",
					"Offenbach,+Germany391",
					"Offenbach,+Germany389"
				],
				"lat1": 9.000000,
				"nbSeg1": 0
			},
			"pathsExist": false,
			"runtime": 1040240576,
			"nomLat1": 13.000000,
			"nomLat2": 9.000000,
			"maxNomLat": 13.000000,
			"mincut": 5
		},
		{
			"s1": "Milan,+Italy231",
			"s2": "Washington,+DC266",
			"t1": "Basel,+Switzerland193",
			"t2": "Dusseldorf,+Germany330",
			"suurballeNbPaths": 2,
			"suurballeTime": 22493431,
			"suurballePaths": {
				"path0": [
					"Milan,+Italy231",
					"Milan,+Italy229",
					"Milan,+Italy232",
					"Zurich,+Switzerland269",
					"Basel,+Switzerland193"
				],
				"lat0": 7.000000,
				"nbSeg0": 1,
				"path1": [
					"Washington,+DC266",
					"Frankfurt207",
					"Frankfurt,+Germany151",
					"Berlin,+Germany304",
					"Dusseldorf,+Germany327",
					"Dusseldorf,+Germany330"
				],
				"lat1": 44.000000,
				"nbSeg1": 2
			},
			"pathsExist": false,
			"runtime": 1037510695,
			"nomLat1": 19.000000,
			"nomLat2": 50.000000,
			"maxNomLat": 50.000000,
			"mincut": 4
		},
		{
			"s1": "Barcelona,+Spain184",
			"s2": "New+York,+NY159",
			"t1": "Frankfurt210",
			"t2": "Frankfurt214",
			"suurballeNbPaths": 2,
			"suurballeTime": 23090725,
			"suurballePaths": {
				"path0": [
					"New+York,+NY159",
					"Frankfurt207",
					"Frankfurt210"
				],
				"lat0": 33.000000,
				"nbSeg0": 1,
				"path1": [
					"Barcelona,+Spain184",
					"Barcelona,+Spain181",
					"Frankfurt206",
					"Frankfurt214"
				],
				"lat1": 9.000000,
				"nbSeg1": 1
			},
			"pathsExist": false,
			"runtime": 1043535396,
			"nomLat1": 12.000000,
			"nomLat2": 36.000000,
			"maxNomLat": 36.000000,
			"mincut": 9
		},
		{
			"s1": "Frankfurt209",
			"s2": "Frankfurt211",
			"t1": "Zurich,+Switzerland269",
			"t2": "Frankfurt,+Germany346",
			"suurballeNbPaths": 2,
			"suurballeTime": 38835875,
			"suurballePaths": {
				"path0": [
					"Frankfurt209",
					"Frankfurt,+Germany151",
					"Frankfurt,+Germany346"
				],
				"lat0": 2.000000,
				"nbSeg0": 0,
				"path1": [
					"Frankfurt211",
					"Frankfurt208",
					"Basel,+Switzerland193",
					"Zurich,+Switzerland269"
				],
				"lat1": 6.000000,
				"nbSeg1": 0
			},
			"pathsExist": false,
			"runtime": 1001333033,
			"nomLat1": 14.000000,
			"nomLat2": 3.000000,
			"maxNomLat": 14.000000,
			"mincut": 10
		},
		{
			"s1": "Frankfurt,+Germany347",
			"s2": "Frankfurt210",
			"t1": "Washington,+DC266",
			"t2": "Frankfurt209",
			"suurballeNbPaths": 2,
			"suurballeTime": 13276371,
			"suurballePaths": {
				"path0": [
					"Frankfurt210",
					"Frankfurt207",
					"Washington,+DC266"
				],
				"lat0": 35.000000,
				"nbSeg0": 1,
				"path1": [
					"Frankfurt,+Germany347",
					"Stuttgart,+Germany393",
					"Frankfurt,+Germany151",
					"Frankfurt209"
				],
				"lat1": 5.000000,
				"nbSeg1": 1
			},
			"pathsExist": false,
			"runtime": 847322180,
			"nomLat1": 42.000000,
			"nomLat2": 7.000000,
			"maxNomLat": 42.000000,
			"mincut": 10
		},
		{
			"s1": "Frankfurt,+Germany151",
			"s2": "Dusseldorf,+Germany320",
			"t1": "New+York,+NY238",
			"t2": "London589",
			"suurballeNbPaths": 2,
			"suurballeTime": 23124618,
			"suurballePaths": {
				"path0": [
					"Frankfurt,+Germany151",
					"Frankfurt208",
					"London217",
					"London589"
				],
				"lat0": 7.000000,
				"nbSeg0": 1,
				"path1": [
					"Dusseldorf,+Germany320",
					"Dusseldorf,+Germany153",
					"Dusseldorf,+Germany203",
					"Amsterdam178",
					"New+York,+NY238"
				],
				"lat1": 35.000000,
				"nbSeg1": 1
			},
			"pathsExist": false,
			"runtime": 808771666,
			"nomLat1": 36.000000,
			"nomLat2": 7.000000,
			"maxNomLat": 36.000000,
			"mincut": 4
		},
		{
			"s1": "Paris249",
			"s2": "Milan,+Italy230",
			"t1": "Hamburg,+Germany363",
			"t2": "Frankfurt,+Germany342",
			"suurballeNbPaths": 2,
			"suurballeTime": 30060772,
			"suurballePaths": {
				"path0": [
					"Paris249",
					"Frankfurt211",
					"Frankfurt208",
					"Frankfurt,+Germany151",
					"Hamburg,+Germany363"
				],
				"lat0": 10.000000,
				"nbSeg0": 3,
				"path1": [
					"Milan,+Italy230",
					"Milan,+Italy228",
					"Frankfurt209",
					"Frankfurt,+Germany151",
					"Frankfurt,+Germany346",
					"Frankfurt,+Germany342"
				],
				"lat1": 8.000000,
				"nbSeg1": 2
			},
			"pathsExist": false,
			"runtime": 1042627234,
			"nomLat1": 14.000000,
			"nomLat2": 11.000000,
			"maxNomLat": 14.000000,
			"mincut": 5
		},
		{
			"s1": "Frankfurt211",
			"s2": "London590",
			"t1": "Frankfurt,+Germany346",
			"t2": "Frankfurt,+Germany151",
			"suurballeNbPaths": 2,
			"suurballeTime": 23398727,
			"suurballePaths": {
				"path0": [
					"Frankfurt211",
					"Frankfurt208",
					"Frankfurt,+Germany151"
				],
				"lat0": 2.000000,
				"nbSeg0": 1,
				"path1": [
					"London590",
					"Frankfurt209",
					"Frankfurt,+Germany151"
				],
				"lat1": 6.000000,
				"nbSeg1": 0
			},
			"pathsExist": false,
			"runtime": 1021904158,
			"nomLat1": 3.000000,
			"nomLat2": 6.000000,
			"maxNomLat": 6.000000,
			"mincut": 11
		},
		{
			"s1": "Paris254",
			"s2": "Frankfurt208",
			"t1": "London590",
			"t2": "Hamburg,+Germany363",
			"suurballeNbPaths": 2,
			"suurballeTime": 43386216,
			"suurballePaths": {
				"path0": [
					"Frankfurt208",
					"Frankfurt,+Germany151",
					"Hamburg,+Germany363"
				],
				"lat0": 5.000000,
				"nbSeg0": 2,
				"path1": [
					"Paris254",
					"Paris250",
					"Paris253",
					"Paris249",
					"London220",
					"London590"
				],
				"lat1": 7.000000,
				"nbSeg1": 1
			},
			"pathsExist": false,
			"runtime": 1057195866,
			"nomLat1": 15.000000,
			"nomLat2": 11.000000,
			"maxNomLat": 15.000000,
			"mincut": 11
		},
		{
			"s1": "Frankfurt205",
			"s2": "Berlin,+Germany301",
			"t1": "Frankfurt210",
			"t2": "Prague,+CzechRepublic257",
			"suurballeNbPaths": 2,
			"suurballeTime": 24636473,
			"suurballePaths": {
				"path0": [
					"Frankfurt205",
					"Frankfurt210"
				],
				"lat0": 1.000000,
				"nbSeg0": 0,
				"path1": [
					"Berlin,+Germany301",
					"Berlin,+Germany304",
					"Frankfurt,+Germany151",
					"Frankfurt208",
					"Prague,+CzechRepublic257"
				],
				"lat1": 10.000000,
				"nbSeg1": 2
			},
			"pathsExist": false,
			"runtime": 1113253278,
			"nomLat1": 1.000000,
			"nomLat2": 16.000000,
			"maxNomLat": 16.000000,
			"mincut": 5
		},
		{
			"s1": "Milan,+Italy232",
			"s2": "Darmstadt,+Germany326",
			"t1": "Torino,+Italy418",
			"t2": "Stuttgart,+Germany393",
			"suurballeNbPaths": 2,
			"suurballeTime": 12797663,
			"suurballePaths": {
				"path0": [
					"Darmstadt,+Germany326",
					"Frankfurt,+Germany151",
					"Stuttgart,+Germany393"
				],
				"lat0": 4.000000,
				"nbSeg0": 0,
				"path1": [
					"Milan,+Italy232",
					"Milan,+Italy229",
					"Milan,+Italy434",
					"Torino,+Italy418"
				],
				"lat1": 4.000000,
				"nbSeg1": 0
			},
			"pathsExist": false,
			"runtime": 1101267920,
			"nomLat1": 4.000000,
			"nomLat2": 4.000000,
			"maxNomLat": 4.000000,
			"mincut": 5
		},
		{
			"s1": "New+York,+NY235",
			"s2": "Milan,+Italy435",
			"t1": "New+York,+NY161",
			"t2": "Dusseldorf,+Germany327",
			"suurballeNbPaths": 2,
			"suurballeTime": 26322990,
			"suurballePaths": {
				"path0": [
					"New+York,+NY235",
					"Washington,+DC266",
					"New+York,+NY161"
				],
				"lat0": 6.000000,
				"nbSeg0": 1,
				"path1": [
					"Milan,+Italy435",
					"Milan,+Italy229",
					"Milan,+Italy230",
					"Milan,+Italy228",
					"Frankfurt209",
					"Frankfurt,+Germany151",
					"Berlin,+Germany304",
					"Dusseldorf,+Germany327"
				],
				"lat1": 16.000000,
				"nbSeg1": 4
			},
			"pathsExist": false,
			"runtime": 1081693167,
			"nomLat1": 58.000000,
			"nomLat2": 25.000000,
			"maxNomLat": 58.000000,
			"mincut": 6
		},
		{
			"s1": "Barcelona,+Spain185",
			"s2": "Cagliari,+Italy439",
			"t1": "Barcelona,+Spain184",
			"t2": "Amsterdam178",
			"suurballeNbPaths": 2,
			"suurballeTime": 10504599,
			"suurballePaths": {
				"path0": [
					"Barcelona,+Spain185",
					"Barcelona,+Spain181",
					"Barcelona,+Spain184"
				],
				"lat0": 2.000000,
				"nbSeg0": 1,
				"path1": [
					"Cagliari,+Italy439",
					"Milan,+Italy226",
					"Milan,+Italy228",
					"Frankfurt209",
					"Frankfurt211",
					"Dusseldorf,+Germany203",
					"Amsterdam178"
				],
				"lat1": 15.000000,
				"nbSeg1": 2
			},
			"pathsExist": false,
			"runtime": 1064572604,
			"nomLat1": 12.000000,
			"nomLat2": 19.000000,
			"maxNomLat": 19.000000,
			"mincut": 9
		},
		{
			"s1": "Brussels,+Belgium190",
			"s2": "Frankfurt212",
			"t1": "Cagliari,+Italy439",
			"t2": "Brussels,+Belgium187",
			"suurballeNbPaths": 2,
			"suurballeTime": 11741080,
			"suurballePaths": {
				"path0": [
					"Brussels,+Belgium190",
					"Dusseldorf,+Germany203",
					"Brussels,+Belgium187"
				],
				"lat0": 4.000000,
				"nbSeg0": 1,
				"path1": [
					"Frankfurt212",
					"Frankfurt205",
					"Frankfurt211",
					"Frankfurt209",
					"Milan,+Italy228",
					"Milan,+Italy226",
					"Cagliari,+Italy439"
				],
				"lat1": 13.000000,
				"nbSeg1": 3
			},
			"pathsExist": false,
			"runtime": 925991760,
			"nomLat1": 22.000000,
			"nomLat2": 4.000000,
			"maxNomLat": 22.000000,
			"mincut": 7
		},
		{
			"s1": "Dusseldorf,+Germany330",
			"s2": "London589",
			"t1": "Barcelona,+Spain181",
			"t2": "Washington,+DC266",
			"suurballeNbPaths": 2,
			"suurballeTime": 24170941,
			"suurballePaths": {
				"path0": [
					"London589",
					"London217",
					"New+York,+NY236",
					"Washington,+DC266"
				],
				"lat0": 33.000000,
				"nbSeg0": 1,
				"path1": [
					"Dusseldorf,+Germany330",
					"Dusseldorf,+Germany327",
					"Berlin,+Germany304",
					"Frankfurt,+Germany151",
					"Frankfurt208",
					"Barcelona,+Spain181"
				],
				"lat1": 17.000000,
				"nbSeg1": 2
			},
			"pathsExist": false,
			"runtime": 470113309,
			"nomLat1": 28.000000,
			"nomLat2": 33.000000,
			"maxNomLat": 33.000000,
			"mincut": 4
		},
		{
			"s1": "Copenhagen,+Denmark198",
			"s2": "London222",
			"t1": "Paris252",
			"t2": "Hamburg,+Germany362",
			"suurballeNbPaths": 2,
			"suurballeTime": 34464281,
			"suurballePaths": {
				"path0": [
					"London222",
					"Paris250",
					"Paris252"
				],
				"lat0": 4.000000,
				"nbSeg0": 0,
				"path1": [
					"Copenhagen,+Denmark198",
					"Frankfurt207",
					"Frankfurt,+Germany151",
					"Hamburg,+Germany362"
				],
				"lat1": 10.000000,
				"nbSeg1": 3
			},
			"pathsExist": false,
			"runtime": 948718967,
			"nomLat1": 13.000000,
			"nomLat2": 17.000000,
			"maxNomLat": 17.000000,
			"mincut": 7
		},
		{
			"s1": "Frankfurt214",
			"s2": "Milan,+Italy230",
			"t1": "London220",
			"t2": "Frankfurt205",
			"suurballeNbPaths": 2,
			"suurballeTime": 38579084,
			"suurballePaths": {
				"path0": [
					"Frankfurt214",
					"Frankfurt207",
					"Frankfurt212",
					"Frankfurt205"
				],
				"lat0": 3.000000,
				"nbSeg0": 1,
				"path1": [
					"Milan,+Italy230",
					"Milan,+Italy228",
					"London217",
					"London220"
				],
				"lat1": 8.000000,
				"nbSeg1": 2
			},
			"pathsExist": false,
			"runtime": 965199609,
			"nomLat1": 9.000000,
			"nomLat2": 10.000000,
			"maxNomLat": 10.000000,
			"mincut": 9
		},
		{
			"s1": "Amsterdam178",
			"s2": "Milan,+Italy435",
			"t1": "Brussels,+Belgium190",
			"t2": "New+York,+NY238",
			"suurballeNbPaths": 2,
			"suurballeTime": 23879040,
			"suurballePaths": {
				"path0": [
					"Amsterdam178",
					"Amsterdam179",
					"Brussels,+Belgium190"
				],
				"lat0": 3.000000,
				"nbSeg0": 0,
				"path1": [
					"Milan,+Italy435",
					"Milan,+Italy229",
					"Milan,+Italy232",
					"London217",
					"New+York,+NY235",
					"New+York,+NY238"
				],
				"lat1": 38.000000,
				"nbSeg1": 0
			},
			"pathsExist": false,
			"runtime": 934311029,
			"nomLat1": 3.000000,
			"nomLat2": 38.000000,
			"maxNomLat": 38.000000,
			"mincut": 7
		},
		{
			"s1": "Frankfurt214",
			"s2": "Milan,+Italy230",
			"t1": "London222",
			"t2": "Copenhagen,+Denmark199",
			"suurballeNbPaths": 2,
			"suurballeTime": 13085217,
			"suurballePaths": {
				"path0": [
					"Milan,+Italy230",
					"Milan,+Italy228",
					"London222"
				],
				"lat0": 7.000000,
				"nbSeg0": 2,
				"path1": [
					"Frankfurt214",
					"Frankfurt207",
					"Frankfurt212",
					"Copenhagen,+Denmark199"
				],
				"lat1": 7.000000,
				"nbSeg1": 1
			},
			"pathsExist": false,
			"runtime": 873320728,
			"nomLat1": 9.000000,
			"nomLat2": 17.000000,
			"maxNomLat": 17.000000,
			"mincut": 10
		},
		{
			"s1": "Rome,+Italy416",
			"s2": "Barcelona,+Spain181",
			"t1": "Copenhagen,+Denmark198",
			"t2": "Frankfurt536",
			"suurballeNbPaths": 2,
			"suurballeTime": 13195834,
			"suurballePaths": {
				"path0": [
					"Barcelona,+Spain181",
					"Frankfurt206",
					"Frankfurt214",
					"Frankfurt536"
				],
				"lat0": 9.000000,
				"nbSeg0": 2,
				"path1": [
					"Rome,+Italy416",
					"Cagliari,+Italy438",
					"Milan,+Italy229",
					"Milan,+Italy231",
					"Copenhagen,+Denmark199",
					"Copenhagen,+Denmark201",
					"Copenhagen,+Denmark198"
				],
				"lat1": 19.000000,
				"nbSeg1": 1
			},
			"pathsExist": false,
			"runtime": 1135513319,
			"nomLat1": 27.000000,
			"nomLat2": 16.000000,
			"maxNomLat": 27.000000,
			"mincut": 10
		},
		{
			"s1": "Paris253",
			"s2": "Munich,+Germany374",
			"t1": "London222",
			"t2": "Cagliari,+Italy438",
			"suurballeNbPaths": 2,
			"suurballeTime": 13272568,
			"suurballePaths": {
				"path0": [
					"Paris253",
					"Paris249",
					"London222"
				],
				"lat0": 4.000000,
				"nbSeg0": 1,
				"path1": [
					"Munich,+Germany374",
					"Nuremberg,+Germany383",
					"Frankfurt,+Germany151",
					"Frankfurt209",
					"Milan,+Italy228",
					"Milan,+Italy230",
					"Milan,+Italy229",
					"Cagliari,+Italy438"
				],
				"lat1": 16.000000,
				"nbSeg1": 3
			},
			"pathsExist": false,
			"runtime": 836193866,
			"nomLat1": 4.000000,
			"nomLat2": 21.000000,
			"maxNomLat": 21.000000,
			"mincut": 8
		},
		{
			"s1": "Milan,+Italy431",
			"s2": "Copenhagen,+Denmark200",
			"t1": "New+York,+NY235",
			"t2": "Berlin,+Germany301",
			"suurballeNbPaths": 2,
			"suurballeTime": 25538590,
			"suurballePaths": {
				"path0": [
					"Copenhagen,+Denmark200",
					"Copenhagen,+Denmark197",
					"London217",
					"New+York,+NY235"
				],
				"lat0": 36.000000,
				"nbSeg0": 1,
				"path1": [
					"Milan,+Italy431",
					"Milan,+Italy226",
					"Milan,+Italy228",
					"Frankfurt209",
					"Frankfurt,+Germany151",
					"Berlin,+Germany304",
					"Berlin,+Germany301"
				],
				"lat1": 12.000000,
				"nbSeg1": 3
			},
			"pathsExist": false,
			"runtime": 590240713,
			"nomLat1": 40.000000,
			"nomLat2": 23.000000,
			"maxNomLat": 40.000000,
			"mincut": 6
		},
		{
			"s1": "New+York,+NY236",
			"s2": "London589",
			"t1": "Frankfurt214",
			"t2": "Paris250",
			"suurballeNbPaths": 2,
			"suurballeTime": 41430004,
			"suurballePaths": {
				"path0": [
					"New+York,+NY236",
					"New+York,+NY159",
					"Frankfurt207",
					"Frankfurt214"
				],
				"lat0": 34.000000,
				"nbSeg0": 2,
				"path1": [
					"London589",
					"London217",
					"London222",
					"Paris250"
				],
				"lat1": 5.000000,
				"nbSeg1": 1
			},
			"pathsExist": false,
			"runtime": 866040308,
			"nomLat1": 35.000000,
			"nomLat2": 13.000000,
			"maxNomLat": 35.000000,
			"mincut": 5
		},
		{
			"s1": "Oslo,+Norway246",
			"s2": "Milan,+Italy436",
			"t1": "Frankfurt209",
			"t2": "Brussels,+Belgium187",
			"suurballeNbPaths": 2,
			"suurballeTime": 42138198,
			"suurballePaths": {
				"path0": [
					"Milan,+Italy436",
					"Milan,+Italy229",
					"Milan,+Italy230",
					"Milan,+Italy228",
					"Frankfurt209"
				],
				"lat0": 7.000000,
				"nbSeg0": 2,
				"path1": [
					"Oslo,+Norway246",
					"Oslo,+Norway245",
					"Copenhagen,+Denmark198",
					"Copenhagen,+Denmark200",
					"Dusseldorf,+Germany203",
					"Brussels,+Belgium187"
				],
				"lat1": 13.000000,
				"nbSeg1": 1
			},
			"pathsExist": false,
			"runtime": 1129685067,
			"nomLat1": 14.000000,
			"nomLat2": 15.000000,
			"maxNomLat": 15.000000,
			"mincut": 5
		},
		{
			"s1": "Frankfurt,+Germany340",
			"s2": "Offenbach,+Germany389",
			"t1": "Frankfurt,+Germany342",
			"t2": "Dresden,+Germany339",
			"suurballeNbPaths": 2,
			"suurballeTime": 17411060,
			"suurballePaths": {
				"path0": [
					"Frankfurt,+Germany340",
					"Frankfurt,+Germany346",
					"Frankfurt,+Germany342"
				],
				"lat0": 2.000000,
				"nbSeg0": 1,
				"path1": [
					"Offenbach,+Germany389",
					"Frankfurt,+Germany340",
					"Frankfurt,+Germany151",
					"Berlin,+Germany304",
					"Dusseldorf,+Germany327",
					"Dresden,+Germany339"
				],
				"lat1": 15.000000,
				"nbSeg1": 3
			},
			"pathsExist": false,
			"runtime": 1161964245,
			"nomLat1": 2.000000,
			"nomLat2": 19.000000,
			"maxNomLat": 19.000000,
			"mincut": 4
		},
		{
			"s1": "Dusseldorf,+Germany152",
			"s2": "Barcelona,+Spain181",
			"t1": "Frankfurt208",
			"t2": "Brussels,+Belgium187",
			"suurballeNbPaths": 2,
			"suurballeTime": 34107640,
			"suurballePaths": {
				"path0": [
					"Barcelona,+Spain181",
					"Frankfurt208"
				],
				"lat0": 7.000000,
				"nbSeg0": 0,
				"path1": [
					"Dusseldorf,+Germany152",
					"Dusseldorf,+Germany319",
					"Dusseldorf,+Germany153",
					"Dusseldorf,+Germany203",
					"Brussels,+Belgium187"
				],
				"lat1": 5.000000,
				"nbSeg1": 2
			},
			"pathsExist": false,
			"runtime": 1084454908,
			"nomLat1": 3.000000,
			"nomLat2": 15.000000,
			"maxNomLat": 15.000000,
			"mincut": 11
		},
		{
			"s1": "Barcelona,+Spain184",
			"s2": "New+York,+NY236",
			"t1": "Rome,+Italy416",
			"t2": "Paris254",
			"suurballeNbPaths": 2,
			"suurballeTime": 14337549,
			"suurballePaths": {
				"path0": [
					"New+York,+NY236",
					"London217",
					"London222",
					"Paris250",
					"Paris254"
				],
				"lat0": 34.000000,
				"nbSeg0": 0,
				"path1": [
					"Barcelona,+Spain184",
					"Barcelona,+Spain181",
					"Barcelona,+Spain185",
					"Milan,+Italy227",
					"Milan,+Italy226",
					"Cagliari,+Italy439",
					"Rome,+Italy416"
				],
				"lat1": 17.000000,
				"nbSeg1": 2
			},
			"pathsExist": false,
			"runtime": 1169863367,
			"nomLat1": 21.000000,
			"nomLat2": 34.000000,
			"maxNomLat": 34.000000,
			"mincut": 4
		},
		{
			"s1": "Milan,+Italy230",
			"s2": "Modena,+Italy412",
			"t1": "Frankfurt,+Germany343",
			"t2": "Brussels,+Belgium187",
			"suurballeNbPaths": 2,
			"suurballeTime": 25043666,
			"suurballePaths": {
				"path0": [
					"Milan,+Italy230",
					"Milan,+Italy228",
					"London217",
					"Brussels,+Belgium187"
				],
				"lat0": 10.000000,
				"nbSeg0": 2,
				"path1": [
					"Modena,+Italy412",
					"Milan,+Italy226",
					"Milan,+Italy228",
					"Frankfurt209",
					"Frankfurt,+Germany151",
					"Frankfurt,+Germany341",
					"Frankfurt,+Germany343"
				],
				"lat1": 10.000000,
				"nbSeg1": 4
			},
			"pathsExist": false,
			"runtime": 720324361,
			"nomLat1": 12.000000,
			"nomLat2": 17.000000,
			"maxNomLat": 17.000000,
			"mincut": 6
		},
		{
			"s1": "Brussels,+Belgium187",
			"s2": "Milan,+Italy435",
			"t1": "Prague,+CzechRepublic257",
			"t2": "Paris253",
			"suurballeNbPaths": 2,
			"suurballeTime": 13620615,
			"suurballePaths": {
				"path0": [
					"Brussels,+Belgium187",
					"London217",
					"Paris253"
				],
				"lat0": 6.000000,
				"nbSeg0": 1,
				"path1": [
					"Milan,+Italy435",
					"Milan,+Italy229",
					"Milan,+Italy230",
					"Milan,+Italy228",
					"Frankfurt209",
					"Prague,+CzechRepublic257"
				],
				"lat1": 11.000000,
				"nbSeg1": 3
			},
			"pathsExist": false,
			"runtime": 706273584,
			"nomLat1": 9.000000,
			"nomLat2": 9.000000,
			"maxNomLat": 9.000000,
			"mincut": 5
		},
		{
			"s1": "Frankfurt,+Germany340",
			"s2": "Copenhagen,+Denmark201",
			"t1": "New+York,+NY159",
			"t2": "Basel,+Switzerland193",
			"suurballeNbPaths": 2,
			"suurballeTime": 10759449,
			"suurballePaths": {
				"path0": [
					"Frankfurt,+Germany340",
					"Frankfurt,+Germany151",
					"Frankfurt208",
					"Basel,+Switzerland193"
				],
				"lat0": 5.000000,
				"nbSeg0": 2,
				"path1": [
					"Copenhagen,+Denmark201",
					"Copenhagen,+Denmark196",
					"London217",
					"New+York,+NY236",
					"New+York,+NY159"
				],
				"lat1": 37.000000,
				"nbSeg1": 2
			},
			"pathsExist": false,
			"runtime": 574955496,
			"nomLat1": 38.000000,
			"nomLat2": 11.000000,
			"maxNomLat": 38.000000,
			"mincut": 6
		},
		{
			"s1": "Paris250",
			"s2": "Prague,+CzechRepublic257",
			"t1": "Padova,+Italy413",
			"t2": "Amsterdam177",
			"suurballeNbPaths": 2,
			"suurballeTime": 22904283,
			"suurballePaths": {
				"path0": [
					"Paris250",
					"Paris253",
					"London217",
					"Amsterdam177"
				],
				"lat0": 7.000000,
				"nbSeg0": 1,
				"path1": [
					"Prague,+CzechRepublic257",
					"Frankfurt209",
					"Milan,+Italy228",
					"Milan,+Italy230",
					"Milan,+Italy432",
					"Padova,+Italy413"
				],
				"lat1": 13.000000,
				"nbSeg1": 4
			},
			"pathsExist": false,
			"runtime": 1134715838,
			"nomLat1": 10.000000,
			"nomLat2": 10.000000,
			"maxNomLat": 10.000000,
			"mincut": 6
		},
		{
			"s1": "Berlin,+Germany304",
			"s2": "Offenbach,+Germany389",
			"t1": "Munich,+Germany374",
			"t2": "Milan,+Italy435",
			"suurballeNbPaths": 2,
			"suurballeTime": 15692120,
			"suurballePaths": {
				"path0": [
					"Berlin,+Germany304",
					"Munich,+Germany374"
				],
				"lat0": 4.000000,
				"nbSeg0": 0,
				"path1": [
					"Offenbach,+Germany389",
					"Frankfurt,+Germany340",
					"Frankfurt,+Germany151",
					"Frankfurt209",
					"Milan,+Italy228",
					"Milan,+Italy230",
					"Milan,+Italy229",
					"Milan,+Italy435"
				],
				"lat1": 11.000000,
				"nbSeg1": 5
			},
			"pathsExist": false,
			"runtime": 1204185661,
			"nomLat1": 4.000000,
			"nomLat2": 15.000000,
			"maxNomLat": 15.000000,
			"mincut": 7
		},
		{
			"s1": "Paris253",
			"s2": "Dusseldorf,+Germany152",
			"t1": "Frankfurt206",
			"t2": "Barcelona,+Spain185",
			"suurballeNbPaths": 2,
			"suurballeTime": 11013202,
			"suurballePaths": {
				"path0": [
					"Paris253",
					"Paris250",
					"Barcelona,+Spain185"
				],
				"lat0": 7.000000,
				"nbSeg0": 0,
				"path1": [
					"Dusseldorf,+Germany152",
					"Frankfurt212",
					"Frankfurt206"
				],
				"lat1": 3.000000,
				"nbSeg1": 1
			},
			"pathsExist": false,
			"runtime": 732193799,
			"nomLat1": 12.000000,
			"nomLat2": 12.000000,
			"maxNomLat": 12.000000,
			"mincut": 14
		},
		{
			"s1": "Frankfurt,+Germany346",
			"s2": "Barcelona,+Spain184",
			"t1": "Brussels,+Belgium187",
			"t2": "Copenhagen,+Denmark198",
			"suurballeNbPaths": 2,
			"suurballeTime": 14748852,
			"suurballePaths": {
				"path0": [
					"Frankfurt,+Germany346",
					"Frankfurt,+Germany151",
					"Frankfurt207",
					"Copenhagen,+Denmark198"
				],
				"lat0": 7.000000,
				"nbSeg0": 2,
				"path1": [
					"Barcelona,+Spain184",
					"Barcelona,+Spain181",
					"London217",
					"Brussels,+Belgium187"
				],
				"lat1": 11.000000,
				"nbSeg1": 2
			},
			"pathsExist": false,
			"runtime": 532849156,
			"nomLat1": 7.000000,
			"nomLat2": 18.000000,
			"maxNomLat": 18.000000,
			"mincut": 10
		},
		{
			"s1": "Frankfurt,+Germany343",
			"s2": "Dresden,+Germany339",
			"t1": "Dusseldorf,+Germany320",
			"t2": "Milan,+Italy431",
			"suurballeNbPaths": 2,
			"suurballeTime": 14542116,
			"suurballePaths": {
				"path0": [
					"Frankfurt,+Germany343",
					"Dusseldorf,+Germany320"
				],
				"lat0": 2.000000,
				"nbSeg0": 0,
				"path1": [
					"Dresden,+Germany339",
					"Dusseldorf,+Germany327",
					"Berlin,+Germany304",
					"Frankfurt,+Germany151",
					"Frankfurt209",
					"Milan,+Italy228",
					"Milan,+Italy226",
					"Milan,+Italy431"
				],
				"lat1": 19.000000,
				"nbSeg1": 3
			},
			"pathsExist": false,
			"runtime": 1219224633,
			"nomLat1": 2.000000,
			"nomLat2": 34.000000,
			"maxNomLat": 34.000000,
			"mincut": 4
		},
		{
			"s1": "Frankfurt213",
			"s2": "Dusseldorf,+Germany153",
			"t1": "Zurich,+Switzerland269",
			"t2": "Nuremberg,+Germany383",
			"suurballeNbPaths": 2,
			"suurballeTime": 40103730,
			"suurballePaths": {
				"path0": [
					"Frankfurt213",
					"Frankfurt207",
					"Frankfurt,+Germany151",
					"Nuremberg,+Germany383"
				],
				"lat0": 4.000000,
				"nbSeg0": 2,
				"path1": [
					"Dusseldorf,+Germany153",
					"Dusseldorf,+Germany319",
					"Frankfurt,+Germany151",
					"Frankfurt208",
					"Basel,+Switzerland193",
					"Zurich,+Switzerland269"
				],
				"lat1": 9.000000,
				"nbSeg1": 3
			},
			"pathsExist": false,
			"runtime": 755365750,
			"nomLat1": 15.000000,
			"nomLat2": 14.000000,
			"maxNomLat": 15.000000,
			"mincut": 8
		},
		{
			"s1": "Dusseldorf,+Germany319",
			"s2": "Nuremberg,+Germany383",
			"t1": "New+York,+NY161",
			"t2": "Berlin,+Germany301",
			"suurballeNbPaths": 2,
			"suurballeTime": 24064055,
			"suurballePaths": {
				"path0": [
					"Nuremberg,+Germany383",
					"Frankfurt,+Germany151",
					"Berlin,+Germany304",
					"Berlin,+Germany301"
				],
				"lat0": 7.000000,
				"nbSeg0": 3,
				"path1": [
					"Dusseldorf,+Germany319",
					"Dusseldorf,+Germany153",
					"Dusseldorf,+Germany203",
					"London217",
					"New+York,+NY161"
				],
				"lat1": 35.000000,
				"nbSeg1": 1
			},
			"pathsExist": false,
			"runtime": 589542121,
			"nomLat1": 40.000000,
			"nomLat2": 7.000000,
			"maxNomLat": 40.000000,
			"mincut": 4
		},
		{
			"s1": "Copenhagen,+Denmark200",
			"s2": "Milan,+Italy431",
			"t1": "Washington,+DC266",
			"t2": "Dusseldorf,+Germany327",
			"suurballeNbPaths": 2,
			"suurballeTime": 42803891,
			"suurballePaths": {
				"path0": [
					"Copenhagen,+Denmark200",
					"Copenhagen,+Denmark197",
					"Washington,+DC266"
				],
				"lat0": 35.000000,
				"nbSeg0": 1,
				"path1": [
					"Milan,+Italy431",
					"Milan,+Italy226",
					"Milan,+Italy228",
					"Frankfurt209",
					"Frankfurt,+Germany151",
					"Berlin,+Germany304",
					"Dusseldorf,+Germany327"
				],
				"lat1": 15.000000,
				"nbSeg1": 3
			},
			"pathsExist": false,
			"runtime": 977819381,
			"nomLat1": 41.000000,
			"nomLat2": 30.000000,
			"maxNomLat": 41.000000,
			"mincut": 6
		},
		{
			"s1": "Barcelona,+Spain185",
			"s2": "Milan,+Italy432",
			"t1": "Paris249",
			"t2": "Frankfurt211",
			"suurballeNbPaths": 2,
			"suurballeTime": 10172490,
			"suurballePaths": {
				"path0": [
					"Barcelona,+Spain185",
					"Barcelona,+Spain181",
					"Barcelona,+Spain184",
					"Paris249"
				],
				"lat0": 8.000000,
				"nbSeg0": 1,
				"path1": [
					"Milan,+Italy432",
					"Milan,+Italy226",
					"Milan,+Italy228",
					"Frankfurt209",
					"Frankfurt211"
				],
				"lat1": 7.000000,
				"nbSeg1": 2
			},
			"pathsExist": false,
			"runtime": 1138501274,
			"nomLat1": 16.000000,
			"nomLat2": 11.000000,
			"maxNomLat": 16.000000,
			"mincut": 7
		},
		{
			"s1": "Brussels,+Belgium189",
			"s2": "Frankfurt,+Germany347",
			"t1": "Berlin,+Germany302",
			"t2": "Oslo,+Norway246",
			"suurballeNbPaths": 2,
			"suurballeTime": 13932099,
			"suurballePaths": {
				"path0": [
					"Brussels,+Belgium189",
					"London217",
					"Copenhagen,+Denmark196",
					"Oslo,+Norway245",
					"Oslo,+Norway246"
				],
				"lat0": 14.000000,
				"nbSeg0": 1,
				"path1": [
					"Frankfurt,+Germany347",
					"Frankfurt,+Germany345",
					"Dusseldorf,+Germany319",
					"Dusseldorf,+Germany153",
					"Berlin,+Germany303",
					"Berlin,+Germany300",
					"Berlin,+Germany302"
				],
				"lat1": 10.000000,
				"nbSeg1": 3
			},
			"pathsExist": false,
			"runtime": 1243926580,
			"nomLat1": 16.000000,
			"nomLat2": 18.000000,
			"maxNomLat": 18.000000,
			"mincut": 4
		},
		{
			"s1": "Milan,+Italy232",
			"s2": "Amsterdam179",
			"t1": "Milan,+Italy436",
			"t2": "Barcelona,+Spain185",
			"suurballeNbPaths": 2,
			"suurballeTime": 14762325,
			"suurballePaths": {
				"path0": [
					"Milan,+Italy232",
					"Milan,+Italy229",
					"Milan,+Italy436"
				],
				"lat0": 2.000000,
				"nbSeg0": 0,
				"path1": [
					"Amsterdam179",
					"Brussels,+Belgium190",
					"London218",
					"Barcelona,+Spain181",
					"Barcelona,+Spain185"
				],
				"lat1": 13.000000,
				"nbSeg1": 1
			},
			"pathsExist": false,
			"runtime": 1249595338,
			"nomLat1": 2.000000,
			"nomLat2": 17.000000,
			"maxNomLat": 17.000000,
			"mincut": 6
		},
		{
			"s1": "New+York,+NY238",
			"s2": "Frankfurt205",
			"t1": "Genoa,+Italy411",
			"t2": "London218",
			"suurballeNbPaths": 2,
			"suurballeTime": 16588184,
			"suurballePaths": {
				"path0": [
					"New+York,+NY238",
					"New+York,+NY235",
					"London217",
					"London220",
					"London218"
				],
				"lat0": 32.000000,
				"nbSeg0": 0,
				"path1": [
					"Frankfurt205",
					"Frankfurt211",
					"Frankfurt209",
					"Milan,+Italy228",
					"Milan,+Italy226",
					"Cagliari,+Italy439",
					"Genoa,+Italy411"
				],
				"lat1": 16.000000,
				"nbSeg1": 2
			},
			"pathsExist": false,
			"runtime": 538166727,
			"nomLat1": 49.000000,
			"nomLat2": 23.000000,
			"maxNomLat": 49.000000,
			"mincut": 5
		},
		{
			"s1": "Milan,+Italy432",
			"s2": "Darmstadt,+Germany326",
			"t1": "Frankfurt212",
			"t2": "Milan,+Italy231",
			"suurballeNbPaths": 2,
			"suurballeTime": 10363276,
			"suurballePaths": {
				"path0": [
					"Milan,+Italy432",
					"Milan,+Italy230",
					"Milan,+Italy229",
					"Milan,+Italy231"
				],
				"lat0": 3.000000,
				"nbSeg0": 2,
				"path1": [
					"Darmstadt,+Germany326",
					"Frankfurt,+Germany151",
					"Frankfurt206",
					"Frankfurt212"
				],
				"lat1": 4.000000,
				"nbSeg1": 1
			},
			"pathsExist": false,
			"runtime": 572272718,
			"nomLat1": 12.000000,
			"nomLat2": 19.000000,
			"maxNomLat": 19.000000,
			"mincut": 6
		},
		{
			"s1": "Milan,+Italy228",
			"s2": "Firenze,+Italy410",
			"t1": "Paris249",
			"t2": "Amsterdam177",
			"suurballeNbPaths": 2,
			"suurballeTime": 14187708,
			"suurballePaths": {
				"path0": [
					"Milan,+Italy228",
					"Paris249"
				],
				"lat0": 5.000000,
				"nbSeg0": 0,
				"path1": [
					"Firenze,+Italy410",
					"Cagliari,+Italy438",
					"Milan,+Italy229",
					"Milan,+Italy232",
					"London217",
					"Amsterdam177"
				],
				"lat1": 19.000000,
				"nbSeg1": 1
			},
			"pathsExist": false,
			"runtime": 869788316,
			"nomLat1": 5.000000,
			"nomLat2": 22.000000,
			"maxNomLat": 22.000000,
			"mincut": 8
		},
		{
			"s1": "Dusseldorf,+Germany152",
			"s2": "Brussels,+Belgium187",
			"t1": "New+York,+NY238",
			"t2": "Amsterdam180",
			"suurballeNbPaths": 2,
			"suurballeTime": 11782606,
			"suurballePaths": {
				"path0": [
					"Dusseldorf,+Germany152",
					"Frankfurt211",
					"Frankfurt209",
					"Amsterdam180"
				],
				"lat0": 6.000000,
				"nbSeg0": 0,
				"path1": [
					"Brussels,+Belgium187",
					"London217",
					"New+York,+NY235",
					"New+York,+NY238"
				],
				"lat1": 33.000000,
				"nbSeg1": 0
			},
			"pathsExist": false,
			"runtime": 704511614,
			"nomLat1": 37.000000,
			"nomLat2": 8.000000,
			"maxNomLat": 37.000000,
			"mincut": 4
		},
		{
			"s1": "New+York,+NY235",
			"s2": "London222",
			"t1": "Frankfurt,+Germany151",
			"t2": "Dusseldorf,+Germany203",
			"suurballeNbPaths": 2,
			"suurballeTime": 12820821,
			"suurballePaths": {
				"path0": [
					"New+York,+NY235",
					"London217",
					"Dusseldorf,+Germany203"
				],
				"lat0": 33.000000,
				"nbSeg0": 0,
				"path1": [
					"London222",
					"Frankfurt208",
					"Frankfurt,+Germany151"
				],
				"lat1": 6.000000,
				"nbSeg1": 2
			},
			"pathsExist": false,
			"runtime": 801785156,
			"nomLat1": 35.000000,
			"nomLat2": 9.000000,
			"maxNomLat": 35.000000,
			"mincut": 12
		},
		{
			"s1": "Paris250",
			"s2": "Amsterdam180",
			"t1": "Milan,+Italy436",
			"t2": "New+York,+NY236",
			"suurballeNbPaths": 2,
			"suurballeTime": 14790048,
			"suurballePaths": {
				"path0": [
					"Paris250",
					"Paris253",
					"London217",
					"New+York,+NY236"
				],
				"lat0": 33.000000,
				"nbSeg0": 1,
				"path1": [
					"Amsterdam180",
					"Frankfurt209",
					"Milan,+Italy228",
					"Milan,+Italy230",
					"Milan,+Italy229",
					"Milan,+Italy436"
				],
				"lat1": 10.000000,
				"nbSeg1": 2
			},
			"pathsExist": false,
			"runtime": 911859957,
			"nomLat1": 8.000000,
			"nomLat2": 37.000000,
			"maxNomLat": 37.000000,
			"mincut": 6
		},
		{
			"s1": "Frankfurt536",
			"s2": "Frankfurt214",
			"t1": "Frankfurt,+Germany346",
			"t2": "Copenhagen,+Denmark196",
			"suurballeNbPaths": 2,
			"suurballeTime": 24746383,
			"suurballePaths": {
				"path0": [
					"Frankfurt536",
					"Frankfurt,+Germany341",
					"Frankfurt,+Germany346"
				],
				"lat0": 2.000000,
				"nbSeg0": 0,
				"path1": [
					"Frankfurt214",
					"Frankfurt207",
					"Copenhagen,+Denmark198",
					"Copenhagen,+Denmark201",
					"Copenhagen,+Denmark196"
				],
				"lat1": 8.000000,
				"nbSeg1": 2
			},
			"pathsExist": false,
			"runtime": 1148374789,
			"nomLat1": 2.000000,
			"nomLat2": 11.000000,
			"maxNomLat": 11.000000,
			"mincut": 6
		},
		{
			"s1": "Brussels,+Belgium190",
			"s2": "Basel,+Switzerland192",
			"t1": "Milan,+Italy432",
			"t2": "Frankfurt,+Germany346",
			"suurballeNbPaths": 2,
			"suurballeTime": 23042349,
			"suurballePaths": {
				"path0": [
					"Basel,+Switzerland192",
					"Zurich,+Switzerland270",
					"Milan,+Italy230",
					"Milan,+Italy432"
				],
				"lat0": 6.000000,
				"nbSeg0": 1,
				"path1": [
					"Brussels,+Belgium190",
					"Dusseldorf,+Germany203",
					"Dusseldorf,+Germany153",
					"Dusseldorf,+Germany319",
					"Frankfurt,+Germany346"
				],
				"lat1": 6.000000,
				"nbSeg1": 2
			},
			"pathsExist": false,
			"runtime": 783959895,
			"nomLat1": 18.000000,
			"nomLat2": 5.000000,
			"maxNomLat": 18.000000,
			"mincut": 9
		},
		{
			"s1": "London222",
			"s2": "Frankfurt,+Germany340",
			"t1": "Amsterdam179",
			"t2": "Prague,+CzechRepublic257",
			"suurballeNbPaths": 2,
			"suurballeTime": 29090908,
			"suurballePaths": {
				"path0": [
					"London222",
					"London217",
					"Brussels,+Belgium190",
					"Amsterdam179"
				],
				"lat0": 6.000000,
				"nbSeg0": 2,
				"path1": [
					"Frankfurt,+Germany340",
					"Frankfurt,+Germany151",
					"Frankfurt208",
					"Prague,+CzechRepublic257"
				],
				"lat1": 6.000000,
				"nbSeg1": 3
			},
			"pathsExist": false,
			"runtime": 575336133,
			"nomLat1": 12.000000,
			"nomLat2": 7.000000,
			"maxNomLat": 12.000000,
			"mincut": 9
		},
		{
			"s1": "Barcelona,+Spain184",
			"s2": "Stockholm,+Sweden259",
			"t1": "Amsterdam178",
			"t2": "Amsterdam180",
			"suurballeNbPaths": 2,
			"suurballeTime": 23545513,
			"suurballePaths": {
				"path0": [
					"Barcelona,+Spain184",
					"Amsterdam180"
				],
				"lat0": 7.000000,
				"nbSeg0": 0,
				"path1": [
					"Stockholm,+Sweden259",
					"Copenhagen,+Denmark200",
					"Copenhagen,+Denmark197",
					"Amsterdam178"
				],
				"lat1": 10.000000,
				"nbSeg1": 2
			},
			"pathsExist": false,
			"runtime": 1060494747,
			"nomLat1": 14.000000,
			"nomLat2": 15.000000,
			"maxNomLat": 15.000000,
			"mincut": 8
		},
		{
			"s1": "Frankfurt,+Germany346",
			"s2": "London220",
			"t1": "Washington,+DC266",
			"t2": "Brussels,+Belgium187",
			"suurballeNbPaths": 2,
			"suurballeTime": 12663611,
			"suurballePaths": {
				"path0": [
					"London220",
					"London217",
					"New+York,+NY236",
					"Washington,+DC266"
				],
				"lat0": 33.000000,
				"nbSeg0": 1,
				"path1": [
					"Frankfurt,+Germany346",
					"Dusseldorf,+Germany319",
					"Dusseldorf,+Germany153",
					"Dusseldorf,+Germany203",
					"Brussels,+Belgium187"
				],
				"lat1": 6.000000,
				"nbSeg1": 1
			},
			"pathsExist": false,
			"runtime": 1299553750,
			"nomLat1": 39.000000,
			"nomLat2": 11.000000,
			"maxNomLat": 39.000000,
			"mincut": 7
		},
		{
			"s1": "Copenhagen,+Denmark198",
			"s2": "Copenhagen,+Denmark200",
			"t1": "Zurich,+Switzerland269",
			"t2": "Paris253",
			"suurballeNbPaths": 2,
			"suurballeTime": 12356917,
			"suurballePaths": {
				"path0": [
					"Copenhagen,+Denmark198",
					"London217",
					"Zurich,+Switzerland269"
				],
				"lat0": 11.000000,
				"nbSeg0": 1,
				"path1": [
					"Copenhagen,+Denmark200",
					"Copenhagen,+Denmark197",
					"London217",
					"Paris253"
				],
				"lat1": 10.000000,
				"nbSeg1": 2
			},
			"pathsExist": false,
			"runtime": 1300174388,
			"nomLat1": 14.000000,
			"nomLat2": 12.000000,
			"maxNomLat": 14.000000,
			"mincut": 8
		},
		{
			"s1": "Amsterdam180",
			"s2": "Milan,+Italy232",
			"t1": "Rome,+Italy416",
			"t2": "New+York,+NY236",
			"suurballeNbPaths": 2,
			"suurballeTime": 10071739,
			"suurballePaths": {
				"path0": [
					"Amsterdam180",
					"Frankfurt209",
					"London217",
					"New+York,+NY236"
				],
				"lat0": 37.000000,
				"nbSeg0": 0,
				"path1": [
					"Milan,+Italy232",
					"Milan,+Italy229",
					"Cagliari,+Italy438",
					"Rome,+Italy416"
				],
				"lat1": 10.000000,
				"nbSeg1": 0
			},
			"pathsExist": false,
			"runtime": 1308037125,
			"nomLat1": 23.000000,
			"nomLat2": 35.000000,
			"maxNomLat": 35.000000,
			"mincut": 5
		},
		{
			"s1": "Munich,+Germany373",
			"s2": "Copenhagen,+Denmark201",
			"t1": "Dusseldorf,+Germany327",
			"t2": "Dresden,+Germany339",
			"suurballeNbPaths": 2,
			"suurballeTime": 9945629,
			"suurballePaths": {
				"path0": [
					"Munich,+Germany373",
					"Munich,+Germany374",
					"Berlin,+Germany304",
					"Dusseldorf,+Germany327"
				],
				"lat0": 9.000000,
				"nbSeg0": 0,
				"path1": [
					"Copenhagen,+Denmark201",
					"Dusseldorf,+Germany203",
					"Dusseldorf,+Germany153",
					"Berlin,+Germany303",
					"Dusseldorf,+Germany327"
				],
				"lat1": 14.000000,
				"nbSeg1": 2
			},
			"pathsExist": false,
			"runtime": 1059496571,
			"nomLat1": 9.000000,
			"nomLat2": 22.000000,
			"maxNomLat": 22.000000,
			"mincut": 4
		},
		{
			"s1": "Frankfurt213",
			"s2": "Copenhagen,+Denmark197",
			"t1": "Frankfurt,+Germany151",
			"t2": "Offenbach,+Germany389",
			"suurballeNbPaths": 2,
			"suurballeTime": 10816011,
			"suurballePaths": {
				"path0": [
					"Frankfurt213",
					"Frankfurt207",
					"Frankfurt,+Germany151"
				],
				"lat0": 2.000000,
				"nbSeg0": 0,
				"path1": [
					"Copenhagen,+Denmark197",
					"Copenhagen,+Denmark201",
					"Dusseldorf,+Germany203",
					"Dusseldorf,+Germany153",
					"Offenbach,+Germany391",
					"Offenbach,+Germany389"
				],
				"lat1": 10.000000,
				"nbSeg1": 1
			},
			"pathsExist": false,
			"runtime": 976408308,
			"nomLat1": 2.000000,
			"nomLat2": 10.000000,
			"maxNomLat": 10.000000,
			"mincut": 9
		},
		{
			"s1": "Paris254",
			"s2": "Zurich,+Switzerland270",
			"t1": "Frankfurt,+Germany347",
			"t2": "New+York,+NY236",
			"suurballeNbPaths": 2,
			"suurballeTime": 11781822,
			"suurballePaths": {
				"path0": [
					"Paris254",
					"Paris250",
					"Paris253",
					"London217",
					"New+York,+NY236"
				],
				"lat0": 34.000000,
				"nbSeg0": 1,
				"path1": [
					"Zurich,+Switzerland270",
					"Basel,+Switzerland192",
					"Frankfurt209",
					"Frankfurt,+Germany151",
					"Stuttgart,+Germany393",
					"Frankfurt,+Germany347"
				],
				"lat1": 10.000000,
				"nbSeg1": 2
			},
			"pathsExist": false,
			"runtime": 1095172814,
			"nomLat1": 10.000000,
			"nomLat2": 39.000000,
			"maxNomLat": 39.000000,
			"mincut": 4
		},
		{
			"s1": "Paris253",
			"s2": "Brussels,+Belgium190",
			"t1": "Barcelona,+Spain181",
			"t2": "Frankfurt,+Germany151",
			"suurballeNbPaths": 2,
			"suurballeTime": 10870770,
			"suurballePaths": {
				"path0": [
					"Paris253",
					"Paris249",
					"Barcelona,+Spain184",
					"Barcelona,+Spain181"
				],
				"lat0": 8.000000,
				"nbSeg0": 1,
				"path1": [
					"Brussels,+Belgium190",
					"Dusseldorf,+Germany203",
					"Frankfurt211",
					"Frankfurt209",
					"Frankfurt,+Germany151"
				],
				"lat1": 6.000000,
				"nbSeg1": 2
			},
			"pathsExist": false,
			"runtime": 805435611,
			"nomLat1": 8.000000,
			"nomLat2": 9.000000,
			"maxNomLat": 9.000000,
			"mincut": 9
		},
		{
			"s1": "Frankfurt213",
			"s2": "Frankfurt205",
			"t1": "Milan,+Italy435",
			"t2": "New+York,+NY235",
			"suurballeNbPaths": 2,
			"suurballeTime": 9744990,
			"suurballePaths": {
				"path0": [
					"Frankfurt213",
					"Frankfurt207",
					"New+York,+NY159",
					"New+York,+NY235"
				],
				"lat0": 34.000000,
				"nbSeg0": 2,
				"path1": [
					"Frankfurt205",
					"Frankfurt211",
					"Frankfurt209",
					"Milan,+Italy228",
					"Milan,+Italy230",
					"Milan,+Italy229",
					"Milan,+Italy435"
				],
				"lat1": 9.000000,
				"nbSeg1": 3
			},
			"pathsExist": false,
			"runtime": 957033504,
			"nomLat1": 11.000000,
			"nomLat2": 38.000000,
			"maxNomLat": 38.000000,
			"mincut": 6
		},
		{
			"s1": "Milan,+Italy227",
			"s2": "Pescara,+Italy414",
			"t1": "Frankfurt214",
			"t2": "Amsterdam177",
			"suurballeNbPaths": 2,
			"suurballeTime": 14450233,
			"suurballePaths": {
				"path0": [
					"Milan,+Italy227",
					"London217",
					"Amsterdam177"
				],
				"lat0": 9.000000,
				"nbSeg0": 2,
				"path1": [
					"Pescara,+Italy414",
					"Cagliari,+Italy439",
					"Milan,+Italy226",
					"Milan,+Italy228",
					"Frankfurt209",
					"Frankfurt214"
				],
				"lat1": 15.000000,
				"nbSeg1": 2
			},
			"pathsExist": false,
			"runtime": 679762142,
			"nomLat1": 11.000000,
			"nomLat2": 22.000000,
			"maxNomLat": 22.000000,
			"mincut": 9
		},
		{
			"s1": "Zurich,+Switzerland269",
			"s2": "Stockholm,+Sweden259",
			"t1": "Darmstadt,+Germany326",
			"t2": "Dusseldorf,+Germany152",
			"suurballeNbPaths": 2,
			"suurballeTime": 13303559,
			"suurballePaths": {
				"path0": [
					"Zurich,+Switzerland269",
					"Basel,+Switzerland193",
					"Frankfurt208",
					"Frankfurt,+Germany151",
					"Darmstadt,+Germany326"
				],
				"lat0": 8.000000,
				"nbSeg0": 1,
				"path1": [
					"Stockholm,+Sweden259",
					"Copenhagen,+Denmark200",
					"Dusseldorf,+Germany203",
					"Dusseldorf,+Germany153",
					"Dusseldorf,+Germany319",
					"Dusseldorf,+Germany152"
				],
				"lat1": 12.000000,
				"nbSeg1": 3
			},
			"pathsExist": false,
			"runtime": 1237726026,
			"nomLat1": 17.000000,
			"nomLat2": 13.000000,
			"maxNomLat": 17.000000,
			"mincut": 7
		},
		{
			"s1": "Mainz,+Germany378",
			"s2": "Washington,+DC266",
			"t1": "Milan,+Italy435",
			"t2": "Berlin,+Germany303",
			"suurballeNbPaths": 2,
			"suurballeTime": 10056171,
			"suurballePaths": {
				"path0": [
					"Mainz,+Germany378",
					"Dusseldorf,+Germany152",
					"Dusseldorf,+Germany319",
					"Dusseldorf,+Germany153",
					"Berlin,+Germany303"
				],
				"lat0": 8.000000,
				"nbSeg0": 2,
				"path1": [
					"Washington,+DC266",
					"New+York,+NY236",
					"London217",
					"Milan,+Italy232",
					"Milan,+Italy229",
					"Milan,+Italy435"
				],
				"lat1": 40.000000,
				"nbSeg1": 1
			},
			"pathsExist": false,
			"runtime": 811813531,
			"nomLat1": 15.000000,
			"nomLat2": 45.000000,
			"maxNomLat": 45.000000,
			"mincut": 7
		},
		{
			"s1": "Paris254",
			"s2": "Paris253",
			"t1": "Darmstadt,+Germany326",
			"t2": "Frankfurt,+Germany340",
			"suurballeNbPaths": 2,
			"suurballeTime": 9552980,
			"suurballePaths": {
				"path0": [
					"Paris254",
					"Frankfurt209",
					"Frankfurt,+Germany151",
					"Frankfurt,+Germany340"
				],
				"lat0": 6.000000,
				"nbSeg0": 2,
				"path1": [
					"Paris253",
					"Frankfurt209",
					"Frankfurt214",
					"Frankfurt207",
					"Frankfurt,+Germany151",
					"Darmstadt,+Germany326"
				],
				"lat1": 9.000000,
				"nbSeg1": 1
			},
			"pathsExist": false,
			"runtime": 972065618,
			"nomLat1": 7.000000,
			"nomLat2": 7.000000,
			"maxNomLat": 7.000000,
			"mincut": 6
		},
		{
			"s1": "Basel,+Switzerland193",
			"s2": "Frankfurt,+Germany343",
			"t1": "Frankfurt214",
			"t2": "Offenbach,+Germany389",
			"suurballeNbPaths": 2,
			"suurballeTime": 9442559,
			"suurballePaths": {
				"path0": [
					"Basel,+Switzerland193",
					"Frankfurt208",
					"Frankfurt214"
				],
				"lat0": 4.000000,
				"nbSeg0": 0,
				"path1": [
					"Frankfurt,+Germany343",
					"Frankfurt,+Germany340",
					"Offenbach,+Germany389"
				],
				"lat1": 3.000000,
				"nbSeg1": 0
			},
			"pathsExist": false,
			"runtime": 1032529626,
			"nomLat1": 4.000000,
			"nomLat2": 3.000000,
			"maxNomLat": 4.000000,
			"mincut": 7
		},
		{
			"s1": "Paris249",
			"s2": "London220",
			"t1": "Paris252",
			"t2": "Frankfurt,+Germany151",
			"suurballeNbPaths": 2,
			"suurballeTime": 9064078,
			"suurballePaths": {
				"path0": [
					"Paris249",
					"Paris253",
					"Paris250",
					"Paris252"
				],
				"lat0": 3.000000,
				"nbSeg0": 1,
				"path1": [
					"London220",
					"London217",
					"Frankfurt208",
					"Frankfurt,+Germany151"
				],
				"lat1": 7.000000,
				"nbSeg1": 1
			},
			"pathsExist": false,
			"runtime": 619974413,
			"nomLat1": 11.000000,
			"nomLat2": 9.000000,
			"maxNomLat": 11.000000,
			"mincut": 14
		},
		{
			"s1": "Rome,+Italy416",
			"s2": "Offenbach,+Germany390",
			"t1": "Amsterdam177",
			"t2": "Barcelona,+Spain184",
			"suurballeNbPaths": 2,
			"suurballeTime": 9708897,
			"suurballePaths": {
				"path0": [
					"Offenbach,+Germany390",
					"Dusseldorf,+Germany153",
					"Dusseldorf,+Germany203",
					"Amsterdam178",
					"Amsterdam177"
				],
				"lat0": 6.000000,
				"nbSeg0": 1,
				"path1": [
					"Rome,+Italy416",
					"Cagliari,+Italy439",
					"Milan,+Italy226",
					"Milan,+Italy227",
					"Barcelona,+Spain185",
					"Barcelona,+Spain181",
					"Barcelona,+Spain184"
				],
				"lat1": 17.000000,
				"nbSeg1": 3
			},
			"pathsExist": false,
			"runtime": 1067746121,
			"nomLat1": 22.000000,
			"nomLat2": 16.000000,
			"maxNomLat": 22.000000,
			"mincut": 6
		},
		{
			"s1": "Dusseldorf,+Germany203",
			"s2": "Frankfurt,+Germany347",
			"t1": "Pescara,+Italy414",
			"t2": "Paris254",
			"suurballeNbPaths": 2,
			"suurballeTime": 9864444,
			"suurballePaths": {
				"path0": [
					"Dusseldorf,+Germany203",
					"Frankfurt211",
					"Frankfurt209",
					"Paris254"
				],
				"lat0": 7.000000,
				"nbSeg0": 0,
				"path1": [
					"Frankfurt,+Germany347",
					"Stuttgart,+Germany393",
					"Frankfurt,+Germany151",
					"Frankfurt209",
					"Milan,+Italy228",
					"Milan,+Italy226",
					"Cagliari,+Italy439",
					"Pescara,+Italy414"
				],
				"lat1": 19.000000,
				"nbSeg1": 3
			},
			"pathsExist": false,
			"runtime": 928632688,
			"nomLat1": 21.000000,
			"nomLat2": 10.000000,
			"maxNomLat": 21.000000,
			"mincut": 4
		},
		{
			"s1": "Frankfurt,+Germany16",
			"s2": "Madrid,+Spain224",
			"t1": "Brussels,+Belgium189",
			"t2": "Berlin,+Germany301",
			"suurballeNbPaths": 2,
			"suurballeTime": 9556778,
			"suurballePaths": {
				"path0": [
					"Madrid,+Spain224",
					"London590",
					"Brussels,+Belgium189"
				],
				"lat0": 11.000000,
				"nbSeg0": 2,
				"path1": [
					"Frankfurt,+Germany16",
					"Frankfurt,+Germany341",
					"Frankfurt,+Germany151",
					"Berlin,+Germany304",
					"Berlin,+Germany301"
				],
				"lat1": 7.000000,
				"nbSeg1": 3
			},
			"pathsExist": false,
			"runtime": 879474974,
			"nomLat1": 12.000000,
			"nomLat2": 27.000000,
			"maxNomLat": 27.000000,
			"mincut": 4
		},
		{
			"s1": "Rome,+Italy455",
			"s2": "Nuremberg,+Germany383",
			"t1": "London217",
			"t2": "Dusseldorf,+Germany327",
			"suurballeNbPaths": 2,
			"suurballeTime": 9687281,
			"suurballePaths": {
				"path0": [
					"Nuremberg,+Germany383",
					"Frankfurt,+Germany151",
					"Berlin,+Germany304",
					"Dusseldorf,+Germany327"
				],
				"lat0": 10.000000,
				"nbSeg0": 3,
				"path1": [
					"Rome,+Italy455",
					"Cagliari,+Italy438",
					"Milan,+Italy229",
					"Milan,+Italy232",
					"London217"
				],
				"lat1": 16.000000,
				"nbSeg1": 1
			},
			"pathsExist": false,
			"runtime": 1058607774,
			"nomLat1": 19.000000,
			"nomLat2": 10.000000,
			"maxNomLat": 19.000000,
			"mincut": 6
		},
		{
			"s1": "Paris253",
			"s2": "Padova,+Italy413",
			"t1": "Stuttgart,+Germany393",
			"t2": "London221",
			"suurballeNbPaths": 2,
			"suurballeTime": 10611090,
			"suurballePaths": {
				"path0": [
					"Paris253",
					"Paris249",
					"London221"
				],
				"lat0": 4.000000,
				"nbSeg0": 0,
				"path1": [
					"Padova,+Italy413",
					"Milan,+Italy432",
					"Milan,+Italy226",
					"Milan,+Italy228",
					"Frankfurt209",
					"Frankfurt,+Germany151",
					"Stuttgart,+Germany393"
				],
				"lat1": 12.000000,
				"nbSeg1": 2
			},
			"pathsExist": false,
			"runtime": 1030671288,
			"nomLat1": 7.000000,
			"nomLat2": 13.000000,
			"maxNomLat": 13.000000,
			"mincut": 5
		},
		{
			"s1": "London222",
			"s2": "Paris249",
			"t1": "Frankfurt,+Germany346",
			"t2": "Prague,+CzechRepublic257",
			"suurballeNbPaths": 2,
			"suurballeTime": 10241083,
			"suurballePaths": {
				"path0": [
					"London222",
					"London217",
					"Prague,+CzechRepublic257"
				],
				"lat0": 8.000000,
				"nbSeg0": 1,
				"path1": [
					"Paris249",
					"Frankfurt209",
					"Frankfurt,+Germany151",
					"Frankfurt,+Germany346"
				],
				"lat1": 6.000000,
				"nbSeg1": 2
			},
			"pathsExist": false,
			"runtime": 939306143,
			"nomLat1": 10.000000,
			"nomLat2": 9.000000,
			"maxNomLat": 10.000000,
			"mincut": 13
		}
	],
	"demandsWithSol": 7
}
