{
	"nbDemands": 100,
	"demands": [
		{
			"s1": "Paris254",
			"s2": "Paris249",
			"t1": "Zurich,+Switzerland269",
			"t2": "Stuttgart,+Germany392",
			"suurballeNbPaths": 2,
			"suurballeTime": 708151239,
			"suurballePaths": {
				"path0": [
					"Paris249",
					"London589",
					"London217",
					"Zurich,+Switzerland269"
				],
				"lat0": 9.000000,
				"nbSeg0": 1,
				"path1": [
					"Paris254",
					"Frankfurt209",
					"Frankfurt,+Germany151",
					"Stuttgart,+Germany393",
					"Stuttgart,+Germany392"
				],
				"lat1": 8.000000,
				"nbSeg1": 0
			},
			"pathsExist": false,
			"runtime": 1324264138,
			"nomLat1": 10.000000,
			"nomLat2": 9.000000,
			"maxNomLat": 10.000000,
			"mincut": 6
		},
		{
			"s1": "London222",
			"s2": "Stuttgart,+Germany392",
			"t1": "Copenhagen,+Denmark201",
			"t2": "Copenhagen,+Denmark197",
			"suurballeNbPaths": 2,
			"suurballeTime": 274215198,
			"suurballePaths": {
				"path0": [
					"London222",
					"London217",
					"Copenhagen,+Denmark197"
				],
				"lat0": 7.000000,
				"nbSeg0": 1,
				"path1": [
					"Stuttgart,+Germany392",
					"Stuttgart,+Germany393",
					"Frankfurt,+Germany151",
					"Frankfurt207",
					"Copenhagen,+Denmark198",
					"Copenhagen,+Denmark201"
				],
				"lat1": 10.000000,
				"nbSeg1": 2
			},
			"pathsExist": false,
			"runtime": 1795725111,
			"nomLat1": 14.000000,
			"nomLat2": 16.000000,
			"maxNomLat": 16.000000,
			"mincut": 9
		},
		{
			"s1": "Milan,+Italy231",
			"s2": "Dusseldorf,+Germany203",
			"t1": "Rome,+Italy457",
			"t2": "Oslo,+Norway246",
			"suurballeNbPaths": 2,
			"suurballeTime": 679307405,
			"suurballePaths": {
				"path0": [
					"Milan,+Italy231",
					"Milan,+Italy229",
					"Cagliari,+Italy438",
					"Rome,+Italy457"
				],
				"lat0": 10.000000,
				"nbSeg0": 0,
				"path1": [
					"Dusseldorf,+Germany203",
					"Copenhagen,+Denmark201",
					"Copenhagen,+Denmark196",
					"Oslo,+Norway245",
					"Oslo,+Norway246"
				],
				"lat1": 11.000000,
				"nbSeg1": 2
			},
			"pathsExist": false,
			"runtime": 1449283454,
			"nomLat1": 10.000000,
			"nomLat2": 11.000000,
			"maxNomLat": 11.000000,
			"mincut": 4
		},
		{
			"s1": "London589",
			"s2": "Stockholm,+Sweden261",
			"t1": "Oslo,+Norway245",
			"t2": "Madrid,+Spain224",
			"suurballeNbPaths": 2,
			"suurballeTime": 552830121,
			"suurballePaths": {
				"path0": [
					"Stockholm,+Sweden261",
					"Oslo,+Norway246",
					"Oslo,+Norway245"
				],
				"lat0": 5.000000,
				"nbSeg0": 0,
				"path1": [
					"London589",
					"London217",
					"London220",
					"London218",
					"Madrid,+Spain224"
				],
				"lat1": 11.000000,
				"nbSeg1": 1
			},
			"pathsExist": false,
			"runtime": 1596498809,
			"nomLat1": 14.000000,
			"nomLat2": 26.000000,
			"maxNomLat": 26.000000,
			"mincut": 4
		},
		{
			"s1": "Dusseldorf,+Germany330",
			"s2": "Madrid,+Spain224",
			"t1": "New+York,+NY161",
			"t2": "Stockholm,+Sweden261",
			"suurballeNbPaths": 2,
			"suurballeTime": 128466697,
			"suurballePaths": {
				"path0": [
					"Madrid,+Spain224",
					"London590",
					"London220",
					"London217",
					"New+York,+NY161"
				],
				"lat0": 39.000000,
				"nbSeg0": 3,
				"path1": [
					"Dusseldorf,+Germany330",
					"Dusseldorf,+Germany327",
					"Berlin,+Germany303",
					"Dusseldorf,+Germany153",
					"Dusseldorf,+Germany203",
					"Copenhagen,+Denmark200",
					"Stockholm,+Sweden259",
					"Stockholm,+Sweden261"
				],
				"lat1": 20.000000,
				"nbSeg1": 2
			},
			"pathsExist": false,
			"runtime": 2051265364,
			"nomLat1": 47.000000,
			"nomLat2": 26.000000,
			"maxNomLat": 47.000000,
			"mincut": 4
		},
		{
			"s1": "Frankfurt211",
			"s2": "Paris253",
			"t1": "Paris254",
			"t2": "Barcelona,+Spain181",
			"suurballeNbPaths": 2,
			"suurballeTime": 544177524,
			"suurballePaths": {
				"path0": [
					"Frankfurt211",
					"Frankfurt208",
					"Barcelona,+Spain181"
				],
				"lat0": 8.000000,
				"nbSeg0": 1,
				"path1": [
					"Paris253",
					"Paris250",
					"Paris254"
				],
				"lat1": 2.000000,
				"nbSeg1": 0
			},
			"pathsExist": true,
			"path1": [
				"Frankfurt211",
				"Paris254"
			],
			"lat1": 5.000000,
			"path2": [
				"Paris253",
				"Barcelona,+Spain181"
			],
			"lat2": 8.000000,
			"maxlat": 8.000000,
			"runtime": 1634839121,
			"nomLat1": 5.000000,
			"nomLat2": 8.000000,
			"maxNomLat": 8.000000,
			"mincut": 10
		},
		{
			"s1": "Frankfurt205",
			"s2": "Berlin,+Germany301",
			"t1": "Frankfurt210",
			"t2": "Prague,+CzechRepublic257",
			"suurballeNbPaths": 2,
			"suurballeTime": 15672173,
			"suurballePaths": {
				"path0": [
					"Frankfurt205",
					"Frankfurt210"
				],
				"lat0": 1.000000,
				"nbSeg0": 0,
				"path1": [
					"Berlin,+Germany301",
					"Berlin,+Germany304",
					"Frankfurt,+Germany151",
					"Frankfurt208",
					"Prague,+CzechRepublic257"
				],
				"lat1": 10.000000,
				"nbSeg1": 2
			},
			"pathsExist": true,
			"path1": [
				"Frankfurt205",
				"Frankfurt210"
			],
			"lat1": 1.000000,
			"path2": [
				"Berlin,+Germany301",
				"Frankfurt208",
				"Prague,+CzechRepublic257"
			],
			"lat2": 16.000000,
			"maxlat": 16.000000,
			"runtime": 2180097794,
			"nomLat1": 1.000000,
			"nomLat2": 16.000000,
			"maxNomLat": 16.000000,
			"mincut": 5
		},
		{
			"s1": "Oslo,+Norway246",
			"s2": "Milan,+Italy436",
			"t1": "Frankfurt209",
			"t2": "Brussels,+Belgium187",
			"suurballeNbPaths": 2,
			"suurballeTime": 590804714,
			"suurballePaths": {
				"path0": [
					"Milan,+Italy436",
					"Milan,+Italy229",
					"Milan,+Italy230",
					"Milan,+Italy228",
					"Frankfurt209"
				],
				"lat0": 7.000000,
				"nbSeg0": 2,
				"path1": [
					"Oslo,+Norway246",
					"Oslo,+Norway245",
					"Copenhagen,+Denmark198",
					"Copenhagen,+Denmark200",
					"Dusseldorf,+Germany203",
					"Brussels,+Belgium187"
				],
				"lat1": 13.000000,
				"nbSeg1": 1
			},
			"pathsExist": false,
			"runtime": 1604300642,
			"nomLat1": 14.000000,
			"nomLat2": 15.000000,
			"maxNomLat": 15.000000,
			"mincut": 5
		},
		{
			"s1": "Stuttgart,+Germany392",
			"s2": "New+York,+NY236",
			"t1": "Hamburg,+Germany362",
			"t2": "Brussels,+Belgium187",
			"suurballeNbPaths": 2,
			"suurballeTime": 68860459,
			"suurballePaths": {
				"path0": [
					"New+York,+NY236",
					"London217",
					"Brussels,+Belgium187"
				],
				"lat0": 32.000000,
				"nbSeg0": 0,
				"path1": [
					"Stuttgart,+Germany392",
					"Stuttgart,+Germany393",
					"Frankfurt,+Germany151",
					"Hamburg,+Germany362"
				],
				"lat1": 7.000000,
				"nbSeg1": 1
			},
			"pathsExist": false,
			"runtime": 2153676791,
			"nomLat1": 11.000000,
			"nomLat2": 32.000000,
			"maxNomLat": 32.000000,
			"mincut": 5
		},
		{
			"s1": "Milan,+Italy232",
			"s2": "Amsterdam179",
			"t1": "Milan,+Italy436",
			"t2": "Barcelona,+Spain185",
			"suurballeNbPaths": 2,
			"suurballeTime": 194320962,
			"suurballePaths": {
				"path0": [
					"Milan,+Italy232",
					"Milan,+Italy229",
					"Milan,+Italy436"
				],
				"lat0": 2.000000,
				"nbSeg0": 0,
				"path1": [
					"Amsterdam179",
					"Brussels,+Belgium190",
					"London218",
					"Barcelona,+Spain181",
					"Barcelona,+Spain185"
				],
				"lat1": 13.000000,
				"nbSeg1": 1
			},
			"pathsExist": true,
			"path1": [
				"Milan,+Italy232",
				"Milan,+Italy436"
			],
			"lat1": 2.000000,
			"path2": [
				"Amsterdam179",
				"Barcelona,+Spain181",
				"Barcelona,+Spain185"
			],
			"lat2": 13.000000,
			"maxlat": 13.000000,
			"runtime": 2009006193,
			"nomLat1": 2.000000,
			"nomLat2": 17.000000,
			"maxNomLat": 17.000000,
			"mincut": 6
		},
		{
			"s1": "Stockholm,+Sweden261",
			"s2": "Stuttgart,+Germany392",
			"t1": "Frankfurt,+Germany342",
			"t2": "Genoa,+Italy411",
			"suurballeNbPaths": 2,
			"suurballeTime": 265043348,
			"suurballePaths": {
				"path0": [
					"Stuttgart,+Germany392",
					"Stuttgart,+Germany393",
					"Frankfurt,+Germany151",
					"Frankfurt,+Germany346",
					"Frankfurt,+Germany342"
				],
				"lat0": 5.000000,
				"nbSeg0": 0,
				"path1": [
					"Stockholm,+Sweden261",
					"Stockholm,+Sweden259",
					"Copenhagen,+Denmark201",
					"Copenhagen,+Denmark199",
					"Milan,+Italy227",
					"Milan,+Italy226",
					"Cagliari,+Italy439",
					"Genoa,+Italy411"
				],
				"lat1": 23.000000,
				"nbSeg1": 2
			},
			"pathsExist": false,
			"runtime": 1945889778,
			"nomLat1": 15.000000,
			"nomLat2": 22.000000,
			"maxNomLat": 22.000000,
			"mincut": 4
		},
		{
			"s1": "Hamburg,+Germany362",
			"s2": "London590",
			"t1": "Offenbach,+Germany391",
			"t2": "Madrid,+Spain224",
			"suurballeNbPaths": 2,
			"suurballeTime": 556767742,
			"suurballePaths": {
				"path0": [
					"London590",
					"Madrid,+Spain224"
				],
				"lat0": 8.000000,
				"nbSeg0": 2,
				"path1": [
					"Hamburg,+Germany362",
					"Hamburg,+Germany363",
					"Dusseldorf,+Germany153",
					"Offenbach,+Germany391"
				],
				"lat1": 6.000000,
				"nbSeg1": 0
			},
			"pathsExist": true,
			"path1": [
				"Hamburg,+Germany362",
				"Offenbach,+Germany391"
			],
			"lat1": 6.000000,
			"path2": [
				"London590",
				"London218",
				"Madrid,+Spain224"
			],
			"lat2": 10.000000,
			"maxlat": 10.000000,
			"runtime": 1642996779,
			"nomLat1": 6.000000,
			"nomLat2": 14.000000,
			"maxNomLat": 14.000000,
			"mincut": 8
		},
		{
			"s1": "Stockholm,+Sweden261",
			"s2": "Rome,+Italy416",
			"t1": "Cagliari,+Italy438",
			"t2": "Frankfurt,+Germany347",
			"suurballeNbPaths": 2,
			"suurballeTime": 48109983,
			"suurballePaths": {
				"path0": [
					"Rome,+Italy416",
					"Cagliari,+Italy438"
				],
				"lat0": 4.000000,
				"nbSeg0": 0,
				"path1": [
					"Stockholm,+Sweden261",
					"Stockholm,+Sweden259",
					"Copenhagen,+Denmark200",
					"Dusseldorf,+Germany203",
					"Dusseldorf,+Germany153",
					"Dusseldorf,+Germany319",
					"Frankfurt,+Germany345",
					"Frankfurt,+Germany347"
				],
				"lat1": 15.000000,
				"nbSeg1": 2
			},
			"pathsExist": false,
			"runtime": 2222489146,
			"nomLat1": 27.000000,
			"nomLat2": 24.000000,
			"maxNomLat": 27.000000,
			"mincut": 4
		},
		{
			"s1": "Munich,+Germany374",
			"s2": "Genoa,+Italy411",
			"t1": "Dusseldorf,+Germany327",
			"t2": "Oslo,+Norway246",
			"suurballeNbPaths": 2,
			"suurballeTime": 401592169,
			"suurballePaths": {
				"path0": [
					"Munich,+Germany374",
					"Berlin,+Germany304",
					"Dusseldorf,+Germany327"
				],
				"lat0": 8.000000,
				"nbSeg0": 0,
				"path1": [
					"Genoa,+Italy411",
					"Cagliari,+Italy438",
					"Milan,+Italy229",
					"Milan,+Italy231",
					"Copenhagen,+Denmark199",
					"Oslo,+Norway245",
					"Oslo,+Norway246"
				],
				"lat1": 22.000000,
				"nbSeg1": 1
			},
			"pathsExist": false,
			"runtime": 1812507363,
			"nomLat1": 8.000000,
			"nomLat2": 32.000000,
			"maxNomLat": 32.000000,
			"mincut": 6
		},
		{
			"s1": "Frankfurt213",
			"s2": "Zurich,+Switzerland269",
			"t1": "Dusseldorf,+Germany330",
			"t2": "Stockholm,+Sweden261",
			"suurballeNbPaths": 2,
			"suurballeTime": 283569653,
			"suurballePaths": {
				"path0": [
					"Frankfurt213",
					"Frankfurt207",
					"Copenhagen,+Denmark198",
					"Copenhagen,+Denmark200",
					"Stockholm,+Sweden259",
					"Stockholm,+Sweden261"
				],
				"lat0": 12.000000,
				"nbSeg0": 3,
				"path1": [
					"Zurich,+Switzerland269",
					"Basel,+Switzerland193",
					"Frankfurt208",
					"Frankfurt,+Germany151",
					"Berlin,+Germany304",
					"Dusseldorf,+Germany327",
					"Dusseldorf,+Germany330"
				],
				"lat1": 15.000000,
				"nbSeg1": 2
			},
			"pathsExist": false,
			"runtime": 1924546608,
			"nomLat1": 20.000000,
			"nomLat2": 18.000000,
			"maxNomLat": 20.000000,
			"mincut": 4
		},
		{
			"s1": "Zurich,+Switzerland270",
			"s2": "Copenhagen,+Denmark201",
			"t1": "Genoa,+Italy411",
			"t2": "Offenbach,+Germany389",
			"suurballeNbPaths": 2,
			"suurballeTime": 16000481,
			"suurballePaths": {
				"path0": [
					"Zurich,+Switzerland270",
					"Milan,+Italy230",
					"Milan,+Italy229",
					"Cagliari,+Italy438",
					"Genoa,+Italy411"
				],
				"lat0": 13.000000,
				"nbSeg0": 0,
				"path1": [
					"Copenhagen,+Denmark201",
					"Dusseldorf,+Germany203",
					"Dusseldorf,+Germany153",
					"Offenbach,+Germany391",
					"Offenbach,+Germany389"
				],
				"lat1": 9.000000,
				"nbSeg1": 0
			},
			"pathsExist": true,
			"path1": [
				"Zurich,+Switzerland270",
				"Genoa,+Italy411"
			],
			"lat1": 13.000000,
			"path2": [
				"Copenhagen,+Denmark201",
				"Copenhagen,+Denmark197",
				"Offenbach,+Germany389"
			],
			"lat2": 11.000000,
			"maxlat": 13.000000,
			"runtime": 2265939275,
			"nomLat1": 13.000000,
			"nomLat2": 9.000000,
			"maxNomLat": 13.000000,
			"mincut": 5
		},
		{
			"s1": "Oslo,+Norway246",
			"s2": "Frankfurt,+Germany340",
			"t1": "Cagliari,+Italy439",
			"t2": "Barcelona,+Spain181",
			"suurballeNbPaths": 2,
			"suurballeTime": 15398624,
			"suurballePaths": {
				"path0": [
					"Frankfurt,+Germany340",
					"Frankfurt,+Germany151",
					"Frankfurt208",
					"Barcelona,+Spain181"
				],
				"lat0": 9.000000,
				"nbSeg0": 3,
				"path1": [
					"Oslo,+Norway246",
					"Oslo,+Norway245",
					"Copenhagen,+Denmark199",
					"Milan,+Italy227",
					"Milan,+Italy226",
					"Cagliari,+Italy439"
				],
				"lat1": 18.000000,
				"nbSeg1": 2
			},
			"pathsExist": false,
			"runtime": 2266761560,
			"nomLat1": 28.000000,
			"nomLat2": 15.000000,
			"maxNomLat": 28.000000,
			"mincut": 11
		},
		{
			"s1": "Frankfurt210",
			"s2": "London218",
			"t1": "Frankfurt,+Germany341",
			"t2": "Milan,+Italy228",
			"suurballeNbPaths": 2,
			"suurballeTime": 562402278,
			"suurballePaths": {
				"path0": [
					"Frankfurt210",
					"Frankfurt207",
					"Frankfurt,+Germany151",
					"Frankfurt,+Germany341"
				],
				"lat0": 3.000000,
				"nbSeg0": 2,
				"path1": [
					"London218",
					"London220",
					"London217",
					"Milan,+Italy228"
				],
				"lat1": 8.000000,
				"nbSeg1": 1
			},
			"pathsExist": true,
			"path1": [
				"Frankfurt210",
				"Frankfurt,+Germany341"
			],
			"lat1": 4.000000,
			"path2": [
				"London218",
				"Milan,+Italy228"
			],
			"lat2": 9.000000,
			"maxlat": 9.000000,
			"runtime": 1629307196,
			"nomLat1": 4.000000,
			"nomLat2": 9.000000,
			"maxNomLat": 9.000000,
			"mincut": 12
		},
		{
			"s1": "Offenbach,+Germany389",
			"s2": "London222",
			"t1": "Copenhagen,+Denmark200",
			"t2": "Oslo,+Norway246",
			"suurballeNbPaths": 2,
			"suurballeTime": 13935730,
			"suurballePaths": {
				"path0": [
					"Offenbach,+Germany389",
					"Offenbach,+Germany391",
					"Dusseldorf,+Germany153",
					"Dusseldorf,+Germany203",
					"Copenhagen,+Denmark200"
				],
				"lat0": 9.000000,
				"nbSeg0": 0,
				"path1": [
					"London222",
					"London217",
					"Copenhagen,+Denmark198",
					"Oslo,+Norway245",
					"Oslo,+Norway246"
				],
				"lat1": 12.000000,
				"nbSeg1": 2
			},
			"pathsExist": false,
			"runtime": 2274337683,
			"nomLat1": 9.000000,
			"nomLat2": 20.000000,
			"maxNomLat": 20.000000,
			"mincut": 5
		},
		{
			"s1": "Copenhagen,+Denmark197",
			"s2": "New+York,+NY235",
			"t1": "Barcelona,+Spain184",
			"t2": "Oslo,+Norway246",
			"suurballeNbPaths": 2,
			"suurballeTime": 735873620,
			"suurballePaths": {
				"path0": [
					"Copenhagen,+Denmark197",
					"Oslo,+Norway245",
					"Oslo,+Norway246"
				],
				"lat0": 5.000000,
				"nbSeg0": 0,
				"path1": [
					"New+York,+NY235",
					"London217",
					"Barcelona,+Spain181",
					"Barcelona,+Spain184"
				],
				"lat1": 37.000000,
				"nbSeg1": 2
			},
			"pathsExist": false,
			"runtime": 1378435410,
			"nomLat1": 18.000000,
			"nomLat2": 43.000000,
			"maxNomLat": 43.000000,
			"mincut": 7
		},
		{
			"s1": "New+York,+NY236",
			"s2": "Copenhagen,+Denmark197",
			"t1": "London589",
			"t2": "Frankfurt208",
			"suurballeNbPaths": 2,
			"suurballeTime": 543996807,
			"suurballePaths": {
				"path0": [
					"New+York,+NY236",
					"London217",
					"London589"
				],
				"lat0": 30.000000,
				"nbSeg0": 0,
				"path1": [
					"Copenhagen,+Denmark197",
					"Copenhagen,+Denmark201",
					"Dusseldorf,+Germany203",
					"Frankfurt211",
					"Frankfurt208"
				],
				"lat1": 9.000000,
				"nbSeg1": 1
			},
			"pathsExist": true,
			"path1": [
				"New+York,+NY236",
				"London589"
			],
			"lat1": 30.000000,
			"path2": [
				"Copenhagen,+Denmark197",
				"Frankfurt208"
			],
			"lat2": 9.000000,
			"maxlat": 30.000000,
			"runtime": 1660978037,
			"nomLat1": 30.000000,
			"nomLat2": 9.000000,
			"maxNomLat": 30.000000,
			"mincut": 9
		},
		{
			"s1": "Frankfurt,+Germany340",
			"s2": "Offenbach,+Germany389",
			"t1": "Frankfurt,+Germany342",
			"t2": "Dresden,+Germany339",
			"suurballeNbPaths": 2,
			"suurballeTime": 13204673,
			"suurballePaths": {
				"path0": [
					"Frankfurt,+Germany340",
					"Frankfurt,+Germany346",
					"Frankfurt,+Germany342"
				],
				"lat0": 2.000000,
				"nbSeg0": 1,
				"path1": [
					"Offenbach,+Germany389",
					"Frankfurt,+Germany340",
					"Frankfurt,+Germany151",
					"Berlin,+Germany304",
					"Dusseldorf,+Germany327",
					"Dresden,+Germany339"
				],
				"lat1": 15.000000,
				"nbSeg1": 3
			},
			"pathsExist": true,
			"path1": [
				"Frankfurt,+Germany340",
				"Frankfurt,+Germany342"
			],
			"lat1": 2.000000,
			"path2": [
				"Offenbach,+Germany389",
				"Berlin,+Germany302",
				"Dresden,+Germany339"
			],
			"lat2": 19.000000,
			"maxlat": 19.000000,
			"runtime": 2286791573,
			"nomLat1": 2.000000,
			"nomLat2": 19.000000,
			"maxNomLat": 19.000000,
			"mincut": 4
		},
		{
			"s1": "Frankfurt206",
			"s2": "Stockholm,+Sweden259",
			"t1": "Copenhagen,+Denmark196",
			"t2": "Oslo,+Norway246",
			"suurballeNbPaths": 2,
			"suurballeTime": 458091000,
			"suurballePaths": {
				"path0": [
					"Stockholm,+Sweden259",
					"Stockholm,+Sweden261",
					"Oslo,+Norway246"
				],
				"lat0": 5.000000,
				"nbSeg0": 0,
				"path1": [
					"Frankfurt206",
					"Frankfurt212",
					"Copenhagen,+Denmark199",
					"Copenhagen,+Denmark201",
					"Copenhagen,+Denmark196"
				],
				"lat1": 8.000000,
				"nbSeg1": 1
			},
			"pathsExist": false,
			"runtime": 1720997806,
			"nomLat1": 10.000000,
			"nomLat2": 5.000000,
			"maxNomLat": 10.000000,
			"mincut": 6
		},
		{
			"s1": "Brussels,+Belgium189",
			"s2": "Frankfurt,+Germany347",
			"t1": "Berlin,+Germany302",
			"t2": "Oslo,+Norway246",
			"suurballeNbPaths": 2,
			"suurballeTime": 11240717,
			"suurballePaths": {
				"path0": [
					"Brussels,+Belgium189",
					"London217",
					"Copenhagen,+Denmark196",
					"Oslo,+Norway245",
					"Oslo,+Norway246"
				],
				"lat0": 14.000000,
				"nbSeg0": 1,
				"path1": [
					"Frankfurt,+Germany347",
					"Frankfurt,+Germany345",
					"Dusseldorf,+Germany319",
					"Dusseldorf,+Germany153",
					"Berlin,+Germany303",
					"Berlin,+Germany300",
					"Berlin,+Germany302"
				],
				"lat1": 10.000000,
				"nbSeg1": 3
			},
			"pathsExist": false,
			"runtime": 2305058367,
			"nomLat1": 16.000000,
			"nomLat2": 18.000000,
			"maxNomLat": 18.000000,
			"mincut": 4
		},
		{
			"s1": "Brussels,+Belgium189",
			"s2": "Milan,+Italy226",
			"t1": "Amsterdam178",
			"t2": "Paris249",
			"suurballeNbPaths": 2,
			"suurballeTime": 689779422,
			"suurballePaths": {
				"path0": [
					"Milan,+Italy226",
					"Milan,+Italy228",
					"Paris249"
				],
				"lat0": 6.000000,
				"nbSeg0": 1,
				"path1": [
					"Brussels,+Belgium189",
					"London217",
					"Amsterdam177",
					"Amsterdam178"
				],
				"lat1": 7.000000,
				"nbSeg1": 0
			},
			"pathsExist": true,
			"path1": [
				"Brussels,+Belgium189",
				"Amsterdam178"
			],
			"lat1": 7.000000,
			"path2": [
				"Milan,+Italy226",
				"Paris249"
			],
			"lat2": 6.000000,
			"maxlat": 7.000000,
			"runtime": 1505799100,
			"nomLat1": 7.000000,
			"nomLat2": 6.000000,
			"maxNomLat": 7.000000,
			"mincut": 8
		},
		{
			"s1": "Zurich,+Switzerland270",
			"s2": "Stockholm,+Sweden259",
			"t1": "Stockholm,+Sweden261",
			"t2": "Oslo,+Norway246",
			"suurballeNbPaths": 2,
			"suurballeTime": 858751036,
			"suurballePaths": {
				"path0": [
					"Stockholm,+Sweden259",
					"Stockholm,+Sweden261"
				],
				"lat0": 1.000000,
				"nbSeg0": 0,
				"path1": [
					"Zurich,+Switzerland270",
					"Basel,+Switzerland192",
					"Frankfurt207",
					"Copenhagen,+Denmark198",
					"Oslo,+Norway245",
					"Oslo,+Norway246"
				],
				"lat1": 15.000000,
				"nbSeg1": 2
			},
			"pathsExist": false,
			"runtime": 1359726652,
			"nomLat1": 18.000000,
			"nomLat2": 5.000000,
			"maxNomLat": 18.000000,
			"mincut": 2
		},
		{
			"s1": "London590",
			"s2": "Milan,+Italy232",
			"t1": "Frankfurt,+Germany346",
			"t2": "Amsterdam177",
			"suurballeNbPaths": 2,
			"suurballeTime": 11586838,
			"suurballePaths": {
				"path0": [
					"London590",
					"Amsterdam177"
				],
				"lat0": 3.000000,
				"nbSeg0": 0,
				"path1": [
					"Milan,+Italy232",
					"Milan,+Italy229",
					"Milan,+Italy230",
					"Milan,+Italy228",
					"Frankfurt209",
					"Frankfurt,+Germany151",
					"Frankfurt,+Germany346"
				],
				"lat1": 9.000000,
				"nbSeg1": 2
			},
			"pathsExist": true,
			"path1": [
				"London590",
				"Frankfurt,+Germany346"
			],
			"lat1": 7.000000,
			"path2": [
				"Milan,+Italy232",
				"Amsterdam177"
			],
			"lat2": 9.000000,
			"maxlat": 9.000000,
			"runtime": 2402252078,
			"nomLat1": 7.000000,
			"nomLat2": 9.000000,
			"maxNomLat": 9.000000,
			"mincut": 9
		},
		{
			"s1": "Berlin,+Germany304",
			"s2": "Offenbach,+Germany389",
			"t1": "Munich,+Germany374",
			"t2": "Milan,+Italy435",
			"suurballeNbPaths": 2,
			"suurballeTime": 30754676,
			"suurballePaths": {
				"path0": [
					"Berlin,+Germany304",
					"Munich,+Germany374"
				],
				"lat0": 4.000000,
				"nbSeg0": 0,
				"path1": [
					"Offenbach,+Germany389",
					"Frankfurt,+Germany340",
					"Frankfurt,+Germany151",
					"Frankfurt209",
					"Milan,+Italy228",
					"Milan,+Italy230",
					"Milan,+Italy229",
					"Milan,+Italy435"
				],
				"lat1": 11.000000,
				"nbSeg1": 5
			},
			"pathsExist": true,
			"path1": [
				"Berlin,+Germany304",
				"Munich,+Germany374"
			],
			"lat1": 4.000000,
			"path2": [
				"Offenbach,+Germany389",
				"Frankfurt213",
				"Milan,+Italy435"
			],
			"lat2": 15.000000,
			"maxlat": 15.000000,
			"runtime": 2400932754,
			"nomLat1": 4.000000,
			"nomLat2": 15.000000,
			"maxNomLat": 15.000000,
			"mincut": 7
		},
		{
			"s1": "Stockholm,+Sweden261",
			"s2": "London221",
			"t1": "Rome,+Italy455",
			"t2": "Basel,+Switzerland192",
			"suurballeNbPaths": 2,
			"suurballeTime": 31559824,
			"suurballePaths": {
				"path0": [
					"Stockholm,+Sweden261",
					"Stockholm,+Sweden259",
					"Copenhagen,+Denmark200",
					"Copenhagen,+Denmark198",
					"Frankfurt207",
					"Basel,+Switzerland192"
				],
				"lat0": 14.000000,
				"nbSeg0": 3,
				"path1": [
					"London221",
					"Paris249",
					"Milan,+Italy228",
					"Milan,+Italy226",
					"Cagliari,+Italy439",
					"Rome,+Italy455"
				],
				"lat1": 18.000000,
				"nbSeg1": 1
			},
			"pathsExist": false,
			"runtime": 2471999812,
			"nomLat1": 31.000000,
			"nomLat2": 11.000000,
			"maxNomLat": 31.000000,
			"mincut": 4
		},
		{
			"s1": "Dusseldorf,+Germany152",
			"s2": "Brussels,+Belgium189",
			"t1": "Frankfurt214",
			"t2": "Paris250",
			"suurballeNbPaths": 2,
			"suurballeTime": 62770701,
			"suurballePaths": {
				"path0": [
					"Dusseldorf,+Germany152",
					"Frankfurt210",
					"Frankfurt207",
					"Frankfurt214"
				],
				"lat0": 4.000000,
				"nbSeg0": 0,
				"path1": [
					"Brussels,+Belgium189",
					"London217",
					"London222",
					"Paris250"
				],
				"lat1": 7.000000,
				"nbSeg1": 0
			},
			"pathsExist": true,
			"path1": [
				"Dusseldorf,+Germany152",
				"Frankfurt214"
			],
			"lat1": 4.000000,
			"path2": [
				"Brussels,+Belgium189",
				"Paris250"
			],
			"lat2": 7.000000,
			"maxlat": 7.000000,
			"runtime": 2460133927,
			"nomLat1": 4.000000,
			"nomLat2": 7.000000,
			"maxNomLat": 7.000000,
			"mincut": 13
		},
		{
			"s1": "Frankfurt,+Germany346",
			"s2": "London220",
			"t1": "Washington,+DC266",
			"t2": "Brussels,+Belgium187",
			"suurballeNbPaths": 2,
			"suurballeTime": 11606679,
			"suurballePaths": {
				"path0": [
					"London220",
					"London217",
					"New+York,+NY236",
					"Washington,+DC266"
				],
				"lat0": 33.000000,
				"nbSeg0": 1,
				"path1": [
					"Frankfurt,+Germany346",
					"Dusseldorf,+Germany319",
					"Dusseldorf,+Germany153",
					"Dusseldorf,+Germany203",
					"Brussels,+Belgium187"
				],
				"lat1": 6.000000,
				"nbSeg1": 1
			},
			"pathsExist": true,
			"path1": [
				"Frankfurt,+Germany346",
				"Frankfurt207",
				"Washington,+DC266"
			],
			"lat1": 36.000000,
			"path2": [
				"London220",
				"London217",
				"Brussels,+Belgium187"
			],
			"lat2": 4.000000,
			"maxlat": 36.000000,
			"runtime": 2973787717,
			"nomLat1": 39.000000,
			"nomLat2": 11.000000,
			"maxNomLat": 39.000000,
			"mincut": 7
		},
		{
			"s1": "Frankfurt207",
			"s2": "London218",
			"t1": "Stockholm,+Sweden259",
			"t2": "New+York,+NY161",
			"suurballeNbPaths": 2,
			"suurballeTime": 11600542,
			"suurballePaths": {
				"path0": [
					"Frankfurt207",
					"Copenhagen,+Denmark198",
					"Copenhagen,+Denmark200",
					"Stockholm,+Sweden259"
				],
				"lat0": 10.000000,
				"nbSeg0": 4,
				"path1": [
					"London218",
					"London220",
					"London217",
					"New+York,+NY161"
				],
				"lat1": 31.000000,
				"nbSeg1": 0
			},
			"pathsExist": true,
			"path1": [
				"Frankfurt207",
				"London590",
				"Stockholm,+Sweden259"
			],
			"lat1": 20.000000,
			"path2": [
				"London218",
				"New+York,+NY161"
			],
			"lat2": 31.000000,
			"maxlat": 31.000000,
			"runtime": 3073435629,
			"nomLat1": 12.000000,
			"nomLat2": 31.000000,
			"maxNomLat": 31.000000,
			"mincut": 5
		},
		{
			"s1": "Milan,+Italy232",
			"s2": "Darmstadt,+Germany326",
			"t1": "Torino,+Italy418",
			"t2": "Stuttgart,+Germany393",
			"suurballeNbPaths": 2,
			"suurballeTime": 11318222,
			"suurballePaths": {
				"path0": [
					"Darmstadt,+Germany326",
					"Frankfurt,+Germany151",
					"Stuttgart,+Germany393"
				],
				"lat0": 4.000000,
				"nbSeg0": 0,
				"path1": [
					"Milan,+Italy232",
					"Milan,+Italy229",
					"Milan,+Italy434",
					"Torino,+Italy418"
				],
				"lat1": 4.000000,
				"nbSeg1": 0
			},
			"pathsExist": true,
			"path1": [
				"Milan,+Italy232",
				"Milan,+Italy226",
				"Torino,+Italy418"
			],
			"lat1": 4.000000,
			"path2": [
				"Darmstadt,+Germany326",
				"Stuttgart,+Germany393"
			],
			"lat2": 4.000000,
			"maxlat": 4.000000,
			"runtime": 3286381774,
			"nomLat1": 4.000000,
			"nomLat2": 4.000000,
			"maxNomLat": 4.000000,
			"mincut": 5
		},
		{
			"s1": "Frankfurt536",
			"s2": "Frankfurt214",
			"t1": "Frankfurt,+Germany346",
			"t2": "Copenhagen,+Denmark196",
			"suurballeNbPaths": 2,
			"suurballeTime": 11254968,
			"suurballePaths": {
				"path0": [
					"Frankfurt536",
					"Frankfurt,+Germany341",
					"Frankfurt,+Germany346"
				],
				"lat0": 2.000000,
				"nbSeg0": 0,
				"path1": [
					"Frankfurt214",
					"Frankfurt207",
					"Copenhagen,+Denmark198",
					"Copenhagen,+Denmark201",
					"Copenhagen,+Denmark196"
				],
				"lat1": 8.000000,
				"nbSeg1": 2
			},
			"pathsExist": true,
			"path1": [
				"Frankfurt536",
				"Dusseldorf,+Germany152",
				"Frankfurt,+Germany346"
			],
			"lat1": 6.000000,
			"path2": [
				"Frankfurt214",
				"London590",
				"Copenhagen,+Denmark196"
			],
			"lat2": 15.000000,
			"maxlat": 15.000000,
			"runtime": 3295219207,
			"nomLat1": 2.000000,
			"nomLat2": 11.000000,
			"maxNomLat": 11.000000,
			"mincut": 6
		},
		{
			"s1": "Barcelona,+Spain184",
			"s2": "New+York,+NY159",
			"t1": "Frankfurt210",
			"t2": "Frankfurt214",
			"suurballeNbPaths": 2,
			"suurballeTime": 21358484,
			"suurballePaths": {
				"path0": [
					"New+York,+NY159",
					"Frankfurt207",
					"Frankfurt210"
				],
				"lat0": 33.000000,
				"nbSeg0": 1,
				"path1": [
					"Barcelona,+Spain184",
					"Barcelona,+Spain181",
					"Frankfurt206",
					"Frankfurt214"
				],
				"lat1": 9.000000,
				"nbSeg1": 1
			},
			"pathsExist": true,
			"path1": [
				"Barcelona,+Spain184",
				"Dusseldorf,+Germany152",
				"Frankfurt210"
			],
			"lat1": 14.000000,
			"path2": [
				"New+York,+NY159",
				"Frankfurt207",
				"Frankfurt214"
			],
			"lat2": 33.000000,
			"maxlat": 33.000000,
			"runtime": 3282454704,
			"nomLat1": 12.000000,
			"nomLat2": 36.000000,
			"maxNomLat": 36.000000,
			"mincut": 9
		},
		{
			"s1": "New+York,+NY236",
			"s2": "London589",
			"t1": "Frankfurt214",
			"t2": "Paris250",
			"suurballeNbPaths": 2,
			"suurballeTime": 11426164,
			"suurballePaths": {
				"path0": [
					"New+York,+NY236",
					"New+York,+NY159",
					"Frankfurt207",
					"Frankfurt214"
				],
				"lat0": 34.000000,
				"nbSeg0": 2,
				"path1": [
					"London589",
					"London217",
					"London222",
					"Paris250"
				],
				"lat1": 5.000000,
				"nbSeg1": 1
			},
			"pathsExist": true,
			"path1": [
				"New+York,+NY236",
				"Frankfurt214"
			],
			"lat1": 35.000000,
			"path2": [
				"London589",
				"London217",
				"Paris250"
			],
			"lat2": 5.000000,
			"maxlat": 35.000000,
			"runtime": 3346788079,
			"nomLat1": 35.000000,
			"nomLat2": 13.000000,
			"maxNomLat": 35.000000,
			"mincut": 5
		},
		{
			"s1": "Amsterdam180",
			"s2": "Milan,+Italy232",
			"t1": "Rome,+Italy416",
			"t2": "New+York,+NY236",
			"suurballeNbPaths": 2,
			"suurballeTime": 21128701,
			"suurballePaths": {
				"path0": [
					"Amsterdam180",
					"Frankfurt209",
					"London217",
					"New+York,+NY236"
				],
				"lat0": 37.000000,
				"nbSeg0": 0,
				"path1": [
					"Milan,+Italy232",
					"Milan,+Italy229",
					"Cagliari,+Italy438",
					"Rome,+Italy416"
				],
				"lat1": 10.000000,
				"nbSeg1": 0
			},
			"pathsExist": true,
			"path1": [
				"Amsterdam180",
				"Milan,+Italy435",
				"Rome,+Italy416"
			],
			"lat1": 22.000000,
			"path2": [
				"Milan,+Italy232",
				"New+York,+NY236"
			],
			"lat2": 35.000000,
			"maxlat": 35.000000,
			"runtime": 3396756701,
			"nomLat1": 23.000000,
			"nomLat2": 35.000000,
			"maxNomLat": 35.000000,
			"mincut": 5
		},
		{
			"s1": "Copenhagen,+Denmark198",
			"s2": "Copenhagen,+Denmark200",
			"t1": "Zurich,+Switzerland269",
			"t2": "Paris253",
			"suurballeNbPaths": 2,
			"suurballeTime": 21574249,
			"suurballePaths": {
				"path0": [
					"Copenhagen,+Denmark198",
					"London217",
					"Zurich,+Switzerland269"
				],
				"lat0": 11.000000,
				"nbSeg0": 1,
				"path1": [
					"Copenhagen,+Denmark200",
					"Copenhagen,+Denmark197",
					"London217",
					"Paris253"
				],
				"lat1": 10.000000,
				"nbSeg1": 2
			},
			"pathsExist": true,
			"path1": [
				"Copenhagen,+Denmark198",
				"London217",
				"Zurich,+Switzerland269"
			],
			"lat1": 11.000000,
			"path2": [
				"Copenhagen,+Denmark200",
				"Paris253"
			],
			"lat2": 12.000000,
			"maxlat": 12.000000,
			"runtime": 3437937481,
			"nomLat1": 14.000000,
			"nomLat2": 12.000000,
			"maxNomLat": 14.000000,
			"mincut": 8
		},
		{
			"s1": "Rome,+Italy455",
			"s2": "Nuremberg,+Germany383",
			"t1": "London217",
			"t2": "Dusseldorf,+Germany327",
			"suurballeNbPaths": 2,
			"suurballeTime": 11228102,
			"suurballePaths": {
				"path0": [
					"Nuremberg,+Germany383",
					"Frankfurt,+Germany151",
					"Berlin,+Germany304",
					"Dusseldorf,+Germany327"
				],
				"lat0": 10.000000,
				"nbSeg0": 3,
				"path1": [
					"Rome,+Italy455",
					"Cagliari,+Italy438",
					"Milan,+Italy229",
					"Milan,+Italy232",
					"London217"
				],
				"lat1": 16.000000,
				"nbSeg1": 1
			},
			"pathsExist": true,
			"path1": [
				"Rome,+Italy455",
				"Cagliari,+Italy438",
				"London217"
			],
			"lat1": 16.000000,
			"path2": [
				"Nuremberg,+Germany383",
				"Berlin,+Germany301",
				"Dusseldorf,+Germany327"
			],
			"lat2": 13.000000,
			"maxlat": 16.000000,
			"runtime": 3455367907,
			"nomLat1": 19.000000,
			"nomLat2": 10.000000,
			"maxNomLat": 19.000000,
			"mincut": 6
		},
		{
			"s1": "Frankfurt,+Germany151",
			"s2": "Dusseldorf,+Germany320",
			"t1": "New+York,+NY238",
			"t2": "London589",
			"suurballeNbPaths": 2,
			"suurballeTime": 11606423,
			"suurballePaths": {
				"path0": [
					"Frankfurt,+Germany151",
					"Frankfurt208",
					"London217",
					"London589"
				],
				"lat0": 7.000000,
				"nbSeg0": 1,
				"path1": [
					"Dusseldorf,+Germany320",
					"Dusseldorf,+Germany153",
					"Dusseldorf,+Germany203",
					"Amsterdam178",
					"New+York,+NY238"
				],
				"lat1": 35.000000,
				"nbSeg1": 1
			},
			"pathsExist": true,
			"path1": [
				"Frankfurt,+Germany151",
				"New+York,+NY238"
			],
			"lat1": 36.000000,
			"path2": [
				"Dusseldorf,+Germany320",
				"Frankfurt210",
				"London589"
			],
			"lat2": 14.000000,
			"maxlat": 36.000000,
			"runtime": 3544073042,
			"nomLat1": 36.000000,
			"nomLat2": 7.000000,
			"maxNomLat": 36.000000,
			"mincut": 4
		},
		{
			"s1": "Mainz,+Germany378",
			"s2": "Washington,+DC266",
			"t1": "Milan,+Italy435",
			"t2": "Berlin,+Germany303",
			"suurballeNbPaths": 2,
			"suurballeTime": 21289849,
			"suurballePaths": {
				"path0": [
					"Mainz,+Germany378",
					"Dusseldorf,+Germany152",
					"Dusseldorf,+Germany319",
					"Dusseldorf,+Germany153",
					"Berlin,+Germany303"
				],
				"lat0": 8.000000,
				"nbSeg0": 2,
				"path1": [
					"Washington,+DC266",
					"New+York,+NY236",
					"London217",
					"Milan,+Italy232",
					"Milan,+Italy229",
					"Milan,+Italy435"
				],
				"lat1": 40.000000,
				"nbSeg1": 1
			},
			"pathsExist": false,
			"runtime": 3548731781,
			"nomLat1": 15.000000,
			"nomLat2": 45.000000,
			"maxNomLat": 45.000000,
			"mincut": 7
		},
		{
			"s1": "Milan,+Italy231",
			"s2": "Washington,+DC266",
			"t1": "Basel,+Switzerland193",
			"t2": "Dusseldorf,+Germany330",
			"suurballeNbPaths": 2,
			"suurballeTime": 11513513,
			"suurballePaths": {
				"path0": [
					"Milan,+Italy231",
					"Milan,+Italy229",
					"Milan,+Italy232",
					"Zurich,+Switzerland269",
					"Basel,+Switzerland193"
				],
				"lat0": 7.000000,
				"nbSeg0": 1,
				"path1": [
					"Washington,+DC266",
					"Frankfurt207",
					"Frankfurt,+Germany151",
					"Berlin,+Germany304",
					"Dusseldorf,+Germany327",
					"Dusseldorf,+Germany330"
				],
				"lat1": 44.000000,
				"nbSeg1": 2
			},
			"pathsExist": false,
			"runtime": 3561010903,
			"nomLat1": 19.000000,
			"nomLat2": 50.000000,
			"maxNomLat": 50.000000,
			"mincut": 4
		},
		{
			"s1": "London222",
			"s2": "Paris249",
			"t1": "Frankfurt,+Germany346",
			"t2": "Prague,+CzechRepublic257",
			"suurballeNbPaths": 2,
			"suurballeTime": 21738873,
			"suurballePaths": {
				"path0": [
					"London222",
					"London217",
					"Prague,+CzechRepublic257"
				],
				"lat0": 8.000000,
				"nbSeg0": 1,
				"path1": [
					"Paris249",
					"Frankfurt209",
					"Frankfurt,+Germany151",
					"Frankfurt,+Germany346"
				],
				"lat1": 6.000000,
				"nbSeg1": 2
			},
			"pathsExist": true,
			"path1": [
				"London222",
				"Frankfurt,+Germany346"
			],
			"lat1": 10.000000,
			"path2": [
				"Paris249",
				"Frankfurt211",
				"Prague,+CzechRepublic257"
			],
			"lat2": 9.000000,
			"maxlat": 10.000000,
			"runtime": 3584012747,
			"nomLat1": 10.000000,
			"nomLat2": 9.000000,
			"maxNomLat": 10.000000,
			"mincut": 13
		},
		{
			"s1": "Paris253",
			"s2": "Munich,+Germany374",
			"t1": "London222",
			"t2": "Cagliari,+Italy438",
			"suurballeNbPaths": 2,
			"suurballeTime": 21546790,
			"suurballePaths": {
				"path0": [
					"Paris253",
					"Paris249",
					"London222"
				],
				"lat0": 4.000000,
				"nbSeg0": 1,
				"path1": [
					"Munich,+Germany374",
					"Nuremberg,+Germany383",
					"Frankfurt,+Germany151",
					"Frankfurt209",
					"Milan,+Italy228",
					"Milan,+Italy230",
					"Milan,+Italy229",
					"Cagliari,+Italy438"
				],
				"lat1": 16.000000,
				"nbSeg1": 3
			},
			"pathsExist": true,
			"path1": [
				"Paris253",
				"Paris250",
				"London222"
			],
			"lat1": 4.000000,
			"path2": [
				"Munich,+Germany374",
				"Frankfurt207",
				"Cagliari,+Italy438"
			],
			"lat2": 21.000000,
			"maxlat": 21.000000,
			"runtime": 3622267598,
			"nomLat1": 4.000000,
			"nomLat2": 21.000000,
			"maxNomLat": 21.000000,
			"mincut": 8
		},
		{
			"s1": "New+York,+NY238",
			"s2": "Oslo,+Norway245",
			"t1": "Copenhagen,+Denmark198",
			"t2": "Copenhagen,+Denmark197",
			"suurballeNbPaths": 2,
			"suurballeTime": 11552545,
			"suurballePaths": {
				"path0": [
					"Oslo,+Norway245",
					"Copenhagen,+Denmark198"
				],
				"lat0": 4.000000,
				"nbSeg0": 0,
				"path1": [
					"New+York,+NY238",
					"New+York,+NY235",
					"London217",
					"Copenhagen,+Denmark197"
				],
				"lat1": 36.000000,
				"nbSeg1": 0
			},
			"pathsExist": false,
			"runtime": 3639682874,
			"nomLat1": 36.000000,
			"nomLat2": 4.000000,
			"maxNomLat": 36.000000,
			"mincut": 7
		},
		{
			"s1": "Milan,+Italy228",
			"s2": "Firenze,+Italy410",
			"t1": "Paris249",
			"t2": "Amsterdam177",
			"suurballeNbPaths": 2,
			"suurballeTime": 11211893,
			"suurballePaths": {
				"path0": [
					"Milan,+Italy228",
					"Paris249"
				],
				"lat0": 5.000000,
				"nbSeg0": 0,
				"path1": [
					"Firenze,+Italy410",
					"Cagliari,+Italy438",
					"Milan,+Italy229",
					"Milan,+Italy232",
					"London217",
					"Amsterdam177"
				],
				"lat1": 19.000000,
				"nbSeg1": 1
			},
			"pathsExist": true,
			"path1": [
				"Milan,+Italy228",
				"Frankfurt209",
				"Paris249"
			],
			"lat1": 9.000000,
			"path2": [
				"Firenze,+Italy410",
				"Milan,+Italy232",
				"Amsterdam177"
			],
			"lat2": 19.000000,
			"maxlat": 19.000000,
			"runtime": 3656012978,
			"nomLat1": 5.000000,
			"nomLat2": 22.000000,
			"maxNomLat": 22.000000,
			"mincut": 8
		},
		{
			"s1": "Frankfurt214",
			"s2": "Milan,+Italy230",
			"t1": "London220",
			"t2": "Frankfurt205",
			"suurballeNbPaths": 2,
			"suurballeTime": 21446874,
			"suurballePaths": {
				"path0": [
					"Frankfurt214",
					"Frankfurt207",
					"Frankfurt212",
					"Frankfurt205"
				],
				"lat0": 3.000000,
				"nbSeg0": 1,
				"path1": [
					"Milan,+Italy230",
					"Milan,+Italy228",
					"London217",
					"London220"
				],
				"lat1": 8.000000,
				"nbSeg1": 2
			},
			"pathsExist": true,
			"path1": [
				"Frankfurt214",
				"London217",
				"London220"
			],
			"lat1": 7.000000,
			"path2": [
				"Milan,+Italy230",
				"Frankfurt205"
			],
			"lat2": 10.000000,
			"maxlat": 10.000000,
			"runtime": 3634489851,
			"nomLat1": 9.000000,
			"nomLat2": 10.000000,
			"maxNomLat": 10.000000,
			"mincut": 9
		},
		{
			"s1": "Paris249",
			"s2": "Milan,+Italy230",
			"t1": "Hamburg,+Germany363",
			"t2": "Frankfurt,+Germany342",
			"suurballeNbPaths": 2,
			"suurballeTime": 19418167,
			"suurballePaths": {
				"path0": [
					"Paris249",
					"Frankfurt211",
					"Frankfurt208",
					"Frankfurt,+Germany151",
					"Hamburg,+Germany363"
				],
				"lat0": 10.000000,
				"nbSeg0": 3,
				"path1": [
					"Milan,+Italy230",
					"Milan,+Italy228",
					"Frankfurt209",
					"Frankfurt,+Germany151",
					"Frankfurt,+Germany346",
					"Frankfurt,+Germany342"
				],
				"lat1": 8.000000,
				"nbSeg1": 2
			},
			"pathsExist": true,
			"path1": [
				"Paris249",
				"Dusseldorf,+Germany203",
				"Hamburg,+Germany363"
			],
			"lat1": 10.000000,
			"path2": [
				"Milan,+Italy230",
				"Frankfurt206",
				"Frankfurt,+Germany342"
			],
			"lat2": 11.000000,
			"maxlat": 11.000000,
			"runtime": 3657932719,
			"nomLat1": 14.000000,
			"nomLat2": 11.000000,
			"maxNomLat": 14.000000,
			"mincut": 5
		},
		{
			"s1": "Frankfurt211",
			"s2": "London590",
			"t1": "Frankfurt,+Germany346",
			"t2": "Frankfurt,+Germany151",
			"suurballeNbPaths": 2,
			"suurballeTime": 11737431,
			"suurballePaths": {
				"path0": [
					"Frankfurt211",
					"Frankfurt208",
					"Frankfurt,+Germany151"
				],
				"lat0": 2.000000,
				"nbSeg0": 1,
				"path1": [
					"London590",
					"Frankfurt209",
					"Frankfurt,+Germany151"
				],
				"lat1": 6.000000,
				"nbSeg1": 0
			},
			"pathsExist": true,
			"path1": [
				"Frankfurt211",
				"Frankfurt208",
				"Frankfurt,+Germany346"
			],
			"lat1": 3.000000,
			"path2": [
				"London590",
				"Frankfurt,+Germany151"
			],
			"lat2": 6.000000,
			"maxlat": 6.000000,
			"runtime": 3681086496,
			"nomLat1": 3.000000,
			"nomLat2": 6.000000,
			"maxNomLat": 6.000000,
			"mincut": 11
		},
		{
			"s1": "Frankfurt209",
			"s2": "Frankfurt211",
			"t1": "Zurich,+Switzerland269",
			"t2": "Frankfurt,+Germany346",
			"suurballeNbPaths": 2,
			"suurballeTime": 32055627,
			"suurballePaths": {
				"path0": [
					"Frankfurt209",
					"Frankfurt,+Germany151",
					"Frankfurt,+Germany346"
				],
				"lat0": 2.000000,
				"nbSeg0": 0,
				"path1": [
					"Frankfurt211",
					"Frankfurt208",
					"Basel,+Switzerland193",
					"Zurich,+Switzerland269"
				],
				"lat1": 6.000000,
				"nbSeg1": 0
			},
			"pathsExist": true,
			"path1": [
				"Frankfurt209",
				"Frankfurt211",
				"Zurich,+Switzerland269"
			],
			"lat1": 7.000000,
			"path2": [
				"Frankfurt211",
				"Dusseldorf,+Germany152",
				"Frankfurt,+Germany346"
			],
			"lat2": 4.000000,
			"maxlat": 7.000000,
			"runtime": 3663082601,
			"nomLat1": 14.000000,
			"nomLat2": 3.000000,
			"maxNomLat": 14.000000,
			"mincut": 10
		},
		{
			"s1": "London222",
			"s2": "Frankfurt,+Germany340",
			"t1": "Amsterdam179",
			"t2": "Prague,+CzechRepublic257",
			"suurballeNbPaths": 2,
			"suurballeTime": 21622537,
			"suurballePaths": {
				"path0": [
					"London222",
					"London217",
					"Brussels,+Belgium190",
					"Amsterdam179"
				],
				"lat0": 6.000000,
				"nbSeg0": 2,
				"path1": [
					"Frankfurt,+Germany340",
					"Frankfurt,+Germany151",
					"Frankfurt208",
					"Prague,+CzechRepublic257"
				],
				"lat1": 6.000000,
				"nbSeg1": 3
			},
			"pathsExist": true,
			"path1": [
				"London222",
				"Copenhagen,+Denmark201",
				"Amsterdam179"
			],
			"lat1": 21.000000,
			"path2": [
				"Frankfurt,+Germany340",
				"Frankfurt,+Germany342",
				"Prague,+CzechRepublic257"
			],
			"lat2": 9.000000,
			"maxlat": 21.000000,
			"runtime": 3657821153,
			"nomLat1": 12.000000,
			"nomLat2": 7.000000,
			"maxNomLat": 12.000000,
			"mincut": 9
		},
		{
			"s1": "Frankfurt,+Germany340",
			"s2": "Copenhagen,+Denmark201",
			"t1": "New+York,+NY159",
			"t2": "Basel,+Switzerland193",
			"suurballeNbPaths": 2,
			"suurballeTime": 11427911,
			"suurballePaths": {
				"path0": [
					"Frankfurt,+Germany340",
					"Frankfurt,+Germany151",
					"Frankfurt208",
					"Basel,+Switzerland193"
				],
				"lat0": 5.000000,
				"nbSeg0": 2,
				"path1": [
					"Copenhagen,+Denmark201",
					"Copenhagen,+Denmark196",
					"London217",
					"New+York,+NY236",
					"New+York,+NY159"
				],
				"lat1": 37.000000,
				"nbSeg1": 2
			},
			"pathsExist": true,
			"path1": [
				"Frankfurt,+Germany340",
				"Frankfurt207",
				"New+York,+NY159"
			],
			"lat1": 35.000000,
			"path2": [
				"Copenhagen,+Denmark201",
				"Milan,+Italy232",
				"Basel,+Switzerland193"
			],
			"lat2": 22.000000,
			"maxlat": 35.000000,
			"runtime": 3709986731,
			"nomLat1": 38.000000,
			"nomLat2": 11.000000,
			"maxNomLat": 38.000000,
			"mincut": 6
		},
		{
			"s1": "New+York,+NY238",
			"s2": "Frankfurt205",
			"t1": "Genoa,+Italy411",
			"t2": "London218",
			"suurballeNbPaths": 2,
			"suurballeTime": 11428667,
			"suurballePaths": {
				"path0": [
					"New+York,+NY238",
					"New+York,+NY235",
					"London217",
					"London220",
					"London218"
				],
				"lat0": 32.000000,
				"nbSeg0": 0,
				"path1": [
					"Frankfurt205",
					"Frankfurt211",
					"Frankfurt209",
					"Milan,+Italy228",
					"Milan,+Italy226",
					"Cagliari,+Italy439",
					"Genoa,+Italy411"
				],
				"lat1": 16.000000,
				"nbSeg1": 2
			},
			"pathsExist": false,
			"runtime": 3696459170,
			"nomLat1": 49.000000,
			"nomLat2": 23.000000,
			"maxNomLat": 49.000000,
			"mincut": 5
		},
		{
			"s1": "Dusseldorf,+Germany330",
			"s2": "London589",
			"t1": "Barcelona,+Spain181",
			"t2": "Washington,+DC266",
			"suurballeNbPaths": 2,
			"suurballeTime": 11677955,
			"suurballePaths": {
				"path0": [
					"London589",
					"London217",
					"New+York,+NY236",
					"Washington,+DC266"
				],
				"lat0": 33.000000,
				"nbSeg0": 1,
				"path1": [
					"Dusseldorf,+Germany330",
					"Dusseldorf,+Germany327",
					"Berlin,+Germany304",
					"Frankfurt,+Germany151",
					"Frankfurt208",
					"Barcelona,+Spain181"
				],
				"lat1": 17.000000,
				"nbSeg1": 2
			},
			"pathsExist": true,
			"path1": [
				"Dusseldorf,+Germany330",
				"Frankfurt208",
				"Barcelona,+Spain181"
			],
			"lat1": 23.000000,
			"path2": [
				"London589",
				"New+York,+NY235",
				"Washington,+DC266"
			],
			"lat2": 33.000000,
			"maxlat": 33.000000,
			"runtime": 3724192966,
			"nomLat1": 28.000000,
			"nomLat2": 33.000000,
			"maxNomLat": 33.000000,
			"mincut": 4
		},
		{
			"s1": "Milan,+Italy230",
			"s2": "Modena,+Italy412",
			"t1": "Frankfurt,+Germany343",
			"t2": "Brussels,+Belgium187",
			"suurballeNbPaths": 2,
			"suurballeTime": 11509582,
			"suurballePaths": {
				"path0": [
					"Milan,+Italy230",
					"Milan,+Italy228",
					"London217",
					"Brussels,+Belgium187"
				],
				"lat0": 10.000000,
				"nbSeg0": 2,
				"path1": [
					"Modena,+Italy412",
					"Milan,+Italy226",
					"Milan,+Italy228",
					"Frankfurt209",
					"Frankfurt,+Germany151",
					"Frankfurt,+Germany341",
					"Frankfurt,+Germany343"
				],
				"lat1": 10.000000,
				"nbSeg1": 4
			},
			"pathsExist": false,
			"runtime": 3721640406,
			"nomLat1": 12.000000,
			"nomLat2": 17.000000,
			"maxNomLat": 17.000000,
			"mincut": 6
		},
		{
			"s1": "Milan,+Italy431",
			"s2": "Copenhagen,+Denmark200",
			"t1": "New+York,+NY235",
			"t2": "Berlin,+Germany301",
			"suurballeNbPaths": 2,
			"suurballeTime": 21639944,
			"suurballePaths": {
				"path0": [
					"Copenhagen,+Denmark200",
					"Copenhagen,+Denmark197",
					"London217",
					"New+York,+NY235"
				],
				"lat0": 36.000000,
				"nbSeg0": 1,
				"path1": [
					"Milan,+Italy431",
					"Milan,+Italy226",
					"Milan,+Italy228",
					"Frankfurt209",
					"Frankfurt,+Germany151",
					"Berlin,+Germany304",
					"Berlin,+Germany301"
				],
				"lat1": 12.000000,
				"nbSeg1": 3
			},
			"pathsExist": true,
			"path1": [
				"Milan,+Italy431",
				"Paris250",
				"New+York,+NY235"
			],
			"lat1": 40.000000,
			"path2": [
				"Copenhagen,+Denmark200",
				"Frankfurt211",
				"Berlin,+Germany301"
			],
			"lat2": 20.000000,
			"maxlat": 40.000000,
			"runtime": 3722099186,
			"nomLat1": 40.000000,
			"nomLat2": 23.000000,
			"maxNomLat": 40.000000,
			"mincut": 6
		},
		{
			"s1": "Basel,+Switzerland193",
			"s2": "Frankfurt,+Germany343",
			"t1": "Frankfurt214",
			"t2": "Offenbach,+Germany389",
			"suurballeNbPaths": 2,
			"suurballeTime": 11317276,
			"suurballePaths": {
				"path0": [
					"Basel,+Switzerland193",
					"Frankfurt208",
					"Frankfurt214"
				],
				"lat0": 4.000000,
				"nbSeg0": 0,
				"path1": [
					"Frankfurt,+Germany343",
					"Frankfurt,+Germany340",
					"Offenbach,+Germany389"
				],
				"lat1": 3.000000,
				"nbSeg1": 0
			},
			"pathsExist": false,
			"runtime": 3756159369,
			"nomLat1": 4.000000,
			"nomLat2": 3.000000,
			"maxNomLat": 4.000000,
			"mincut": 7
		},
		{
			"s1": "Barcelona,+Spain185",
			"s2": "Cagliari,+Italy439",
			"t1": "Barcelona,+Spain184",
			"t2": "Amsterdam178",
			"suurballeNbPaths": 2,
			"suurballeTime": 11721580,
			"suurballePaths": {
				"path0": [
					"Barcelona,+Spain185",
					"Barcelona,+Spain181",
					"Barcelona,+Spain184"
				],
				"lat0": 2.000000,
				"nbSeg0": 1,
				"path1": [
					"Cagliari,+Italy439",
					"Milan,+Italy226",
					"Milan,+Italy228",
					"Frankfurt209",
					"Frankfurt211",
					"Dusseldorf,+Germany203",
					"Amsterdam178"
				],
				"lat1": 15.000000,
				"nbSeg1": 2
			},
			"pathsExist": true,
			"path1": [
				"Barcelona,+Spain185",
				"Barcelona,+Spain181",
				"Barcelona,+Spain184"
			],
			"lat1": 2.000000,
			"path2": [
				"Cagliari,+Italy439",
				"Copenhagen,+Denmark199",
				"Amsterdam178"
			],
			"lat2": 19.000000,
			"maxlat": 19.000000,
			"runtime": 3764837163,
			"nomLat1": 12.000000,
			"nomLat2": 19.000000,
			"maxNomLat": 19.000000,
			"mincut": 9
		},
		{
			"s1": "Milan,+Italy432",
			"s2": "Darmstadt,+Germany326",
			"t1": "Frankfurt212",
			"t2": "Milan,+Italy231",
			"suurballeNbPaths": 2,
			"suurballeTime": 17384737,
			"suurballePaths": {
				"path0": [
					"Milan,+Italy432",
					"Milan,+Italy230",
					"Milan,+Italy229",
					"Milan,+Italy231"
				],
				"lat0": 3.000000,
				"nbSeg0": 2,
				"path1": [
					"Darmstadt,+Germany326",
					"Frankfurt,+Germany151",
					"Frankfurt206",
					"Frankfurt212"
				],
				"lat1": 4.000000,
				"nbSeg1": 1
			},
			"pathsExist": false,
			"runtime": 3739643789,
			"nomLat1": 12.000000,
			"nomLat2": 19.000000,
			"maxNomLat": 19.000000,
			"mincut": 6
		},
		{
			"s1": "Amsterdam178",
			"s2": "Milan,+Italy435",
			"t1": "Brussels,+Belgium190",
			"t2": "New+York,+NY238",
			"suurballeNbPaths": 2,
			"suurballeTime": 10942820,
			"suurballePaths": {
				"path0": [
					"Amsterdam178",
					"Amsterdam179",
					"Brussels,+Belgium190"
				],
				"lat0": 3.000000,
				"nbSeg0": 0,
				"path1": [
					"Milan,+Italy435",
					"Milan,+Italy229",
					"Milan,+Italy232",
					"London217",
					"New+York,+NY235",
					"New+York,+NY238"
				],
				"lat1": 38.000000,
				"nbSeg1": 0
			},
			"pathsExist": true,
			"path1": [
				"Amsterdam178",
				"London589",
				"Brussels,+Belgium190"
			],
			"lat1": 9.000000,
			"path2": [
				"Milan,+Italy435",
				"New+York,+NY238"
			],
			"lat2": 38.000000,
			"maxlat": 38.000000,
			"runtime": 3759126011,
			"nomLat1": 3.000000,
			"nomLat2": 38.000000,
			"maxNomLat": 38.000000,
			"mincut": 7
		},
		{
			"s1": "Paris250",
			"s2": "Amsterdam180",
			"t1": "Milan,+Italy436",
			"t2": "New+York,+NY236",
			"suurballeNbPaths": 2,
			"suurballeTime": 10856152,
			"suurballePaths": {
				"path0": [
					"Paris250",
					"Paris253",
					"London217",
					"New+York,+NY236"
				],
				"lat0": 33.000000,
				"nbSeg0": 1,
				"path1": [
					"Amsterdam180",
					"Frankfurt209",
					"Milan,+Italy228",
					"Milan,+Italy230",
					"Milan,+Italy229",
					"Milan,+Italy436"
				],
				"lat1": 10.000000,
				"nbSeg1": 2
			},
			"pathsExist": true,
			"path1": [
				"Paris250",
				"Rome,+Italy416",
				"Milan,+Italy436"
			],
			"lat1": 24.000000,
			"path2": [
				"Amsterdam180",
				"New+York,+NY236"
			],
			"lat2": 37.000000,
			"maxlat": 37.000000,
			"runtime": 3780465907,
			"nomLat1": 8.000000,
			"nomLat2": 37.000000,
			"maxNomLat": 37.000000,
			"mincut": 6
		},
		{
			"s1": "Paris253",
			"s2": "Brussels,+Belgium190",
			"t1": "Barcelona,+Spain181",
			"t2": "Frankfurt,+Germany151",
			"suurballeNbPaths": 2,
			"suurballeTime": 11706602,
			"suurballePaths": {
				"path0": [
					"Paris253",
					"Paris249",
					"Barcelona,+Spain184",
					"Barcelona,+Spain181"
				],
				"lat0": 8.000000,
				"nbSeg0": 1,
				"path1": [
					"Brussels,+Belgium190",
					"Dusseldorf,+Germany203",
					"Frankfurt211",
					"Frankfurt209",
					"Frankfurt,+Germany151"
				],
				"lat1": 6.000000,
				"nbSeg1": 2
			},
			"pathsExist": false,
			"runtime": 3778836487,
			"nomLat1": 8.000000,
			"nomLat2": 9.000000,
			"maxNomLat": 9.000000,
			"mincut": 9
		},
		{
			"s1": "Barcelona,+Spain184",
			"s2": "Amsterdam180",
			"t1": "Milan,+Italy232",
			"t2": "London221",
			"suurballeNbPaths": 2,
			"suurballeTime": 12273624,
			"suurballePaths": {
				"path0": [
					"Amsterdam180",
					"Frankfurt209",
					"Paris249",
					"London221"
				],
				"lat0": 10.000000,
				"nbSeg0": 2,
				"path1": [
					"Barcelona,+Spain184",
					"Barcelona,+Spain181",
					"Barcelona,+Spain185",
					"Milan,+Italy227",
					"Milan,+Italy232"
				],
				"lat1": 8.000000,
				"nbSeg1": 2
			},
			"pathsExist": true,
			"path1": [
				"Barcelona,+Spain184",
				"Milan,+Italy232"
			],
			"lat1": 12.000000,
			"path2": [
				"Amsterdam180",
				"London221"
			],
			"lat2": 11.000000,
			"maxlat": 12.000000,
			"runtime": 3775215658,
			"nomLat1": 12.000000,
			"nomLat2": 11.000000,
			"maxNomLat": 12.000000,
			"mincut": 5
		},
		{
			"s1": "London218",
			"s2": "Paris250",
			"t1": "Stockholm,+Sweden259",
			"t2": "New+York,+NY161",
			"suurballeNbPaths": 2,
			"suurballeTime": 21946522,
			"suurballePaths": {
				"path0": [
					"Paris250",
					"Paris253",
					"London217",
					"New+York,+NY161"
				],
				"lat0": 33.000000,
				"nbSeg0": 1,
				"path1": [
					"London218",
					"London220",
					"Copenhagen,+Denmark198",
					"Copenhagen,+Denmark200",
					"Stockholm,+Sweden259"
				],
				"lat1": 12.000000,
				"nbSeg1": 2
			},
			"pathsExist": true,
			"path1": [
				"London218",
				"Copenhagen,+Denmark196",
				"Stockholm,+Sweden259"
			],
			"lat1": 16.000000,
			"path2": [
				"Paris250",
				"New+York,+NY161"
			],
			"lat2": 33.000000,
			"maxlat": 33.000000,
			"runtime": 3792454464,
			"nomLat1": 33.000000,
			"nomLat2": 33.000000,
			"maxNomLat": 33.000000,
			"mincut": 5
		},
		{
			"s1": "Frankfurt,+Germany343",
			"s2": "Dresden,+Germany339",
			"t1": "Dusseldorf,+Germany320",
			"t2": "Milan,+Italy431",
			"suurballeNbPaths": 2,
			"suurballeTime": 11849937,
			"suurballePaths": {
				"path0": [
					"Frankfurt,+Germany343",
					"Dusseldorf,+Germany320"
				],
				"lat0": 2.000000,
				"nbSeg0": 0,
				"path1": [
					"Dresden,+Germany339",
					"Dusseldorf,+Germany327",
					"Berlin,+Germany304",
					"Frankfurt,+Germany151",
					"Frankfurt209",
					"Milan,+Italy228",
					"Milan,+Italy226",
					"Milan,+Italy431"
				],
				"lat1": 19.000000,
				"nbSeg1": 3
			},
			"pathsExist": true,
			"path1": [
				"Frankfurt,+Germany343",
				"Dusseldorf,+Germany320"
			],
			"lat1": 2.000000,
			"path2": [
				"Dresden,+Germany339",
				"Paris253",
				"Milan,+Italy431"
			],
			"lat2": 31.000000,
			"maxlat": 31.000000,
			"runtime": 3781023586,
			"nomLat1": 2.000000,
			"nomLat2": 34.000000,
			"maxNomLat": 34.000000,
			"mincut": 4
		},
		{
			"s1": "Milan,+Italy227",
			"s2": "Pescara,+Italy414",
			"t1": "Frankfurt214",
			"t2": "Amsterdam177",
			"suurballeNbPaths": 2,
			"suurballeTime": 11871293,
			"suurballePaths": {
				"path0": [
					"Milan,+Italy227",
					"London217",
					"Amsterdam177"
				],
				"lat0": 9.000000,
				"nbSeg0": 2,
				"path1": [
					"Pescara,+Italy414",
					"Cagliari,+Italy439",
					"Milan,+Italy226",
					"Milan,+Italy228",
					"Frankfurt209",
					"Frankfurt214"
				],
				"lat1": 15.000000,
				"nbSeg1": 2
			},
			"pathsExist": true,
			"path1": [
				"Milan,+Italy227",
				"Frankfurt206",
				"Frankfurt214"
			],
			"lat1": 11.000000,
			"path2": [
				"Pescara,+Italy414",
				"Copenhagen,+Denmark199",
				"Amsterdam177"
			],
			"lat2": 23.000000,
			"maxlat": 23.000000,
			"runtime": 3791401266,
			"nomLat1": 11.000000,
			"nomLat2": 22.000000,
			"maxNomLat": 22.000000,
			"mincut": 9
		},
		{
			"s1": "Frankfurt213",
			"s2": "Copenhagen,+Denmark197",
			"t1": "Frankfurt,+Germany151",
			"t2": "Offenbach,+Germany389",
			"suurballeNbPaths": 2,
			"suurballeTime": 11587104,
			"suurballePaths": {
				"path0": [
					"Frankfurt213",
					"Frankfurt207",
					"Frankfurt,+Germany151"
				],
				"lat0": 2.000000,
				"nbSeg0": 0,
				"path1": [
					"Copenhagen,+Denmark197",
					"Copenhagen,+Denmark201",
					"Dusseldorf,+Germany203",
					"Dusseldorf,+Germany153",
					"Offenbach,+Germany391",
					"Offenbach,+Germany389"
				],
				"lat1": 10.000000,
				"nbSeg1": 1
			},
			"pathsExist": true,
			"path1": [
				"Frankfurt213",
				"Frankfurt,+Germany151"
			],
			"lat1": 2.000000,
			"path2": [
				"Copenhagen,+Denmark197",
				"London590",
				"Offenbach,+Germany389"
			],
			"lat2": 21.000000,
			"maxlat": 21.000000,
			"runtime": 3797587481,
			"nomLat1": 2.000000,
			"nomLat2": 10.000000,
			"maxNomLat": 10.000000,
			"mincut": 9
		},
		{
			"s1": "Barcelona,+Spain184",
			"s2": "Stockholm,+Sweden259",
			"t1": "Amsterdam178",
			"t2": "Amsterdam180",
			"suurballeNbPaths": 2,
			"suurballeTime": 11473897,
			"suurballePaths": {
				"path0": [
					"Barcelona,+Spain184",
					"Amsterdam180"
				],
				"lat0": 7.000000,
				"nbSeg0": 0,
				"path1": [
					"Stockholm,+Sweden259",
					"Copenhagen,+Denmark200",
					"Copenhagen,+Denmark197",
					"Amsterdam178"
				],
				"lat1": 10.000000,
				"nbSeg1": 2
			},
			"pathsExist": true,
			"path1": [
				"Barcelona,+Spain184",
				"London217",
				"Amsterdam178"
			],
			"lat1": 14.000000,
			"path2": [
				"Stockholm,+Sweden259",
				"Copenhagen,+Denmark201",
				"Amsterdam180"
			],
			"lat2": 15.000000,
			"maxlat": 15.000000,
			"runtime": 3808854797,
			"nomLat1": 14.000000,
			"nomLat2": 15.000000,
			"maxNomLat": 15.000000,
			"mincut": 8
		},
		{
			"s1": "Copenhagen,+Denmark198",
			"s2": "London222",
			"t1": "Paris252",
			"t2": "Hamburg,+Germany362",
			"suurballeNbPaths": 2,
			"suurballeTime": 11899630,
			"suurballePaths": {
				"path0": [
					"London222",
					"Paris250",
					"Paris252"
				],
				"lat0": 4.000000,
				"nbSeg0": 0,
				"path1": [
					"Copenhagen,+Denmark198",
					"Frankfurt207",
					"Frankfurt,+Germany151",
					"Hamburg,+Germany362"
				],
				"lat1": 10.000000,
				"nbSeg1": 3
			},
			"pathsExist": false,
			"runtime": 3810196362,
			"nomLat1": 13.000000,
			"nomLat2": 17.000000,
			"maxNomLat": 17.000000,
			"mincut": 7
		},
		{
			"s1": "Paris249",
			"s2": "London220",
			"t1": "Paris252",
			"t2": "Frankfurt,+Germany151",
			"suurballeNbPaths": 2,
			"suurballeTime": 11706028,
			"suurballePaths": {
				"path0": [
					"Paris249",
					"Paris253",
					"Paris250",
					"Paris252"
				],
				"lat0": 3.000000,
				"nbSeg0": 1,
				"path1": [
					"London220",
					"London217",
					"Frankfurt208",
					"Frankfurt,+Germany151"
				],
				"lat1": 7.000000,
				"nbSeg1": 1
			},
			"pathsExist": true,
			"path1": [
				"Paris249",
				"Frankfurt206",
				"Paris252"
			],
			"lat1": 9.000000,
			"path2": [
				"London220",
				"London217",
				"Frankfurt,+Germany151"
			],
			"lat2": 7.000000,
			"maxlat": 9.000000,
			"runtime": 3826614468,
			"nomLat1": 11.000000,
			"nomLat2": 9.000000,
			"maxNomLat": 11.000000,
			"mincut": 14
		},
		{
			"s1": "Frankfurt214",
			"s2": "Milan,+Italy230",
			"t1": "London222",
			"t2": "Copenhagen,+Denmark199",
			"suurballeNbPaths": 2,
			"suurballeTime": 12035685,
			"suurballePaths": {
				"path0": [
					"Milan,+Italy230",
					"Milan,+Italy228",
					"London222"
				],
				"lat0": 7.000000,
				"nbSeg0": 2,
				"path1": [
					"Frankfurt214",
					"Frankfurt207",
					"Frankfurt212",
					"Copenhagen,+Denmark199"
				],
				"lat1": 7.000000,
				"nbSeg1": 1
			},
			"pathsExist": true,
			"path1": [
				"Frankfurt214",
				"Paris254",
				"London222"
			],
			"lat1": 9.000000,
			"path2": [
				"Milan,+Italy230",
				"Milan,+Italy226",
				"Copenhagen,+Denmark199"
			],
			"lat2": 10.000000,
			"maxlat": 10.000000,
			"runtime": 3835258694,
			"nomLat1": 9.000000,
			"nomLat2": 17.000000,
			"maxNomLat": 17.000000,
			"mincut": 10
		},
		{
			"s1": "Paris254",
			"s2": "Frankfurt208",
			"t1": "London590",
			"t2": "Hamburg,+Germany363",
			"suurballeNbPaths": 2,
			"suurballeTime": 12070292,
			"suurballePaths": {
				"path0": [
					"Frankfurt208",
					"Frankfurt,+Germany151",
					"Hamburg,+Germany363"
				],
				"lat0": 5.000000,
				"nbSeg0": 2,
				"path1": [
					"Paris254",
					"Paris250",
					"Paris253",
					"Paris249",
					"London220",
					"London590"
				],
				"lat1": 7.000000,
				"nbSeg1": 1
			},
			"pathsExist": true,
			"path1": [
				"Paris254",
				"Frankfurt209",
				"London590"
			],
			"lat1": 9.000000,
			"path2": [
				"Frankfurt208",
				"Dusseldorf,+Germany203",
				"Hamburg,+Germany363"
			],
			"lat2": 7.000000,
			"maxlat": 9.000000,
			"runtime": 3856873838,
			"nomLat1": 15.000000,
			"nomLat2": 11.000000,
			"maxNomLat": 15.000000,
			"mincut": 11
		},
		{
			"s1": "Dusseldorf,+Germany203",
			"s2": "Frankfurt,+Germany347",
			"t1": "Pescara,+Italy414",
			"t2": "Paris254",
			"suurballeNbPaths": 2,
			"suurballeTime": 12077849,
			"suurballePaths": {
				"path0": [
					"Dusseldorf,+Germany203",
					"Frankfurt211",
					"Frankfurt209",
					"Paris254"
				],
				"lat0": 7.000000,
				"nbSeg0": 0,
				"path1": [
					"Frankfurt,+Germany347",
					"Stuttgart,+Germany393",
					"Frankfurt,+Germany151",
					"Frankfurt209",
					"Milan,+Italy228",
					"Milan,+Italy226",
					"Cagliari,+Italy439",
					"Pescara,+Italy414"
				],
				"lat1": 19.000000,
				"nbSeg1": 3
			},
			"pathsExist": true,
			"path1": [
				"Dusseldorf,+Germany203",
				"Paris249",
				"Pescara,+Italy414"
			],
			"lat1": 21.000000,
			"path2": [
				"Frankfurt,+Germany347",
				"Frankfurt208",
				"Paris254"
			],
			"lat2": 12.000000,
			"maxlat": 21.000000,
			"runtime": 3854966371,
			"nomLat1": 21.000000,
			"nomLat2": 10.000000,
			"maxNomLat": 21.000000,
			"mincut": 4
		},
		{
			"s1": "New+York,+NY235",
			"s2": "Milan,+Italy435",
			"t1": "New+York,+NY161",
			"t2": "Dusseldorf,+Germany327",
			"suurballeNbPaths": 2,
			"suurballeTime": 11910531,
			"suurballePaths": {
				"path0": [
					"New+York,+NY235",
					"Washington,+DC266",
					"New+York,+NY161"
				],
				"lat0": 6.000000,
				"nbSeg0": 1,
				"path1": [
					"Milan,+Italy435",
					"Milan,+Italy229",
					"Milan,+Italy230",
					"Milan,+Italy228",
					"Frankfurt209",
					"Frankfurt,+Germany151",
					"Berlin,+Germany304",
					"Dusseldorf,+Germany327"
				],
				"lat1": 16.000000,
				"nbSeg1": 4
			},
			"pathsExist": true,
			"path1": [
				"New+York,+NY235",
				"Washington,+DC266",
				"New+York,+NY161"
			],
			"lat1": 6.000000,
			"path2": [
				"Milan,+Italy435",
				"Frankfurt206",
				"Dusseldorf,+Germany327"
			],
			"lat2": 25.000000,
			"maxlat": 25.000000,
			"runtime": 3879896690,
			"nomLat1": 58.000000,
			"nomLat2": 25.000000,
			"maxNomLat": 58.000000,
			"mincut": 6
		},
		{
			"s1": "Paris254",
			"s2": "Zurich,+Switzerland270",
			"t1": "Frankfurt,+Germany347",
			"t2": "New+York,+NY236",
			"suurballeNbPaths": 2,
			"suurballeTime": 11636445,
			"suurballePaths": {
				"path0": [
					"Paris254",
					"Paris250",
					"Paris253",
					"London217",
					"New+York,+NY236"
				],
				"lat0": 34.000000,
				"nbSeg0": 1,
				"path1": [
					"Zurich,+Switzerland270",
					"Basel,+Switzerland192",
					"Frankfurt209",
					"Frankfurt,+Germany151",
					"Stuttgart,+Germany393",
					"Frankfurt,+Germany347"
				],
				"lat1": 10.000000,
				"nbSeg1": 2
			},
			"pathsExist": true,
			"path1": [
				"Paris254",
				"Frankfurt,+Germany151",
				"Frankfurt,+Germany347"
			],
			"lat1": 9.000000,
			"path2": [
				"Zurich,+Switzerland270",
				"Zurich,+Switzerland269",
				"New+York,+NY236"
			],
			"lat2": 42.000000,
			"maxlat": 42.000000,
			"runtime": 3881118716,
			"nomLat1": 10.000000,
			"nomLat2": 39.000000,
			"maxNomLat": 39.000000,
			"mincut": 4
		},
		{
			"s1": "New+York,+NY235",
			"s2": "London222",
			"t1": "Frankfurt,+Germany151",
			"t2": "Dusseldorf,+Germany203",
			"suurballeNbPaths": 2,
			"suurballeTime": 12082512,
			"suurballePaths": {
				"path0": [
					"New+York,+NY235",
					"London217",
					"Dusseldorf,+Germany203"
				],
				"lat0": 33.000000,
				"nbSeg0": 0,
				"path1": [
					"London222",
					"Frankfurt208",
					"Frankfurt,+Germany151"
				],
				"lat1": 6.000000,
				"nbSeg1": 2
			},
			"pathsExist": true,
			"path1": [
				"New+York,+NY235",
				"Frankfurt,+Germany151"
			],
			"lat1": 35.000000,
			"path2": [
				"London222",
				"Frankfurt213",
				"Dusseldorf,+Germany203"
			],
			"lat2": 11.000000,
			"maxlat": 35.000000,
			"runtime": 3876763367,
			"nomLat1": 35.000000,
			"nomLat2": 9.000000,
			"maxNomLat": 35.000000,
			"mincut": 12
		},
		{
			"s1": "Brussels,+Belgium187",
			"s2": "Milan,+Italy435",
			"t1": "Prague,+CzechRepublic257",
			"t2": "Paris253",
			"suurballeNbPaths": 2,
			"suurballeTime": 11833654,
			"suurballePaths": {
				"path0": [
					"Brussels,+Belgium187",
					"London217",
					"Paris253"
				],
				"lat0": 6.000000,
				"nbSeg0": 1,
				"path1": [
					"Milan,+Italy435",
					"Milan,+Italy229",
					"Milan,+Italy230",
					"Milan,+Italy228",
					"Frankfurt209",
					"Prague,+CzechRepublic257"
				],
				"lat1": 11.000000,
				"nbSeg1": 3
			},
			"pathsExist": true,
			"path1": [
				"Brussels,+Belgium187",
				"Frankfurt211",
				"Prague,+CzechRepublic257"
			],
			"lat1": 9.000000,
			"path2": [
				"Milan,+Italy435",
				"Paris250",
				"Paris253"
			],
			"lat2": 9.000000,
			"maxlat": 9.000000,
			"runtime": 3896120739,
			"nomLat1": 9.000000,
			"nomLat2": 9.000000,
			"maxNomLat": 9.000000,
			"mincut": 5
		},
		{
			"s1": "Paris253",
			"s2": "Padova,+Italy413",
			"t1": "Stuttgart,+Germany393",
			"t2": "London221",
			"suurballeNbPaths": 2,
			"suurballeTime": 11854217,
			"suurballePaths": {
				"path0": [
					"Paris253",
					"Paris249",
					"London221"
				],
				"lat0": 4.000000,
				"nbSeg0": 0,
				"path1": [
					"Padova,+Italy413",
					"Milan,+Italy432",
					"Milan,+Italy226",
					"Milan,+Italy228",
					"Frankfurt209",
					"Frankfurt,+Germany151",
					"Stuttgart,+Germany393"
				],
				"lat1": 12.000000,
				"nbSeg1": 2
			},
			"pathsExist": false,
			"runtime": 3888551275,
			"nomLat1": 7.000000,
			"nomLat2": 13.000000,
			"maxNomLat": 13.000000,
			"mincut": 5
		},
		{
			"s1": "London590",
			"s2": "Frankfurt209",
			"t1": "Basel,+Switzerland193",
			"t2": "Washington,+DC266",
			"suurballeNbPaths": 2,
			"suurballeTime": 10487603,
			"suurballePaths": {
				"path0": [
					"London590",
					"New+York,+NY235",
					"Washington,+DC266"
				],
				"lat0": 32.000000,
				"nbSeg0": 0,
				"path1": [
					"Frankfurt209",
					"Frankfurt214",
					"Frankfurt208",
					"Basel,+Switzerland193"
				],
				"lat1": 5.000000,
				"nbSeg1": 1
			},
			"pathsExist": true,
			"path1": [
				"London590",
				"Munich,+Germany374",
				"Basel,+Switzerland193"
			],
			"lat1": 22.000000,
			"path2": [
				"Frankfurt209",
				"New+York,+NY161",
				"Washington,+DC266"
			],
			"lat2": 37.000000,
			"maxlat": 37.000000,
			"runtime": 3917200070,
			"nomLat1": 14.000000,
			"nomLat2": 37.000000,
			"maxNomLat": 37.000000,
			"mincut": 7
		},
		{
			"s1": "Frankfurt,+Germany16",
			"s2": "Madrid,+Spain224",
			"t1": "Brussels,+Belgium189",
			"t2": "Berlin,+Germany301",
			"suurballeNbPaths": 2,
			"suurballeTime": 9923975,
			"suurballePaths": {
				"path0": [
					"Madrid,+Spain224",
					"London590",
					"Brussels,+Belgium189"
				],
				"lat0": 11.000000,
				"nbSeg0": 2,
				"path1": [
					"Frankfurt,+Germany16",
					"Frankfurt,+Germany341",
					"Frankfurt,+Germany151",
					"Berlin,+Germany304",
					"Berlin,+Germany301"
				],
				"lat1": 7.000000,
				"nbSeg1": 3
			},
			"pathsExist": true,
			"path1": [
				"Frankfurt,+Germany16",
				"Dusseldorf,+Germany152",
				"Brussels,+Belgium189"
			],
			"lat1": 14.000000,
			"path2": [
				"Madrid,+Spain224",
				"Amsterdam180",
				"Berlin,+Germany301"
			],
			"lat2": 26.000000,
			"maxlat": 26.000000,
			"runtime": 3901225881,
			"nomLat1": 12.000000,
			"nomLat2": 27.000000,
			"maxNomLat": 27.000000,
			"mincut": 4
		},
		{
			"s1": "Frankfurt213",
			"s2": "Frankfurt205",
			"t1": "Milan,+Italy435",
			"t2": "New+York,+NY235",
			"suurballeNbPaths": 2,
			"suurballeTime": 9831524,
			"suurballePaths": {
				"path0": [
					"Frankfurt213",
					"Frankfurt207",
					"New+York,+NY159",
					"New+York,+NY235"
				],
				"lat0": 34.000000,
				"nbSeg0": 2,
				"path1": [
					"Frankfurt205",
					"Frankfurt211",
					"Frankfurt209",
					"Milan,+Italy228",
					"Milan,+Italy230",
					"Milan,+Italy229",
					"Milan,+Italy435"
				],
				"lat1": 9.000000,
				"nbSeg1": 3
			},
			"pathsExist": false,
			"runtime": 3909777135,
			"nomLat1": 11.000000,
			"nomLat2": 38.000000,
			"maxNomLat": 38.000000,
			"mincut": 6
		},
		{
			"s1": "Dusseldorf,+Germany319",
			"s2": "Nuremberg,+Germany383",
			"t1": "New+York,+NY161",
			"t2": "Berlin,+Germany301",
			"suurballeNbPaths": 2,
			"suurballeTime": 9940116,
			"suurballePaths": {
				"path0": [
					"Nuremberg,+Germany383",
					"Frankfurt,+Germany151",
					"Berlin,+Germany304",
					"Berlin,+Germany301"
				],
				"lat0": 7.000000,
				"nbSeg0": 3,
				"path1": [
					"Dusseldorf,+Germany319",
					"Dusseldorf,+Germany153",
					"Dusseldorf,+Germany203",
					"London217",
					"New+York,+NY161"
				],
				"lat1": 35.000000,
				"nbSeg1": 1
			},
			"pathsExist": false,
			"runtime": 3932439935,
			"nomLat1": 40.000000,
			"nomLat2": 7.000000,
			"maxNomLat": 40.000000,
			"mincut": 4
		},
		{
			"s1": "Paris254",
			"s2": "Paris253",
			"t1": "Darmstadt,+Germany326",
			"t2": "Frankfurt,+Germany340",
			"suurballeNbPaths": 2,
			"suurballeTime": 10130981,
			"suurballePaths": {
				"path0": [
					"Paris254",
					"Frankfurt209",
					"Frankfurt,+Germany151",
					"Frankfurt,+Germany340"
				],
				"lat0": 6.000000,
				"nbSeg0": 2,
				"path1": [
					"Paris253",
					"Frankfurt209",
					"Frankfurt214",
					"Frankfurt207",
					"Frankfurt,+Germany151",
					"Darmstadt,+Germany326"
				],
				"lat1": 9.000000,
				"nbSeg1": 1
			},
			"pathsExist": true,
			"path1": [
				"Paris254",
				"Frankfurt208",
				"Darmstadt,+Germany326"
			],
			"lat1": 9.000000,
			"path2": [
				"Paris253",
				"Frankfurt209",
				"Frankfurt,+Germany340"
			],
			"lat2": 7.000000,
			"maxlat": 9.000000,
			"runtime": 3945798667,
			"nomLat1": 7.000000,
			"nomLat2": 7.000000,
			"maxNomLat": 7.000000,
			"mincut": 6
		},
		{
			"s1": "Frankfurt213",
			"s2": "Dusseldorf,+Germany153",
			"t1": "Zurich,+Switzerland269",
			"t2": "Nuremberg,+Germany383",
			"suurballeNbPaths": 2,
			"suurballeTime": 9313596,
			"suurballePaths": {
				"path0": [
					"Frankfurt213",
					"Frankfurt207",
					"Frankfurt,+Germany151",
					"Nuremberg,+Germany383"
				],
				"lat0": 4.000000,
				"nbSeg0": 2,
				"path1": [
					"Dusseldorf,+Germany153",
					"Dusseldorf,+Germany319",
					"Frankfurt,+Germany151",
					"Frankfurt208",
					"Basel,+Switzerland193",
					"Zurich,+Switzerland269"
				],
				"lat1": 9.000000,
				"nbSeg1": 3
			},
			"pathsExist": true,
			"path1": [
				"Frankfurt213",
				"London590",
				"Zurich,+Switzerland269"
			],
			"lat1": 11.000000,
			"path2": [
				"Dusseldorf,+Germany153",
				"Frankfurt,+Germany346",
				"Nuremberg,+Germany383"
			],
			"lat2": 12.000000,
			"maxlat": 12.000000,
			"runtime": 3951847617,
			"nomLat1": 15.000000,
			"nomLat2": 14.000000,
			"maxNomLat": 15.000000,
			"mincut": 8
		},
		{
			"s1": "Paris250",
			"s2": "Prague,+CzechRepublic257",
			"t1": "Padova,+Italy413",
			"t2": "Amsterdam177",
			"suurballeNbPaths": 2,
			"suurballeTime": 12207026,
			"suurballePaths": {
				"path0": [
					"Paris250",
					"Paris253",
					"London217",
					"Amsterdam177"
				],
				"lat0": 7.000000,
				"nbSeg0": 1,
				"path1": [
					"Prague,+CzechRepublic257",
					"Frankfurt209",
					"Milan,+Italy228",
					"Milan,+Italy230",
					"Milan,+Italy432",
					"Padova,+Italy413"
				],
				"lat1": 13.000000,
				"nbSeg1": 4
			},
			"pathsExist": true,
			"path1": [
				"Paris250",
				"Milan,+Italy431",
				"Padova,+Italy413"
			],
			"lat1": 10.000000,
			"path2": [
				"Prague,+CzechRepublic257",
				"London590",
				"Amsterdam177"
			],
			"lat2": 10.000000,
			"maxlat": 10.000000,
			"runtime": 3960402149,
			"nomLat1": 10.000000,
			"nomLat2": 10.000000,
			"maxNomLat": 10.000000,
			"mincut": 6
		},
		{
			"s1": "Copenhagen,+Denmark200",
			"s2": "Milan,+Italy431",
			"t1": "Washington,+DC266",
			"t2": "Dusseldorf,+Germany327",
			"suurballeNbPaths": 2,
			"suurballeTime": 9109349,
			"suurballePaths": {
				"path0": [
					"Copenhagen,+Denmark200",
					"Copenhagen,+Denmark197",
					"Washington,+DC266"
				],
				"lat0": 35.000000,
				"nbSeg0": 1,
				"path1": [
					"Milan,+Italy431",
					"Milan,+Italy226",
					"Milan,+Italy228",
					"Frankfurt209",
					"Frankfurt,+Germany151",
					"Berlin,+Germany304",
					"Dusseldorf,+Germany327"
				],
				"lat1": 15.000000,
				"nbSeg1": 3
			},
			"pathsExist": true,
			"path1": [
				"Copenhagen,+Denmark200",
				"Copenhagen,+Denmark197",
				"Washington,+DC266"
			],
			"lat1": 35.000000,
			"path2": [
				"Milan,+Italy431",
				"Frankfurt206",
				"Dusseldorf,+Germany327"
			],
			"lat2": 30.000000,
			"maxlat": 35.000000,
			"runtime": 3979288983,
			"nomLat1": 41.000000,
			"nomLat2": 30.000000,
			"maxNomLat": 41.000000,
			"mincut": 6
		},
		{
			"s1": "Paris253",
			"s2": "Dusseldorf,+Germany152",
			"t1": "Frankfurt206",
			"t2": "Barcelona,+Spain185",
			"suurballeNbPaths": 2,
			"suurballeTime": 10735004,
			"suurballePaths": {
				"path0": [
					"Paris253",
					"Paris250",
					"Barcelona,+Spain185"
				],
				"lat0": 7.000000,
				"nbSeg0": 0,
				"path1": [
					"Dusseldorf,+Germany152",
					"Frankfurt212",
					"Frankfurt206"
				],
				"lat1": 3.000000,
				"nbSeg1": 1
			},
			"pathsExist": false,
			"runtime": 4002351121,
			"nomLat1": 12.000000,
			"nomLat2": 12.000000,
			"maxNomLat": 12.000000,
			"mincut": 14
		},
		{
			"s1": "Brussels,+Belgium190",
			"s2": "Frankfurt212",
			"t1": "Cagliari,+Italy439",
			"t2": "Brussels,+Belgium187",
			"suurballeNbPaths": 2,
			"suurballeTime": 10244169,
			"suurballePaths": {
				"path0": [
					"Brussels,+Belgium190",
					"Dusseldorf,+Germany203",
					"Brussels,+Belgium187"
				],
				"lat0": 4.000000,
				"nbSeg0": 1,
				"path1": [
					"Frankfurt212",
					"Frankfurt205",
					"Frankfurt211",
					"Frankfurt209",
					"Milan,+Italy228",
					"Milan,+Italy226",
					"Cagliari,+Italy439"
				],
				"lat1": 13.000000,
				"nbSeg1": 3
			},
			"pathsExist": true,
			"path1": [
				"Brussels,+Belgium190",
				"London221",
				"Cagliari,+Italy439"
			],
			"lat1": 17.000000,
			"path2": [
				"Frankfurt212",
				"Brussels,+Belgium187"
			],
			"lat2": 4.000000,
			"maxlat": 17.000000,
			"runtime": 3997186942,
			"nomLat1": 22.000000,
			"nomLat2": 4.000000,
			"maxNomLat": 22.000000,
			"mincut": 7
		},
		{
			"s1": "Rome,+Italy416",
			"s2": "Barcelona,+Spain181",
			"t1": "Copenhagen,+Denmark198",
			"t2": "Frankfurt536",
			"suurballeNbPaths": 2,
			"suurballeTime": 11390408,
			"suurballePaths": {
				"path0": [
					"Barcelona,+Spain181",
					"Frankfurt206",
					"Frankfurt214",
					"Frankfurt536"
				],
				"lat0": 9.000000,
				"nbSeg0": 2,
				"path1": [
					"Rome,+Italy416",
					"Cagliari,+Italy438",
					"Milan,+Italy229",
					"Milan,+Italy231",
					"Copenhagen,+Denmark199",
					"Copenhagen,+Denmark201",
					"Copenhagen,+Denmark198"
				],
				"lat1": 19.000000,
				"nbSeg1": 1
			},
			"pathsExist": false,
			"runtime": 3993469181,
			"nomLat1": 27.000000,
			"nomLat2": 16.000000,
			"maxNomLat": 27.000000,
			"mincut": 10
		},
		{
			"s1": "Frankfurt,+Germany347",
			"s2": "Frankfurt210",
			"t1": "Washington,+DC266",
			"t2": "Frankfurt209",
			"suurballeNbPaths": 2,
			"suurballeTime": 9663359,
			"suurballePaths": {
				"path0": [
					"Frankfurt210",
					"Frankfurt207",
					"Washington,+DC266"
				],
				"lat0": 35.000000,
				"nbSeg0": 1,
				"path1": [
					"Frankfurt,+Germany347",
					"Stuttgart,+Germany393",
					"Frankfurt,+Germany151",
					"Frankfurt209"
				],
				"lat1": 5.000000,
				"nbSeg1": 1
			},
			"pathsExist": true,
			"path1": [
				"Frankfurt,+Germany347",
				"London589",
				"Washington,+DC266"
			],
			"lat1": 45.000000,
			"path2": [
				"Frankfurt210",
				"London590",
				"Frankfurt209"
			],
			"lat2": 10.000000,
			"maxlat": 45.000000,
			"runtime": 4000168481,
			"nomLat1": 42.000000,
			"nomLat2": 7.000000,
			"maxNomLat": 42.000000,
			"mincut": 10
		},
		{
			"s1": "Munich,+Germany373",
			"s2": "Copenhagen,+Denmark201",
			"t1": "Dusseldorf,+Germany327",
			"t2": "Dresden,+Germany339",
			"suurballeNbPaths": 2,
			"suurballeTime": 11176347,
			"suurballePaths": {
				"path0": [
					"Munich,+Germany373",
					"Munich,+Germany374",
					"Berlin,+Germany304",
					"Dusseldorf,+Germany327"
				],
				"lat0": 9.000000,
				"nbSeg0": 0,
				"path1": [
					"Copenhagen,+Denmark201",
					"Dusseldorf,+Germany203",
					"Dusseldorf,+Germany153",
					"Berlin,+Germany303",
					"Dusseldorf,+Germany327"
				],
				"lat1": 14.000000,
				"nbSeg1": 2
			},
			"pathsExist": false,
			"runtime": 4004278857,
			"nomLat1": 9.000000,
			"nomLat2": 22.000000,
			"maxNomLat": 22.000000,
			"mincut": 4
		},
		{
			"s1": "Frankfurt,+Germany346",
			"s2": "Barcelona,+Spain184",
			"t1": "Brussels,+Belgium187",
			"t2": "Copenhagen,+Denmark198",
			"suurballeNbPaths": 2,
			"suurballeTime": 9599085,
			"suurballePaths": {
				"path0": [
					"Frankfurt,+Germany346",
					"Frankfurt,+Germany151",
					"Frankfurt207",
					"Copenhagen,+Denmark198"
				],
				"lat0": 7.000000,
				"nbSeg0": 2,
				"path1": [
					"Barcelona,+Spain184",
					"Barcelona,+Spain181",
					"London217",
					"Brussels,+Belgium187"
				],
				"lat1": 11.000000,
				"nbSeg1": 2
			},
			"pathsExist": true,
			"path1": [
				"Frankfurt,+Germany346",
				"Frankfurt212",
				"Brussels,+Belgium187"
			],
			"lat1": 7.000000,
			"path2": [
				"Barcelona,+Spain184",
				"London589",
				"Copenhagen,+Denmark198"
			],
			"lat2": 16.000000,
			"maxlat": 16.000000,
			"runtime": 4004628143,
			"nomLat1": 7.000000,
			"nomLat2": 18.000000,
			"maxNomLat": 18.000000,
			"mincut": 10
		},
		{
			"s1": "Modena,+Italy412",
			"s2": "Berlin,+Germany302",
			"t1": "Paris252",
			"t2": "Milan,+Italy436",
			"suurballeNbPaths": 2,
			"suurballeTime": 9574974,
			"suurballePaths": {
				"path0": [
					"Modena,+Italy412",
					"Milan,+Italy436"
				],
				"lat0": 2.000000,
				"nbSeg0": 0,
				"path1": [
					"Berlin,+Germany302",
					"Berlin,+Germany300",
					"Hamburg,+Germany362",
					"Frankfurt,+Germany151",
					"Frankfurt208",
					"Paris252"
				],
				"lat1": 13.000000,
				"nbSeg1": 2
			},
			"pathsExist": false,
			"runtime": 4019905971,
			"nomLat1": 9.000000,
			"nomLat2": 23.000000,
			"maxNomLat": 23.000000,
			"mincut": 6
		},
		{
			"s1": "Barcelona,+Spain184",
			"s2": "New+York,+NY236",
			"t1": "Rome,+Italy416",
			"t2": "Paris254",
			"suurballeNbPaths": 2,
			"suurballeTime": 10318529,
			"suurballePaths": {
				"path0": [
					"New+York,+NY236",
					"London217",
					"London222",
					"Paris250",
					"Paris254"
				],
				"lat0": 34.000000,
				"nbSeg0": 0,
				"path1": [
					"Barcelona,+Spain184",
					"Barcelona,+Spain181",
					"Barcelona,+Spain185",
					"Milan,+Italy227",
					"Milan,+Italy226",
					"Cagliari,+Italy439",
					"Rome,+Italy416"
				],
				"lat1": 17.000000,
				"nbSeg1": 2
			},
			"pathsExist": true,
			"path1": [
				"Barcelona,+Spain184",
				"Milan,+Italy436",
				"Rome,+Italy416"
			],
			"lat1": 23.000000,
			"path2": [
				"New+York,+NY236",
				"Paris253",
				"Paris254"
			],
			"lat2": 36.000000,
			"maxlat": 36.000000,
			"runtime": 4021284922,
			"nomLat1": 21.000000,
			"nomLat2": 34.000000,
			"maxNomLat": 34.000000,
			"mincut": 4
		},
		{
			"s1": "Dusseldorf,+Germany152",
			"s2": "Brussels,+Belgium187",
			"t1": "New+York,+NY238",
			"t2": "Amsterdam180",
			"suurballeNbPaths": 2,
			"suurballeTime": 9195347,
			"suurballePaths": {
				"path0": [
					"Dusseldorf,+Germany152",
					"Frankfurt211",
					"Frankfurt209",
					"Amsterdam180"
				],
				"lat0": 6.000000,
				"nbSeg0": 0,
				"path1": [
					"Brussels,+Belgium187",
					"London217",
					"New+York,+NY235",
					"New+York,+NY238"
				],
				"lat1": 33.000000,
				"nbSeg1": 0
			},
			"pathsExist": true,
			"path1": [
				"Dusseldorf,+Germany152",
				"London590",
				"New+York,+NY238"
			],
			"lat1": 37.000000,
			"path2": [
				"Brussels,+Belgium187",
				"London217",
				"Amsterdam180"
			],
			"lat2": 11.000000,
			"maxlat": 37.000000,
			"runtime": 4023083417,
			"nomLat1": 37.000000,
			"nomLat2": 8.000000,
			"maxNomLat": 37.000000,
			"mincut": 4
		},
		{
			"s1": "Barcelona,+Spain185",
			"s2": "Milan,+Italy432",
			"t1": "Paris249",
			"t2": "Frankfurt211",
			"suurballeNbPaths": 2,
			"suurballeTime": 9490806,
			"suurballePaths": {
				"path0": [
					"Barcelona,+Spain185",
					"Barcelona,+Spain181",
					"Barcelona,+Spain184",
					"Paris249"
				],
				"lat0": 8.000000,
				"nbSeg0": 1,
				"path1": [
					"Milan,+Italy432",
					"Milan,+Italy226",
					"Milan,+Italy228",
					"Frankfurt209",
					"Frankfurt211"
				],
				"lat1": 7.000000,
				"nbSeg1": 2
			},
			"pathsExist": true,
			"path1": [
				"Barcelona,+Spain185",
				"Barcelona,+Spain181",
				"Paris249"
			],
			"lat1": 8.000000,
			"path2": [
				"Milan,+Italy432",
				"Copenhagen,+Denmark199",
				"Frankfurt211"
			],
			"lat2": 17.000000,
			"maxlat": 17.000000,
			"runtime": 4017680729,
			"nomLat1": 16.000000,
			"nomLat2": 11.000000,
			"maxNomLat": 16.000000,
			"mincut": 7
		},
		{
			"s1": "Dusseldorf,+Germany152",
			"s2": "Barcelona,+Spain181",
			"t1": "Frankfurt208",
			"t2": "Brussels,+Belgium187",
			"suurballeNbPaths": 2,
			"suurballeTime": 8941443,
			"suurballePaths": {
				"path0": [
					"Barcelona,+Spain181",
					"Frankfurt208"
				],
				"lat0": 7.000000,
				"nbSeg0": 0,
				"path1": [
					"Dusseldorf,+Germany152",
					"Dusseldorf,+Germany319",
					"Dusseldorf,+Germany153",
					"Dusseldorf,+Germany203",
					"Brussels,+Belgium187"
				],
				"lat1": 5.000000,
				"nbSeg1": 2
			},
			"pathsExist": true,
			"path1": [
				"Dusseldorf,+Germany152",
				"Frankfurt,+Germany346",
				"Frankfurt208"
			],
			"lat1": 4.000000,
			"path2": [
				"Barcelona,+Spain181",
				"London589",
				"Brussels,+Belgium187"
			],
			"lat2": 14.000000,
			"maxlat": 14.000000,
			"runtime": 4051854995,
			"nomLat1": 3.000000,
			"nomLat2": 15.000000,
			"maxNomLat": 15.000000,
			"mincut": 11
		},
		{
			"s1": "Zurich,+Switzerland269",
			"s2": "Stockholm,+Sweden259",
			"t1": "Darmstadt,+Germany326",
			"t2": "Dusseldorf,+Germany152",
			"suurballeNbPaths": 2,
			"suurballeTime": 8696055,
			"suurballePaths": {
				"path0": [
					"Zurich,+Switzerland269",
					"Basel,+Switzerland193",
					"Frankfurt208",
					"Frankfurt,+Germany151",
					"Darmstadt,+Germany326"
				],
				"lat0": 8.000000,
				"nbSeg0": 1,
				"path1": [
					"Stockholm,+Sweden259",
					"Copenhagen,+Denmark200",
					"Dusseldorf,+Germany203",
					"Dusseldorf,+Germany153",
					"Dusseldorf,+Germany319",
					"Dusseldorf,+Germany152"
				],
				"lat1": 12.000000,
				"nbSeg1": 3
			},
			"pathsExist": true,
			"path1": [
				"Zurich,+Switzerland269",
				"Basel,+Switzerland192",
				"Darmstadt,+Germany326"
			],
			"lat1": 16.000000,
			"path2": [
				"Stockholm,+Sweden259",
				"Frankfurt211",
				"Dusseldorf,+Germany152"
			],
			"lat2": 13.000000,
			"maxlat": 16.000000,
			"runtime": 4069510462,
			"nomLat1": 17.000000,
			"nomLat2": 13.000000,
			"maxNomLat": 17.000000,
			"mincut": 7
		},
		{
			"s1": "Brussels,+Belgium190",
			"s2": "Basel,+Switzerland192",
			"t1": "Milan,+Italy432",
			"t2": "Frankfurt,+Germany346",
			"suurballeNbPaths": 2,
			"suurballeTime": 8258143,
			"suurballePaths": {
				"path0": [
					"Basel,+Switzerland192",
					"Zurich,+Switzerland270",
					"Milan,+Italy230",
					"Milan,+Italy432"
				],
				"lat0": 6.000000,
				"nbSeg0": 1,
				"path1": [
					"Brussels,+Belgium190",
					"Dusseldorf,+Germany203",
					"Dusseldorf,+Germany153",
					"Dusseldorf,+Germany319",
					"Frankfurt,+Germany346"
				],
				"lat1": 6.000000,
				"nbSeg1": 2
			},
			"pathsExist": true,
			"path1": [
				"Brussels,+Belgium190",
				"London221",
				"Milan,+Italy432"
			],
			"lat1": 13.000000,
			"path2": [
				"Basel,+Switzerland192",
				"Frankfurt206",
				"Frankfurt,+Germany346"
			],
			"lat2": 5.000000,
			"maxlat": 13.000000,
			"runtime": 4074703864,
			"nomLat1": 18.000000,
			"nomLat2": 5.000000,
			"maxNomLat": 18.000000,
			"mincut": 9
		},
		{
			"s1": "Rome,+Italy416",
			"s2": "Offenbach,+Germany390",
			"t1": "Amsterdam177",
			"t2": "Barcelona,+Spain184",
			"suurballeNbPaths": 2,
			"suurballeTime": 8173781,
			"suurballePaths": {
				"path0": [
					"Offenbach,+Germany390",
					"Dusseldorf,+Germany153",
					"Dusseldorf,+Germany203",
					"Amsterdam178",
					"Amsterdam177"
				],
				"lat0": 6.000000,
				"nbSeg0": 1,
				"path1": [
					"Rome,+Italy416",
					"Cagliari,+Italy439",
					"Milan,+Italy226",
					"Milan,+Italy227",
					"Barcelona,+Spain185",
					"Barcelona,+Spain181",
					"Barcelona,+Spain184"
				],
				"lat1": 17.000000,
				"nbSeg1": 3
			},
			"pathsExist": true,
			"path1": [
				"Rome,+Italy416",
				"Milan,+Italy232",
				"Amsterdam177"
			],
			"lat1": 19.000000,
			"path2": [
				"Offenbach,+Germany390",
				"Darmstadt,+Germany326",
				"Barcelona,+Spain184"
			],
			"lat2": 21.000000,
			"maxlat": 21.000000,
			"runtime": 4102976498,
			"nomLat1": 22.000000,
			"nomLat2": 16.000000,
			"maxNomLat": 22.000000,
			"mincut": 6
		}
	],
	"demandsWithSol": 66
}
