{
	"nbDemands": 100,
	"demands": [
		{
			"s1": "54_Newark",
			"s2": "124_Geneve",
			"t1": "136_Essen",
			"t2": "58_Gothenburg",
			"suurballeNbPaths": 2,
			"suurballeTime": 237836222,
			"suurballePaths": {
				"path0": [
					"54_Newark",
					"140_London",
					"142_Brussels",
					"18_Antwerp",
					"15_The_Hague",
					"132_Hoofddorp",
					"143_Amsterdam",
					"17_Dusseldorf",
					"136_Essen"
				],
				"lat0": 1537.000000,
				"nbSeg0": 1,
				"path1": [
					"124_Geneve",
					"39_Nyon",
					"36_Lausanne",
					"73_None",
					"117_Basel",
					"118_Strasbourg",
					"30_Karlsruhe",
					"12_Mannheim",
					"141_Frankfurt",
					"14_Cologne",
					"17_Dusseldorf",
					"134_Wuppertal",
					"135_Dortmund",
					"136_Essen"
				],
				"lat1": 1676.000000,
				"nbSeg1": 3
			},
			"pathsExist": false,
			"runtime": 228207663,
			"nomLat1": 2242.000000,
			"nomLat2": 3615.000000,
			"maxNomLat": 3615.000000,
			"mincut": 2
		},
		{
			"s1": "82_Marseille",
			"s2": "149_Rouen",
			"t1": "78_Ghent",
			"t2": "53_Aarhus",
			"suurballeNbPaths": 2,
			"suurballeTime": 83470781,
			"suurballePaths": {
				"path0": [
					"149_Rouen",
					"139_Paris",
					"115_Lille",
					"78_Ghent"
				],
				"lat0": 649.000000,
				"nbSeg0": 0,
				"path1": [
					"82_Marseille",
					"138_Turin",
					"152_Milan",
					"72_Como",
					"64_Chiasso",
					"126_Lugano",
					"63_Lucerne",
					"125_Zug",
					"74_Zurich",
					"117_Basel",
					"118_Strasbourg",
					"30_Karlsruhe",
					"12_Mannheim",
					"141_Frankfurt",
					"14_Cologne",
					"17_Dusseldorf",
					"136_Essen",
					"51_Hamburg",
					"53_Aarhus"
				],
				"lat1": 3122.000000,
				"nbSeg1": 1
			},
			"pathsExist": false,
			"runtime": 602562742,
			"nomLat1": 1581.000000,
			"nomLat2": 2573.000000,
			"maxNomLat": 2573.000000,
			"mincut": 3
		},
		{
			"s1": "126_Lugano",
			"s2": "148_Rennes",
			"t1": "108_Bologna",
			"t2": "63_Lucerne",
			"suurballeNbPaths": 2,
			"suurballeTime": 103101251,
			"suurballePaths": {
				"path0": [
					"126_Lugano",
					"64_Chiasso",
					"72_Como",
					"152_Milan",
					"106_Reggio_Emilia",
					"105_Modena",
					"108_Bologna"
				],
				"lat0": 472.000000,
				"nbSeg0": 1,
				"path1": [
					"148_Rennes",
					"149_Rouen",
					"139_Paris",
					"118_Strasbourg",
					"117_Basel",
					"74_Zurich",
					"125_Zug",
					"63_Lucerne"
				],
				"lat1": 1688.000000,
				"nbSeg1": 0
			},
			"pathsExist": false,
			"runtime": 558969053,
			"nomLat1": 800.000000,
			"nomLat2": 1688.000000,
			"maxNomLat": 1688.000000,
			"mincut": 4
		},
		{
			"s1": "74_Zurich",
			"s2": "66_Genova",
			"t1": "62_None",
			"t2": "136_Essen",
			"suurballeNbPaths": 2,
			"suurballeTime": 207408125,
			"suurballePaths": {
				"path0": [
					"66_Genova",
					"152_Milan",
					"138_Turin",
					"82_Marseille",
					"123_Lyon",
					"139_Paris",
					"115_Lille",
					"62_None"
				],
				"lat0": 2617.000000,
				"nbSeg0": 0,
				"path1": [
					"74_Zurich",
					"117_Basel",
					"118_Strasbourg",
					"30_Karlsruhe",
					"12_Mannheim",
					"141_Frankfurt",
					"14_Cologne",
					"17_Dusseldorf",
					"136_Essen"
				],
				"lat1": 1032.000000,
				"nbSeg1": 0
			},
			"pathsExist": false,
			"runtime": 468044933,
			"nomLat1": 1614.000000,
			"nomLat2": 3367.000000,
			"maxNomLat": 3367.000000,
			"mincut": 2
		},
		{
			"s1": "18_Antwerp",
			"s2": "106_Reggio_Emilia",
			"t1": "63_Lucerne",
			"t2": "148_Rennes",
			"suurballeNbPaths": 2,
			"suurballeTime": 81611419,
			"suurballePaths": {
				"path0": [
					"106_Reggio_Emilia",
					"152_Milan",
					"72_Como",
					"64_Chiasso",
					"126_Lugano",
					"63_Lucerne"
				],
				"lat0": 576.000000,
				"nbSeg0": 0,
				"path1": [
					"18_Antwerp",
					"142_Brussels",
					"78_Ghent",
					"115_Lille",
					"139_Paris",
					"149_Rouen",
					"148_Rennes"
				],
				"lat1": 1236.000000,
				"nbSeg1": 1
			},
			"pathsExist": false,
			"runtime": 620154079,
			"nomLat1": 2851.000000,
			"nomLat2": 2647.000000,
			"maxNomLat": 2851.000000,
			"mincut": 4
		},
		{
			"s1": "144_Berlin",
			"s2": "16_Hannover",
			"t1": "23_Lisbon",
			"t2": "142_Brussels",
			"suurballeNbPaths": 2,
			"suurballeTime": 232478944,
			"suurballePaths": {
				"path0": [
					"16_Hannover",
					"51_Hamburg",
					"136_Essen",
					"17_Dusseldorf",
					"143_Amsterdam",
					"132_Hoofddorp",
					"15_The_Hague",
					"18_Antwerp",
					"142_Brussels"
				],
				"lat0": 1440.000000,
				"nbSeg0": 0,
				"path1": [
					"144_Berlin",
					"5_Dresden",
					"4_Leipzig",
					"8_Nuremberg",
					"13_Munich",
					"119_Stuttgart",
					"30_Karlsruhe",
					"118_Strasbourg",
					"139_Paris",
					"149_Rouen",
					"148_Rennes",
					"121_Nantes",
					"86_Bordeaux",
					"151_Madrid",
					"23_Lisbon"
				],
				"lat1": 5322.000000,
				"nbSeg1": 3
			},
			"pathsExist": false,
			"runtime": 430533133,
			"nomLat1": 5730.000000,
			"nomLat2": 1440.000000,
			"maxNomLat": 5730.000000,
			"mincut": 2
		},
		{
			"s1": "4_Leipzig",
			"s2": "134_Wuppertal",
			"t1": "79_None",
			"t2": "111_Verona",
			"suurballeNbPaths": 2,
			"suurballeTime": 174862940,
			"suurballePaths": {
				"path0": [
					"134_Wuppertal",
					"17_Dusseldorf",
					"143_Amsterdam",
					"132_Hoofddorp",
					"15_The_Hague",
					"18_Antwerp",
					"142_Brussels",
					"78_Ghent",
					"115_Lille",
					"139_Paris",
					"123_Lyon",
					"82_Marseille",
					"84_Montpellier",
					"79_None"
				],
				"lat0": 2855.000000,
				"nbSeg0": 1,
				"path1": [
					"4_Leipzig",
					"8_Nuremberg",
					"13_Munich",
					"119_Stuttgart",
					"30_Karlsruhe",
					"118_Strasbourg",
					"117_Basel",
					"74_Zurich",
					"125_Zug",
					"63_Lucerne",
					"126_Lugano",
					"64_Chiasso",
					"72_Como",
					"152_Milan",
					"109_Bergamo",
					"112_Brescia",
					"111_Verona"
				],
				"lat1": 2198.000000,
				"nbSeg1": 1
			},
			"pathsExist": false,
			"runtime": 549208422,
			"nomLat1": 3471.000000,
			"nomLat2": 3431.000000,
			"maxNomLat": 3471.000000,
			"mincut": 2
		},
		{
			"s1": "72_Como",
			"s2": "125_Zug",
			"t1": "129_Utrecht",
			"t2": "66_Genova",
			"suurballeNbPaths": 2,
			"suurballeTime": 104781027,
			"suurballePaths": {
				"path0": [
					"72_Como",
					"152_Milan",
					"66_Genova"
				],
				"lat0": 273.000000,
				"nbSeg0": 0,
				"path1": [
					"125_Zug",
					"74_Zurich",
					"117_Basel",
					"118_Strasbourg",
					"30_Karlsruhe",
					"12_Mannheim",
					"141_Frankfurt",
					"14_Cologne",
					"17_Dusseldorf",
					"143_Amsterdam",
					"131_Hilversum",
					"129_Utrecht"
				],
				"lat1": 1404.000000,
				"nbSeg1": 0
			},
			"pathsExist": false,
			"runtime": 585278717,
			"nomLat1": 4032.000000,
			"nomLat2": 578.000000,
			"maxNomLat": 4032.000000,
			"mincut": 2
		},
		{
			"s1": "75_Dublin",
			"s2": "112_Brescia",
			"t1": "132_Hoofddorp",
			"t2": "143_Amsterdam",
			"suurballeNbPaths": 2,
			"suurballeTime": 116958380,
			"suurballePaths": {
				"path0": [
					"75_Dublin",
					"140_London",
					"142_Brussels",
					"18_Antwerp",
					"15_The_Hague",
					"132_Hoofddorp"
				],
				"lat0": 1616.000000,
				"nbSeg0": 0,
				"path1": [
					"112_Brescia",
					"109_Bergamo",
					"152_Milan",
					"72_Como",
					"64_Chiasso",
					"126_Lugano",
					"63_Lucerne",
					"125_Zug",
					"74_Zurich",
					"117_Basel",
					"118_Strasbourg",
					"30_Karlsruhe",
					"12_Mannheim",
					"141_Frankfurt",
					"14_Cologne",
					"17_Dusseldorf",
					"143_Amsterdam"
				],
				"lat1": 1866.000000,
				"nbSeg1": 1
			},
			"pathsExist": false,
			"runtime": 634981673,
			"nomLat1": 1616.000000,
			"nomLat2": 3994.000000,
			"maxNomLat": 3994.000000,
			"mincut": 2
		},
		{
			"s1": "13_Munich",
			"s2": "107_Padova",
			"t1": "12_Mannheim",
			"t2": "32_Pfaffikon",
			"suurballeNbPaths": 2,
			"suurballeTime": 99418837,
			"suurballePaths": {
				"path0": [
					"13_Munich",
					"119_Stuttgart",
					"30_Karlsruhe",
					"12_Mannheim"
				],
				"lat0": 526.000000,
				"nbSeg0": 0,
				"path1": [
					"107_Padova",
					"111_Verona",
					"112_Brescia",
					"109_Bergamo",
					"152_Milan",
					"72_Como",
					"64_Chiasso",
					"126_Lugano",
					"63_Lucerne",
					"125_Zug",
					"74_Zurich",
					"35_Winterthur",
					"32_Pfaffikon"
				],
				"lat1": 876.000000,
				"nbSeg1": 2
			},
			"pathsExist": false,
			"runtime": 708929240,
			"nomLat1": 526.000000,
			"nomLat2": 2194.000000,
			"maxNomLat": 2194.000000,
			"mincut": 4
		},
		{
			"s1": "151_Madrid",
			"s2": "109_Bergamo",
			"t1": "55_New_York",
			"t2": "123_Lyon",
			"suurballeNbPaths": 2,
			"suurballeTime": 172829903,
			"suurballePaths": {
				"path0": [
					"109_Bergamo",
					"152_Milan",
					"138_Turin",
					"82_Marseille",
					"123_Lyon"
				],
				"lat0": 1210.000000,
				"nbSeg0": 0,
				"path1": [
					"151_Madrid",
					"86_Bordeaux",
					"121_Nantes",
					"148_Rennes",
					"149_Rouen",
					"139_Paris",
					"54_Newark",
					"55_New_York"
				],
				"lat1": 3122.000000,
				"nbSeg1": 0
			},
			"pathsExist": false,
			"runtime": 545377902,
			"nomLat1": 3122.000000,
			"nomLat2": 1210.000000,
			"maxNomLat": 3122.000000,
			"mincut": 3
		},
		{
			"s1": "107_Padova",
			"s2": "59_Oslo",
			"t1": "125_Zug",
			"t2": "81_Rome",
			"suurballeNbPaths": 2,
			"suurballeTime": 347019592,
			"suurballePaths": {
				"path0": [
					"107_Padova",
					"81_Rome"
				],
				"lat0": 661.000000,
				"nbSeg0": 0,
				"path1": [
					"59_Oslo",
					"58_Gothenburg",
					"50_Copenhagen",
					"51_Hamburg",
					"136_Essen",
					"17_Dusseldorf",
					"14_Cologne",
					"141_Frankfurt",
					"12_Mannheim",
					"30_Karlsruhe",
					"118_Strasbourg",
					"117_Basel",
					"74_Zurich",
					"125_Zug"
				],
				"lat1": 2893.000000,
				"nbSeg1": 1
			},
			"pathsExist": false,
			"runtime": 485170960,
			"nomLat1": 1964.000000,
			"nomLat2": 6668.000000,
			"maxNomLat": 6668.000000,
			"mincut": 4
		},
		{
			"s1": "38_Schaffhausen",
			"s2": "68_Firenze",
			"t1": "9_Erding",
			"t2": "57_Helsinki",
			"suurballeNbPaths": 2,
			"suurballeTime": 131945300,
			"suurballePaths": {
				"path0": [
					"38_Schaffhausen",
					"74_Zurich",
					"117_Basel",
					"118_Strasbourg",
					"30_Karlsruhe",
					"119_Stuttgart",
					"13_Munich",
					"9_Erding"
				],
				"lat0": 992.000000,
				"nbSeg0": 2,
				"path1": [
					"68_Firenze",
					"108_Bologna",
					"105_Modena",
					"106_Reggio_Emilia",
					"152_Milan",
					"138_Turin",
					"82_Marseille",
					"123_Lyon",
					"139_Paris",
					"115_Lille",
					"78_Ghent",
					"142_Brussels",
					"18_Antwerp",
					"15_The_Hague",
					"132_Hoofddorp",
					"143_Amsterdam",
					"17_Dusseldorf",
					"136_Essen",
					"51_Hamburg",
					"50_Copenhagen",
					"56_Stockholm",
					"57_Helsinki"
				],
				"lat1": 6062.000000,
				"nbSeg1": 4
			},
			"pathsExist": false,
			"runtime": 720610317,
			"nomLat1": 992.000000,
			"nomLat2": 6244.000000,
			"maxNomLat": 6244.000000,
			"mincut": 2
		},
		{
			"s1": "62_None",
			"s2": "53_Aarhus",
			"t1": "125_Zug",
			"t2": "80_Valencia",
			"suurballeNbPaths": 2,
			"suurballeTime": 21153919,
			"suurballePaths": {
				"path0": [
					"62_None",
					"115_Lille",
					"139_Paris",
					"123_Lyon",
					"82_Marseille",
					"84_Montpellier",
					"79_None",
					"137_Barcelona",
					"80_Valencia"
				],
				"lat0": 3031.000000,
				"nbSeg0": 1,
				"path1": [
					"53_Aarhus",
					"51_Hamburg",
					"136_Essen",
					"17_Dusseldorf",
					"14_Cologne",
					"141_Frankfurt",
					"12_Mannheim",
					"30_Karlsruhe",
					"118_Strasbourg",
					"117_Basel",
					"74_Zurich",
					"125_Zug"
				],
				"lat1": 2081.000000,
				"nbSeg1": 0
			},
			"pathsExist": false,
			"runtime": 735000260,
			"nomLat1": 1656.000000,
			"nomLat2": 5065.000000,
			"maxNomLat": 5065.000000,
			"mincut": 3
		},
		{
			"s1": "32_Pfaffikon",
			"s2": "11_Prague",
			"t1": "79_None",
			"t2": "125_Zug",
			"suurballeNbPaths": 2,
			"suurballeTime": 267680345,
			"suurballePaths": {
				"path0": [
					"32_Pfaffikon",
					"35_Winterthur",
					"74_Zurich",
					"125_Zug"
				],
				"lat0": 112.000000,
				"nbSeg0": 1,
				"path1": [
					"11_Prague",
					"5_Dresden",
					"4_Leipzig",
					"8_Nuremberg",
					"13_Munich",
					"119_Stuttgart",
					"30_Karlsruhe",
					"118_Strasbourg",
					"117_Basel",
					"73_None",
					"36_Lausanne",
					"39_Nyon",
					"124_Geneve",
					"123_Lyon",
					"82_Marseille",
					"84_Montpellier",
					"79_None"
				],
				"lat1": 3563.000000,
				"nbSeg1": 2
			},
			"pathsExist": false,
			"runtime": 485052686,
			"nomLat1": 2794.000000,
			"nomLat2": 1933.000000,
			"maxNomLat": 2794.000000,
			"mincut": 3
		},
		{
			"s1": "106_Reggio_Emilia",
			"s2": "149_Rouen",
			"t1": "78_Ghent",
			"t2": "62_None",
			"suurballeNbPaths": 2,
			"suurballeTime": 113971927,
			"suurballePaths": {
				"path0": [
					"149_Rouen",
					"139_Paris",
					"115_Lille",
					"62_None"
				],
				"lat0": 816.000000,
				"nbSeg0": 0,
				"path1": [
					"106_Reggio_Emilia",
					"152_Milan",
					"72_Como",
					"64_Chiasso",
					"126_Lugano",
					"63_Lucerne",
					"125_Zug",
					"74_Zurich",
					"117_Basel",
					"118_Strasbourg",
					"30_Karlsruhe",
					"12_Mannheim",
					"141_Frankfurt",
					"14_Cologne",
					"17_Dusseldorf",
					"143_Amsterdam",
					"132_Hoofddorp",
					"15_The_Hague",
					"18_Antwerp",
					"142_Brussels",
					"78_Ghent"
				],
				"lat1": 2362.000000,
				"nbSeg1": 2
			},
			"pathsExist": false,
			"runtime": 690533338,
			"nomLat1": 2487.000000,
			"nomLat2": 816.000000,
			"maxNomLat": 2487.000000,
			"mincut": 3
		},
		{
			"s1": "4_Leipzig",
			"s2": "35_Winterthur",
			"t1": "104_Bucharest",
			"t2": "19_Rotterdam",
			"suurballeNbPaths": 2,
			"suurballeTime": 255256409,
			"suurballePaths": {
				"path0": [
					"4_Leipzig",
					"5_Dresden",
					"11_Prague",
					"10_Vienna",
					"101_Budapest",
					"104_Bucharest"
				],
				"lat0": 2234.000000,
				"nbSeg0": 3,
				"path1": [
					"35_Winterthur",
					"74_Zurich",
					"117_Basel",
					"118_Strasbourg",
					"30_Karlsruhe",
					"12_Mannheim",
					"141_Frankfurt",
					"14_Cologne",
					"17_Dusseldorf",
					"143_Amsterdam",
					"132_Hoofddorp",
					"15_The_Hague",
					"19_Rotterdam"
				],
				"lat1": 1461.000000,
				"nbSeg1": 1
			},
			"pathsExist": false,
			"runtime": 487653733,
			"nomLat1": 2676.000000,
			"nomLat2": 3014.000000,
			"maxNomLat": 3014.000000,
			"mincut": 4
		},
		{
			"s1": "55_New_York",
			"s2": "81_Rome",
			"t1": "15_The_Hague",
			"t2": "138_Turin",
			"suurballeNbPaths": 2,
			"suurballeTime": 101393991,
			"suurballePaths": {
				"path0": [
					"55_New_York",
					"140_London",
					"142_Brussels",
					"18_Antwerp",
					"15_The_Hague"
				],
				"lat0": 1070.000000,
				"nbSeg0": 0,
				"path1": [
					"81_Rome",
					"68_Firenze",
					"108_Bologna",
					"105_Modena",
					"106_Reggio_Emilia",
					"152_Milan",
					"138_Turin"
				],
				"lat1": 1093.000000,
				"nbSeg1": 1
			},
			"pathsExist": false,
			"runtime": 678029702,
			"nomLat1": 1070.000000,
			"nomLat2": 1141.000000,
			"maxNomLat": 1141.000000,
			"mincut": 4
		},
		{
			"s1": "64_Chiasso",
			"s2": "149_Rouen",
			"t1": "77_Birmingham",
			"t2": "36_Lausanne",
			"suurballeNbPaths": 2,
			"suurballeTime": 264211738,
			"suurballePaths": {
				"path0": [
					"64_Chiasso",
					"126_Lugano",
					"63_Lucerne",
					"125_Zug",
					"74_Zurich",
					"117_Basel",
					"73_None",
					"36_Lausanne"
				],
				"lat0": 1023.000000,
				"nbSeg0": 0,
				"path1": [
					"149_Rouen",
					"139_Paris",
					"115_Lille",
					"62_None",
					"140_London",
					"91_Reading",
					"150_Bristol",
					"77_Birmingham"
				],
				"lat1": 1597.000000,
				"nbSeg1": 2
			},
			"pathsExist": false,
			"runtime": 592365029,
			"nomLat1": 3678.000000,
			"nomLat2": 1611.000000,
			"maxNomLat": 3678.000000,
			"mincut": 3
		},
		{
			"s1": "122_Toulouse",
			"s2": "142_Brussels",
			"t1": "35_Winterthur",
			"t2": "6_Krakov",
			"suurballeNbPaths": 2,
			"suurballeTime": 209216603,
			"suurballePaths": {
				"path0": [
					"122_Toulouse",
					"79_None",
					"84_Montpellier",
					"82_Marseille",
					"138_Turin",
					"152_Milan",
					"72_Como",
					"64_Chiasso",
					"126_Lugano",
					"63_Lucerne",
					"125_Zug",
					"74_Zurich",
					"35_Winterthur"
				],
				"lat0": 1897.000000,
				"nbSeg0": 1,
				"path1": [
					"142_Brussels",
					"18_Antwerp",
					"15_The_Hague",
					"132_Hoofddorp",
					"143_Amsterdam",
					"17_Dusseldorf",
					"136_Essen",
					"51_Hamburg",
					"2_Rostock",
					"144_Berlin",
					"5_Dresden",
					"11_Prague",
					"6_Krakov"
				],
				"lat1": 2937.000000,
				"nbSeg1": 2
			},
			"pathsExist": false,
			"runtime": 612065291,
			"nomLat1": 2926.000000,
			"nomLat2": 4599.000000,
			"maxNomLat": 4599.000000,
			"mincut": 4
		},
		{
			"s1": "76_Manchester",
			"s2": "112_Brescia",
			"t1": "118_Strasbourg",
			"t2": "84_Montpellier",
			"suurballeNbPaths": 2,
			"suurballeTime": 277082932,
			"suurballePaths": {
				"path0": [
					"76_Manchester",
					"140_London",
					"62_None",
					"115_Lille",
					"139_Paris",
					"118_Strasbourg"
				],
				"lat0": 2011.000000,
				"nbSeg0": 1,
				"path1": [
					"112_Brescia",
					"109_Bergamo",
					"152_Milan",
					"138_Turin",
					"82_Marseille",
					"84_Montpellier"
				],
				"lat1": 1044.000000,
				"nbSeg1": 0
			},
			"pathsExist": false,
			"runtime": 547539646,
			"nomLat1": 2276.000000,
			"nomLat2": 1044.000000,
			"maxNomLat": 2276.000000,
			"mincut": 4
		},
		{
			"s1": "77_Birmingham",
			"s2": "74_Zurich",
			"t1": "79_None",
			"t2": "63_Lucerne",
			"suurballeNbPaths": 2,
			"suurballeTime": 116440344,
			"suurballePaths": {
				"path0": [
					"74_Zurich",
					"125_Zug",
					"63_Lucerne"
				],
				"lat0": 81.000000,
				"nbSeg0": 0,
				"path1": [
					"77_Birmingham",
					"150_Bristol",
					"91_Reading",
					"140_London",
					"62_None",
					"115_Lille",
					"139_Paris",
					"123_Lyon",
					"82_Marseille",
					"84_Montpellier",
					"79_None"
				],
				"lat1": 3023.000000,
				"nbSeg1": 2
			},
			"pathsExist": false,
			"runtime": 631597025,
			"nomLat1": 3423.000000,
			"nomLat2": 81.000000,
			"maxNomLat": 3423.000000,
			"mincut": 3
		},
		{
			"s1": "33_St_Gallen",
			"s2": "132_Hoofddorp",
			"t1": "82_Marseille",
			"t2": "137_Barcelona",
			"suurballeNbPaths": 2,
			"suurballeTime": 270855520,
			"suurballePaths": {
				"path0": [
					"132_Hoofddorp",
					"15_The_Hague",
					"18_Antwerp",
					"142_Brussels",
					"78_Ghent",
					"115_Lille",
					"139_Paris",
					"123_Lyon",
					"82_Marseille"
				],
				"lat0": 1970.000000,
				"nbSeg0": 1,
				"path1": [
					"33_St_Gallen",
					"74_Zurich",
					"125_Zug",
					"63_Lucerne",
					"126_Lugano",
					"64_Chiasso",
					"72_Como",
					"152_Milan",
					"138_Turin",
					"82_Marseille"
				],
				"lat1": 1192.000000,
				"nbSeg1": 1
			},
			"pathsExist": false,
			"runtime": 600939845,
			"nomLat1": 2221.000000,
			"nomLat2": 3907.000000,
			"maxNomLat": 3907.000000,
			"mincut": 3
		},
		{
			"s1": "144_Berlin",
			"s2": "149_Rouen",
			"t1": "125_Zug",
			"t2": "132_Hoofddorp",
			"suurballeNbPaths": 2,
			"suurballeTime": 126508037,
			"suurballePaths": {
				"path0": [
					"149_Rouen",
					"139_Paris",
					"118_Strasbourg",
					"117_Basel",
					"74_Zurich",
					"125_Zug"
				],
				"lat0": 1222.000000,
				"nbSeg0": 0,
				"path1": [
					"144_Berlin",
					"2_Rostock",
					"51_Hamburg",
					"136_Essen",
					"17_Dusseldorf",
					"143_Amsterdam",
					"132_Hoofddorp"
				],
				"lat1": 1498.000000,
				"nbSeg1": 0
			},
			"pathsExist": false,
			"runtime": 617245780,
			"nomLat1": 2413.000000,
			"nomLat2": 2201.000000,
			"maxNomLat": 2413.000000,
			"mincut": 4
		},
		{
			"s1": "135_Dortmund",
			"s2": "122_Toulouse",
			"t1": "131_Hilversum",
			"t2": "7_Warsaw",
			"suurballeNbPaths": 2,
			"suurballeTime": 212170408,
			"suurballePaths": {
				"path0": [
					"135_Dortmund",
					"136_Essen",
					"51_Hamburg",
					"2_Rostock",
					"144_Berlin",
					"7_Warsaw"
				],
				"lat0": 2025.000000,
				"nbSeg0": 0,
				"path1": [
					"122_Toulouse",
					"86_Bordeaux",
					"121_Nantes",
					"148_Rennes",
					"149_Rouen",
					"139_Paris",
					"115_Lille",
					"78_Ghent",
					"142_Brussels",
					"18_Antwerp",
					"15_The_Hague",
					"132_Hoofddorp",
					"143_Amsterdam",
					"131_Hilversum"
				],
				"lat1": 2528.000000,
				"nbSeg1": 2
			},
			"pathsExist": false,
			"runtime": 660331889,
			"nomLat1": 467.000000,
			"nomLat2": 5210.000000,
			"maxNomLat": 5210.000000,
			"mincut": 4
		},
		{
			"s1": "76_Manchester",
			"s2": "135_Dortmund",
			"t1": "18_Antwerp",
			"t2": "35_Winterthur",
			"suurballeNbPaths": 2,
			"suurballeTime": 308245127,
			"suurballePaths": {
				"path0": [
					"76_Manchester",
					"140_London",
					"142_Brussels",
					"18_Antwerp"
				],
				"lat0": 1051.000000,
				"nbSeg0": 0,
				"path1": [
					"135_Dortmund",
					"136_Essen",
					"17_Dusseldorf",
					"14_Cologne",
					"141_Frankfurt",
					"12_Mannheim",
					"30_Karlsruhe",
					"118_Strasbourg",
					"117_Basel",
					"74_Zurich",
					"35_Winterthur"
				],
				"lat1": 1128.000000,
				"nbSeg1": 1
			},
			"pathsExist": false,
			"runtime": 534649055,
			"nomLat1": 1051.000000,
			"nomLat2": 1129.000000,
			"maxNomLat": 1129.000000,
			"mincut": 4
		},
		{
			"s1": "11_Prague",
			"s2": "13_Munich",
			"t1": "34_Esslingen",
			"t2": "138_Turin",
			"suurballeNbPaths": 2,
			"suurballeTime": 652316601,
			"suurballePaths": {
				"path0": [
					"13_Munich",
					"119_Stuttgart",
					"34_Esslingen"
				],
				"lat0": 344.000000,
				"nbSeg0": 2,
				"path1": [
					"11_Prague",
					"5_Dresden",
					"144_Berlin",
					"2_Rostock",
					"51_Hamburg",
					"136_Essen",
					"17_Dusseldorf",
					"14_Cologne",
					"141_Frankfurt",
					"12_Mannheim",
					"30_Karlsruhe",
					"118_Strasbourg",
					"117_Basel",
					"74_Zurich",
					"125_Zug",
					"63_Lucerne",
					"126_Lugano",
					"64_Chiasso",
					"72_Como",
					"152_Milan",
					"138_Turin"
				],
				"lat1": 3246.000000,
				"nbSeg1": 2
			},
			"pathsExist": false,
			"runtime": 228393844,
			"nomLat1": 1366.000000,
			"nomLat2": 2788.000000,
			"maxNomLat": 2788.000000,
			"mincut": 2
		},
		{
			"s1": "152_Milan",
			"s2": "23_Lisbon",
			"t1": "12_Mannheim",
			"t2": "31_Boblingen",
			"suurballeNbPaths": 2,
			"suurballeTime": 264464065,
			"suurballePaths": {
				"path0": [
					"152_Milan",
					"72_Como",
					"64_Chiasso",
					"126_Lugano",
					"63_Lucerne",
					"125_Zug",
					"74_Zurich",
					"117_Basel",
					"118_Strasbourg",
					"30_Karlsruhe",
					"119_Stuttgart",
					"31_Boblingen"
				],
				"lat0": 995.000000,
				"nbSeg0": 3,
				"path1": [
					"23_Lisbon",
					"151_Madrid",
					"86_Bordeaux",
					"121_Nantes",
					"148_Rennes",
					"149_Rouen",
					"139_Paris",
					"115_Lille",
					"78_Ghent",
					"142_Brussels",
					"18_Antwerp",
					"15_The_Hague",
					"132_Hoofddorp",
					"143_Amsterdam",
					"17_Dusseldorf",
					"14_Cologne",
					"141_Frankfurt",
					"12_Mannheim"
				],
				"lat1": 4646.000000,
				"nbSeg1": 4
			},
			"pathsExist": false,
			"runtime": 582183846,
			"nomLat1": 2665.000000,
			"nomLat2": 3937.000000,
			"maxNomLat": 3937.000000,
			"mincut": 2
		},
		{
			"s1": "86_Bordeaux",
			"s2": "12_Mannheim",
			"t1": "55_New_York",
			"t2": "64_Chiasso",
			"suurballeNbPaths": 2,
			"suurballeTime": 276268676,
			"suurballePaths": {
				"path0": [
					"86_Bordeaux",
					"121_Nantes",
					"148_Rennes",
					"149_Rouen",
					"139_Paris",
					"54_Newark",
					"55_New_York"
				],
				"lat0": 2195.000000,
				"nbSeg0": 0,
				"path1": [
					"12_Mannheim",
					"30_Karlsruhe",
					"118_Strasbourg",
					"117_Basel",
					"74_Zurich",
					"125_Zug",
					"63_Lucerne",
					"126_Lugano",
					"64_Chiasso"
				],
				"lat1": 867.000000,
				"nbSeg1": 0
			},
			"pathsExist": false,
			"runtime": 563140423,
			"nomLat1": 2195.000000,
			"nomLat2": 867.000000,
			"maxNomLat": 2195.000000,
			"mincut": 4
		},
		{
			"s1": "58_Gothenburg",
			"s2": "66_Genova",
			"t1": "73_None",
			"t2": "151_Madrid",
			"suurballeNbPaths": 2,
			"suurballeTime": 500613248,
			"suurballePaths": {
				"path0": [
					"66_Genova",
					"152_Milan",
					"138_Turin",
					"82_Marseille",
					"84_Montpellier",
					"79_None",
					"137_Barcelona",
					"80_Valencia",
					"151_Madrid"
				],
				"lat0": 2660.000000,
				"nbSeg0": 1,
				"path1": [
					"58_Gothenburg",
					"50_Copenhagen",
					"51_Hamburg",
					"136_Essen",
					"17_Dusseldorf",
					"14_Cologne",
					"141_Frankfurt",
					"12_Mannheim",
					"30_Karlsruhe",
					"118_Strasbourg",
					"117_Basel",
					"73_None"
				],
				"lat1": 2573.000000,
				"nbSeg1": 0
			},
			"pathsExist": false,
			"runtime": 371758805,
			"nomLat1": 2573.000000,
			"nomLat2": 2925.000000,
			"maxNomLat": 2925.000000,
			"mincut": 4
		},
		{
			"s1": "12_Mannheim",
			"s2": "144_Berlin",
			"t1": "104_Bucharest",
			"t2": "148_Rennes",
			"suurballeNbPaths": 2,
			"suurballeTime": 210411499,
			"suurballePaths": {
				"path0": [
					"12_Mannheim",
					"30_Karlsruhe",
					"118_Strasbourg",
					"139_Paris",
					"149_Rouen",
					"148_Rennes"
				],
				"lat0": 1494.000000,
				"nbSeg0": 0,
				"path1": [
					"144_Berlin",
					"5_Dresden",
					"11_Prague",
					"10_Vienna",
					"101_Budapest",
					"104_Bucharest"
				],
				"lat1": 2342.000000,
				"nbSeg1": 2
			},
			"pathsExist": false,
			"runtime": 545917684,
			"nomLat1": 2560.000000,
			"nomLat2": 3332.000000,
			"maxNomLat": 3332.000000,
			"mincut": 4
		},
		{
			"s1": "133_Neuss",
			"s2": "84_Montpellier",
			"t1": "4_Leipzig",
			"t2": "79_None",
			"suurballeNbPaths": 2,
			"suurballeTime": 133714856,
			"suurballePaths": {
				"path0": [
					"84_Montpellier",
					"79_None"
				],
				"lat0": 280.000000,
				"nbSeg0": 0,
				"path1": [
					"133_Neuss",
					"17_Dusseldorf",
					"136_Essen",
					"51_Hamburg",
					"2_Rostock",
					"144_Berlin",
					"5_Dresden",
					"4_Leipzig"
				],
				"lat1": 1627.000000,
				"nbSeg1": 2
			},
			"pathsExist": false,
			"runtime": 637195356,
			"nomLat1": 1627.000000,
			"nomLat2": 280.000000,
			"maxNomLat": 1627.000000,
			"mincut": 4
		},
		{
			"s1": "19_Rotterdam",
			"s2": "66_Genova",
			"t1": "136_Essen",
			"t2": "78_Ghent",
			"suurballeNbPaths": 2,
			"suurballeTime": 474720060,
			"suurballePaths": {
				"path0": [
					"19_Rotterdam",
					"15_The_Hague",
					"18_Antwerp",
					"142_Brussels",
					"78_Ghent"
				],
				"lat0": 364.000000,
				"nbSeg0": 0,
				"path1": [
					"66_Genova",
					"152_Milan",
					"72_Como",
					"64_Chiasso",
					"126_Lugano",
					"63_Lucerne",
					"125_Zug",
					"74_Zurich",
					"117_Basel",
					"118_Strasbourg",
					"30_Karlsruhe",
					"12_Mannheim",
					"141_Frankfurt",
					"14_Cologne",
					"17_Dusseldorf",
					"136_Essen"
				],
				"lat1": 1652.000000,
				"nbSeg1": 1
			},
			"pathsExist": false,
			"runtime": 403359609,
			"nomLat1": 499.000000,
			"nomLat2": 2450.000000,
			"maxNomLat": 2450.000000,
			"mincut": 4
		},
		{
			"s1": "81_Rome",
			"s2": "134_Wuppertal",
			"t1": "2_Rostock",
			"t2": "34_Esslingen",
			"suurballeNbPaths": 2,
			"suurballeTime": 654225688,
			"suurballePaths": {
				"path0": [
					"134_Wuppertal",
					"17_Dusseldorf",
					"136_Essen",
					"51_Hamburg",
					"2_Rostock"
				],
				"lat0": 885.000000,
				"nbSeg0": 1,
				"path1": [
					"81_Rome",
					"68_Firenze",
					"108_Bologna",
					"105_Modena",
					"106_Reggio_Emilia",
					"152_Milan",
					"72_Como",
					"64_Chiasso",
					"126_Lugano",
					"63_Lucerne",
					"125_Zug",
					"74_Zurich",
					"117_Basel",
					"118_Strasbourg",
					"30_Karlsruhe",
					"119_Stuttgart",
					"34_Esslingen"
				],
				"lat1": 1866.000000,
				"nbSeg1": 4
			},
			"pathsExist": false,
			"runtime": 216002528,
			"nomLat1": 5757.000000,
			"nomLat2": 722.000000,
			"maxNomLat": 5757.000000,
			"mincut": 2
		},
		{
			"s1": "17_Dusseldorf",
			"s2": "63_Lucerne",
			"t1": "10_Vienna",
			"t2": "75_Dublin",
			"suurballeNbPaths": 2,
			"suurballeTime": 53761042,
			"suurballePaths": {
				"path0": [
					"17_Dusseldorf",
					"143_Amsterdam",
					"132_Hoofddorp",
					"15_The_Hague",
					"18_Antwerp",
					"142_Brussels",
					"140_London",
					"75_Dublin"
				],
				"lat0": 1955.000000,
				"nbSeg0": 0,
				"path1": [
					"63_Lucerne",
					"125_Zug",
					"74_Zurich",
					"117_Basel",
					"118_Strasbourg",
					"30_Karlsruhe",
					"119_Stuttgart",
					"13_Munich",
					"10_Vienna"
				],
				"lat1": 1547.000000,
				"nbSeg1": 0
			},
			"pathsExist": false,
			"runtime": 846874662,
			"nomLat1": 2064.000000,
			"nomLat2": 3016.000000,
			"maxNomLat": 3016.000000,
			"mincut": 4
		},
		{
			"s1": "5_Dresden",
			"s2": "38_Schaffhausen",
			"t1": "105_Modena",
			"t2": "84_Montpellier",
			"suurballeNbPaths": 2,
			"suurballeTime": 319822831,
			"suurballePaths": {
				"path0": [
					"38_Schaffhausen",
					"74_Zurich",
					"125_Zug",
					"63_Lucerne",
					"126_Lugano",
					"64_Chiasso",
					"72_Como",
					"152_Milan",
					"106_Reggio_Emilia",
					"105_Modena"
				],
				"lat0": 768.000000,
				"nbSeg0": 0,
				"path1": [
					"5_Dresden",
					"4_Leipzig",
					"8_Nuremberg",
					"13_Munich",
					"119_Stuttgart",
					"30_Karlsruhe",
					"118_Strasbourg",
					"117_Basel",
					"73_None",
					"36_Lausanne",
					"39_Nyon",
					"124_Geneve",
					"123_Lyon",
					"82_Marseille",
					"84_Montpellier"
				],
				"lat1": 3083.000000,
				"nbSeg1": 2
			},
			"pathsExist": false,
			"runtime": 562000470,
			"nomLat1": 4507.000000,
			"nomLat2": 2393.000000,
			"maxNomLat": 4507.000000,
			"mincut": 3
		},
		{
			"s1": "55_New_York",
			"s2": "125_Zug",
			"t1": "53_Aarhus",
			"t2": "106_Reggio_Emilia",
			"suurballeNbPaths": 2,
			"suurballeTime": 335724302,
			"suurballePaths": {
				"path0": [
					"125_Zug",
					"63_Lucerne",
					"126_Lugano",
					"64_Chiasso",
					"72_Como",
					"152_Milan",
					"106_Reggio_Emilia"
				],
				"lat0": 615.000000,
				"nbSeg0": 0,
				"path1": [
					"55_New_York",
					"140_London",
					"142_Brussels",
					"18_Antwerp",
					"15_The_Hague",
					"132_Hoofddorp",
					"143_Amsterdam",
					"17_Dusseldorf",
					"136_Essen",
					"51_Hamburg",
					"53_Aarhus"
				],
				"lat1": 2536.000000,
				"nbSeg1": 0
			},
			"pathsExist": false,
			"runtime": 540481057,
			"nomLat1": 2536.000000,
			"nomLat2": 615.000000,
			"maxNomLat": 2536.000000,
			"mincut": 4
		},
		{
			"s1": "15_The_Hague",
			"s2": "100_Klagenfurt",
			"t1": "17_Dusseldorf",
			"t2": "134_Wuppertal",
			"suurballeNbPaths": 2,
			"suurballeTime": 421227348,
			"suurballePaths": {
				"path0": [
					"15_The_Hague",
					"132_Hoofddorp",
					"143_Amsterdam",
					"17_Dusseldorf"
				],
				"lat0": 404.000000,
				"nbSeg0": 0,
				"path1": [
					"100_Klagenfurt",
					"97_Graz",
					"10_Vienna",
					"13_Munich",
					"119_Stuttgart",
					"30_Karlsruhe",
					"12_Mannheim",
					"141_Frankfurt",
					"14_Cologne",
					"17_Dusseldorf"
				],
				"lat1": 1983.000000,
				"nbSeg1": 5
			},
			"pathsExist": false,
			"runtime": 456380827,
			"nomLat1": 404.000000,
			"nomLat2": 2541.000000,
			"maxNomLat": 2541.000000,
			"mincut": 3
		},
		{
			"s1": "38_Schaffhausen",
			"s2": "12_Mannheim",
			"t1": "77_Birmingham",
			"t2": "139_Paris",
			"suurballeNbPaths": 2,
			"suurballeTime": 118247252,
			"suurballePaths": {
				"path0": [
					"38_Schaffhausen",
					"74_Zurich",
					"117_Basel",
					"118_Strasbourg",
					"139_Paris"
				],
				"lat0": 1056.000000,
				"nbSeg0": 0,
				"path1": [
					"12_Mannheim",
					"141_Frankfurt",
					"14_Cologne",
					"17_Dusseldorf",
					"143_Amsterdam",
					"132_Hoofddorp",
					"15_The_Hague",
					"18_Antwerp",
					"142_Brussels",
					"140_London",
					"91_Reading",
					"150_Bristol",
					"77_Birmingham"
				],
				"lat1": 2124.000000,
				"nbSeg1": 2
			},
			"pathsExist": false,
			"runtime": 762832049,
			"nomLat1": 2862.000000,
			"nomLat2": 876.000000,
			"maxNomLat": 2862.000000,
			"mincut": 4
		},
		{
			"s1": "133_Neuss",
			"s2": "15_The_Hague",
			"t1": "94_Ostend",
			"t2": "107_Padova",
			"suurballeNbPaths": 2,
			"suurballeTime": 278211637,
			"suurballePaths": {
				"path0": [
					"15_The_Hague",
					"18_Antwerp",
					"142_Brussels",
					"78_Ghent",
					"94_Ostend"
				],
				"lat0": 427.000000,
				"nbSeg0": 0,
				"path1": [
					"133_Neuss",
					"17_Dusseldorf",
					"14_Cologne",
					"141_Frankfurt",
					"12_Mannheim",
					"30_Karlsruhe",
					"118_Strasbourg",
					"117_Basel",
					"74_Zurich",
					"125_Zug",
					"63_Lucerne",
					"126_Lugano",
					"64_Chiasso",
					"72_Como",
					"152_Milan",
					"109_Bergamo",
					"112_Brescia",
					"111_Verona",
					"107_Padova"
				],
				"lat1": 1799.000000,
				"nbSeg1": 4
			},
			"pathsExist": false,
			"runtime": 611817006,
			"nomLat1": 847.000000,
			"nomLat2": 5323.000000,
			"maxNomLat": 5323.000000,
			"mincut": 2
		},
		{
			"s1": "81_Rome",
			"s2": "7_Warsaw",
			"t1": "135_Dortmund",
			"t2": "92_Kolding",
			"suurballeNbPaths": 2,
			"suurballeTime": 61451360,
			"suurballePaths": {
				"path0": [
					"7_Warsaw",
					"144_Berlin",
					"2_Rostock",
					"51_Hamburg",
					"92_Kolding"
				],
				"lat0": 1818.000000,
				"nbSeg0": 0,
				"path1": [
					"81_Rome",
					"68_Firenze",
					"108_Bologna",
					"105_Modena",
					"106_Reggio_Emilia",
					"152_Milan",
					"72_Como",
					"64_Chiasso",
					"126_Lugano",
					"63_Lucerne",
					"125_Zug",
					"74_Zurich",
					"117_Basel",
					"118_Strasbourg",
					"30_Karlsruhe",
					"12_Mannheim",
					"141_Frankfurt",
					"14_Cologne",
					"17_Dusseldorf",
					"136_Essen",
					"135_Dortmund"
				],
				"lat1": 2385.000000,
				"nbSeg1": 3
			},
			"pathsExist": false,
			"runtime": 823272272,
			"nomLat1": 4149.000000,
			"nomLat2": 1818.000000,
			"maxNomLat": 4149.000000,
			"mincut": 4
		},
		{
			"s1": "100_Klagenfurt",
			"s2": "51_Hamburg",
			"t1": "33_St_Gallen",
			"t2": "152_Milan",
			"suurballeNbPaths": 2,
			"suurballeTime": 127342825,
			"suurballePaths": {
				"path0": [
					"100_Klagenfurt",
					"97_Graz",
					"10_Vienna",
					"13_Munich",
					"119_Stuttgart",
					"30_Karlsruhe",
					"118_Strasbourg",
					"117_Basel",
					"74_Zurich",
					"33_St_Gallen"
				],
				"lat0": 1991.000000,
				"nbSeg0": 4,
				"path1": [
					"51_Hamburg",
					"136_Essen",
					"17_Dusseldorf",
					"143_Amsterdam",
					"132_Hoofddorp",
					"15_The_Hague",
					"18_Antwerp",
					"142_Brussels",
					"78_Ghent",
					"115_Lille",
					"139_Paris",
					"123_Lyon",
					"82_Marseille",
					"138_Turin",
					"152_Milan"
				],
				"lat1": 3549.000000,
				"nbSeg1": 1
			},
			"pathsExist": false,
			"runtime": 724609722,
			"nomLat1": 1991.000000,
			"nomLat2": 3683.000000,
			"maxNomLat": 3683.000000,
			"mincut": 2
		},
		{
			"s1": "135_Dortmund",
			"s2": "74_Zurich",
			"t1": "5_Dresden",
			"t2": "139_Paris",
			"suurballeNbPaths": 2,
			"suurballeTime": 12854017,
			"suurballePaths": {
				"path0": [
					"74_Zurich",
					"117_Basel",
					"118_Strasbourg",
					"139_Paris"
				],
				"lat0": 989.000000,
				"nbSeg0": 0,
				"path1": [
					"135_Dortmund",
					"136_Essen",
					"51_Hamburg",
					"2_Rostock",
					"144_Berlin",
					"5_Dresden"
				],
				"lat1": 1440.000000,
				"nbSeg1": 0
			},
			"pathsExist": false,
			"runtime": 872478882,
			"nomLat1": 1440.000000,
			"nomLat2": 989.000000,
			"maxNomLat": 1440.000000,
			"mincut": 4
		},
		{
			"s1": "119_Stuttgart",
			"s2": "106_Reggio_Emilia",
			"t1": "54_Newark",
			"t2": "141_Frankfurt",
			"suurballeNbPaths": 2,
			"suurballeTime": 282623100,
			"suurballePaths": {
				"path0": [
					"119_Stuttgart",
					"30_Karlsruhe",
					"12_Mannheim",
					"141_Frankfurt"
				],
				"lat0": 328.000000,
				"nbSeg0": 0,
				"path1": [
					"106_Reggio_Emilia",
					"152_Milan",
					"72_Como",
					"64_Chiasso",
					"126_Lugano",
					"63_Lucerne",
					"125_Zug",
					"74_Zurich",
					"117_Basel",
					"118_Strasbourg",
					"139_Paris",
					"54_Newark"
				],
				"lat1": 2513.000000,
				"nbSeg1": 1
			},
			"pathsExist": false,
			"runtime": 387878891,
			"nomLat1": 1757.000000,
			"nomLat2": 3029.000000,
			"maxNomLat": 3029.000000,
			"mincut": 4
		},
		{
			"s1": "142_Brussels",
			"s2": "94_Ostend",
			"t1": "64_Chiasso",
			"t2": "111_Verona",
			"suurballeNbPaths": 2,
			"suurballeTime": 396942184,
			"suurballePaths": {
				"path0": [
					"94_Ostend",
					"78_Ghent",
					"115_Lille",
					"139_Paris",
					"123_Lyon",
					"82_Marseille",
					"138_Turin",
					"152_Milan",
					"109_Bergamo",
					"112_Brescia",
					"111_Verona"
				],
				"lat0": 2620.000000,
				"nbSeg0": 1,
				"path1": [
					"142_Brussels",
					"18_Antwerp",
					"15_The_Hague",
					"132_Hoofddorp",
					"143_Amsterdam",
					"17_Dusseldorf",
					"14_Cologne",
					"141_Frankfurt",
					"12_Mannheim",
					"30_Karlsruhe",
					"118_Strasbourg",
					"117_Basel",
					"74_Zurich",
					"125_Zug",
					"63_Lucerne",
					"126_Lugano",
					"64_Chiasso"
				],
				"lat1": 1952.000000,
				"nbSeg1": 1
			},
			"pathsExist": false,
			"runtime": 494122297,
			"nomLat1": 3580.000000,
			"nomLat2": 2964.000000,
			"maxNomLat": 3580.000000,
			"mincut": 2
		},
		{
			"s1": "94_Ostend",
			"s2": "105_Modena",
			"t1": "13_Munich",
			"t2": "123_Lyon",
			"suurballeNbPaths": 2,
			"suurballeTime": 12308556,
			"suurballePaths": {
				"path0": [
					"94_Ostend",
					"78_Ghent",
					"115_Lille",
					"139_Paris",
					"123_Lyon"
				],
				"lat0": 1220.000000,
				"nbSeg0": 1,
				"path1": [
					"105_Modena",
					"106_Reggio_Emilia",
					"152_Milan",
					"72_Como",
					"64_Chiasso",
					"126_Lugano",
					"63_Lucerne",
					"125_Zug",
					"74_Zurich",
					"117_Basel",
					"118_Strasbourg",
					"30_Karlsruhe",
					"119_Stuttgart",
					"13_Munich"
				],
				"lat1": 1570.000000,
				"nbSeg1": 1
			},
			"pathsExist": false,
			"runtime": 876596388,
			"nomLat1": 2117.000000,
			"nomLat2": 1414.000000,
			"maxNomLat": 2117.000000,
			"mincut": 4
		},
		{
			"s1": "152_Milan",
			"s2": "62_None",
			"t1": "31_Boblingen",
			"t2": "64_Chiasso",
			"suurballeNbPaths": 2,
			"suurballeTime": 352606722,
			"suurballePaths": {
				"path0": [
					"152_Milan",
					"72_Como",
					"64_Chiasso"
				],
				"lat0": 83.000000,
				"nbSeg0": 0,
				"path1": [
					"62_None",
					"115_Lille",
					"139_Paris",
					"118_Strasbourg",
					"30_Karlsruhe",
					"119_Stuttgart",
					"31_Boblingen"
				],
				"lat1": 1546.000000,
				"nbSeg1": 2
			},
			"pathsExist": false,
			"runtime": 452794485,
			"nomLat1": 2710.000000,
			"nomLat2": 2497.000000,
			"maxNomLat": 2710.000000,
			"mincut": 4
		},
		{
			"s1": "107_Padova",
			"s2": "117_Basel",
			"t1": "16_Hannover",
			"t2": "108_Bologna",
			"suurballeNbPaths": 2,
			"suurballeTime": 116713627,
			"suurballePaths": {
				"path0": [
					"107_Padova",
					"111_Verona",
					"112_Brescia",
					"109_Bergamo",
					"152_Milan",
					"106_Reggio_Emilia",
					"105_Modena",
					"108_Bologna"
				],
				"lat0": 739.000000,
				"nbSeg0": 2,
				"path1": [
					"117_Basel",
					"118_Strasbourg",
					"30_Karlsruhe",
					"12_Mannheim",
					"141_Frankfurt",
					"14_Cologne",
					"17_Dusseldorf",
					"136_Essen",
					"51_Hamburg",
					"16_Hannover"
				],
				"lat1": 1647.000000,
				"nbSeg1": 0
			},
			"pathsExist": false,
			"runtime": 735136808,
			"nomLat1": 5497.000000,
			"nomLat2": 3327.000000,
			"maxNomLat": 5497.000000,
			"mincut": 4
		},
		{
			"s1": "58_Gothenburg",
			"s2": "3_Potsdam",
			"t1": "135_Dortmund",
			"t2": "126_Lugano",
			"suurballeNbPaths": 2,
			"suurballeTime": 81863697,
			"suurballePaths": {
				"path0": [
					"58_Gothenburg",
					"50_Copenhagen",
					"51_Hamburg",
					"136_Essen",
					"135_Dortmund"
				],
				"lat0": 1446.000000,
				"nbSeg0": 0,
				"path1": [
					"3_Potsdam",
					"144_Berlin",
					"5_Dresden",
					"4_Leipzig",
					"8_Nuremberg",
					"13_Munich",
					"119_Stuttgart",
					"30_Karlsruhe",
					"118_Strasbourg",
					"117_Basel",
					"74_Zurich",
					"125_Zug",
					"63_Lucerne",
					"126_Lugano"
				],
				"lat1": 2308.000000,
				"nbSeg1": 3
			},
			"pathsExist": false,
			"runtime": 848715525,
			"nomLat1": 1446.000000,
			"nomLat2": 2716.000000,
			"maxNomLat": 2716.000000,
			"mincut": 2
		},
		{
			"s1": "104_Bucharest",
			"s2": "109_Bergamo",
			"t1": "125_Zug",
			"t2": "152_Milan",
			"suurballeNbPaths": 2,
			"suurballeTime": 75319373,
			"suurballePaths": {
				"path0": [
					"109_Bergamo",
					"152_Milan"
				],
				"lat0": 80.000000,
				"nbSeg0": 0,
				"path1": [
					"104_Bucharest",
					"101_Budapest",
					"10_Vienna",
					"13_Munich",
					"119_Stuttgart",
					"30_Karlsruhe",
					"118_Strasbourg",
					"117_Basel",
					"74_Zurich",
					"125_Zug"
				],
				"lat1": 2945.000000,
				"nbSeg1": 2
			},
			"pathsExist": false,
			"runtime": 816515841,
			"nomLat1": 2945.000000,
			"nomLat2": 80.000000,
			"maxNomLat": 2945.000000,
			"mincut": 4
		},
		{
			"s1": "131_Hilversum",
			"s2": "148_Rennes",
			"t1": "54_Newark",
			"t2": "55_New_York",
			"suurballeNbPaths": 2,
			"suurballeTime": 10565569,
			"suurballePaths": {
				"path0": [
					"148_Rennes",
					"149_Rouen",
					"139_Paris",
					"54_Newark"
				],
				"lat0": 1485.000000,
				"nbSeg0": 0,
				"path1": [
					"131_Hilversum",
					"143_Amsterdam",
					"132_Hoofddorp",
					"15_The_Hague",
					"18_Antwerp",
					"142_Brussels",
					"140_London",
					"55_New_York"
				],
				"lat1": 1213.000000,
				"nbSeg1": 0
			},
			"pathsExist": false,
			"runtime": 650810289,
			"nomLat1": 1221.000000,
			"nomLat2": 1565.000000,
			"maxNomLat": 1565.000000,
			"mincut": 3
		},
		{
			"s1": "31_Boblingen",
			"s2": "106_Reggio_Emilia",
			"t1": "82_Marseille",
			"t2": "73_None",
			"suurballeNbPaths": 2,
			"suurballeTime": 142109087,
			"suurballePaths": {
				"path0": [
					"106_Reggio_Emilia",
					"152_Milan",
					"138_Turin",
					"82_Marseille"
				],
				"lat0": 906.000000,
				"nbSeg0": 0,
				"path1": [
					"31_Boblingen",
					"119_Stuttgart",
					"30_Karlsruhe",
					"118_Strasbourg",
					"117_Basel",
					"73_None"
				],
				"lat1": 729.000000,
				"nbSeg1": 2
			},
			"pathsExist": false,
			"runtime": 733158774,
			"nomLat1": 2044.000000,
			"nomLat2": 3169.000000,
			"maxNomLat": 3169.000000,
			"mincut": 4
		},
		{
			"s1": "92_Kolding",
			"s2": "112_Brescia",
			"t1": "39_Nyon",
			"t2": "131_Hilversum",
			"suurballeNbPaths": 2,
			"suurballeTime": 10541931,
			"suurballePaths": {
				"path0": [
					"92_Kolding",
					"51_Hamburg",
					"136_Essen",
					"17_Dusseldorf",
					"143_Amsterdam",
					"131_Hilversum"
				],
				"lat0": 1297.000000,
				"nbSeg0": 0,
				"path1": [
					"112_Brescia",
					"109_Bergamo",
					"152_Milan",
					"72_Como",
					"64_Chiasso",
					"126_Lugano",
					"63_Lucerne",
					"125_Zug",
					"74_Zurich",
					"117_Basel",
					"73_None",
					"36_Lausanne",
					"39_Nyon"
				],
				"lat1": 1330.000000,
				"nbSeg1": 1
			},
			"pathsExist": false,
			"runtime": 885731956,
			"nomLat1": 3152.000000,
			"nomLat2": 4041.000000,
			"maxNomLat": 4041.000000,
			"mincut": 4
		},
		{
			"s1": "123_Lyon",
			"s2": "76_Manchester",
			"t1": "56_Stockholm",
			"t2": "105_Modena",
			"suurballeNbPaths": 2,
			"suurballeTime": 168671102,
			"suurballePaths": {
				"path0": [
					"123_Lyon",
					"82_Marseille",
					"138_Turin",
					"152_Milan",
					"106_Reggio_Emilia",
					"105_Modena"
				],
				"lat0": 1414.000000,
				"nbSeg0": 0,
				"path1": [
					"76_Manchester",
					"140_London",
					"142_Brussels",
					"18_Antwerp",
					"15_The_Hague",
					"132_Hoofddorp",
					"143_Amsterdam",
					"17_Dusseldorf",
					"136_Essen",
					"51_Hamburg",
					"50_Copenhagen",
					"56_Stockholm"
				],
				"lat1": 3552.000000,
				"nbSeg1": 0
			},
			"pathsExist": false,
			"runtime": 706869441,
			"nomLat1": 3912.000000,
			"nomLat2": 3683.000000,
			"maxNomLat": 3912.000000,
			"mincut": 4
		},
		{
			"s1": "2_Rostock",
			"s2": "109_Bergamo",
			"t1": "92_Kolding",
			"t2": "135_Dortmund",
			"suurballeNbPaths": 2,
			"suurballeTime": 8423282,
			"suurballePaths": {
				"path0": [
					"2_Rostock",
					"51_Hamburg",
					"92_Kolding"
				],
				"lat0": 627.000000,
				"nbSeg0": 0,
				"path1": [
					"109_Bergamo",
					"152_Milan",
					"72_Como",
					"64_Chiasso",
					"126_Lugano",
					"63_Lucerne",
					"125_Zug",
					"74_Zurich",
					"117_Basel",
					"118_Strasbourg",
					"30_Karlsruhe",
					"12_Mannheim",
					"141_Frankfurt",
					"14_Cologne",
					"17_Dusseldorf",
					"136_Essen",
					"135_Dortmund"
				],
				"lat1": 1585.000000,
				"nbSeg1": 2
			},
			"pathsExist": false,
			"runtime": 642056484,
			"nomLat1": 627.000000,
			"nomLat2": 3301.000000,
			"maxNomLat": 3301.000000,
			"mincut": 4
		},
		{
			"s1": "123_Lyon",
			"s2": "38_Schaffhausen",
			"t1": "35_Winterthur",
			"t2": "64_Chiasso",
			"suurballeNbPaths": 2,
			"suurballeTime": 11323545,
			"suurballePaths": {
				"path0": [
					"38_Schaffhausen",
					"74_Zurich",
					"35_Winterthur"
				],
				"lat0": 107.000000,
				"nbSeg0": 0,
				"path1": [
					"123_Lyon",
					"82_Marseille",
					"138_Turin",
					"152_Milan",
					"72_Como",
					"64_Chiasso"
				],
				"lat1": 1213.000000,
				"nbSeg1": 0
			},
			"pathsExist": false,
			"runtime": 915758857,
			"nomLat1": 1688.000000,
			"nomLat2": 401.000000,
			"maxNomLat": 1688.000000,
			"mincut": 4
		},
		{
			"s1": "18_Antwerp",
			"s2": "92_Kolding",
			"t1": "7_Warsaw",
			"t2": "108_Bologna",
			"suurballeNbPaths": 2,
			"suurballeTime": 8685704,
			"suurballePaths": {
				"path0": [
					"92_Kolding",
					"51_Hamburg",
					"2_Rostock",
					"144_Berlin",
					"7_Warsaw"
				],
				"lat0": 1818.000000,
				"nbSeg0": 0,
				"path1": [
					"18_Antwerp",
					"15_The_Hague",
					"132_Hoofddorp",
					"143_Amsterdam",
					"17_Dusseldorf",
					"14_Cologne",
					"141_Frankfurt",
					"12_Mannheim",
					"30_Karlsruhe",
					"118_Strasbourg",
					"117_Basel",
					"74_Zurich",
					"125_Zug",
					"63_Lucerne",
					"126_Lugano",
					"64_Chiasso",
					"72_Como",
					"152_Milan",
					"106_Reggio_Emilia",
					"105_Modena",
					"108_Bologna"
				],
				"lat1": 2312.000000,
				"nbSeg1": 3
			},
			"pathsExist": false,
			"runtime": 869440158,
			"nomLat1": 2592.000000,
			"nomLat2": 4729.000000,
			"maxNomLat": 4729.000000,
			"mincut": 4
		},
		{
			"s1": "34_Esslingen",
			"s2": "135_Dortmund",
			"t1": "150_Bristol",
			"t2": "60_None",
			"suurballeNbPaths": 2,
			"suurballeTime": 656742537,
			"suurballePaths": {
				"path0": [
					"135_Dortmund",
					"136_Essen",
					"51_Hamburg",
					"16_Hannover",
					"60_None"
				],
				"lat0": 1080.000000,
				"nbSeg0": 0,
				"path1": [
					"34_Esslingen",
					"119_Stuttgart",
					"30_Karlsruhe",
					"118_Strasbourg",
					"139_Paris",
					"115_Lille",
					"62_None",
					"140_London",
					"91_Reading",
					"150_Bristol"
				],
				"lat1": 2110.000000,
				"nbSeg1": 4
			},
			"pathsExist": false,
			"runtime": 196384945,
			"nomLat1": 3407.000000,
			"nomLat2": 1080.000000,
			"maxNomLat": 3407.000000,
			"mincut": 4
		},
		{
			"s1": "149_Rouen",
			"s2": "16_Hannover",
			"t1": "7_Warsaw",
			"t2": "51_Hamburg",
			"suurballeNbPaths": 2,
			"suurballeTime": 242041192,
			"suurballePaths": {
				"path0": [
					"16_Hannover",
					"60_None",
					"144_Berlin",
					"7_Warsaw"
				],
				"lat0": 1425.000000,
				"nbSeg0": 0,
				"path1": [
					"149_Rouen",
					"139_Paris",
					"115_Lille",
					"78_Ghent",
					"142_Brussels",
					"18_Antwerp",
					"15_The_Hague",
					"132_Hoofddorp",
					"143_Amsterdam",
					"17_Dusseldorf",
					"136_Essen",
					"51_Hamburg"
				],
				"lat1": 1951.000000,
				"nbSeg1": 1
			},
			"pathsExist": false,
			"runtime": 654170863,
			"nomLat1": 3504.000000,
			"nomLat2": 225.000000,
			"maxNomLat": 3504.000000,
			"mincut": 4
		},
		{
			"s1": "91_Reading",
			"s2": "105_Modena",
			"t1": "81_Rome",
			"t2": "77_Birmingham",
			"suurballeNbPaths": 2,
			"suurballeTime": 397417246,
			"suurballePaths": {
				"path0": [
					"91_Reading",
					"150_Bristol",
					"77_Birmingham"
				],
				"lat0": 399.000000,
				"nbSeg0": 0,
				"path1": [
					"105_Modena",
					"108_Bologna",
					"68_Firenze",
					"81_Rome"
				],
				"lat1": 596.000000,
				"nbSeg1": 0
			},
			"pathsExist": false,
			"runtime": 546836449,
			"nomLat1": 3989.000000,
			"nomLat2": 3879.000000,
			"maxNomLat": 3989.000000,
			"mincut": 4
		},
		{
			"s1": "38_Schaffhausen",
			"s2": "115_Lille",
			"t1": "53_Aarhus",
			"t2": "14_Cologne",
			"suurballeNbPaths": 2,
			"suurballeTime": 177251104,
			"suurballePaths": {
				"path0": [
					"38_Schaffhausen",
					"74_Zurich",
					"117_Basel",
					"118_Strasbourg",
					"30_Karlsruhe",
					"12_Mannheim",
					"141_Frankfurt",
					"14_Cologne"
				],
				"lat0": 982.000000,
				"nbSeg0": 0,
				"path1": [
					"115_Lille",
					"78_Ghent",
					"142_Brussels",
					"18_Antwerp",
					"15_The_Hague",
					"132_Hoofddorp",
					"143_Amsterdam",
					"17_Dusseldorf",
					"136_Essen",
					"51_Hamburg",
					"53_Aarhus"
				],
				"lat1": 1903.000000,
				"nbSeg1": 1
			},
			"pathsExist": false,
			"runtime": 738805037,
			"nomLat1": 2106.000000,
			"nomLat2": 1603.000000,
			"maxNomLat": 2106.000000,
			"mincut": 2
		},
		{
			"s1": "55_New_York",
			"s2": "135_Dortmund",
			"t1": "149_Rouen",
			"t2": "30_Karlsruhe",
			"suurballeNbPaths": 2,
			"suurballeTime": 262199403,
			"suurballePaths": {
				"path0": [
					"55_New_York",
					"54_Newark",
					"139_Paris",
					"149_Rouen"
				],
				"lat0": 1138.000000,
				"nbSeg0": 0,
				"path1": [
					"135_Dortmund",
					"136_Essen",
					"17_Dusseldorf",
					"14_Cologne",
					"141_Frankfurt",
					"12_Mannheim",
					"30_Karlsruhe"
				],
				"lat1": 650.000000,
				"nbSeg1": 1
			},
			"pathsExist": false,
			"runtime": 575927001,
			"nomLat1": 1138.000000,
			"nomLat2": 651.000000,
			"maxNomLat": 1138.000000,
			"mincut": 4
		},
		{
			"s1": "59_Oslo",
			"s2": "12_Mannheim",
			"t1": "75_Dublin",
			"t2": "86_Bordeaux",
			"suurballeNbPaths": 2,
			"suurballeTime": 8076865,
			"suurballePaths": {
				"path0": [
					"12_Mannheim",
					"30_Karlsruhe",
					"118_Strasbourg",
					"139_Paris",
					"149_Rouen",
					"148_Rennes",
					"121_Nantes",
					"86_Bordeaux"
				],
				"lat0": 2124.000000,
				"nbSeg0": 0,
				"path1": [
					"59_Oslo",
					"58_Gothenburg",
					"50_Copenhagen",
					"51_Hamburg",
					"136_Essen",
					"17_Dusseldorf",
					"143_Amsterdam",
					"132_Hoofddorp",
					"15_The_Hague",
					"18_Antwerp",
					"142_Brussels",
					"140_London",
					"75_Dublin"
				],
				"lat1": 3829.000000,
				"nbSeg1": 1
			},
			"pathsExist": false,
			"runtime": 667399532,
			"nomLat1": 4586.000000,
			"nomLat2": 2124.000000,
			"maxNomLat": 4586.000000,
			"mincut": 2
		},
		{
			"s1": "143_Amsterdam",
			"s2": "109_Bergamo",
			"t1": "135_Dortmund",
			"t2": "119_Stuttgart",
			"suurballeNbPaths": 2,
			"suurballeTime": 396179204,
			"suurballePaths": {
				"path0": [
					"143_Amsterdam",
					"17_Dusseldorf",
					"136_Essen",
					"135_Dortmund"
				],
				"lat0": 419.000000,
				"nbSeg0": 1,
				"path1": [
					"109_Bergamo",
					"152_Milan",
					"72_Como",
					"64_Chiasso",
					"126_Lugano",
					"63_Lucerne",
					"125_Zug",
					"74_Zurich",
					"117_Basel",
					"118_Strasbourg",
					"30_Karlsruhe",
					"119_Stuttgart"
				],
				"lat1": 1044.000000,
				"nbSeg1": 1
			},
			"pathsExist": false,
			"runtime": 557852380,
			"nomLat1": 420.000000,
			"nomLat2": 2759.000000,
			"maxNomLat": 2759.000000,
			"mincut": 2
		},
		{
			"s1": "107_Padova",
			"s2": "49_Den_Bosch",
			"t1": "112_Brescia",
			"t2": "62_None",
			"suurballeNbPaths": 2,
			"suurballeTime": 7882192,
			"suurballePaths": {
				"path0": [
					"107_Padova",
					"111_Verona",
					"112_Brescia"
				],
				"lat0": 225.000000,
				"nbSeg0": 0,
				"path1": [
					"49_Den_Bosch",
					"19_Rotterdam",
					"15_The_Hague",
					"18_Antwerp",
					"142_Brussels",
					"78_Ghent",
					"94_Ostend",
					"62_None"
				],
				"lat1": 855.000000,
				"nbSeg1": 1
			},
			"pathsExist": false,
			"runtime": 660954360,
			"nomLat1": 225.000000,
			"nomLat2": 1203.000000,
			"maxNomLat": 1203.000000,
			"mincut": 4
		},
		{
			"s1": "7_Warsaw",
			"s2": "131_Hilversum",
			"t1": "126_Lugano",
			"t2": "74_Zurich",
			"suurballeNbPaths": 2,
			"suurballeTime": 19666986,
			"suurballePaths": {
				"path0": [
					"7_Warsaw",
					"144_Berlin",
					"5_Dresden",
					"4_Leipzig",
					"8_Nuremberg",
					"13_Munich",
					"119_Stuttgart",
					"30_Karlsruhe",
					"118_Strasbourg",
					"117_Basel",
					"74_Zurich"
				],
				"lat0": 2828.000000,
				"nbSeg0": 1,
				"path1": [
					"131_Hilversum",
					"143_Amsterdam",
					"132_Hoofddorp",
					"15_The_Hague",
					"18_Antwerp",
					"142_Brussels",
					"78_Ghent",
					"115_Lille",
					"139_Paris",
					"123_Lyon",
					"82_Marseille",
					"138_Turin",
					"152_Milan",
					"72_Como",
					"64_Chiasso",
					"126_Lugano"
				],
				"lat1": 2836.000000,
				"nbSeg1": 2
			},
			"pathsExist": false,
			"runtime": 657635902,
			"nomLat1": 3265.000000,
			"nomLat2": 1332.000000,
			"maxNomLat": 3265.000000,
			"mincut": 2
		},
		{
			"s1": "16_Hannover",
			"s2": "123_Lyon",
			"t1": "11_Prague",
			"t2": "8_Nuremberg",
			"suurballeNbPaths": 2,
			"suurballeTime": 14135247,
			"suurballePaths": {
				"path0": [
					"16_Hannover",
					"60_None",
					"144_Berlin",
					"5_Dresden",
					"11_Prague"
				],
				"lat0": 1040.000000,
				"nbSeg0": 0,
				"path1": [
					"123_Lyon",
					"124_Geneve",
					"39_Nyon",
					"36_Lausanne",
					"73_None",
					"117_Basel",
					"118_Strasbourg",
					"30_Karlsruhe",
					"119_Stuttgart",
					"13_Munich",
					"8_Nuremberg"
				],
				"lat1": 1846.000000,
				"nbSeg1": 1
			},
			"pathsExist": false,
			"runtime": 603526094,
			"nomLat1": 1040.000000,
			"nomLat2": 2126.000000,
			"maxNomLat": 2126.000000,
			"mincut": 3
		},
		{
			"s1": "7_Warsaw",
			"s2": "97_Graz",
			"t1": "12_Mannheim",
			"t2": "35_Winterthur",
			"suurballeNbPaths": 2,
			"suurballeTime": 19450825,
			"suurballePaths": {
				"path0": [
					"7_Warsaw",
					"144_Berlin",
					"2_Rostock",
					"51_Hamburg",
					"136_Essen",
					"17_Dusseldorf",
					"14_Cologne",
					"141_Frankfurt",
					"12_Mannheim"
				],
				"lat0": 2468.000000,
				"nbSeg0": 1,
				"path1": [
					"97_Graz",
					"10_Vienna",
					"13_Munich",
					"119_Stuttgart",
					"30_Karlsruhe",
					"118_Strasbourg",
					"117_Basel",
					"74_Zurich",
					"35_Winterthur"
				],
				"lat1": 1751.000000,
				"nbSeg1": 2
			},
			"pathsExist": false,
			"runtime": 916899654,
			"nomLat1": 2627.000000,
			"nomLat2": 1751.000000,
			"maxNomLat": 2627.000000,
			"mincut": 2
		},
		{
			"s1": "31_Boblingen",
			"s2": "137_Barcelona",
			"t1": "134_Wuppertal",
			"t2": "139_Paris",
			"suurballeNbPaths": 2,
			"suurballeTime": 65892643,
			"suurballePaths": {
				"path0": [
					"137_Barcelona",
					"79_None",
					"84_Montpellier",
					"82_Marseille",
					"123_Lyon",
					"139_Paris"
				],
				"lat0": 1897.000000,
				"nbSeg0": 0,
				"path1": [
					"31_Boblingen",
					"119_Stuttgart",
					"30_Karlsruhe",
					"12_Mannheim",
					"141_Frankfurt",
					"14_Cologne",
					"17_Dusseldorf",
					"134_Wuppertal"
				],
				"lat1": 731.000000,
				"nbSeg1": 2
			},
			"pathsExist": false,
			"runtime": 707099349,
			"nomLat1": 731.000000,
			"nomLat2": 1897.000000,
			"maxNomLat": 1897.000000,
			"mincut": 4
		},
		{
			"s1": "31_Boblingen",
			"s2": "58_Gothenburg",
			"t1": "135_Dortmund",
			"t2": "148_Rennes",
			"suurballeNbPaths": 2,
			"suurballeTime": 23905809,
			"suurballePaths": {
				"path0": [
					"58_Gothenburg",
					"50_Copenhagen",
					"51_Hamburg",
					"136_Essen",
					"135_Dortmund"
				],
				"lat0": 1446.000000,
				"nbSeg0": 0,
				"path1": [
					"31_Boblingen",
					"119_Stuttgart",
					"30_Karlsruhe",
					"118_Strasbourg",
					"139_Paris",
					"149_Rouen",
					"148_Rennes"
				],
				"lat1": 1539.000000,
				"nbSeg1": 2
			},
			"pathsExist": false,
			"runtime": 674499567,
			"nomLat1": 791.000000,
			"nomLat2": 3383.000000,
			"maxNomLat": 3383.000000,
			"mincut": 2
		},
		{
			"s1": "117_Basel",
			"s2": "124_Geneve",
			"t1": "122_Toulouse",
			"t2": "108_Bologna",
			"suurballeNbPaths": 2,
			"suurballeTime": 164816704,
			"suurballePaths": {
				"path0": [
					"124_Geneve",
					"123_Lyon",
					"82_Marseille",
					"84_Montpellier",
					"79_None",
					"122_Toulouse"
				],
				"lat0": 1429.000000,
				"nbSeg0": 0,
				"path1": [
					"117_Basel",
					"74_Zurich",
					"125_Zug",
					"63_Lucerne",
					"126_Lugano",
					"64_Chiasso",
					"72_Como",
					"152_Milan",
					"106_Reggio_Emilia",
					"105_Modena",
					"108_Bologna"
				],
				"lat1": 896.000000,
				"nbSeg1": 2
			},
			"pathsExist": false,
			"runtime": 786746146,
			"nomLat1": 2757.000000,
			"nomLat2": 1999.000000,
			"maxNomLat": 2757.000000,
			"mincut": 3
		},
		{
			"s1": "13_Munich",
			"s2": "140_London",
			"t1": "12_Mannheim",
			"t2": "79_None",
			"suurballeNbPaths": 2,
			"suurballeTime": 168636586,
			"suurballePaths": {
				"path0": [
					"13_Munich",
					"119_Stuttgart",
					"30_Karlsruhe",
					"12_Mannheim"
				],
				"lat0": 526.000000,
				"nbSeg0": 0,
				"path1": [
					"140_London",
					"62_None",
					"115_Lille",
					"139_Paris",
					"123_Lyon",
					"82_Marseille",
					"84_Montpellier",
					"79_None"
				],
				"lat1": 2522.000000,
				"nbSeg1": 1
			},
			"pathsExist": false,
			"runtime": 657346848,
			"nomLat1": 526.000000,
			"nomLat2": 2787.000000,
			"maxNomLat": 2787.000000,
			"mincut": 4
		},
		{
			"s1": "58_Gothenburg",
			"s2": "123_Lyon",
			"t1": "78_Ghent",
			"t2": "126_Lugano",
			"suurballeNbPaths": 2,
			"suurballeTime": 11715488,
			"suurballePaths": {
				"path0": [
					"123_Lyon",
					"82_Marseille",
					"138_Turin",
					"152_Milan",
					"72_Como",
					"64_Chiasso",
					"126_Lugano"
				],
				"lat0": 1252.000000,
				"nbSeg0": 0,
				"path1": [
					"58_Gothenburg",
					"50_Copenhagen",
					"51_Hamburg",
					"136_Essen",
					"17_Dusseldorf",
					"143_Amsterdam",
					"132_Hoofddorp",
					"15_The_Hague",
					"18_Antwerp",
					"142_Brussels",
					"78_Ghent"
				],
				"lat1": 2173.000000,
				"nbSeg1": 0
			},
			"pathsExist": false,
			"runtime": 666198034,
			"nomLat1": 2173.000000,
			"nomLat2": 1252.000000,
			"maxNomLat": 2173.000000,
			"mincut": 5
		},
		{
			"s1": "76_Manchester",
			"s2": "51_Hamburg",
			"t1": "32_Pfaffikon",
			"t2": "138_Turin",
			"suurballeNbPaths": 2,
			"suurballeTime": 166738030,
			"suurballePaths": {
				"path0": [
					"76_Manchester",
					"140_London",
					"62_None",
					"115_Lille",
					"139_Paris",
					"123_Lyon",
					"82_Marseille",
					"138_Turin"
				],
				"lat0": 2921.000000,
				"nbSeg0": 1,
				"path1": [
					"51_Hamburg",
					"136_Essen",
					"17_Dusseldorf",
					"14_Cologne",
					"141_Frankfurt",
					"12_Mannheim",
					"30_Karlsruhe",
					"118_Strasbourg",
					"117_Basel",
					"74_Zurich",
					"35_Winterthur",
					"32_Pfaffikon"
				],
				"lat1": 1621.000000,
				"nbSeg1": 1
			},
			"pathsExist": false,
			"runtime": 788638372,
			"nomLat1": 2787.000000,
			"nomLat2": 3470.000000,
			"maxNomLat": 3470.000000,
			"mincut": 2
		},
		{
			"s1": "119_Stuttgart",
			"s2": "118_Strasbourg",
			"t1": "81_Rome",
			"t2": "109_Bergamo",
			"suurballeNbPaths": 2,
			"suurballeTime": 32489573,
			"suurballePaths": {
				"path0": [
					"118_Strasbourg",
					"139_Paris",
					"123_Lyon",
					"82_Marseille",
					"138_Turin",
					"152_Milan",
					"109_Bergamo"
				],
				"lat0": 2535.000000,
				"nbSeg0": 0,
				"path1": [
					"119_Stuttgart",
					"30_Karlsruhe",
					"118_Strasbourg",
					"117_Basel",
					"74_Zurich",
					"125_Zug",
					"63_Lucerne",
					"126_Lugano",
					"64_Chiasso",
					"72_Como",
					"152_Milan",
					"106_Reggio_Emilia",
					"105_Modena",
					"108_Bologna",
					"68_Firenze",
					"81_Rome"
				],
				"lat1": 1844.000000,
				"nbSeg1": 2
			},
			"pathsExist": false,
			"runtime": 685697366,
			"nomLat1": 3607.000000,
			"nomLat2": 2535.000000,
			"maxNomLat": 3607.000000,
			"mincut": 2
		},
		{
			"s1": "122_Toulouse",
			"s2": "81_Rome",
			"t1": "30_Karlsruhe",
			"t2": "14_Cologne",
			"suurballeNbPaths": 2,
			"suurballeTime": 145332215,
			"suurballePaths": {
				"path0": [
					"122_Toulouse",
					"86_Bordeaux",
					"121_Nantes",
					"148_Rennes",
					"149_Rouen",
					"139_Paris",
					"115_Lille",
					"78_Ghent",
					"142_Brussels",
					"18_Antwerp",
					"15_The_Hague",
					"132_Hoofddorp",
					"143_Amsterdam",
					"17_Dusseldorf",
					"14_Cologne"
				],
				"lat0": 2851.000000,
				"nbSeg0": 3,
				"path1": [
					"81_Rome",
					"68_Firenze",
					"108_Bologna",
					"105_Modena",
					"106_Reggio_Emilia",
					"152_Milan",
					"72_Como",
					"64_Chiasso",
					"126_Lugano",
					"63_Lucerne",
					"125_Zug",
					"74_Zurich",
					"117_Basel",
					"118_Strasbourg",
					"30_Karlsruhe"
				],
				"lat1": 1735.000000,
				"nbSeg1": 2
			},
			"pathsExist": false,
			"runtime": 837833991,
			"nomLat1": 2678.000000,
			"nomLat2": 3975.000000,
			"maxNomLat": 3975.000000,
			"mincut": 2
		},
		{
			"s1": "78_Ghent",
			"s2": "14_Cologne",
			"t1": "79_None",
			"t2": "10_Vienna",
			"suurballeNbPaths": 2,
			"suurballeTime": 112196868,
			"suurballePaths": {
				"path0": [
					"78_Ghent",
					"115_Lille",
					"139_Paris",
					"123_Lyon",
					"82_Marseille",
					"84_Montpellier",
					"79_None"
				],
				"lat0": 2075.000000,
				"nbSeg0": 0,
				"path1": [
					"14_Cologne",
					"141_Frankfurt",
					"12_Mannheim",
					"30_Karlsruhe",
					"119_Stuttgart",
					"13_Munich",
					"10_Vienna"
				],
				"lat1": 1505.000000,
				"nbSeg1": 0
			},
			"pathsExist": false,
			"runtime": 581705762,
			"nomLat1": 2075.000000,
			"nomLat2": 1505.000000,
			"maxNomLat": 2075.000000,
			"mincut": 4
		},
		{
			"s1": "107_Padova",
			"s2": "3_Potsdam",
			"t1": "138_Turin",
			"t2": "135_Dortmund",
			"suurballeNbPaths": 2,
			"suurballeTime": 20536046,
			"suurballePaths": {
				"path0": [
					"107_Padova",
					"111_Verona",
					"112_Brescia",
					"109_Bergamo",
					"152_Milan",
					"138_Turin"
				],
				"lat0": 602.000000,
				"nbSeg0": 1,
				"path1": [
					"3_Potsdam",
					"144_Berlin",
					"2_Rostock",
					"51_Hamburg",
					"136_Essen",
					"135_Dortmund"
				],
				"lat1": 1210.000000,
				"nbSeg1": 2
			},
			"pathsExist": false,
			"runtime": 655307590,
			"nomLat1": 1802.000000,
			"nomLat2": 1210.000000,
			"maxNomLat": 1802.000000,
			"mincut": 4
		},
		{
			"s1": "123_Lyon",
			"s2": "115_Lille",
			"t1": "98_Bratislava",
			"t2": "107_Padova",
			"suurballeNbPaths": 2,
			"suurballeTime": 412281347,
			"suurballePaths": {
				"path0": [
					"123_Lyon",
					"82_Marseille",
					"138_Turin",
					"152_Milan",
					"109_Bergamo",
					"112_Brescia",
					"111_Verona",
					"107_Padova"
				],
				"lat0": 1519.000000,
				"nbSeg0": 1,
				"path1": [
					"115_Lille",
					"139_Paris",
					"118_Strasbourg",
					"30_Karlsruhe",
					"119_Stuttgart",
					"13_Munich",
					"10_Vienna",
					"98_Bratislava"
				],
				"lat1": 2250.000000,
				"nbSeg1": 2
			},
			"pathsExist": false,
			"runtime": 497413425,
			"nomLat1": 2564.000000,
			"nomLat2": 3723.000000,
			"maxNomLat": 3723.000000,
			"mincut": 4
		},
		{
			"s1": "59_Oslo",
			"s2": "118_Strasbourg",
			"t1": "140_London",
			"t2": "74_Zurich",
			"suurballeNbPaths": 2,
			"suurballeTime": 55237712,
			"suurballePaths": {
				"path0": [
					"118_Strasbourg",
					"117_Basel",
					"74_Zurich"
				],
				"lat0": 323.000000,
				"nbSeg0": 0,
				"path1": [
					"59_Oslo",
					"58_Gothenburg",
					"50_Copenhagen",
					"51_Hamburg",
					"136_Essen",
					"17_Dusseldorf",
					"143_Amsterdam",
					"132_Hoofddorp",
					"15_The_Hague",
					"18_Antwerp",
					"142_Brussels",
					"140_London"
				],
				"lat1": 3053.000000,
				"nbSeg1": 1
			},
			"pathsExist": false,
			"runtime": 660113527,
			"nomLat1": 3810.000000,
			"nomLat2": 323.000000,
			"maxNomLat": 3810.000000,
			"mincut": 3
		},
		{
			"s1": "63_Lucerne",
			"s2": "151_Madrid",
			"t1": "15_The_Hague",
			"t2": "109_Bergamo",
			"suurballeNbPaths": 2,
			"suurballeTime": 13596199,
			"suurballePaths": {
				"path0": [
					"63_Lucerne",
					"126_Lugano",
					"64_Chiasso",
					"72_Como",
					"152_Milan",
					"109_Bergamo"
				],
				"lat0": 416.000000,
				"nbSeg0": 0,
				"path1": [
					"151_Madrid",
					"86_Bordeaux",
					"121_Nantes",
					"148_Rennes",
					"149_Rouen",
					"139_Paris",
					"115_Lille",
					"78_Ghent",
					"142_Brussels",
					"18_Antwerp",
					"15_The_Hague"
				],
				"lat1": 2957.000000,
				"nbSeg1": 1
			},
			"pathsExist": false,
			"runtime": 634540237,
			"nomLat1": 3015.000000,
			"nomLat2": 2802.000000,
			"maxNomLat": 3015.000000,
			"mincut": 4
		},
		{
			"s1": "57_Helsinki",
			"s2": "108_Bologna",
			"t1": "11_Prague",
			"t2": "109_Bergamo",
			"suurballeNbPaths": 2,
			"suurballeTime": 171098343,
			"suurballePaths": {
				"path0": [
					"108_Bologna",
					"105_Modena",
					"106_Reggio_Emilia",
					"152_Milan",
					"109_Bergamo"
				],
				"lat0": 430.000000,
				"nbSeg0": 1,
				"path1": [
					"57_Helsinki",
					"56_Stockholm",
					"50_Copenhagen",
					"51_Hamburg",
					"2_Rostock",
					"144_Berlin",
					"5_Dresden",
					"11_Prague"
				],
				"lat1": 3088.000000,
				"nbSeg1": 2
			},
			"pathsExist": false,
			"runtime": 749501735,
			"nomLat1": 3088.000000,
			"nomLat2": 758.000000,
			"maxNomLat": 3088.000000,
			"mincut": 4
		},
		{
			"s1": "4_Leipzig",
			"s2": "106_Reggio_Emilia",
			"t1": "34_Esslingen",
			"t2": "3_Potsdam",
			"suurballeNbPaths": 2,
			"suurballeTime": 26732189,
			"suurballePaths": {
				"path0": [
					"4_Leipzig",
					"5_Dresden",
					"144_Berlin",
					"3_Potsdam"
				],
				"lat0": 502.000000,
				"nbSeg0": 2,
				"path1": [
					"106_Reggio_Emilia",
					"152_Milan",
					"72_Como",
					"64_Chiasso",
					"126_Lugano",
					"63_Lucerne",
					"125_Zug",
					"74_Zurich",
					"117_Basel",
					"118_Strasbourg",
					"30_Karlsruhe",
					"119_Stuttgart",
					"34_Esslingen"
				],
				"lat1": 1226.000000,
				"nbSeg1": 3
			},
			"pathsExist": false,
			"runtime": 689097159,
			"nomLat1": 986.000000,
			"nomLat2": 4793.000000,
			"maxNomLat": 4793.000000,
			"mincut": 4
		},
		{
			"s1": "139_Paris",
			"s2": "82_Marseille",
			"t1": "34_Esslingen",
			"t2": "138_Turin",
			"suurballeNbPaths": 2,
			"suurballeTime": 13477078,
			"suurballePaths": {
				"path0": [
					"82_Marseille",
					"138_Turin"
				],
				"lat0": 453.000000,
				"nbSeg0": 0,
				"path1": [
					"139_Paris",
					"118_Strasbourg",
					"30_Karlsruhe",
					"119_Stuttgart",
					"34_Esslingen"
				],
				"lat1": 912.000000,
				"nbSeg1": 2
			},
			"pathsExist": false,
			"runtime": 690138195,
			"nomLat1": 912.000000,
			"nomLat2": 453.000000,
			"maxNomLat": 912.000000,
			"mincut": 4
		},
		{
			"s1": "34_Esslingen",
			"s2": "11_Prague",
			"t1": "144_Berlin",
			"t2": "9_Erding",
			"suurballeNbPaths": 2,
			"suurballeTime": 31587284,
			"suurballePaths": {
				"path0": [
					"11_Prague",
					"5_Dresden",
					"144_Berlin"
				],
				"lat0": 480.000000,
				"nbSeg0": 0,
				"path1": [
					"34_Esslingen",
					"119_Stuttgart",
					"13_Munich",
					"9_Erding"
				],
				"lat1": 400.000000,
				"nbSeg1": 4
			},
			"pathsExist": false,
			"runtime": 667832987,
			"nomLat1": 1846.000000,
			"nomLat2": 1078.000000,
			"maxNomLat": 1846.000000,
			"mincut": 5
		},
		{
			"s1": "94_Ostend",
			"s2": "75_Dublin",
			"t1": "112_Brescia",
			"t2": "74_Zurich",
			"suurballeNbPaths": 2,
			"suurballeTime": 16641981,
			"suurballePaths": {
				"path0": [
					"75_Dublin",
					"140_London",
					"62_None",
					"115_Lille",
					"139_Paris",
					"123_Lyon",
					"82_Marseille",
					"138_Turin",
					"152_Milan",
					"109_Bergamo",
					"112_Brescia"
				],
				"lat0": 3634.000000,
				"nbSeg0": 1,
				"path1": [
					"94_Ostend",
					"78_Ghent",
					"142_Brussels",
					"18_Antwerp",
					"15_The_Hague",
					"132_Hoofddorp",
					"143_Amsterdam",
					"17_Dusseldorf",
					"14_Cologne",
					"141_Frankfurt",
					"12_Mannheim",
					"30_Karlsruhe",
					"118_Strasbourg",
					"117_Basel",
					"74_Zurich"
				],
				"lat1": 1808.000000,
				"nbSeg1": 1
			},
			"pathsExist": false,
			"runtime": 943855538,
			"nomLat1": 2858.000000,
			"nomLat2": 2935.000000,
			"maxNomLat": 2935.000000,
			"mincut": 2
		},
		{
			"s1": "129_Utrecht",
			"s2": "135_Dortmund",
			"t1": "66_Genova",
			"t2": "73_None",
			"suurballeNbPaths": 2,
			"suurballeTime": 10558015,
			"suurballePaths": {
				"path0": [
					"129_Utrecht",
					"131_Hilversum",
					"143_Amsterdam",
					"132_Hoofddorp",
					"15_The_Hague",
					"18_Antwerp",
					"142_Brussels",
					"78_Ghent",
					"115_Lille",
					"139_Paris",
					"123_Lyon",
					"124_Geneve",
					"39_Nyon",
					"36_Lausanne",
					"73_None"
				],
				"lat0": 2185.000000,
				"nbSeg0": 3,
				"path1": [
					"135_Dortmund",
					"136_Essen",
					"17_Dusseldorf",
					"14_Cologne",
					"141_Frankfurt",
					"12_Mannheim",
					"30_Karlsruhe",
					"118_Strasbourg",
					"117_Basel",
					"74_Zurich",
					"125_Zug",
					"63_Lucerne",
					"126_Lugano",
					"64_Chiasso",
					"72_Como",
					"152_Milan",
					"66_Genova"
				],
				"lat1": 1708.000000,
				"nbSeg1": 2
			},
			"pathsExist": false,
			"runtime": 671206927,
			"nomLat1": 4165.000000,
			"nomLat2": 1240.000000,
			"maxNomLat": 4165.000000,
			"mincut": 2
		},
		{
			"s1": "11_Prague",
			"s2": "12_Mannheim",
			"t1": "30_Karlsruhe",
			"t2": "66_Genova",
			"suurballeNbPaths": 2,
			"suurballeTime": 9777627,
			"suurballePaths": {
				"path0": [
					"12_Mannheim",
					"30_Karlsruhe"
				],
				"lat0": 95.000000,
				"nbSeg0": 0,
				"path1": [
					"11_Prague",
					"5_Dresden",
					"4_Leipzig",
					"8_Nuremberg",
					"13_Munich",
					"119_Stuttgart",
					"30_Karlsruhe"
				],
				"lat1": 1445.000000,
				"nbSeg1": 1
			},
			"pathsExist": false,
			"runtime": 802202311,
			"nomLat1": 1453.000000,
			"nomLat2": 2868.000000,
			"maxNomLat": 2868.000000,
			"mincut": 3
		},
		{
			"s1": "82_Marseille",
			"s2": "148_Rennes",
			"t1": "13_Munich",
			"t2": "77_Birmingham",
			"suurballeNbPaths": 2,
			"suurballeTime": 23803578,
			"suurballePaths": {
				"path0": [
					"148_Rennes",
					"149_Rouen",
					"139_Paris",
					"115_Lille",
					"62_None",
					"140_London",
					"91_Reading",
					"150_Bristol",
					"77_Birmingham"
				],
				"lat0": 2024.000000,
				"nbSeg0": 2,
				"path1": [
					"82_Marseille",
					"138_Turin",
					"152_Milan",
					"72_Como",
					"64_Chiasso",
					"126_Lugano",
					"63_Lucerne",
					"125_Zug",
					"74_Zurich",
					"117_Basel",
					"118_Strasbourg",
					"30_Karlsruhe",
					"119_Stuttgart",
					"13_Munich"
				],
				"lat1": 1952.000000,
				"nbSeg1": 1
			},
			"pathsExist": false,
			"runtime": 707895671,
			"nomLat1": 2335.000000,
			"nomLat2": 2424.000000,
			"maxNomLat": 2424.000000,
			"mincut": 3
		},
		{
			"s1": "9_Erding",
			"s2": "141_Frankfurt",
			"t1": "33_St_Gallen",
			"t2": "59_Oslo",
			"suurballeNbPaths": 2,
			"suurballeTime": 25933443,
			"suurballePaths": {
				"path0": [
					"9_Erding",
					"13_Munich",
					"119_Stuttgart",
					"30_Karlsruhe",
					"118_Strasbourg",
					"117_Basel",
					"74_Zurich",
					"33_St_Gallen"
				],
				"lat0": 1034.000000,
				"nbSeg0": 2,
				"path1": [
					"141_Frankfurt",
					"14_Cologne",
					"17_Dusseldorf",
					"136_Essen",
					"51_Hamburg",
					"50_Copenhagen",
					"58_Gothenburg",
					"59_Oslo"
				],
				"lat1": 2194.000000,
				"nbSeg1": 1
			},
			"pathsExist": false,
			"runtime": 808659519,
			"nomLat1": 1034.000000,
			"nomLat2": 2951.000000,
			"maxNomLat": 2951.000000,
			"mincut": 4
		},
		{
			"s1": "94_Ostend",
			"s2": "49_Den_Bosch",
			"t1": "3_Potsdam",
			"t2": "91_Reading",
			"suurballeNbPaths": 2,
			"suurballeTime": 9379622,
			"suurballePaths": {
				"path0": [
					"94_Ostend",
					"62_None",
					"140_London",
					"91_Reading"
				],
				"lat0": 662.000000,
				"nbSeg0": 0,
				"path1": [
					"49_Den_Bosch",
					"129_Utrecht",
					"131_Hilversum",
					"143_Amsterdam",
					"17_Dusseldorf",
					"136_Essen",
					"51_Hamburg",
					"2_Rostock",
					"144_Berlin",
					"3_Potsdam"
				],
				"lat1": 1674.000000,
				"nbSeg1": 2
			},
			"pathsExist": false,
			"runtime": 794447720,
			"nomLat1": 3669.000000,
			"nomLat2": 1025.000000,
			"maxNomLat": 3669.000000,
			"mincut": 4
		},
		{
			"s1": "17_Dusseldorf",
			"s2": "115_Lille",
			"t1": "104_Bucharest",
			"t2": "49_Den_Bosch",
			"suurballeNbPaths": 2,
			"suurballeTime": 10274037,
			"suurballePaths": {
				"path0": [
					"115_Lille",
					"78_Ghent",
					"142_Brussels",
					"18_Antwerp",
					"15_The_Hague",
					"19_Rotterdam",
					"49_Den_Bosch"
				],
				"lat0": 585.000000,
				"nbSeg0": 0,
				"path1": [
					"17_Dusseldorf",
					"14_Cologne",
					"141_Frankfurt",
					"12_Mannheim",
					"30_Karlsruhe",
					"119_Stuttgart",
					"13_Munich",
					"10_Vienna",
					"101_Budapest",
					"104_Bucharest"
				],
				"lat1": 3004.000000,
				"nbSeg1": 3
			},
			"pathsExist": false,
			"runtime": 677560648,
			"nomLat1": 3501.000000,
			"nomLat2": 585.000000,
			"maxNomLat": 3501.000000,
			"mincut": 4
		},
		{
			"s1": "150_Bristol",
			"s2": "16_Hannover",
			"t1": "63_Lucerne",
			"t2": "131_Hilversum",
			"suurballeNbPaths": 2,
			"suurballeTime": 9354995,
			"suurballePaths": {
				"path0": [
					"150_Bristol",
					"91_Reading",
					"140_London",
					"142_Brussels",
					"18_Antwerp",
					"15_The_Hague",
					"132_Hoofddorp",
					"143_Amsterdam",
					"131_Hilversum"
				],
				"lat0": 1211.000000,
				"nbSeg0": 1,
				"path1": [
					"16_Hannover",
					"51_Hamburg",
					"136_Essen",
					"17_Dusseldorf",
					"14_Cologne",
					"141_Frankfurt",
					"12_Mannheim",
					"30_Karlsruhe",
					"118_Strasbourg",
					"117_Basel",
					"74_Zurich",
					"125_Zug",
					"63_Lucerne"
				],
				"lat1": 1857.000000,
				"nbSeg1": 0
			},
			"pathsExist": false,
			"runtime": 700427447,
			"nomLat1": 3565.000000,
			"nomLat2": 1154.000000,
			"maxNomLat": 3565.000000,
			"mincut": 4
		},
		{
			"s1": "137_Barcelona",
			"s2": "7_Warsaw",
			"t1": "58_Gothenburg",
			"t2": "82_Marseille",
			"suurballeNbPaths": 2,
			"suurballeTime": 29914327,
			"suurballePaths": {
				"path0": [
					"137_Barcelona",
					"79_None",
					"84_Montpellier",
					"82_Marseille"
				],
				"lat0": 774.000000,
				"nbSeg0": 0,
				"path1": [
					"7_Warsaw",
					"144_Berlin",
					"2_Rostock",
					"51_Hamburg",
					"50_Copenhagen",
					"58_Gothenburg"
				],
				"lat1": 2321.000000,
				"nbSeg1": 0
			},
			"pathsExist": false,
			"runtime": 696617394,
			"nomLat1": 4662.000000,
			"nomLat2": 4436.000000,
			"maxNomLat": 4662.000000,
			"mincut": 4
		},
		{
			"s1": "10_Vienna",
			"s2": "108_Bologna",
			"t1": "60_None",
			"t2": "8_Nuremberg",
			"suurballeNbPaths": 2,
			"suurballeTime": 13573806,
			"suurballePaths": {
				"path0": [
					"10_Vienna",
					"11_Prague",
					"5_Dresden",
					"144_Berlin",
					"60_None"
				],
				"lat0": 1185.000000,
				"nbSeg0": 0,
				"path1": [
					"108_Bologna",
					"105_Modena",
					"106_Reggio_Emilia",
					"152_Milan",
					"72_Como",
					"64_Chiasso",
					"126_Lugano",
					"63_Lucerne",
					"125_Zug",
					"74_Zurich",
					"117_Basel",
					"118_Strasbourg",
					"30_Karlsruhe",
					"119_Stuttgart",
					"13_Munich",
					"8_Nuremberg"
				],
				"lat1": 1891.000000,
				"nbSeg1": 2
			},
			"pathsExist": false,
			"runtime": 708795548,
			"nomLat1": 1185.000000,
			"nomLat2": 3934.000000,
			"maxNomLat": 3934.000000,
			"mincut": 3
		},
		{
			"s1": "121_Nantes",
			"s2": "64_Chiasso",
			"t1": "135_Dortmund",
			"t2": "117_Basel",
			"suurballeNbPaths": 2,
			"suurballeTime": 27891271,
			"suurballePaths": {
				"path0": [
					"64_Chiasso",
					"126_Lugano",
					"63_Lucerne",
					"125_Zug",
					"74_Zurich",
					"117_Basel"
				],
				"lat0": 463.000000,
				"nbSeg0": 0,
				"path1": [
					"121_Nantes",
					"148_Rennes",
					"149_Rouen",
					"139_Paris",
					"115_Lille",
					"78_Ghent",
					"142_Brussels",
					"18_Antwerp",
					"15_The_Hague",
					"132_Hoofddorp",
					"143_Amsterdam",
					"17_Dusseldorf",
					"136_Essen",
					"135_Dortmund"
				],
				"lat1": 2081.000000,
				"nbSeg1": 2
			},
			"pathsExist": false,
			"runtime": 766877582,
			"nomLat1": 2216.000000,
			"nomLat2": 463.000000,
			"maxNomLat": 2216.000000,
			"mincut": 3
		},
		{
			"s1": "39_Nyon",
			"s2": "31_Boblingen",
			"t1": "57_Helsinki",
			"t2": "74_Zurich",
			"suurballeNbPaths": 2,
			"suurballeTime": 14626859,
			"suurballePaths": {
				"path0": [
					"39_Nyon",
					"36_Lausanne",
					"73_None",
					"117_Basel",
					"74_Zurich"
				],
				"lat0": 749.000000,
				"nbSeg0": 0,
				"path1": [
					"31_Boblingen",
					"119_Stuttgart",
					"30_Karlsruhe",
					"12_Mannheim",
					"141_Frankfurt",
					"14_Cologne",
					"17_Dusseldorf",
					"136_Essen",
					"51_Hamburg",
					"50_Copenhagen",
					"56_Stockholm",
					"57_Helsinki"
				],
				"lat1": 3276.000000,
				"nbSeg1": 5
			},
			"pathsExist": false,
			"runtime": 698118589,
			"nomLat1": 4807.000000,
			"nomLat2": 578.000000,
			"maxNomLat": 4807.000000,
			"mincut": 4
		},
		{
			"s1": "119_Stuttgart",
			"s2": "49_Den_Bosch",
			"t1": "134_Wuppertal",
			"t2": "34_Esslingen",
			"suurballeNbPaths": 2,
			"suurballeTime": 10858597,
			"suurballePaths": {
				"path0": [
					"119_Stuttgart",
					"34_Esslingen"
				],
				"lat0": 22.000000,
				"nbSeg0": 2,
				"path1": [
					"49_Den_Bosch",
					"129_Utrecht",
					"131_Hilversum",
					"143_Amsterdam",
					"17_Dusseldorf",
					"134_Wuppertal"
				],
				"lat1": 517.000000,
				"nbSeg1": 0
			},
			"pathsExist": false,
			"runtime": 713350052,
			"nomLat1": 700.000000,
			"nomLat2": 1135.000000,
			"maxNomLat": 1135.000000,
			"mincut": 4
		},
		{
			"s1": "55_New_York",
			"s2": "23_Lisbon",
			"t1": "92_Kolding",
			"t2": "106_Reggio_Emilia",
			"suurballeNbPaths": 2,
			"suurballeTime": 22679558,
			"suurballePaths": {
				"path0": [
					"23_Lisbon",
					"151_Madrid",
					"80_Valencia",
					"137_Barcelona",
					"79_None",
					"84_Montpellier",
					"82_Marseille",
					"138_Turin",
					"152_Milan",
					"106_Reggio_Emilia"
				],
				"lat0": 3538.000000,
				"nbSeg0": 3,
				"path1": [
					"55_New_York",
					"140_London",
					"142_Brussels",
					"18_Antwerp",
					"15_The_Hague",
					"132_Hoofddorp",
					"143_Amsterdam",
					"17_Dusseldorf",
					"136_Essen",
					"51_Hamburg",
					"92_Kolding"
				],
				"lat1": 2416.000000,
				"nbSeg1": 0
			},
			"pathsExist": false,
			"runtime": 702562235,
			"nomLat1": 2416.000000,
			"nomLat2": 3803.000000,
			"maxNomLat": 3803.000000,
			"mincut": 4
		},
		{
			"s1": "136_Essen",
			"s2": "31_Boblingen",
			"t1": "119_Stuttgart",
			"t2": "109_Bergamo",
			"suurballeNbPaths": 2,
			"suurballeTime": 39903254,
			"suurballePaths": {
				"path0": [
					"31_Boblingen",
					"119_Stuttgart"
				],
				"lat0": 31.000000,
				"nbSeg0": 2,
				"path1": [
					"136_Essen",
					"17_Dusseldorf",
					"14_Cologne",
					"141_Frankfurt",
					"12_Mannheim",
					"30_Karlsruhe",
					"118_Strasbourg",
					"117_Basel",
					"74_Zurich",
					"125_Zug",
					"63_Lucerne",
					"126_Lugano",
					"64_Chiasso",
					"72_Como",
					"152_Milan",
					"109_Bergamo"
				],
				"lat1": 1529.000000,
				"nbSeg1": 1
			},
			"pathsExist": false,
			"runtime": 923469194,
			"nomLat1": 703.000000,
			"nomLat2": 2790.000000,
			"maxNomLat": 2790.000000,
			"mincut": 5
		}
	],
	"demandsWithSol": 0
}
