{
	"nbDemands": 100,
	"demands": [
		{
			"s1": "64_Miami",
			"s2": "6_Jacksonville",
			"t1": "3_Tallahassee",
			"t2": "71_Melbourne",
			"suurballeNbPaths": 2,
			"suurballeTime": 171815954,
			"suurballePaths": {
				"path0": [
					"6_Jacksonville",
					"4_Lake_City",
					"3_Tallahassee"
				],
				"lat0": 435.000000,
				"nbSeg0": 4,
				"path1": [
					"64_Miami",
					"66_Fort_Lauderdale",
					"69_West_Palm_Beach",
					"68_Vero_Beach",
					"71_Melbourne"
				],
				"lat1": 463.000000,
				"nbSeg1": 2
			},
			"pathsExist": false,
			"runtime": 457618685,
			"nomLat1": 1220.000000,
			"nomLat2": 467.000000,
			"maxNomLat": 1220.000000,
			"mincut": 7
		},
		{
			"s1": "84_None",
			"s2": "89_Meridian",
			"t1": "56_Arab",
			"t2": "71_Melbourne",
			"suurballeNbPaths": 2,
			"suurballeTime": 148633133,
			"suurballePaths": {
				"path0": [
					"89_Meridian",
					"90_Tuscaloosa",
					"54_Birmingham",
					"56_Arab"
				],
				"lat0": 537.000000,
				"nbSeg0": 0,
				"path1": [
					"84_None",
					"47_Atlanta",
					"46_Macon",
					"5_Valdosta",
					"4_Lake_City",
					"7_Gainesville",
					"8_Ocala",
					"63_Orlando",
					"70_Cocoa_Beach",
					"71_Melbourne"
				],
				"lat1": 1537.000000,
				"nbSeg1": 4
			},
			"pathsExist": false,
			"runtime": 478887845,
			"nomLat1": 529.000000,
			"nomLat2": 2323.000000,
			"maxNomLat": 2323.000000,
			"mincut": 4
		},
		{
			"s1": "26_Vicksburg",
			"s2": "110_San_Antonia",
			"t1": "15_Gainesville",
			"t2": "77_Charleston",
			"suurballeNbPaths": 2,
			"suurballeTime": 210855081,
			"suurballePaths": {
				"path0": [
					"26_Vicksburg",
					"25_Jackson",
					"89_Meridian",
					"90_Tuscaloosa",
					"54_Birmingham",
					"111_None",
					"47_Atlanta",
					"15_Gainesville"
				],
				"lat0": 1291.000000,
				"nbSeg0": 1,
				"path1": [
					"110_San_Antonia",
					"58_Houston",
					"61_Beaumont",
					"82_Lake_Charles",
					"83_Lafayette",
					"27_Baton_Rouge",
					"24_New_Orleans",
					"95_Gulfport",
					"94_Mobile",
					"93_Pensacola",
					"88_Crestview",
					"3_Tallahassee",
					"4_Lake_City",
					"6_Jacksonville",
					"81_Savannah",
					"77_Charleston"
				],
				"lat1": 3432.000000,
				"nbSeg1": 6
			},
			"pathsExist": false,
			"runtime": 604038732,
			"nomLat1": 1911.000000,
			"nomLat2": 3555.000000,
			"maxNomLat": 3555.000000,
			"mincut": 2
		},
		{
			"s1": "64_Miami",
			"s2": "93_Pensacola",
			"t1": "22_Alexandria",
			"t2": "16_Hickory",
			"suurballeNbPaths": 2,
			"suurballeTime": 7558350,
			"suurballePaths": {
				"path0": [
					"93_Pensacola",
					"94_Mobile",
					"95_Gulfport",
					"24_New_Orleans",
					"27_Baton_Rouge",
					"83_Lafayette",
					"22_Alexandria"
				],
				"lat0": 1074.000000,
				"nbSeg0": 0,
				"path1": [
					"64_Miami",
					"66_Fort_Lauderdale",
					"85_None",
					"62_Daytona_Beach",
					"6_Jacksonville",
					"81_Savannah",
					"72_Augusta",
					"75_Columbia",
					"104_Charlotte",
					"16_Hickory"
				],
				"lat1": 1904.000000,
				"nbSeg1": 8
			},
			"pathsExist": false,
			"runtime": 860507967,
			"nomLat1": 2793.000000,
			"nomLat2": 1864.000000,
			"maxNomLat": 2793.000000,
			"mincut": 5
		},
		{
			"s1": "9_Winter_Haven",
			"s2": "28_Pine_Bluff",
			"t1": "105_Dallas",
			"t2": "82_Lake_Charles",
			"suurballeNbPaths": 2,
			"suurballeTime": 127118506,
			"suurballePaths": {
				"path0": [
					"28_Pine_Bluff",
					"25_Jackson",
					"26_Vicksburg",
					"21_Monroe",
					"20_Shreveport",
					"23_Longview",
					"105_Dallas"
				],
				"lat0": 1522.000000,
				"nbSeg0": 0,
				"path1": [
					"9_Winter_Haven",
					"63_Orlando",
					"8_Ocala",
					"86_None",
					"3_Tallahassee",
					"88_Crestview",
					"93_Pensacola",
					"94_Mobile",
					"95_Gulfport",
					"24_New_Orleans",
					"27_Baton_Rouge",
					"83_Lafayette",
					"82_Lake_Charles"
				],
				"lat1": 2269.000000,
				"nbSeg1": 2
			},
			"pathsExist": false,
			"runtime": 824904177,
			"nomLat1": 4131.000000,
			"nomLat2": 1441.000000,
			"maxNomLat": 4131.000000,
			"mincut": 2
		},
		{
			"s1": "104_Charlotte",
			"s2": "112_None",
			"t1": "88_Crestview",
			"t2": "7_Gainesville",
			"suurballeNbPaths": 2,
			"suurballeTime": 581131711,
			"suurballePaths": {
				"path0": [
					"104_Charlotte",
					"60_Greenville",
					"47_Atlanta",
					"3_Tallahassee",
					"88_Crestview"
				],
				"lat0": 1614.000000,
				"nbSeg0": 4,
				"path1": [
					"112_None",
					"74_Sumter",
					"75_Columbia",
					"72_Augusta",
					"81_Savannah",
					"6_Jacksonville",
					"4_Lake_City",
					"7_Gainesville"
				],
				"lat1": 1420.000000,
				"nbSeg1": 6
			},
			"pathsExist": false,
			"runtime": 409860252,
			"nomLat1": 1614.000000,
			"nomLat2": 2053.000000,
			"maxNomLat": 2053.000000,
			"mincut": 5
		},
		{
			"s1": "82_Lake_Charles",
			"s2": "48_Gadsden",
			"t1": "58_Houston",
			"t2": "49_Anniston",
			"suurballeNbPaths": 2,
			"suurballeTime": 503698270,
			"suurballePaths": {
				"path0": [
					"48_Gadsden",
					"49_Anniston"
				],
				"lat0": 75.000000,
				"nbSeg0": 0,
				"path1": [
					"82_Lake_Charles",
					"61_Beaumont",
					"58_Houston"
				],
				"lat1": 366.000000,
				"nbSeg1": 0
			},
			"pathsExist": false,
			"runtime": 513074367,
			"nomLat1": 366.000000,
			"nomLat2": 75.000000,
			"maxNomLat": 366.000000,
			"mincut": 4
		},
		{
			"s1": "107_Bryan",
			"s2": "46_Macon",
			"t1": "42_Opelika",
			"t2": "48_Gadsden",
			"suurballeNbPaths": 2,
			"suurballeTime": 367503126,
			"suurballePaths": {
				"path0": [
					"46_Macon",
					"47_Atlanta",
					"84_None",
					"14_Newnah?",
					"17_Lagrange?",
					"43_Lagrange",
					"42_Opelika"
				],
				"lat0": 812.000000,
				"nbSeg0": 1,
				"path1": [
					"107_Bryan",
					"106_Waco",
					"105_Dallas",
					"23_Longview",
					"20_Shreveport",
					"21_Monroe",
					"26_Vicksburg",
					"25_Jackson",
					"89_Meridian",
					"90_Tuscaloosa",
					"54_Birmingham",
					"49_Anniston",
					"48_Gadsden"
				],
				"lat1": 2355.000000,
				"nbSeg1": 1
			},
			"pathsExist": false,
			"runtime": 736326745,
			"nomLat1": 2541.000000,
			"nomLat2": 710.000000,
			"maxNomLat": 2541.000000,
			"mincut": 4
		},
		{
			"s1": "85_None",
			"s2": "63_Orlando",
			"t1": "46_Macon",
			"t2": "101_None",
			"suurballeNbPaths": 2,
			"suurballeTime": 329432860,
			"suurballePaths": {
				"path0": [
					"85_None",
					"62_Daytona_Beach",
					"6_Jacksonville",
					"81_Savannah",
					"101_None"
				],
				"lat0": 1003.000000,
				"nbSeg0": 0,
				"path1": [
					"63_Orlando",
					"8_Ocala",
					"7_Gainesville",
					"4_Lake_City",
					"5_Valdosta",
					"46_Macon"
				],
				"lat1": 930.000000,
				"nbSeg1": 3
			},
			"pathsExist": false,
			"runtime": 782430387,
			"nomLat1": 1154.000000,
			"nomLat2": 1216.000000,
			"maxNomLat": 1216.000000,
			"mincut": 4
		},
		{
			"s1": "11_Lexington",
			"s2": "102_None",
			"t1": "21_Monroe",
			"t2": "80_Saunt_Augustine",
			"suurballeNbPaths": 2,
			"suurballeTime": 428684341,
			"suurballePaths": {
				"path0": [
					"102_None",
					"101_None",
					"81_Savannah",
					"6_Jacksonville",
					"80_Saunt_Augustine"
				],
				"lat0": 869.000000,
				"nbSeg0": 0,
				"path1": [
					"11_Lexington",
					"104_Charlotte",
					"60_Greenville",
					"47_Atlanta",
					"111_None",
					"54_Birmingham",
					"90_Tuscaloosa",
					"89_Meridian",
					"25_Jackson",
					"26_Vicksburg",
					"21_Monroe"
				],
				"lat1": 2122.000000,
				"nbSeg1": 5
			},
			"pathsExist": false,
			"runtime": 634990922,
			"nomLat1": 2742.000000,
			"nomLat2": 869.000000,
			"maxNomLat": 2742.000000,
			"mincut": 4
		},
		{
			"s1": "82_Lake_Charles",
			"s2": "80_Saunt_Augustine",
			"t1": "90_Tuscaloosa",
			"t2": "111_None",
			"suurballeNbPaths": 2,
			"suurballeTime": 81016372,
			"suurballePaths": {
				"path0": [
					"80_Saunt_Augustine",
					"6_Jacksonville",
					"4_Lake_City",
					"5_Valdosta",
					"46_Macon",
					"47_Atlanta",
					"111_None"
				],
				"lat0": 1229.000000,
				"nbSeg0": 3,
				"path1": [
					"82_Lake_Charles",
					"83_Lafayette",
					"27_Baton_Rouge",
					"24_New_Orleans",
					"95_Gulfport",
					"96_Hattiesburg",
					"89_Meridian",
					"90_Tuscaloosa"
				],
				"lat1": 1366.000000,
				"nbSeg1": 1
			},
			"pathsExist": false,
			"runtime": 1062885082,
			"nomLat1": 1460.000000,
			"nomLat2": 1368.000000,
			"maxNomLat": 1460.000000,
			"mincut": 4
		},
		{
			"s1": "66_Fort_Lauderdale",
			"s2": "95_Gulfport",
			"t1": "1_Sarasota",
			"t2": "48_Gadsden",
			"suurballeNbPaths": 2,
			"suurballeTime": 596371901,
			"suurballePaths": {
				"path0": [
					"66_Fort_Lauderdale",
					"64_Miami",
					"65_Ft_Myers",
					"1_Sarasota"
				],
				"lat0": 568.000000,
				"nbSeg0": 3,
				"path1": [
					"95_Gulfport",
					"96_Hattiesburg",
					"89_Meridian",
					"90_Tuscaloosa",
					"54_Birmingham",
					"49_Anniston",
					"48_Gadsden"
				],
				"lat1": 1011.000000,
				"nbSeg1": 1
			},
			"pathsExist": false,
			"runtime": 467799148,
			"nomLat1": 741.000000,
			"nomLat2": 1065.000000,
			"maxNomLat": 1065.000000,
			"mincut": 4
		},
		{
			"s1": "42_Opelika",
			"s2": "82_Lake_Charles",
			"t1": "27_Baton_Rouge",
			"t2": "57_Huntsville",
			"suurballeNbPaths": 2,
			"suurballeTime": 495353956,
			"suurballePaths": {
				"path0": [
					"82_Lake_Charles",
					"83_Lafayette",
					"27_Baton_Rouge"
				],
				"lat0": 343.000000,
				"nbSeg0": 0,
				"path1": [
					"42_Opelika",
					"41_Auburn",
					"40_Alexander_City",
					"49_Anniston",
					"48_Gadsden",
					"57_Huntsville"
				],
				"lat1": 500.000000,
				"nbSeg1": 0
			},
			"pathsExist": false,
			"runtime": 582776312,
			"nomLat1": 1827.000000,
			"nomLat2": 2323.000000,
			"maxNomLat": 2323.000000,
			"mincut": 4
		},
		{
			"s1": "46_Macon",
			"s2": "50_Nashville",
			"t1": "107_Bryan",
			"t2": "61_Beaumont",
			"suurballeNbPaths": 2,
			"suurballeTime": 10964486,
			"suurballePaths": {
				"path0": [
					"46_Macon",
					"47_Atlanta",
					"111_None",
					"55_Montgomery",
					"94_Mobile",
					"95_Gulfport",
					"24_New_Orleans",
					"27_Baton_Rouge",
					"83_Lafayette",
					"82_Lake_Charles",
					"61_Beaumont"
				],
				"lat0": 2109.000000,
				"nbSeg0": 0,
				"path1": [
					"50_Nashville",
					"91_Jackson",
					"92_Memphis",
					"25_Jackson",
					"26_Vicksburg",
					"21_Monroe",
					"20_Shreveport",
					"23_Longview",
					"105_Dallas",
					"106_Waco",
					"107_Bryan"
				],
				"lat1": 2579.000000,
				"nbSeg1": 0
			},
			"pathsExist": false,
			"runtime": 1288815563,
			"nomLat1": 3379.000000,
			"nomLat2": 2201.000000,
			"maxNomLat": 3379.000000,
			"mincut": 2
		},
		{
			"s1": "99_None",
			"s2": "93_Pensacola",
			"t1": "47_Atlanta",
			"t2": "104_Charlotte",
			"suurballeNbPaths": 2,
			"suurballeTime": 363564347,
			"suurballePaths": {
				"path0": [
					"99_None",
					"104_Charlotte"
				],
				"lat0": 213.000000,
				"nbSeg0": 0,
				"path1": [
					"93_Pensacola",
					"94_Mobile",
					"55_Montgomery",
					"111_None",
					"47_Atlanta"
				],
				"lat1": 991.000000,
				"nbSeg1": 1
			},
			"pathsExist": false,
			"runtime": 724951486,
			"nomLat1": 835.000000,
			"nomLat2": 1739.000000,
			"maxNomLat": 1739.000000,
			"mincut": 5
		},
		{
			"s1": "5_Valdosta",
			"s2": "85_None",
			"t1": "26_Vicksburg",
			"t2": "84_None",
			"suurballeNbPaths": 2,
			"suurballeTime": 7005283,
			"suurballePaths": {
				"path0": [
					"5_Valdosta",
					"46_Macon",
					"47_Atlanta",
					"84_None"
				],
				"lat0": 802.000000,
				"nbSeg0": 0,
				"path1": [
					"85_None",
					"63_Orlando",
					"8_Ocala",
					"86_None",
					"3_Tallahassee",
					"88_Crestview",
					"93_Pensacola",
					"94_Mobile",
					"95_Gulfport",
					"24_New_Orleans",
					"25_Jackson",
					"26_Vicksburg"
				],
				"lat1": 2375.000000,
				"nbSeg1": 3
			},
			"pathsExist": false,
			"runtime": 1301587813,
			"nomLat1": 2362.000000,
			"nomLat2": 1715.000000,
			"maxNomLat": 2362.000000,
			"mincut": 5
		},
		{
			"s1": "31_Florence",
			"s2": "5_Valdosta",
			"t1": "16_Hickory",
			"t2": "63_Orlando",
			"suurballeNbPaths": 2,
			"suurballeTime": 51292953,
			"suurballePaths": {
				"path0": [
					"31_Florence",
					"112_None",
					"99_None",
					"104_Charlotte",
					"16_Hickory"
				],
				"lat0": 764.000000,
				"nbSeg0": 1,
				"path1": [
					"5_Valdosta",
					"4_Lake_City",
					"7_Gainesville",
					"8_Ocala",
					"63_Orlando"
				],
				"lat1": 550.000000,
				"nbSeg1": 3
			},
			"pathsExist": false,
			"runtime": 1321600624,
			"nomLat1": 1070.000000,
			"nomLat2": 764.000000,
			"maxNomLat": 1070.000000,
			"mincut": 6
		},
		{
			"s1": "7_Gainesville",
			"s2": "11_Lexington",
			"t1": "10_Winston-Salem",
			"t2": "27_Baton_Rouge",
			"suurballeNbPaths": 2,
			"suurballeTime": 37455863,
			"suurballePaths": {
				"path0": [
					"11_Lexington",
					"10_Winston-Salem"
				],
				"lat0": 56.000000,
				"nbSeg0": 0,
				"path1": [
					"7_Gainesville",
					"4_Lake_City",
					"3_Tallahassee",
					"88_Crestview",
					"93_Pensacola",
					"94_Mobile",
					"95_Gulfport",
					"24_New_Orleans",
					"27_Baton_Rouge"
				],
				"lat1": 1594.000000,
				"nbSeg1": 2
			},
			"pathsExist": false,
			"runtime": 1096411783,
			"nomLat1": 1817.000000,
			"nomLat2": 2175.000000,
			"maxNomLat": 2175.000000,
			"mincut": 6
		},
		{
			"s1": "7_Gainesville",
			"s2": "6_Jacksonville",
			"t1": "42_Opelika",
			"t2": "104_Charlotte",
			"suurballeNbPaths": 2,
			"suurballeTime": 27640615,
			"suurballePaths": {
				"path0": [
					"6_Jacksonville",
					"81_Savannah",
					"72_Augusta",
					"75_Columbia",
					"104_Charlotte"
				],
				"lat0": 1048.000000,
				"nbSeg0": 6,
				"path1": [
					"7_Gainesville",
					"4_Lake_City",
					"3_Tallahassee",
					"45_Albany",
					"43_Lagrange",
					"42_Opelika"
				],
				"lat1": 1007.000000,
				"nbSeg1": 2
			},
			"pathsExist": false,
			"runtime": 1135488821,
			"nomLat1": 1007.000000,
			"nomLat2": 1048.000000,
			"maxNomLat": 1048.000000,
			"mincut": 5
		},
		{
			"s1": "65_Ft_Myers",
			"s2": "82_Lake_Charles",
			"t1": "112_None",
			"t2": "66_Fort_Lauderdale",
			"suurballeNbPaths": 2,
			"suurballeTime": 12229934,
			"suurballePaths": {
				"path0": [
					"65_Ft_Myers",
					"64_Miami",
					"66_Fort_Lauderdale"
				],
				"lat0": 389.000000,
				"nbSeg0": 2,
				"path1": [
					"82_Lake_Charles",
					"83_Lafayette",
					"27_Baton_Rouge",
					"24_New_Orleans",
					"95_Gulfport",
					"94_Mobile",
					"55_Montgomery",
					"111_None",
					"47_Atlanta",
					"73_Athens",
					"98_None",
					"99_None",
					"112_None"
				],
				"lat1": 2554.000000,
				"nbSeg1": 1
			},
			"pathsExist": false,
			"runtime": 1405421312,
			"nomLat1": 3206.000000,
			"nomLat2": 2839.000000,
			"maxNomLat": 3206.000000,
			"mincut": 4
		},
		{
			"s1": "51_Chattanooga",
			"s2": "62_Daytona_Beach",
			"t1": "55_Montgomery",
			"t2": "6_Jacksonville",
			"suurballeNbPaths": 2,
			"suurballeTime": 62221267,
			"suurballePaths": {
				"path0": [
					"62_Daytona_Beach",
					"6_Jacksonville"
				],
				"lat0": 236.000000,
				"nbSeg0": 0,
				"path1": [
					"51_Chattanooga",
					"47_Atlanta",
					"111_None",
					"55_Montgomery"
				],
				"lat1": 709.000000,
				"nbSeg1": 0
			},
			"pathsExist": true,
			"path1": [
				"51_Chattanooga",
				"55_Montgomery"
			],
			"lat1": 709.000000,
			"path2": [
				"62_Daytona_Beach",
				"6_Jacksonville"
			],
			"lat2": 236.000000,
			"maxlat": 709.000000,
			"runtime": 1158335543,
			"nomLat1": 709.000000,
			"nomLat2": 236.000000,
			"maxNomLat": 709.000000,
			"mincut": 6
		},
		{
			"s1": "54_Birmingham",
			"s2": "3_Tallahassee",
			"t1": "76_Orangeburg",
			"t2": "68_Vero_Beach",
			"suurballeNbPaths": 2,
			"suurballeTime": 50415346,
			"suurballePaths": {
				"path0": [
					"54_Birmingham",
					"111_None",
					"47_Atlanta",
					"73_Athens",
					"72_Augusta",
					"75_Columbia",
					"76_Orangeburg"
				],
				"lat0": 1112.000000,
				"nbSeg0": 2,
				"path1": [
					"3_Tallahassee",
					"86_None",
					"8_Ocala",
					"63_Orlando",
					"70_Cocoa_Beach",
					"71_Melbourne",
					"68_Vero_Beach"
				],
				"lat1": 882.000000,
				"nbSeg1": 2
			},
			"pathsExist": false,
			"runtime": 1380675678,
			"nomLat1": 1384.000000,
			"nomLat2": 996.000000,
			"maxNomLat": 1384.000000,
			"mincut": 4
		},
		{
			"s1": "101_None",
			"s2": "41_Auburn",
			"t1": "52_Knoxville",
			"t2": "107_Bryan",
			"suurballeNbPaths": 2,
			"suurballeTime": 289336719,
			"suurballePaths": {
				"path0": [
					"101_None",
					"81_Savannah",
					"72_Augusta",
					"75_Columbia",
					"104_Charlotte",
					"60_Greenville",
					"53_Sylva",
					"52_Knoxville"
				],
				"lat0": 1488.000000,
				"nbSeg0": 8,
				"path1": [
					"41_Auburn",
					"40_Alexander_City",
					"49_Anniston",
					"54_Birmingham",
					"90_Tuscaloosa",
					"89_Meridian",
					"25_Jackson",
					"26_Vicksburg",
					"21_Monroe",
					"20_Shreveport",
					"23_Longview",
					"105_Dallas",
					"106_Waco",
					"107_Bryan"
				],
				"lat1": 2519.000000,
				"nbSeg1": 0
			},
			"pathsExist": false,
			"runtime": 1077989856,
			"nomLat1": 1938.000000,
			"nomLat2": 2519.000000,
			"maxNomLat": 2519.000000,
			"mincut": 4
		},
		{
			"s1": "41_Auburn",
			"s2": "106_Waco",
			"t1": "92_Memphis",
			"t2": "100_None",
			"suurballeNbPaths": 2,
			"suurballeTime": 12407222,
			"suurballePaths": {
				"path0": [
					"106_Waco",
					"105_Dallas",
					"23_Longview",
					"20_Shreveport",
					"21_Monroe",
					"26_Vicksburg",
					"25_Jackson",
					"92_Memphis"
				],
				"lat0": 1835.000000,
				"nbSeg0": 0,
				"path1": [
					"41_Auburn",
					"42_Opelika",
					"43_Lagrange",
					"17_Lagrange?",
					"14_Newnah?",
					"84_None",
					"47_Atlanta",
					"73_Athens",
					"72_Augusta",
					"75_Columbia",
					"76_Orangeburg",
					"100_None"
				],
				"lat1": 1524.000000,
				"nbSeg1": 3
			},
			"pathsExist": false,
			"runtime": 1272832470,
			"nomLat1": 1542.000000,
			"nomLat2": 4133.000000,
			"maxNomLat": 4133.000000,
			"mincut": 4
		},
		{
			"s1": "65_Ft_Myers",
			"s2": "46_Macon",
			"t1": "103_None",
			"t2": "70_Cocoa_Beach",
			"suurballeNbPaths": 2,
			"suurballeTime": 18553318,
			"suurballePaths": {
				"path0": [
					"65_Ft_Myers",
					"1_Sarasota",
					"0_Tampa",
					"63_Orlando",
					"70_Cocoa_Beach"
				],
				"lat0": 646.000000,
				"nbSeg0": 3,
				"path1": [
					"46_Macon",
					"47_Atlanta",
					"73_Athens",
					"72_Augusta",
					"75_Columbia",
					"74_Sumter",
					"103_None"
				],
				"lat1": 1117.000000,
				"nbSeg1": 2
			},
			"pathsExist": false,
			"runtime": 1414889981,
			"nomLat1": 1833.000000,
			"nomLat2": 1124.000000,
			"maxNomLat": 1833.000000,
			"mincut": 4
		},
		{
			"s1": "91_Jackson",
			"s2": "16_Hickory",
			"t1": "103_None",
			"t2": "23_Longview",
			"suurballeNbPaths": 2,
			"suurballeTime": 6925940,
			"suurballePaths": {
				"path0": [
					"16_Hickory",
					"104_Charlotte",
					"75_Columbia",
					"74_Sumter",
					"103_None"
				],
				"lat0": 683.000000,
				"nbSeg0": 2,
				"path1": [
					"91_Jackson",
					"92_Memphis",
					"25_Jackson",
					"26_Vicksburg",
					"21_Monroe",
					"20_Shreveport",
					"23_Longview"
				],
				"lat1": 1475.000000,
				"nbSeg1": 0
			},
			"pathsExist": false,
			"runtime": 1211560696,
			"nomLat1": 2097.000000,
			"nomLat2": 3139.000000,
			"maxNomLat": 3139.000000,
			"mincut": 5
		},
		{
			"s1": "56_Arab",
			"s2": "90_Tuscaloosa",
			"t1": "11_Lexington",
			"t2": "7_Gainesville",
			"suurballeNbPaths": 2,
			"suurballeTime": 75213875,
			"suurballePaths": {
				"path0": [
					"56_Arab",
					"54_Birmingham",
					"111_None",
					"47_Atlanta",
					"60_Greenville",
					"104_Charlotte",
					"11_Lexington"
				],
				"lat0": 1354.000000,
				"nbSeg0": 4,
				"path1": [
					"90_Tuscaloosa",
					"54_Birmingham",
					"49_Anniston",
					"40_Alexander_City",
					"41_Auburn",
					"42_Opelika",
					"43_Lagrange",
					"45_Albany",
					"3_Tallahassee",
					"4_Lake_City",
					"7_Gainesville"
				],
				"lat1": 1560.000000,
				"nbSeg1": 3
			},
			"pathsExist": false,
			"runtime": 1122013277,
			"nomLat1": 1354.000000,
			"nomLat2": 1567.000000,
			"maxNomLat": 1567.000000,
			"mincut": 4
		},
		{
			"s1": "46_Macon",
			"s2": "49_Anniston",
			"t1": "81_Savannah",
			"t2": "25_Jackson",
			"suurballeNbPaths": 2,
			"suurballeTime": 6045790,
			"suurballePaths": {
				"path0": [
					"46_Macon",
					"47_Atlanta",
					"73_Athens",
					"72_Augusta",
					"81_Savannah"
				],
				"lat0": 908.000000,
				"nbSeg0": 2,
				"path1": [
					"49_Anniston",
					"54_Birmingham",
					"90_Tuscaloosa",
					"89_Meridian",
					"25_Jackson"
				],
				"lat1": 770.000000,
				"nbSeg1": 0
			},
			"pathsExist": false,
			"runtime": 1101014790,
			"nomLat1": 1046.000000,
			"nomLat2": 770.000000,
			"maxNomLat": 1046.000000,
			"mincut": 6
		},
		{
			"s1": "60_Greenville",
			"s2": "48_Gadsden",
			"t1": "96_Hattiesburg",
			"t2": "62_Daytona_Beach",
			"suurballeNbPaths": 2,
			"suurballeTime": 6062444,
			"suurballePaths": {
				"path0": [
					"48_Gadsden",
					"49_Anniston",
					"54_Birmingham",
					"90_Tuscaloosa",
					"89_Meridian",
					"96_Hattiesburg"
				],
				"lat0": 826.000000,
				"nbSeg0": 0,
				"path1": [
					"60_Greenville",
					"47_Atlanta",
					"46_Macon",
					"5_Valdosta",
					"4_Lake_City",
					"6_Jacksonville",
					"62_Daytona_Beach"
				],
				"lat1": 1522.000000,
				"nbSeg1": 5
			},
			"pathsExist": false,
			"runtime": 1450519104,
			"nomLat1": 1585.000000,
			"nomLat2": 1790.000000,
			"maxNomLat": 1790.000000,
			"mincut": 6
		},
		{
			"s1": "1_Sarasota",
			"s2": "30_Myrtle_Beach",
			"t1": "0_Tampa",
			"t2": "15_Gainesville",
			"suurballeNbPaths": 2,
			"suurballeTime": 6162729,
			"suurballePaths": {
				"path0": [
					"1_Sarasota",
					"0_Tampa"
				],
				"lat0": 118.000000,
				"nbSeg0": 0,
				"path1": [
					"30_Myrtle_Beach",
					"31_Florence",
					"112_None",
					"99_None",
					"98_None",
					"97_None",
					"15_Gainesville"
				],
				"lat1": 1234.000000,
				"nbSeg1": 1
			},
			"pathsExist": false,
			"runtime": 1490182405,
			"nomLat1": 118.000000,
			"nomLat2": 1602.000000,
			"maxNomLat": 1602.000000,
			"mincut": 7
		},
		{
			"s1": "110_San_Antonia",
			"s2": "65_Ft_Myers",
			"t1": "11_Lexington",
			"t2": "53_Sylva",
			"suurballeNbPaths": 2,
			"suurballeTime": 6295989,
			"suurballePaths": {
				"path0": [
					"65_Ft_Myers",
					"1_Sarasota",
					"0_Tampa",
					"8_Ocala",
					"7_Gainesville",
					"4_Lake_City",
					"6_Jacksonville",
					"81_Savannah",
					"72_Augusta",
					"75_Columbia",
					"104_Charlotte",
					"11_Lexington"
				],
				"lat0": 2107.000000,
				"nbSeg0": 10,
				"path1": [
					"110_San_Antonia",
					"58_Houston",
					"61_Beaumont",
					"82_Lake_Charles",
					"83_Lafayette",
					"27_Baton_Rouge",
					"24_New_Orleans",
					"95_Gulfport",
					"94_Mobile",
					"55_Montgomery",
					"111_None",
					"47_Atlanta",
					"60_Greenville",
					"53_Sylva"
				],
				"lat1": 3163.000000,
				"nbSeg1": 2
			},
			"pathsExist": false,
			"runtime": 1512713590,
			"nomLat1": 3396.000000,
			"nomLat2": 2693.000000,
			"maxNomLat": 3396.000000,
			"mincut": 4
		},
		{
			"s1": "4_Lake_City",
			"s2": "109_San_Marcos",
			"t1": "101_None",
			"t2": "79_Beaufort",
			"suurballeNbPaths": 2,
			"suurballeTime": 6899914,
			"suurballePaths": {
				"path0": [
					"4_Lake_City",
					"6_Jacksonville",
					"81_Savannah",
					"101_None"
				],
				"lat0": 718.000000,
				"nbSeg0": 2,
				"path1": [
					"109_San_Marcos",
					"110_San_Antonia",
					"58_Houston",
					"61_Beaumont",
					"82_Lake_Charles",
					"83_Lafayette",
					"27_Baton_Rouge",
					"24_New_Orleans",
					"95_Gulfport",
					"94_Mobile",
					"55_Montgomery",
					"111_None",
					"47_Atlanta",
					"73_Athens",
					"72_Augusta",
					"75_Columbia",
					"76_Orangeburg",
					"100_None",
					"102_None",
					"79_Beaufort"
				],
				"lat1": 4080.000000,
				"nbSeg1": 4
			},
			"pathsExist": false,
			"runtime": 1545154935,
			"nomLat1": 718.000000,
			"nomLat2": 4093.000000,
			"maxNomLat": 4093.000000,
			"mincut": 2
		},
		{
			"s1": "60_Greenville",
			"s2": "67_Hollywood",
			"t1": "110_San_Antonia",
			"t2": "58_Houston",
			"suurballeNbPaths": 2,
			"suurballeTime": 6384397,
			"suurballePaths": {
				"path0": [
					"60_Greenville",
					"47_Atlanta",
					"111_None",
					"54_Birmingham",
					"90_Tuscaloosa",
					"89_Meridian",
					"25_Jackson",
					"26_Vicksburg",
					"21_Monroe",
					"20_Shreveport",
					"23_Longview",
					"105_Dallas",
					"106_Waco",
					"107_Bryan",
					"108_Austin",
					"109_San_Marcos",
					"110_San_Antonia"
				],
				"lat0": 3367.000000,
				"nbSeg0": 4,
				"path1": [
					"67_Hollywood",
					"66_Fort_Lauderdale",
					"85_None",
					"63_Orlando",
					"8_Ocala",
					"86_None",
					"3_Tallahassee",
					"88_Crestview",
					"93_Pensacola",
					"94_Mobile",
					"95_Gulfport",
					"24_New_Orleans",
					"27_Baton_Rouge",
					"83_Lafayette",
					"82_Lake_Charles",
					"61_Beaumont",
					"58_Houston"
				],
				"lat1": 2970.000000,
				"nbSeg1": 3
			},
			"pathsExist": false,
			"runtime": 1553055619,
			"nomLat1": 3000.000000,
			"nomLat2": 3185.000000,
			"maxNomLat": 3185.000000,
			"mincut": 2
		},
		{
			"s1": "7_Gainesville",
			"s2": "48_Gadsden",
			"t1": "26_Vicksburg",
			"t2": "3_Tallahassee",
			"suurballeNbPaths": 2,
			"suurballeTime": 5270140,
			"suurballePaths": {
				"path0": [
					"7_Gainesville",
					"4_Lake_City",
					"3_Tallahassee"
				],
				"lat0": 387.000000,
				"nbSeg0": 2,
				"path1": [
					"48_Gadsden",
					"49_Anniston",
					"54_Birmingham",
					"90_Tuscaloosa",
					"89_Meridian",
					"25_Jackson",
					"26_Vicksburg"
				],
				"lat1": 958.000000,
				"nbSeg1": 1
			},
			"pathsExist": false,
			"runtime": 1534364799,
			"nomLat1": 2778.000000,
			"nomLat2": 1119.000000,
			"maxNomLat": 2778.000000,
			"mincut": 4
		},
		{
			"s1": "103_None",
			"s2": "59_Ashville",
			"t1": "65_Ft_Myers",
			"t2": "46_Macon",
			"suurballeNbPaths": 2,
			"suurballeTime": 5748176,
			"suurballePaths": {
				"path0": [
					"59_Ashville",
					"60_Greenville",
					"47_Atlanta",
					"46_Macon"
				],
				"lat0": 726.000000,
				"nbSeg0": 2,
				"path1": [
					"103_None",
					"77_Charleston",
					"81_Savannah",
					"6_Jacksonville",
					"4_Lake_City",
					"7_Gainesville",
					"8_Ocala",
					"0_Tampa",
					"1_Sarasota",
					"65_Ft_Myers"
				],
				"lat1": 1695.000000,
				"nbSeg1": 6
			},
			"pathsExist": false,
			"runtime": 1486031526,
			"nomLat1": 1833.000000,
			"nomLat2": 726.000000,
			"maxNomLat": 1833.000000,
			"mincut": 4
		},
		{
			"s1": "26_Vicksburg",
			"s2": "79_Beaufort",
			"t1": "0_Tampa",
			"t2": "52_Knoxville",
			"suurballeNbPaths": 2,
			"suurballeTime": 16274600,
			"suurballePaths": {
				"path0": [
					"26_Vicksburg",
					"25_Jackson",
					"92_Memphis",
					"91_Jackson",
					"50_Nashville",
					"52_Knoxville"
				],
				"lat0": 1617.000000,
				"nbSeg0": 0,
				"path1": [
					"79_Beaufort",
					"102_None",
					"101_None",
					"81_Savannah",
					"6_Jacksonville",
					"4_Lake_City",
					"7_Gainesville",
					"8_Ocala",
					"0_Tampa"
				],
				"lat1": 1596.000000,
				"nbSeg1": 5
			},
			"pathsExist": false,
			"runtime": 1586488269,
			"nomLat1": 3057.000000,
			"nomLat2": 1543.000000,
			"maxNomLat": 3057.000000,
			"mincut": 4
		},
		{
			"s1": "112_None",
			"s2": "90_Tuscaloosa",
			"t1": "83_Lafayette",
			"t2": "93_Pensacola",
			"suurballeNbPaths": 2,
			"suurballeTime": 26212004,
			"suurballePaths": {
				"path0": [
					"90_Tuscaloosa",
					"89_Meridian",
					"96_Hattiesburg",
					"95_Gulfport",
					"24_New_Orleans",
					"27_Baton_Rouge",
					"83_Lafayette"
				],
				"lat0": 1172.000000,
				"nbSeg0": 1,
				"path1": [
					"112_None",
					"99_None",
					"98_None",
					"73_Athens",
					"47_Atlanta",
					"111_None",
					"55_Montgomery",
					"94_Mobile",
					"93_Pensacola"
				],
				"lat1": 1795.000000,
				"nbSeg1": 2
			},
			"pathsExist": false,
			"runtime": 1559909307,
			"nomLat1": 2604.000000,
			"nomLat2": 933.000000,
			"maxNomLat": 2604.000000,
			"mincut": 4
		},
		{
			"s1": "48_Gadsden",
			"s2": "110_San_Antonia",
			"t1": "51_Chattanooga",
			"t2": "65_Ft_Myers",
			"suurballeNbPaths": 2,
			"suurballeTime": 4929978,
			"suurballePaths": {
				"path0": [
					"48_Gadsden",
					"57_Huntsville",
					"50_Nashville",
					"51_Chattanooga"
				],
				"lat0": 744.000000,
				"nbSeg0": 0,
				"path1": [
					"110_San_Antonia",
					"58_Houston",
					"61_Beaumont",
					"82_Lake_Charles",
					"83_Lafayette",
					"27_Baton_Rouge",
					"24_New_Orleans",
					"95_Gulfport",
					"94_Mobile",
					"93_Pensacola",
					"88_Crestview",
					"3_Tallahassee",
					"86_None",
					"8_Ocala",
					"0_Tampa",
					"1_Sarasota",
					"65_Ft_Myers"
				],
				"lat1": 3391.000000,
				"nbSeg1": 1
			},
			"pathsExist": false,
			"runtime": 1604728743,
			"nomLat1": 744.000000,
			"nomLat2": 3968.000000,
			"maxNomLat": 3968.000000,
			"mincut": 4
		},
		{
			"s1": "68_Vero_Beach",
			"s2": "64_Miami",
			"t1": "81_Savannah",
			"t2": "110_San_Antonia",
			"suurballeNbPaths": 2,
			"suurballeTime": 7048081,
			"suurballePaths": {
				"path0": [
					"64_Miami",
					"66_Fort_Lauderdale",
					"85_None",
					"62_Daytona_Beach",
					"6_Jacksonville",
					"81_Savannah"
				],
				"lat0": 1072.000000,
				"nbSeg0": 2,
				"path1": [
					"68_Vero_Beach",
					"71_Melbourne",
					"70_Cocoa_Beach",
					"63_Orlando",
					"8_Ocala",
					"86_None",
					"3_Tallahassee",
					"88_Crestview",
					"93_Pensacola",
					"94_Mobile",
					"95_Gulfport",
					"24_New_Orleans",
					"27_Baton_Rouge",
					"83_Lafayette",
					"82_Lake_Charles",
					"61_Beaumont",
					"58_Houston",
					"110_San_Antonia"
				],
				"lat1": 3310.000000,
				"nbSeg1": 2
			},
			"pathsExist": false,
			"runtime": 1667414629,
			"nomLat1": 902.000000,
			"nomLat2": 3648.000000,
			"maxNomLat": 3648.000000,
			"mincut": 4
		},
		{
			"s1": "89_Meridian",
			"s2": "15_Gainesville",
			"t1": "73_Athens",
			"t2": "72_Augusta",
			"suurballeNbPaths": 2,
			"suurballeTime": 6236336,
			"suurballePaths": {
				"path0": [
					"15_Gainesville",
					"97_None",
					"98_None",
					"73_Athens"
				],
				"lat0": 639.000000,
				"nbSeg0": 1,
				"path1": [
					"89_Meridian",
					"90_Tuscaloosa",
					"54_Birmingham",
					"111_None",
					"47_Atlanta",
					"73_Athens"
				],
				"lat1": 968.000000,
				"nbSeg1": 0
			},
			"pathsExist": false,
			"runtime": 1647016551,
			"nomLat1": 968.000000,
			"nomLat2": 542.000000,
			"maxNomLat": 968.000000,
			"mincut": 5
		},
		{
			"s1": "7_Gainesville",
			"s2": "68_Vero_Beach",
			"t1": "17_Lagrange?",
			"t2": "92_Memphis",
			"suurballeNbPaths": 2,
			"suurballeTime": 6828024,
			"suurballePaths": {
				"path0": [
					"7_Gainesville",
					"4_Lake_City",
					"5_Valdosta",
					"46_Macon",
					"47_Atlanta",
					"51_Chattanooga",
					"50_Nashville",
					"91_Jackson",
					"92_Memphis"
				],
				"lat0": 1993.000000,
				"nbSeg0": 1,
				"path1": [
					"68_Vero_Beach",
					"71_Melbourne",
					"70_Cocoa_Beach",
					"63_Orlando",
					"8_Ocala",
					"86_None",
					"3_Tallahassee",
					"45_Albany",
					"43_Lagrange",
					"17_Lagrange?"
				],
				"lat1": 1412.000000,
				"nbSeg1": 2
			},
			"pathsExist": false,
			"runtime": 1671622633,
			"nomLat1": 917.000000,
			"nomLat2": 2741.000000,
			"maxNomLat": 2741.000000,
			"mincut": 4
		},
		{
			"s1": "3_Tallahassee",
			"s2": "40_Alexander_City",
			"t1": "77_Charleston",
			"t2": "5_Valdosta",
			"suurballeNbPaths": 2,
			"suurballeTime": 5353424,
			"suurballePaths": {
				"path0": [
					"3_Tallahassee",
					"4_Lake_City",
					"5_Valdosta"
				],
				"lat0": 432.000000,
				"nbSeg0": 2,
				"path1": [
					"40_Alexander_City",
					"49_Anniston",
					"84_None",
					"47_Atlanta",
					"73_Athens",
					"72_Augusta",
					"81_Savannah",
					"77_Charleston"
				],
				"lat1": 1491.000000,
				"nbSeg1": 4
			},
			"pathsExist": false,
			"runtime": 1344538625,
			"nomLat1": 1004.000000,
			"nomLat2": 1153.000000,
			"maxNomLat": 1153.000000,
			"mincut": 6
		},
		{
			"s1": "37_Fayatteville",
			"s2": "68_Vero_Beach",
			"t1": "105_Dallas",
			"t2": "109_San_Marcos",
			"suurballeNbPaths": 2,
			"suurballeTime": 16379453,
			"suurballePaths": {
				"path0": [
					"37_Fayatteville",
					"19_Raleigh",
					"104_Charlotte",
					"60_Greenville",
					"47_Atlanta",
					"111_None",
					"54_Birmingham",
					"90_Tuscaloosa",
					"89_Meridian",
					"25_Jackson",
					"26_Vicksburg",
					"21_Monroe",
					"20_Shreveport",
					"23_Longview",
					"105_Dallas"
				],
				"lat0": 3220.000000,
				"nbSeg0": 7,
				"path1": [
					"68_Vero_Beach",
					"71_Melbourne",
					"70_Cocoa_Beach",
					"63_Orlando",
					"8_Ocala",
					"86_None",
					"3_Tallahassee",
					"88_Crestview",
					"93_Pensacola",
					"94_Mobile",
					"95_Gulfport",
					"24_New_Orleans",
					"27_Baton_Rouge",
					"83_Lafayette",
					"82_Lake_Charles",
					"61_Beaumont",
					"58_Houston",
					"110_San_Antonia",
					"109_San_Marcos"
				],
				"lat1": 3437.000000,
				"nbSeg1": 2
			},
			"pathsExist": false,
			"runtime": 1486500547,
			"nomLat1": 3840.000000,
			"nomLat2": 3551.000000,
			"maxNomLat": 3840.000000,
			"mincut": 2
		},
		{
			"s1": "53_Sylva",
			"s2": "48_Gadsden",
			"t1": "111_None",
			"t2": "24_New_Orleans",
			"suurballeNbPaths": 2,
			"suurballeTime": 6328122,
			"suurballePaths": {
				"path0": [
					"53_Sylva",
					"60_Greenville",
					"47_Atlanta",
					"111_None"
				],
				"lat0": 748.000000,
				"nbSeg0": 2,
				"path1": [
					"48_Gadsden",
					"49_Anniston",
					"54_Birmingham",
					"90_Tuscaloosa",
					"89_Meridian",
					"96_Hattiesburg",
					"95_Gulfport",
					"24_New_Orleans"
				],
				"lat1": 1190.000000,
				"nbSeg1": 1
			},
			"pathsExist": false,
			"runtime": 1665784972,
			"nomLat1": 748.000000,
			"nomLat2": 1944.000000,
			"maxNomLat": 1944.000000,
			"mincut": 5
		},
		{
			"s1": "47_Atlanta",
			"s2": "102_None",
			"t1": "7_Gainesville",
			"t2": "8_Ocala",
			"suurballeNbPaths": 2,
			"suurballeTime": 6133597,
			"suurballePaths": {
				"path0": [
					"47_Atlanta",
					"3_Tallahassee",
					"86_None",
					"8_Ocala"
				],
				"lat0": 1044.000000,
				"nbSeg0": 0,
				"path1": [
					"102_None",
					"101_None",
					"81_Savannah",
					"6_Jacksonville",
					"4_Lake_City",
					"7_Gainesville"
				],
				"lat1": 1047.000000,
				"nbSeg1": 2
			},
			"pathsExist": false,
			"runtime": 1406860902,
			"nomLat1": 1005.000000,
			"nomLat2": 1357.000000,
			"maxNomLat": 1357.000000,
			"mincut": 4
		},
		{
			"s1": "37_Fayatteville",
			"s2": "93_Pensacola",
			"t1": "69_West_Palm_Beach",
			"t2": "36_Wilmington",
			"suurballeNbPaths": 2,
			"suurballeTime": 16017794,
			"suurballePaths": {
				"path0": [
					"37_Fayatteville",
					"36_Wilmington"
				],
				"lat0": 214.000000,
				"nbSeg0": 2,
				"path1": [
					"93_Pensacola",
					"88_Crestview",
					"3_Tallahassee",
					"86_None",
					"8_Ocala",
					"63_Orlando",
					"70_Cocoa_Beach",
					"71_Melbourne",
					"68_Vero_Beach",
					"69_West_Palm_Beach"
				],
				"lat1": 1566.000000,
				"nbSeg1": 3
			},
			"pathsExist": false,
			"runtime": 1435736885,
			"nomLat1": 1978.000000,
			"nomLat2": 2401.000000,
			"maxNomLat": 2401.000000,
			"mincut": 7
		},
		{
			"s1": "108_Austin",
			"s2": "110_San_Antonia",
			"t1": "84_None",
			"t2": "61_Beaumont",
			"suurballeNbPaths": 2,
			"suurballeTime": 6237172,
			"suurballePaths": {
				"path0": [
					"110_San_Antonia",
					"58_Houston",
					"61_Beaumont"
				],
				"lat0": 728.000000,
				"nbSeg0": 0,
				"path1": [
					"108_Austin",
					"107_Bryan",
					"106_Waco",
					"105_Dallas",
					"23_Longview",
					"20_Shreveport",
					"21_Monroe",
					"26_Vicksburg",
					"25_Jackson",
					"89_Meridian",
					"90_Tuscaloosa",
					"54_Birmingham",
					"49_Anniston",
					"84_None"
				],
				"lat1": 2729.000000,
				"nbSeg1": 0
			},
			"pathsExist": false,
			"runtime": 1610120907,
			"nomLat1": 2729.000000,
			"nomLat2": 728.000000,
			"maxNomLat": 2729.000000,
			"mincut": 2
		},
		{
			"s1": "93_Pensacola",
			"s2": "53_Sylva",
			"t1": "83_Lafayette",
			"t2": "68_Vero_Beach",
			"suurballeNbPaths": 2,
			"suurballeTime": 5561795,
			"suurballePaths": {
				"path0": [
					"93_Pensacola",
					"94_Mobile",
					"95_Gulfport",
					"24_New_Orleans",
					"27_Baton_Rouge",
					"83_Lafayette"
				],
				"lat0": 857.000000,
				"nbSeg0": 0,
				"path1": [
					"53_Sylva",
					"60_Greenville",
					"47_Atlanta",
					"46_Macon",
					"5_Valdosta",
					"4_Lake_City",
					"7_Gainesville",
					"8_Ocala",
					"63_Orlando",
					"70_Cocoa_Beach",
					"71_Melbourne",
					"68_Vero_Beach"
				],
				"lat1": 1953.000000,
				"nbSeg1": 6
			},
			"pathsExist": false,
			"runtime": 1579609465,
			"nomLat1": 857.000000,
			"nomLat2": 2149.000000,
			"maxNomLat": 2149.000000,
			"mincut": 4
		},
		{
			"s1": "23_Longview",
			"s2": "93_Pensacola",
			"t1": "80_Saunt_Augustine",
			"t2": "22_Alexandria",
			"suurballeNbPaths": 2,
			"suurballeTime": 6249210,
			"suurballePaths": {
				"path0": [
					"23_Longview",
					"20_Shreveport",
					"22_Alexandria"
				],
				"lat0": 468.000000,
				"nbSeg0": 0,
				"path1": [
					"93_Pensacola",
					"88_Crestview",
					"3_Tallahassee",
					"4_Lake_City",
					"6_Jacksonville",
					"80_Saunt_Augustine"
				],
				"lat1": 1036.000000,
				"nbSeg1": 4
			},
			"pathsExist": false,
			"runtime": 1552740736,
			"nomLat1": 3547.000000,
			"nomLat2": 1074.000000,
			"maxNomLat": 3547.000000,
			"mincut": 4
		},
		{
			"s1": "68_Vero_Beach",
			"s2": "88_Crestview",
			"t1": "13_Greensboro",
			"t2": "110_San_Antonia",
			"suurballeNbPaths": 2,
			"suurballeTime": 6622577,
			"suurballePaths": {
				"path0": [
					"68_Vero_Beach",
					"71_Melbourne",
					"70_Cocoa_Beach",
					"62_Daytona_Beach",
					"6_Jacksonville",
					"81_Savannah",
					"72_Augusta",
					"75_Columbia",
					"104_Charlotte",
					"11_Lexington",
					"13_Greensboro"
				],
				"lat0": 1843.000000,
				"nbSeg0": 7,
				"path1": [
					"88_Crestview",
					"93_Pensacola",
					"94_Mobile",
					"95_Gulfport",
					"24_New_Orleans",
					"27_Baton_Rouge",
					"83_Lafayette",
					"82_Lake_Charles",
					"61_Beaumont",
					"58_Houston",
					"110_San_Antonia"
				],
				"lat1": 2054.000000,
				"nbSeg1": 0
			},
			"pathsExist": false,
			"runtime": 1889538857,
			"nomLat1": 1871.000000,
			"nomLat2": 2054.000000,
			"maxNomLat": 2054.000000,
			"mincut": 5
		},
		{
			"s1": "42_Opelika",
			"s2": "75_Columbia",
			"t1": "63_Orlando",
			"t2": "48_Gadsden",
			"suurballeNbPaths": 2,
			"suurballeTime": 6676469,
			"suurballePaths": {
				"path0": [
					"42_Opelika",
					"41_Auburn",
					"40_Alexander_City",
					"49_Anniston",
					"48_Gadsden"
				],
				"lat0": 336.000000,
				"nbSeg0": 0,
				"path1": [
					"75_Columbia",
					"72_Augusta",
					"81_Savannah",
					"6_Jacksonville",
					"4_Lake_City",
					"7_Gainesville",
					"8_Ocala",
					"63_Orlando"
				],
				"lat1": 1368.000000,
				"nbSeg1": 9
			},
			"pathsExist": false,
			"runtime": 1916766857,
			"nomLat1": 1223.000000,
			"nomLat2": 1356.000000,
			"maxNomLat": 1356.000000,
			"mincut": 6
		},
		{
			"s1": "110_San_Antonia",
			"s2": "15_Gainesville",
			"t1": "22_Alexandria",
			"t2": "29_Little_Rock",
			"suurballeNbPaths": 2,
			"suurballeTime": 7080071,
			"suurballePaths": {
				"path0": [
					"110_San_Antonia",
					"58_Houston",
					"61_Beaumont",
					"82_Lake_Charles",
					"83_Lafayette",
					"22_Alexandria"
				],
				"lat0": 1289.000000,
				"nbSeg0": 1,
				"path1": [
					"15_Gainesville",
					"47_Atlanta",
					"51_Chattanooga",
					"50_Nashville",
					"91_Jackson",
					"92_Memphis",
					"29_Little_Rock"
				],
				"lat1": 1618.000000,
				"nbSeg1": 0
			},
			"pathsExist": false,
			"runtime": 1950615186,
			"nomLat1": 1920.000000,
			"nomLat2": 1618.000000,
			"maxNomLat": 1920.000000,
			"mincut": 4
		},
		{
			"s1": "73_Athens",
			"s2": "107_Bryan",
			"t1": "55_Montgomery",
			"t2": "27_Baton_Rouge",
			"suurballeNbPaths": 2,
			"suurballeTime": 26890678,
			"suurballePaths": {
				"path0": [
					"73_Athens",
					"47_Atlanta",
					"111_None",
					"55_Montgomery"
				],
				"lat0": 591.000000,
				"nbSeg0": 0,
				"path1": [
					"107_Bryan",
					"106_Waco",
					"105_Dallas",
					"23_Longview",
					"20_Shreveport",
					"22_Alexandria",
					"83_Lafayette",
					"27_Baton_Rouge"
				],
				"lat1": 1612.000000,
				"nbSeg1": 1
			},
			"pathsExist": false,
			"runtime": 1810031536,
			"nomLat1": 591.000000,
			"nomLat2": 1765.000000,
			"maxNomLat": 1765.000000,
			"mincut": 5
		},
		{
			"s1": "31_Florence",
			"s2": "71_Melbourne",
			"t1": "70_Cocoa_Beach",
			"t2": "54_Birmingham",
			"suurballeNbPaths": 2,
			"suurballeTime": 16290752,
			"suurballePaths": {
				"path0": [
					"71_Melbourne",
					"70_Cocoa_Beach"
				],
				"lat0": 48.000000,
				"nbSeg0": 0,
				"path1": [
					"31_Florence",
					"112_None",
					"99_None",
					"98_None",
					"73_Athens",
					"47_Atlanta",
					"111_None",
					"54_Birmingham"
				],
				"lat1": 1443.000000,
				"nbSeg1": 1
			},
			"pathsExist": false,
			"runtime": 2087897251,
			"nomLat1": 1395.000000,
			"nomLat2": 1946.000000,
			"maxNomLat": 1946.000000,
			"mincut": 6
		},
		{
			"s1": "5_Valdosta",
			"s2": "60_Greenville",
			"t1": "28_Pine_Bluff",
			"t2": "68_Vero_Beach",
			"suurballeNbPaths": 2,
			"suurballeTime": 7019493,
			"suurballePaths": {
				"path0": [
					"5_Valdosta",
					"4_Lake_City",
					"7_Gainesville",
					"8_Ocala",
					"63_Orlando",
					"70_Cocoa_Beach",
					"71_Melbourne",
					"68_Vero_Beach"
				],
				"lat0": 829.000000,
				"nbSeg0": 3,
				"path1": [
					"60_Greenville",
					"53_Sylva",
					"52_Knoxville",
					"50_Nashville",
					"91_Jackson",
					"92_Memphis",
					"29_Little_Rock",
					"28_Pine_Bluff"
				],
				"lat1": 1752.000000,
				"nbSeg1": 2
			},
			"pathsExist": false,
			"runtime": 1984186641,
			"nomLat1": 2708.000000,
			"nomLat2": 1986.000000,
			"maxNomLat": 2708.000000,
			"mincut": 4
		},
		{
			"s1": "79_Beaufort",
			"s2": "103_None",
			"t1": "70_Cocoa_Beach",
			"t2": "71_Melbourne",
			"suurballeNbPaths": 2,
			"suurballeTime": 6422658,
			"suurballePaths": {
				"path0": [
					"79_Beaufort",
					"102_None",
					"101_None",
					"81_Savannah",
					"6_Jacksonville",
					"62_Daytona_Beach",
					"70_Cocoa_Beach"
				],
				"lat0": 1399.000000,
				"nbSeg0": 2,
				"path1": [
					"103_None",
					"74_Sumter",
					"75_Columbia",
					"72_Augusta",
					"73_Athens",
					"47_Atlanta",
					"46_Macon",
					"5_Valdosta",
					"4_Lake_City",
					"7_Gainesville",
					"8_Ocala",
					"63_Orlando",
					"70_Cocoa_Beach"
				],
				"lat1": 2184.000000,
				"nbSeg1": 6
			},
			"pathsExist": false,
			"runtime": 2087682662,
			"nomLat1": 1399.000000,
			"nomLat2": 1249.000000,
			"maxNomLat": 1399.000000,
			"mincut": 3
		},
		{
			"s1": "100_None",
			"s2": "68_Vero_Beach",
			"t1": "103_None",
			"t2": "55_Montgomery",
			"suurballeNbPaths": 2,
			"suurballeTime": 6740376,
			"suurballePaths": {
				"path0": [
					"100_None",
					"77_Charleston",
					"103_None"
				],
				"lat0": 426.000000,
				"nbSeg0": 0,
				"path1": [
					"68_Vero_Beach",
					"71_Melbourne",
					"70_Cocoa_Beach",
					"63_Orlando",
					"8_Ocala",
					"7_Gainesville",
					"4_Lake_City",
					"5_Valdosta",
					"46_Macon",
					"47_Atlanta",
					"111_None",
					"55_Montgomery"
				],
				"lat1": 1844.000000,
				"nbSeg1": 4
			},
			"pathsExist": false,
			"runtime": 2199630042,
			"nomLat1": 426.000000,
			"nomLat2": 2040.000000,
			"maxNomLat": 2040.000000,
			"mincut": 5
		},
		{
			"s1": "7_Gainesville",
			"s2": "8_Ocala",
			"t1": "53_Sylva",
			"t2": "65_Ft_Myers",
			"suurballeNbPaths": 2,
			"suurballeTime": 5011183,
			"suurballePaths": {
				"path0": [
					"8_Ocala",
					"0_Tampa",
					"1_Sarasota",
					"65_Ft_Myers"
				],
				"lat0": 537.000000,
				"nbSeg0": 1,
				"path1": [
					"7_Gainesville",
					"4_Lake_City",
					"5_Valdosta",
					"46_Macon",
					"47_Atlanta",
					"60_Greenville",
					"53_Sylva"
				],
				"lat1": 1401.000000,
				"nbSeg1": 3
			},
			"pathsExist": false,
			"runtime": 2573435605,
			"nomLat1": 1540.000000,
			"nomLat2": 1114.000000,
			"maxNomLat": 1540.000000,
			"mincut": 5
		},
		{
			"s1": "7_Gainesville",
			"s2": "61_Beaumont",
			"t1": "24_New_Orleans",
			"t2": "81_Savannah",
			"suurballeNbPaths": 2,
			"suurballeTime": 6052742,
			"suurballePaths": {
				"path0": [
					"7_Gainesville",
					"4_Lake_City",
					"6_Jacksonville",
					"81_Savannah"
				],
				"lat0": 621.000000,
				"nbSeg0": 2,
				"path1": [
					"61_Beaumont",
					"82_Lake_Charles",
					"83_Lafayette",
					"27_Baton_Rouge",
					"24_New_Orleans"
				],
				"lat1": 693.000000,
				"nbSeg1": 0
			},
			"pathsExist": false,
			"runtime": 2341053460,
			"nomLat1": 1394.000000,
			"nomLat2": 2599.000000,
			"maxNomLat": 2599.000000,
			"mincut": 4
		},
		{
			"s1": "79_Beaufort",
			"s2": "70_Cocoa_Beach",
			"t1": "2_Dothan",
			"t2": "80_Saunt_Augustine",
			"suurballeNbPaths": 2,
			"suurballeTime": 16039099,
			"suurballePaths": {
				"path0": [
					"70_Cocoa_Beach",
					"62_Daytona_Beach",
					"80_Saunt_Augustine"
				],
				"lat0": 323.000000,
				"nbSeg0": 0,
				"path1": [
					"79_Beaufort",
					"102_None",
					"100_None",
					"76_Orangeburg",
					"75_Columbia",
					"72_Augusta",
					"73_Athens",
					"47_Atlanta",
					"111_None",
					"55_Montgomery",
					"2_Dothan"
				],
				"lat1": 2011.000000,
				"nbSeg1": 3
			},
			"pathsExist": false,
			"runtime": 2217203460,
			"nomLat1": 2183.000000,
			"nomLat2": 323.000000,
			"maxNomLat": 2183.000000,
			"mincut": 4
		},
		{
			"s1": "15_Gainesville",
			"s2": "52_Knoxville",
			"t1": "26_Vicksburg",
			"t2": "22_Alexandria",
			"suurballeNbPaths": 2,
			"suurballeTime": 6279275,
			"suurballePaths": {
				"path0": [
					"52_Knoxville",
					"50_Nashville",
					"91_Jackson",
					"92_Memphis",
					"25_Jackson",
					"26_Vicksburg"
				],
				"lat0": 1617.000000,
				"nbSeg0": 0,
				"path1": [
					"15_Gainesville",
					"47_Atlanta",
					"111_None",
					"55_Montgomery",
					"94_Mobile",
					"95_Gulfport",
					"24_New_Orleans",
					"27_Baton_Rouge",
					"83_Lafayette",
					"22_Alexandria"
				],
				"lat1": 1911.000000,
				"nbSeg1": 0
			},
			"pathsExist": false,
			"runtime": 2465915394,
			"nomLat1": 1911.000000,
			"nomLat2": 2509.000000,
			"maxNomLat": 2509.000000,
			"mincut": 2
		},
		{
			"s1": "31_Florence",
			"s2": "10_Winston-Salem",
			"t1": "91_Jackson",
			"t2": "7_Gainesville",
			"suurballeNbPaths": 2,
			"suurballeTime": 16065567,
			"suurballePaths": {
				"path0": [
					"31_Florence",
					"30_Myrtle_Beach",
					"77_Charleston",
					"81_Savannah",
					"6_Jacksonville",
					"4_Lake_City",
					"7_Gainesville"
				],
				"lat0": 1256.000000,
				"nbSeg0": 4,
				"path1": [
					"10_Winston-Salem",
					"104_Charlotte",
					"60_Greenville",
					"53_Sylva",
					"52_Knoxville",
					"50_Nashville",
					"91_Jackson"
				],
				"lat1": 1519.000000,
				"nbSeg1": 3
			},
			"pathsExist": false,
			"runtime": 2400220849,
			"nomLat1": 2484.000000,
			"nomLat2": 1817.000000,
			"maxNomLat": 2484.000000,
			"mincut": 4
		},
		{
			"s1": "89_Meridian",
			"s2": "80_Saunt_Augustine",
			"t1": "55_Montgomery",
			"t2": "70_Cocoa_Beach",
			"suurballeNbPaths": 2,
			"suurballeTime": 5772838,
			"suurballePaths": {
				"path0": [
					"80_Saunt_Augustine",
					"62_Daytona_Beach",
					"70_Cocoa_Beach"
				],
				"lat0": 323.000000,
				"nbSeg0": 0,
				"path1": [
					"89_Meridian",
					"90_Tuscaloosa",
					"54_Birmingham",
					"55_Montgomery"
				],
				"lat1": 609.000000,
				"nbSeg1": 0
			},
			"pathsExist": true,
			"path1": [
				"89_Meridian",
				"55_Montgomery"
			],
			"lat1": 609.000000,
			"path2": [
				"80_Saunt_Augustine",
				"70_Cocoa_Beach"
			],
			"lat2": 323.000000,
			"maxlat": 609.000000,
			"runtime": 2442413600,
			"nomLat1": 609.000000,
			"nomLat2": 323.000000,
			"maxNomLat": 609.000000,
			"mincut": 5
		},
		{
			"s1": "46_Macon",
			"s2": "30_Myrtle_Beach",
			"t1": "72_Augusta",
			"t2": "100_None",
			"suurballeNbPaths": 2,
			"suurballeTime": 6342681,
			"suurballePaths": {
				"path0": [
					"30_Myrtle_Beach",
					"77_Charleston",
					"100_None"
				],
				"lat0": 451.000000,
				"nbSeg0": 0,
				"path1": [
					"46_Macon",
					"47_Atlanta",
					"73_Athens",
					"72_Augusta"
				],
				"lat1": 613.000000,
				"nbSeg1": 0
			},
			"pathsExist": false,
			"runtime": 2710820477,
			"nomLat1": 613.000000,
			"nomLat2": 451.000000,
			"maxNomLat": 613.000000,
			"mincut": 7
		},
		{
			"s1": "68_Vero_Beach",
			"s2": "59_Ashville",
			"t1": "63_Orlando",
			"t2": "98_None",
			"suurballeNbPaths": 2,
			"suurballeTime": 6124109,
			"suurballePaths": {
				"path0": [
					"68_Vero_Beach",
					"71_Melbourne",
					"70_Cocoa_Beach",
					"63_Orlando"
				],
				"lat0": 279.000000,
				"nbSeg0": 0,
				"path1": [
					"59_Ashville",
					"60_Greenville",
					"97_None",
					"98_None"
				],
				"lat1": 571.000000,
				"nbSeg1": 0
			},
			"pathsExist": false,
			"runtime": 2712730127,
			"nomLat1": 279.000000,
			"nomLat2": 571.000000,
			"maxNomLat": 571.000000,
			"mincut": 4
		},
		{
			"s1": "15_Gainesville",
			"s2": "89_Meridian",
			"t1": "53_Sylva",
			"t2": "70_Cocoa_Beach",
			"suurballeNbPaths": 2,
			"suurballeTime": 6361075,
			"suurballePaths": {
				"path0": [
					"15_Gainesville",
					"97_None",
					"60_Greenville",
					"53_Sylva"
				],
				"lat0": 589.000000,
				"nbSeg0": 1,
				"path1": [
					"89_Meridian",
					"96_Hattiesburg",
					"95_Gulfport",
					"94_Mobile",
					"93_Pensacola",
					"88_Crestview",
					"3_Tallahassee",
					"86_None",
					"8_Ocala",
					"63_Orlando",
					"70_Cocoa_Beach"
				],
				"lat1": 1971.000000,
				"nbSeg1": 3
			},
			"pathsExist": false,
			"runtime": 2300808811,
			"nomLat1": 673.000000,
			"nomLat2": 2275.000000,
			"maxNomLat": 2275.000000,
			"mincut": 5
		},
		{
			"s1": "107_Bryan",
			"s2": "97_None",
			"t1": "5_Valdosta",
			"t2": "62_Daytona_Beach",
			"suurballeNbPaths": 2,
			"suurballeTime": 5013631,
			"suurballePaths": {
				"path0": [
					"97_None",
					"15_Gainesville",
					"47_Atlanta",
					"46_Macon",
					"5_Valdosta"
				],
				"lat0": 940.000000,
				"nbSeg0": 1,
				"path1": [
					"107_Bryan",
					"106_Waco",
					"105_Dallas",
					"23_Longview",
					"20_Shreveport",
					"22_Alexandria",
					"83_Lafayette",
					"27_Baton_Rouge",
					"24_New_Orleans",
					"95_Gulfport",
					"94_Mobile",
					"93_Pensacola",
					"88_Crestview",
					"3_Tallahassee",
					"4_Lake_City",
					"6_Jacksonville",
					"62_Daytona_Beach"
				],
				"lat1": 3490.000000,
				"nbSeg1": 5
			},
			"pathsExist": false,
			"runtime": 2271419677,
			"nomLat1": 3759.000000,
			"nomLat2": 1874.000000,
			"maxNomLat": 3759.000000,
			"mincut": 5
		},
		{
			"s1": "102_None",
			"s2": "12_Durham",
			"t1": "70_Cocoa_Beach",
			"t2": "97_None",
			"suurballeNbPaths": 2,
			"suurballeTime": 5731862,
			"suurballePaths": {
				"path0": [
					"102_None",
					"101_None",
					"81_Savannah",
					"6_Jacksonville",
					"62_Daytona_Beach",
					"70_Cocoa_Beach"
				],
				"lat0": 1186.000000,
				"nbSeg0": 0,
				"path1": [
					"12_Durham",
					"13_Greensboro",
					"11_Lexington",
					"104_Charlotte",
					"60_Greenville",
					"97_None"
				],
				"lat1": 836.000000,
				"nbSeg1": 3
			},
			"pathsExist": false,
			"runtime": 2631375804,
			"nomLat1": 1186.000000,
			"nomLat2": 876.000000,
			"maxNomLat": 1186.000000,
			"mincut": 4
		},
		{
			"s1": "17_Lagrange?",
			"s2": "94_Mobile",
			"t1": "51_Chattanooga",
			"t2": "56_Arab",
			"suurballeNbPaths": 2,
			"suurballeTime": 16292222,
			"suurballePaths": {
				"path0": [
					"94_Mobile",
					"55_Montgomery",
					"54_Birmingham",
					"56_Arab"
				],
				"lat0": 811.000000,
				"nbSeg0": 0,
				"path1": [
					"17_Lagrange?",
					"14_Newnah?",
					"84_None",
					"47_Atlanta",
					"51_Chattanooga"
				],
				"lat1": 786.000000,
				"nbSeg1": 0
			},
			"pathsExist": true,
			"path1": [
				"17_Lagrange?",
				"51_Chattanooga"
			],
			"lat1": 786.000000,
			"path2": [
				"94_Mobile",
				"54_Birmingham",
				"56_Arab"
			],
			"lat2": 811.000000,
			"maxlat": 811.000000,
			"runtime": 2426119468,
			"nomLat1": 786.000000,
			"nomLat2": 811.000000,
			"maxNomLat": 811.000000,
			"mincut": 4
		},
		{
			"s1": "82_Lake_Charles",
			"s2": "90_Tuscaloosa",
			"t1": "84_None",
			"t2": "47_Atlanta",
			"suurballeNbPaths": 2,
			"suurballeTime": 5842594,
			"suurballePaths": {
				"path0": [
					"90_Tuscaloosa",
					"54_Birmingham",
					"49_Anniston",
					"84_None"
				],
				"lat0": 505.000000,
				"nbSeg0": 0,
				"path1": [
					"82_Lake_Charles",
					"83_Lafayette",
					"27_Baton_Rouge",
					"24_New_Orleans",
					"95_Gulfport",
					"94_Mobile",
					"55_Montgomery",
					"111_None",
					"47_Atlanta"
				],
				"lat1": 1750.000000,
				"nbSeg1": 0
			},
			"pathsExist": false,
			"runtime": 2318210494,
			"nomLat1": 1965.000000,
			"nomLat2": 562.000000,
			"maxNomLat": 1965.000000,
			"mincut": 3
		},
		{
			"s1": "82_Lake_Charles",
			"s2": "41_Auburn",
			"t1": "14_Newnah?",
			"t2": "17_Lagrange?",
			"suurballeNbPaths": 2,
			"suurballeTime": 6327233,
			"suurballePaths": {
				"path0": [
					"41_Auburn",
					"42_Opelika",
					"43_Lagrange",
					"17_Lagrange?"
				],
				"lat0": 122.000000,
				"nbSeg0": 0,
				"path1": [
					"82_Lake_Charles",
					"83_Lafayette",
					"27_Baton_Rouge",
					"24_New_Orleans",
					"95_Gulfport",
					"96_Hattiesburg",
					"89_Meridian",
					"90_Tuscaloosa",
					"54_Birmingham",
					"49_Anniston",
					"84_None",
					"14_Newnah?"
				],
				"lat1": 2084.000000,
				"nbSeg1": 1
			},
			"pathsExist": false,
			"runtime": 2727697610,
			"nomLat1": 2178.000000,
			"nomLat2": 122.000000,
			"maxNomLat": 2178.000000,
			"mincut": 2
		},
		{
			"s1": "101_None",
			"s2": "74_Sumter",
			"t1": "59_Ashville",
			"t2": "103_None",
			"suurballeNbPaths": 2,
			"suurballeTime": 4708460,
			"suurballePaths": {
				"path0": [
					"101_None",
					"81_Savannah",
					"77_Charleston",
					"103_None"
				],
				"lat0": 654.000000,
				"nbSeg0": 2,
				"path1": [
					"74_Sumter",
					"75_Columbia",
					"104_Charlotte",
					"60_Greenville",
					"59_Ashville"
				],
				"lat1": 740.000000,
				"nbSeg1": 4
			},
			"pathsExist": false,
			"runtime": 2736151541,
			"nomLat1": 1429.000000,
			"nomLat2": 213.000000,
			"maxNomLat": 1429.000000,
			"mincut": 5
		},
		{
			"s1": "107_Bryan",
			"s2": "20_Shreveport",
			"t1": "13_Greensboro",
			"t2": "64_Miami",
			"suurballeNbPaths": 2,
			"suurballeTime": 6498943,
			"suurballePaths": {
				"path0": [
					"20_Shreveport",
					"21_Monroe",
					"26_Vicksburg",
					"25_Jackson",
					"89_Meridian",
					"90_Tuscaloosa",
					"54_Birmingham",
					"111_None",
					"47_Atlanta",
					"60_Greenville",
					"104_Charlotte",
					"11_Lexington",
					"13_Greensboro"
				],
				"lat0": 2469.000000,
				"nbSeg0": 6,
				"path1": [
					"107_Bryan",
					"106_Waco",
					"105_Dallas",
					"23_Longview",
					"20_Shreveport",
					"22_Alexandria",
					"83_Lafayette",
					"27_Baton_Rouge",
					"24_New_Orleans",
					"95_Gulfport",
					"94_Mobile",
					"93_Pensacola",
					"88_Crestview",
					"3_Tallahassee",
					"86_None",
					"8_Ocala",
					"63_Orlando",
					"85_None",
					"66_Fort_Lauderdale",
					"64_Miami"
				],
				"lat1": 3917.000000,
				"nbSeg1": 4
			},
			"pathsExist": false,
			"runtime": 2734683167,
			"nomLat1": 4054.000000,
			"nomLat2": 4071.000000,
			"maxNomLat": 4071.000000,
			"mincut": 2
		},
		{
			"s1": "101_None",
			"s2": "10_Winston-Salem",
			"t1": "56_Arab",
			"t2": "11_Lexington",
			"suurballeNbPaths": 2,
			"suurballeTime": 4646836,
			"suurballePaths": {
				"path0": [
					"10_Winston-Salem",
					"11_Lexington"
				],
				"lat0": 56.000000,
				"nbSeg0": 0,
				"path1": [
					"101_None",
					"81_Savannah",
					"72_Augusta",
					"73_Athens",
					"47_Atlanta",
					"111_None",
					"54_Birmingham",
					"56_Arab"
				],
				"lat1": 1498.000000,
				"nbSeg1": 2
			},
			"pathsExist": false,
			"runtime": 2320835348,
			"nomLat1": 1498.000000,
			"nomLat2": 56.000000,
			"maxNomLat": 1498.000000,
			"mincut": 6
		},
		{
			"s1": "28_Pine_Bluff",
			"s2": "15_Gainesville",
			"t1": "67_Hollywood",
			"t2": "50_Nashville",
			"suurballeNbPaths": 2,
			"suurballeTime": 5770711,
			"suurballePaths": {
				"path0": [
					"28_Pine_Bluff",
					"29_Little_Rock",
					"92_Memphis",
					"91_Jackson",
					"50_Nashville"
				],
				"lat0": 999.000000,
				"nbSeg0": 1,
				"path1": [
					"15_Gainesville",
					"47_Atlanta",
					"46_Macon",
					"5_Valdosta",
					"4_Lake_City",
					"7_Gainesville",
					"8_Ocala",
					"63_Orlando",
					"85_None",
					"66_Fort_Lauderdale",
					"67_Hollywood"
				],
				"lat1": 1728.000000,
				"nbSeg1": 5
			},
			"pathsExist": false,
			"runtime": 2386909620,
			"nomLat1": 4006.000000,
			"nomLat2": 729.000000,
			"maxNomLat": 4006.000000,
			"mincut": 4
		},
		{
			"s1": "71_Melbourne",
			"s2": "59_Ashville",
			"t1": "89_Meridian",
			"t2": "11_Lexington",
			"suurballeNbPaths": 2,
			"suurballeTime": 5195996,
			"suurballePaths": {
				"path0": [
					"59_Ashville",
					"60_Greenville",
					"104_Charlotte",
					"11_Lexington"
				],
				"lat0": 541.000000,
				"nbSeg0": 2,
				"path1": [
					"71_Melbourne",
					"70_Cocoa_Beach",
					"63_Orlando",
					"8_Ocala",
					"86_None",
					"3_Tallahassee",
					"88_Crestview",
					"93_Pensacola",
					"94_Mobile",
					"95_Gulfport",
					"96_Hattiesburg",
					"89_Meridian"
				],
				"lat1": 2019.000000,
				"nbSeg1": 3
			},
			"pathsExist": false,
			"runtime": 2571762963,
			"nomLat1": 2323.000000,
			"nomLat2": 541.000000,
			"maxNomLat": 2323.000000,
			"mincut": 4
		},
		{
			"s1": "101_None",
			"s2": "25_Jackson",
			"t1": "92_Memphis",
			"t2": "74_Sumter",
			"suurballeNbPaths": 2,
			"suurballeTime": 4468281,
			"suurballePaths": {
				"path0": [
					"25_Jackson",
					"92_Memphis"
				],
				"lat0": 533.000000,
				"nbSeg0": 0,
				"path1": [
					"101_None",
					"81_Savannah",
					"72_Augusta",
					"75_Columbia",
					"74_Sumter"
				],
				"lat1": 799.000000,
				"nbSeg1": 4
			},
			"pathsExist": false,
			"runtime": 2708610848,
			"nomLat1": 2039.000000,
			"nomLat2": 2627.000000,
			"maxNomLat": 2627.000000,
			"mincut": 6
		},
		{
			"s1": "15_Gainesville",
			"s2": "12_Durham",
			"t1": "20_Shreveport",
			"t2": "28_Pine_Bluff",
			"suurballeNbPaths": 2,
			"suurballeTime": 5446401,
			"suurballePaths": {
				"path0": [
					"15_Gainesville",
					"47_Atlanta",
					"111_None",
					"54_Birmingham",
					"90_Tuscaloosa",
					"89_Meridian",
					"25_Jackson",
					"26_Vicksburg",
					"21_Monroe",
					"20_Shreveport"
				],
				"lat0": 1751.000000,
				"nbSeg0": 1,
				"path1": [
					"12_Durham",
					"13_Greensboro",
					"11_Lexington",
					"104_Charlotte",
					"60_Greenville",
					"53_Sylva",
					"52_Knoxville",
					"50_Nashville",
					"91_Jackson",
					"92_Memphis",
					"29_Little_Rock",
					"28_Pine_Bluff"
				],
				"lat1": 2375.000000,
				"nbSeg1": 5
			},
			"pathsExist": false,
			"runtime": 2829801851,
			"nomLat1": 2371.000000,
			"nomLat2": 3154.000000,
			"maxNomLat": 3154.000000,
			"mincut": 3
		},
		{
			"s1": "41_Auburn",
			"s2": "109_San_Marcos",
			"t1": "40_Alexander_City",
			"t2": "108_Austin",
			"suurballeNbPaths": 2,
			"suurballeTime": 5264879,
			"suurballePaths": {
				"path0": [
					"41_Auburn",
					"40_Alexander_City"
				],
				"lat0": 101.000000,
				"nbSeg0": 0,
				"path1": [
					"109_San_Marcos",
					"108_Austin"
				],
				"lat1": 82.000000,
				"nbSeg1": 2
			},
			"pathsExist": true,
			"path1": [
				"41_Auburn",
				"40_Alexander_City"
			],
			"lat1": 101.000000,
			"path2": [
				"109_San_Marcos",
				"108_Austin"
			],
			"lat2": 82.000000,
			"maxlat": 101.000000,
			"runtime": 2543376530,
			"nomLat1": 101.000000,
			"nomLat2": 82.000000,
			"maxNomLat": 101.000000,
			"mincut": 5
		},
		{
			"s1": "48_Gadsden",
			"s2": "51_Chattanooga",
			"t1": "11_Lexington",
			"t2": "81_Savannah",
			"suurballeNbPaths": 2,
			"suurballeTime": 5104435,
			"suurballePaths": {
				"path0": [
					"51_Chattanooga",
					"47_Atlanta",
					"73_Athens",
					"72_Augusta",
					"81_Savannah"
				],
				"lat0": 982.000000,
				"nbSeg0": 2,
				"path1": [
					"48_Gadsden",
					"49_Anniston",
					"84_None",
					"47_Atlanta",
					"60_Greenville",
					"104_Charlotte",
					"11_Lexington"
				],
				"lat1": 1269.000000,
				"nbSeg1": 4
			},
			"pathsExist": false,
			"runtime": 2718493872,
			"nomLat1": 1269.000000,
			"nomLat2": 982.000000,
			"maxNomLat": 1269.000000,
			"mincut": 4
		},
		{
			"s1": "77_Charleston",
			"s2": "80_Saunt_Augustine",
			"t1": "106_Waco",
			"t2": "83_Lafayette",
			"suurballeNbPaths": 2,
			"suurballeTime": 4569148,
			"suurballePaths": {
				"path0": [
					"80_Saunt_Augustine",
					"6_Jacksonville",
					"4_Lake_City",
					"3_Tallahassee",
					"88_Crestview",
					"93_Pensacola",
					"94_Mobile",
					"95_Gulfport",
					"24_New_Orleans",
					"27_Baton_Rouge",
					"83_Lafayette"
				],
				"lat0": 1893.000000,
				"nbSeg0": 4,
				"path1": [
					"77_Charleston",
					"81_Savannah",
					"72_Augusta",
					"73_Athens",
					"47_Atlanta",
					"111_None",
					"54_Birmingham",
					"90_Tuscaloosa",
					"89_Meridian",
					"25_Jackson",
					"26_Vicksburg",
					"21_Monroe",
					"20_Shreveport",
					"23_Longview",
					"105_Dallas",
					"106_Waco"
				],
				"lat1": 3269.000000,
				"nbSeg1": 5
			},
			"pathsExist": false,
			"runtime": 2519487898,
			"nomLat1": 3889.000000,
			"nomLat2": 1893.000000,
			"maxNomLat": 3889.000000,
			"mincut": 2
		},
		{
			"s1": "72_Augusta",
			"s2": "11_Lexington",
			"t1": "81_Savannah",
			"t2": "74_Sumter",
			"suurballeNbPaths": 2,
			"suurballeTime": 5034272,
			"suurballePaths": {
				"path0": [
					"72_Augusta",
					"81_Savannah"
				],
				"lat0": 295.000000,
				"nbSeg0": 2,
				"path1": [
					"11_Lexington",
					"104_Charlotte",
					"75_Columbia",
					"74_Sumter"
				],
				"lat1": 491.000000,
				"nbSeg1": 2
			},
			"pathsExist": true,
			"path1": [
				"72_Augusta",
				"81_Savannah"
			],
			"lat1": 295.000000,
			"path2": [
				"11_Lexington",
				"99_None",
				"74_Sumter"
			],
			"lat2": 785.000000,
			"maxlat": 785.000000,
			"runtime": 2624318423,
			"nomLat1": 295.000000,
			"nomLat2": 491.000000,
			"maxNomLat": 491.000000,
			"mincut": 9
		},
		{
			"s1": "86_None",
			"s2": "66_Fort_Lauderdale",
			"t1": "106_Waco",
			"t2": "27_Baton_Rouge",
			"suurballeNbPaths": 2,
			"suurballeTime": 4535545,
			"suurballePaths": {
				"path0": [
					"86_None",
					"3_Tallahassee",
					"88_Crestview",
					"93_Pensacola",
					"94_Mobile",
					"95_Gulfport",
					"24_New_Orleans",
					"27_Baton_Rouge"
				],
				"lat0": 1420.000000,
				"nbSeg0": 0,
				"path1": [
					"66_Fort_Lauderdale",
					"85_None",
					"63_Orlando",
					"8_Ocala",
					"7_Gainesville",
					"4_Lake_City",
					"5_Valdosta",
					"46_Macon",
					"47_Atlanta",
					"111_None",
					"54_Birmingham",
					"90_Tuscaloosa",
					"89_Meridian",
					"25_Jackson",
					"26_Vicksburg",
					"21_Monroe",
					"20_Shreveport",
					"23_Longview",
					"105_Dallas",
					"106_Waco"
				],
				"lat1": 3907.000000,
				"nbSeg1": 5
			},
			"pathsExist": false,
			"runtime": 2461418549,
			"nomLat1": 3793.000000,
			"nomLat2": 2496.000000,
			"maxNomLat": 3793.000000,
			"mincut": 2
		},
		{
			"s1": "14_Newnah?",
			"s2": "40_Alexander_City",
			"t1": "49_Anniston",
			"t2": "1_Sarasota",
			"suurballeNbPaths": 2,
			"suurballeTime": 4597108,
			"suurballePaths": {
				"path0": [
					"40_Alexander_City",
					"49_Anniston"
				],
				"lat0": 138.000000,
				"nbSeg0": 0,
				"path1": [
					"14_Newnah?",
					"17_Lagrange?",
					"43_Lagrange",
					"45_Albany",
					"3_Tallahassee",
					"86_None",
					"8_Ocala",
					"0_Tampa",
					"1_Sarasota"
				],
				"lat1": 1391.000000,
				"nbSeg1": 1
			},
			"pathsExist": false,
			"runtime": 2555826232,
			"nomLat1": 426.000000,
			"nomLat2": 1966.000000,
			"maxNomLat": 1966.000000,
			"mincut": 3
		},
		{
			"s1": "70_Cocoa_Beach",
			"s2": "104_Charlotte",
			"t1": "3_Tallahassee",
			"t2": "66_Fort_Lauderdale",
			"suurballeNbPaths": 2,
			"suurballeTime": 5461778,
			"suurballePaths": {
				"path0": [
					"104_Charlotte",
					"60_Greenville",
					"47_Atlanta",
					"3_Tallahassee"
				],
				"lat0": 1240.000000,
				"nbSeg0": 4,
				"path1": [
					"70_Cocoa_Beach",
					"71_Melbourne",
					"68_Vero_Beach",
					"69_West_Palm_Beach",
					"66_Fort_Lauderdale"
				],
				"lat1": 442.000000,
				"nbSeg1": 1
			},
			"pathsExist": false,
			"runtime": 2268642750,
			"nomLat1": 854.000000,
			"nomLat2": 1710.000000,
			"maxNomLat": 1710.000000,
			"mincut": 8
		},
		{
			"s1": "14_Newnah?",
			"s2": "40_Alexander_City",
			"t1": "112_None",
			"t2": "105_Dallas",
			"suurballeNbPaths": 2,
			"suurballeTime": 4342147,
			"suurballePaths": {
				"path0": [
					"14_Newnah?",
					"84_None",
					"47_Atlanta",
					"73_Athens",
					"98_None",
					"99_None",
					"112_None"
				],
				"lat0": 1230.000000,
				"nbSeg0": 1,
				"path1": [
					"40_Alexander_City",
					"49_Anniston",
					"54_Birmingham",
					"90_Tuscaloosa",
					"89_Meridian",
					"25_Jackson",
					"26_Vicksburg",
					"21_Monroe",
					"20_Shreveport",
					"23_Longview",
					"105_Dallas"
				],
				"lat1": 1971.000000,
				"nbSeg1": 0
			},
			"pathsExist": false,
			"runtime": 2549992772,
			"nomLat1": 1474.000000,
			"nomLat2": 1971.000000,
			"maxNomLat": 1971.000000,
			"mincut": 3
		},
		{
			"s1": "99_None",
			"s2": "104_Charlotte",
			"t1": "105_Dallas",
			"t2": "54_Birmingham",
			"suurballeNbPaths": 2,
			"suurballeTime": 4478727,
			"suurballePaths": {
				"path0": [
					"104_Charlotte",
					"60_Greenville",
					"47_Atlanta",
					"111_None",
					"54_Birmingham"
				],
				"lat0": 1048.000000,
				"nbSeg0": 4,
				"path1": [
					"99_None",
					"98_None",
					"73_Athens",
					"47_Atlanta",
					"84_None",
					"49_Anniston",
					"54_Birmingham"
				],
				"lat1": 1173.000000,
				"nbSeg1": 2
			},
			"pathsExist": false,
			"runtime": 2648388265,
			"nomLat1": 3558.000000,
			"nomLat2": 1048.000000,
			"maxNomLat": 3558.000000,
			"mincut": 5
		},
		{
			"s1": "17_Lagrange?",
			"s2": "58_Houston",
			"t1": "66_Fort_Lauderdale",
			"t2": "74_Sumter",
			"suurballeNbPaths": 2,
			"suurballeTime": 5327362,
			"suurballePaths": {
				"path0": [
					"17_Lagrange?",
					"14_Newnah?",
					"84_None",
					"47_Atlanta",
					"73_Athens",
					"72_Augusta",
					"75_Columbia",
					"74_Sumter"
				],
				"lat0": 1198.000000,
				"nbSeg0": 2,
				"path1": [
					"58_Houston",
					"61_Beaumont",
					"82_Lake_Charles",
					"83_Lafayette",
					"27_Baton_Rouge",
					"24_New_Orleans",
					"95_Gulfport",
					"94_Mobile",
					"93_Pensacola",
					"88_Crestview",
					"3_Tallahassee",
					"86_None",
					"8_Ocala",
					"63_Orlando",
					"85_None",
					"66_Fort_Lauderdale"
				],
				"lat1": 2945.000000,
				"nbSeg1": 2
			},
			"pathsExist": false,
			"runtime": 2381243745,
			"nomLat1": 1819.000000,
			"nomLat2": 3083.000000,
			"maxNomLat": 3083.000000,
			"mincut": 4
		},
		{
			"s1": "99_None",
			"s2": "112_None",
			"t1": "7_Gainesville",
			"t2": "2_Dothan",
			"suurballeNbPaths": 2,
			"suurballeTime": 4496921,
			"suurballePaths": {
				"path0": [
					"99_None",
					"98_None",
					"73_Athens",
					"47_Atlanta",
					"111_None",
					"55_Montgomery",
					"2_Dothan"
				],
				"lat0": 1277.000000,
				"nbSeg0": 1,
				"path1": [
					"112_None",
					"74_Sumter",
					"75_Columbia",
					"72_Augusta",
					"81_Savannah",
					"6_Jacksonville",
					"4_Lake_City",
					"7_Gainesville"
				],
				"lat1": 1420.000000,
				"nbSeg1": 6
			},
			"pathsExist": false,
			"runtime": 2686044498,
			"nomLat1": 1840.000000,
			"nomLat2": 1734.000000,
			"maxNomLat": 1840.000000,
			"mincut": 4
		},
		{
			"s1": "62_Daytona_Beach",
			"s2": "63_Orlando",
			"t1": "92_Memphis",
			"t2": "37_Fayatteville",
			"suurballeNbPaths": 2,
			"suurballeTime": 5138708,
			"suurballePaths": {
				"path0": [
					"62_Daytona_Beach",
					"6_Jacksonville",
					"81_Savannah",
					"77_Charleston",
					"30_Myrtle_Beach",
					"31_Florence",
					"37_Fayatteville"
				],
				"lat0": 1425.000000,
				"nbSeg0": 3,
				"path1": [
					"63_Orlando",
					"8_Ocala",
					"7_Gainesville",
					"4_Lake_City",
					"5_Valdosta",
					"46_Macon",
					"47_Atlanta",
					"51_Chattanooga",
					"50_Nashville",
					"91_Jackson",
					"92_Memphis"
				],
				"lat1": 2266.000000,
				"nbSeg1": 4
			},
			"pathsExist": false,
			"runtime": 2678538879,
			"nomLat1": 2416.000000,
			"nomLat2": 2338.000000,
			"maxNomLat": 2416.000000,
			"mincut": 4
		},
		{
			"s1": "2_Dothan",
			"s2": "22_Alexandria",
			"t1": "63_Orlando",
			"t2": "74_Sumter",
			"suurballeNbPaths": 2,
			"suurballeTime": 5268459,
			"suurballePaths": {
				"path0": [
					"2_Dothan",
					"55_Montgomery",
					"111_None",
					"47_Atlanta",
					"73_Athens",
					"72_Augusta",
					"75_Columbia",
					"74_Sumter"
				],
				"lat0": 1381.000000,
				"nbSeg0": 2,
				"path1": [
					"22_Alexandria",
					"83_Lafayette",
					"27_Baton_Rouge",
					"24_New_Orleans",
					"95_Gulfport",
					"94_Mobile",
					"93_Pensacola",
					"88_Crestview",
					"3_Tallahassee",
					"86_None",
					"8_Ocala",
					"63_Orlando"
				],
				"lat1": 2176.000000,
				"nbSeg1": 2
			},
			"pathsExist": false,
			"runtime": 2621883983,
			"nomLat1": 1371.000000,
			"nomLat2": 2740.000000,
			"maxNomLat": 2740.000000,
			"mincut": 4
		},
		{
			"s1": "72_Augusta",
			"s2": "14_Newnah?",
			"t1": "40_Alexander_City",
			"t2": "3_Tallahassee",
			"suurballeNbPaths": 2,
			"suurballeTime": 4307487,
			"suurballePaths": {
				"path0": [
					"72_Augusta",
					"73_Athens",
					"47_Atlanta",
					"3_Tallahassee"
				],
				"lat0": 1022.000000,
				"nbSeg0": 0,
				"path1": [
					"14_Newnah?",
					"17_Lagrange?",
					"43_Lagrange",
					"42_Opelika",
					"41_Auburn",
					"40_Alexander_City"
				],
				"lat1": 300.000000,
				"nbSeg1": 1
			},
			"pathsExist": false,
			"runtime": 2397811923,
			"nomLat1": 968.000000,
			"nomLat2": 1044.000000,
			"maxNomLat": 1044.000000,
			"mincut": 6
		},
		{
			"s1": "4_Lake_City",
			"s2": "6_Jacksonville",
			"t1": "48_Gadsden",
			"t2": "50_Nashville",
			"suurballeNbPaths": 2,
			"suurballeTime": 4832186,
			"suurballePaths": {
				"path0": [
					"4_Lake_City",
					"5_Valdosta",
					"46_Macon",
					"47_Atlanta",
					"51_Chattanooga",
					"50_Nashville"
				],
				"lat0": 1341.000000,
				"nbSeg0": 1,
				"path1": [
					"6_Jacksonville",
					"4_Lake_City",
					"3_Tallahassee",
					"45_Albany",
					"43_Lagrange",
					"42_Opelika",
					"41_Auburn",
					"40_Alexander_City",
					"49_Anniston",
					"48_Gadsden"
				],
				"lat1": 1391.000000,
				"nbSeg1": 5
			},
			"pathsExist": false,
			"runtime": 2528922848,
			"nomLat1": 1390.000000,
			"nomLat2": 1644.000000,
			"maxNomLat": 1644.000000,
			"mincut": 5
		},
		{
			"s1": "42_Opelika",
			"s2": "13_Greensboro",
			"t1": "84_None",
			"t2": "98_None",
			"suurballeNbPaths": 2,
			"suurballeTime": 4083665,
			"suurballePaths": {
				"path0": [
					"42_Opelika",
					"43_Lagrange",
					"17_Lagrange?",
					"14_Newnah?",
					"84_None"
				],
				"lat0": 390.000000,
				"nbSeg0": 1,
				"path1": [
					"13_Greensboro",
					"11_Lexington",
					"104_Charlotte",
					"99_None",
					"98_None"
				],
				"lat1": 660.000000,
				"nbSeg1": 1
			},
			"pathsExist": false,
			"runtime": 2625359391,
			"nomLat1": 474.000000,
			"nomLat2": 688.000000,
			"maxNomLat": 688.000000,
			"mincut": 5
		},
		{
			"s1": "95_Gulfport",
			"s2": "100_None",
			"t1": "93_Pensacola",
			"t2": "96_Hattiesburg",
			"suurballeNbPaths": 2,
			"suurballeTime": 4734928,
			"suurballePaths": {
				"path0": [
					"95_Gulfport",
					"96_Hattiesburg"
				],
				"lat0": 185.000000,
				"nbSeg0": 0,
				"path1": [
					"100_None",
					"77_Charleston",
					"81_Savannah",
					"6_Jacksonville",
					"4_Lake_City",
					"3_Tallahassee",
					"88_Crestview",
					"93_Pensacola"
				],
				"lat1": 1716.000000,
				"nbSeg1": 6
			},
			"pathsExist": false,
			"runtime": 2650783609,
			"nomLat1": 329.000000,
			"nomLat2": 2384.000000,
			"maxNomLat": 2384.000000,
			"mincut": 4
		},
		{
			"s1": "40_Alexander_City",
			"s2": "17_Lagrange?",
			"t1": "51_Chattanooga",
			"t2": "37_Fayatteville",
			"suurballeNbPaths": 2,
			"suurballeTime": 4131917,
			"suurballePaths": {
				"path0": [
					"40_Alexander_City",
					"49_Anniston",
					"48_Gadsden",
					"57_Huntsville",
					"50_Nashville",
					"51_Chattanooga"
				],
				"lat0": 957.000000,
				"nbSeg0": 1,
				"path1": [
					"17_Lagrange?",
					"14_Newnah?",
					"84_None",
					"47_Atlanta",
					"60_Greenville",
					"104_Charlotte",
					"19_Raleigh",
					"37_Fayatteville"
				],
				"lat1": 1620.000000,
				"nbSeg1": 6
			},
			"pathsExist": false,
			"runtime": 2541684097,
			"nomLat1": 847.000000,
			"nomLat2": 1620.000000,
			"maxNomLat": 1620.000000,
			"mincut": 3
		},
		{
			"s1": "69_West_Palm_Beach",
			"s2": "1_Sarasota",
			"t1": "66_Fort_Lauderdale",
			"t2": "89_Meridian",
			"suurballeNbPaths": 2,
			"suurballeTime": 3719627,
			"suurballePaths": {
				"path0": [
					"69_West_Palm_Beach",
					"66_Fort_Lauderdale"
				],
				"lat0": 115.000000,
				"nbSeg0": 0,
				"path1": [
					"1_Sarasota",
					"0_Tampa",
					"8_Ocala",
					"86_None",
					"3_Tallahassee",
					"88_Crestview",
					"93_Pensacola",
					"94_Mobile",
					"95_Gulfport",
					"96_Hattiesburg",
					"89_Meridian"
				],
				"lat1": 2015.000000,
				"nbSeg1": 1
			},
			"pathsExist": true,
			"path1": [
				"69_West_Palm_Beach",
				"66_Fort_Lauderdale"
			],
			"lat1": 115.000000,
			"path2": [
				"1_Sarasota",
				"89_Meridian"
			],
			"lat2": 2205.000000,
			"maxlat": 2205.000000,
			"runtime": 2686695891,
			"nomLat1": 115.000000,
			"nomLat2": 2205.000000,
			"maxNomLat": 2205.000000,
			"mincut": 4
		},
		{
			"s1": "21_Monroe",
			"s2": "37_Fayatteville",
			"t1": "3_Tallahassee",
			"t2": "26_Vicksburg",
			"suurballeNbPaths": 2,
			"suurballeTime": 4306532,
			"suurballePaths": {
				"path0": [
					"21_Monroe",
					"26_Vicksburg"
				],
				"lat0": 201.000000,
				"nbSeg0": 0,
				"path1": [
					"37_Fayatteville",
					"31_Florence",
					"30_Myrtle_Beach",
					"77_Charleston",
					"81_Savannah",
					"6_Jacksonville",
					"4_Lake_City",
					"3_Tallahassee"
				],
				"lat1": 1624.000000,
				"nbSeg1": 7
			},
			"pathsExist": false,
			"runtime": 2328935812,
			"nomLat1": 2592.000000,
			"nomLat2": 2890.000000,
			"maxNomLat": 2890.000000,
			"mincut": 7
		},
		{
			"s1": "94_Mobile",
			"s2": "95_Gulfport",
			"t1": "103_None",
			"t2": "76_Orangeburg",
			"suurballeNbPaths": 2,
			"suurballeTime": 3787949,
			"suurballePaths": {
				"path0": [
					"94_Mobile",
					"55_Montgomery",
					"111_None",
					"47_Atlanta",
					"73_Athens",
					"72_Augusta",
					"75_Columbia",
					"76_Orangeburg"
				],
				"lat0": 1531.000000,
				"nbSeg0": 2,
				"path1": [
					"95_Gulfport",
					"94_Mobile",
					"93_Pensacola",
					"88_Crestview",
					"3_Tallahassee",
					"4_Lake_City",
					"6_Jacksonville",
					"81_Savannah",
					"77_Charleston",
					"103_None"
				],
				"lat1": 2045.000000,
				"nbSeg1": 6
			},
			"pathsExist": false,
			"runtime": 2659829448,
			"nomLat1": 2025.000000,
			"nomLat2": 1986.000000,
			"maxNomLat": 2025.000000,
			"mincut": 4
		},
		{
			"s1": "109_San_Marcos",
			"s2": "49_Anniston",
			"t1": "85_None",
			"t2": "29_Little_Rock",
			"suurballeNbPaths": 2,
			"suurballeTime": 3721766,
			"suurballePaths": {
				"path0": [
					"49_Anniston",
					"40_Alexander_City",
					"41_Auburn",
					"42_Opelika",
					"43_Lagrange",
					"45_Albany",
					"3_Tallahassee",
					"86_None",
					"8_Ocala",
					"63_Orlando",
					"85_None"
				],
				"lat0": 1697.000000,
				"nbSeg0": 3,
				"path1": [
					"109_San_Marcos",
					"108_Austin",
					"107_Bryan",
					"106_Waco",
					"105_Dallas",
					"23_Longview",
					"20_Shreveport",
					"21_Monroe",
					"26_Vicksburg",
					"25_Jackson",
					"28_Pine_Bluff",
					"29_Little_Rock"
				],
				"lat1": 2397.000000,
				"nbSeg1": 3
			},
			"pathsExist": false,
			"runtime": 2657930942,
			"nomLat1": 3439.000000,
			"nomLat2": 1656.000000,
			"maxNomLat": 3439.000000,
			"mincut": 5
		}
	],
	"demandsWithSol": 6
}
