{
	"nbDemands": 100,
	"demands": [
		{
			"s1": "79_Beaufort",
			"s2": "103_None",
			"t1": "70_Cocoa_Beach",
			"t2": "71_Melbourne",
			"suurballeNbPaths": 2,
			"suurballeTime": 382430186,
			"suurballePaths": {
				"path0": [
					"79_Beaufort",
					"102_None",
					"101_None",
					"81_Savannah",
					"6_Jacksonville",
					"62_Daytona_Beach",
					"70_Cocoa_Beach"
				],
				"lat0": 1399.000000,
				"nbSeg0": 2,
				"path1": [
					"103_None",
					"74_Sumter",
					"75_Columbia",
					"72_Augusta",
					"73_Athens",
					"47_Atlanta",
					"46_Macon",
					"5_Valdosta",
					"4_Lake_City",
					"7_Gainesville",
					"8_Ocala",
					"63_Orlando",
					"70_Cocoa_Beach"
				],
				"lat1": 2184.000000,
				"nbSeg1": 6
			},
			"pathsExist": false,
			"runtime": 597095375,
			"nomLat1": 1399.000000,
			"nomLat2": 1249.000000,
			"maxNomLat": 1399.000000,
			"mincut": 3
		},
		{
			"s1": "101_None",
			"s2": "41_Auburn",
			"t1": "52_Knoxville",
			"t2": "107_Bryan",
			"suurballeNbPaths": 2,
			"suurballeTime": 1004601279,
			"suurballePaths": {
				"path0": [
					"101_None",
					"81_Savannah",
					"72_Augusta",
					"75_Columbia",
					"104_Charlotte",
					"60_Greenville",
					"53_Sylva",
					"52_Knoxville"
				],
				"lat0": 1488.000000,
				"nbSeg0": 8,
				"path1": [
					"41_Auburn",
					"40_Alexander_City",
					"49_Anniston",
					"54_Birmingham",
					"90_Tuscaloosa",
					"89_Meridian",
					"25_Jackson",
					"26_Vicksburg",
					"21_Monroe",
					"20_Shreveport",
					"23_Longview",
					"105_Dallas",
					"106_Waco",
					"107_Bryan"
				],
				"lat1": 2519.000000,
				"nbSeg1": 0
			},
			"pathsExist": false,
			"runtime": 137036405,
			"nomLat1": 1938.000000,
			"nomLat2": 2519.000000,
			"maxNomLat": 2519.000000,
			"mincut": 4
		},
		{
			"s1": "84_None",
			"s2": "89_Meridian",
			"t1": "56_Arab",
			"t2": "71_Melbourne",
			"suurballeNbPaths": 2,
			"suurballeTime": 1002689718,
			"suurballePaths": {
				"path0": [
					"89_Meridian",
					"90_Tuscaloosa",
					"54_Birmingham",
					"56_Arab"
				],
				"lat0": 537.000000,
				"nbSeg0": 0,
				"path1": [
					"84_None",
					"47_Atlanta",
					"46_Macon",
					"5_Valdosta",
					"4_Lake_City",
					"7_Gainesville",
					"8_Ocala",
					"63_Orlando",
					"70_Cocoa_Beach",
					"71_Melbourne"
				],
				"lat1": 1537.000000,
				"nbSeg1": 4
			},
			"pathsExist": false,
			"runtime": 145216743,
			"nomLat1": 529.000000,
			"nomLat2": 2323.000000,
			"maxNomLat": 2323.000000,
			"mincut": 4
		},
		{
			"s1": "64_Miami",
			"s2": "6_Jacksonville",
			"t1": "3_Tallahassee",
			"t2": "71_Melbourne",
			"suurballeNbPaths": 2,
			"suurballeTime": 1055259547,
			"suurballePaths": {
				"path0": [
					"6_Jacksonville",
					"4_Lake_City",
					"3_Tallahassee"
				],
				"lat0": 435.000000,
				"nbSeg0": 4,
				"path1": [
					"64_Miami",
					"66_Fort_Lauderdale",
					"69_West_Palm_Beach",
					"68_Vero_Beach",
					"71_Melbourne"
				],
				"lat1": 463.000000,
				"nbSeg1": 2
			},
			"pathsExist": false,
			"runtime": 145215658,
			"nomLat1": 1220.000000,
			"nomLat2": 467.000000,
			"maxNomLat": 1220.000000,
			"mincut": 7
		},
		{
			"s1": "56_Arab",
			"s2": "90_Tuscaloosa",
			"t1": "11_Lexington",
			"t2": "7_Gainesville",
			"suurballeNbPaths": 2,
			"suurballeTime": 1066143670,
			"suurballePaths": {
				"path0": [
					"56_Arab",
					"54_Birmingham",
					"111_None",
					"47_Atlanta",
					"60_Greenville",
					"104_Charlotte",
					"11_Lexington"
				],
				"lat0": 1354.000000,
				"nbSeg0": 4,
				"path1": [
					"90_Tuscaloosa",
					"54_Birmingham",
					"49_Anniston",
					"40_Alexander_City",
					"41_Auburn",
					"42_Opelika",
					"43_Lagrange",
					"45_Albany",
					"3_Tallahassee",
					"4_Lake_City",
					"7_Gainesville"
				],
				"lat1": 1560.000000,
				"nbSeg1": 3
			},
			"pathsExist": false,
			"runtime": 202057646,
			"nomLat1": 1354.000000,
			"nomLat2": 1567.000000,
			"maxNomLat": 1567.000000,
			"mincut": 4
		},
		{
			"s1": "104_Charlotte",
			"s2": "112_None",
			"t1": "88_Crestview",
			"t2": "7_Gainesville",
			"suurballeNbPaths": 2,
			"suurballeTime": 1005287372,
			"suurballePaths": {
				"path0": [
					"104_Charlotte",
					"60_Greenville",
					"47_Atlanta",
					"3_Tallahassee",
					"88_Crestview"
				],
				"lat0": 1614.000000,
				"nbSeg0": 4,
				"path1": [
					"112_None",
					"74_Sumter",
					"75_Columbia",
					"72_Augusta",
					"81_Savannah",
					"6_Jacksonville",
					"4_Lake_City",
					"7_Gainesville"
				],
				"lat1": 1420.000000,
				"nbSeg1": 6
			},
			"pathsExist": false,
			"runtime": 156495767,
			"nomLat1": 1614.000000,
			"nomLat2": 2053.000000,
			"maxNomLat": 2053.000000,
			"mincut": 5
		},
		{
			"s1": "108_Austin",
			"s2": "110_San_Antonia",
			"t1": "84_None",
			"t2": "61_Beaumont",
			"suurballeNbPaths": 2,
			"suurballeTime": 632478363,
			"suurballePaths": {
				"path0": [
					"110_San_Antonia",
					"58_Houston",
					"61_Beaumont"
				],
				"lat0": 728.000000,
				"nbSeg0": 0,
				"path1": [
					"108_Austin",
					"107_Bryan",
					"106_Waco",
					"105_Dallas",
					"23_Longview",
					"20_Shreveport",
					"21_Monroe",
					"26_Vicksburg",
					"25_Jackson",
					"89_Meridian",
					"90_Tuscaloosa",
					"54_Birmingham",
					"49_Anniston",
					"84_None"
				],
				"lat1": 2729.000000,
				"nbSeg1": 0
			},
			"pathsExist": false,
			"runtime": 555115016,
			"nomLat1": 2729.000000,
			"nomLat2": 728.000000,
			"maxNomLat": 2729.000000,
			"mincut": 2
		},
		{
			"s1": "7_Gainesville",
			"s2": "48_Gadsden",
			"t1": "26_Vicksburg",
			"t2": "3_Tallahassee",
			"suurballeNbPaths": 2,
			"suurballeTime": 859946880,
			"suurballePaths": {
				"path0": [
					"7_Gainesville",
					"4_Lake_City",
					"3_Tallahassee"
				],
				"lat0": 387.000000,
				"nbSeg0": 2,
				"path1": [
					"48_Gadsden",
					"49_Anniston",
					"54_Birmingham",
					"90_Tuscaloosa",
					"89_Meridian",
					"25_Jackson",
					"26_Vicksburg"
				],
				"lat1": 958.000000,
				"nbSeg1": 1
			},
			"pathsExist": false,
			"runtime": 390735653,
			"nomLat1": 2778.000000,
			"nomLat2": 1119.000000,
			"maxNomLat": 2778.000000,
			"mincut": 4
		},
		{
			"s1": "112_None",
			"s2": "90_Tuscaloosa",
			"t1": "83_Lafayette",
			"t2": "93_Pensacola",
			"suurballeNbPaths": 2,
			"suurballeTime": 193105187,
			"suurballePaths": {
				"path0": [
					"90_Tuscaloosa",
					"89_Meridian",
					"96_Hattiesburg",
					"95_Gulfport",
					"24_New_Orleans",
					"27_Baton_Rouge",
					"83_Lafayette"
				],
				"lat0": 1172.000000,
				"nbSeg0": 1,
				"path1": [
					"112_None",
					"99_None",
					"98_None",
					"73_Athens",
					"47_Atlanta",
					"111_None",
					"55_Montgomery",
					"94_Mobile",
					"93_Pensacola"
				],
				"lat1": 1795.000000,
				"nbSeg1": 2
			},
			"pathsExist": false,
			"runtime": 1064362812,
			"nomLat1": 2604.000000,
			"nomLat2": 933.000000,
			"maxNomLat": 2604.000000,
			"mincut": 4
		},
		{
			"s1": "9_Winter_Haven",
			"s2": "28_Pine_Bluff",
			"t1": "105_Dallas",
			"t2": "82_Lake_Charles",
			"suurballeNbPaths": 2,
			"suurballeTime": 1121273028,
			"suurballePaths": {
				"path0": [
					"28_Pine_Bluff",
					"25_Jackson",
					"26_Vicksburg",
					"21_Monroe",
					"20_Shreveport",
					"23_Longview",
					"105_Dallas"
				],
				"lat0": 1522.000000,
				"nbSeg0": 0,
				"path1": [
					"9_Winter_Haven",
					"63_Orlando",
					"8_Ocala",
					"86_None",
					"3_Tallahassee",
					"88_Crestview",
					"93_Pensacola",
					"94_Mobile",
					"95_Gulfport",
					"24_New_Orleans",
					"27_Baton_Rouge",
					"83_Lafayette",
					"82_Lake_Charles"
				],
				"lat1": 2269.000000,
				"nbSeg1": 2
			},
			"pathsExist": false,
			"runtime": 239390141,
			"nomLat1": 4131.000000,
			"nomLat2": 1441.000000,
			"maxNomLat": 4131.000000,
			"mincut": 2
		},
		{
			"s1": "26_Vicksburg",
			"s2": "110_San_Antonia",
			"t1": "15_Gainesville",
			"t2": "77_Charleston",
			"suurballeNbPaths": 2,
			"suurballeTime": 1265745812,
			"suurballePaths": {
				"path0": [
					"26_Vicksburg",
					"25_Jackson",
					"89_Meridian",
					"90_Tuscaloosa",
					"54_Birmingham",
					"111_None",
					"47_Atlanta",
					"15_Gainesville"
				],
				"lat0": 1291.000000,
				"nbSeg0": 1,
				"path1": [
					"110_San_Antonia",
					"58_Houston",
					"61_Beaumont",
					"82_Lake_Charles",
					"83_Lafayette",
					"27_Baton_Rouge",
					"24_New_Orleans",
					"95_Gulfport",
					"94_Mobile",
					"93_Pensacola",
					"88_Crestview",
					"3_Tallahassee",
					"4_Lake_City",
					"6_Jacksonville",
					"81_Savannah",
					"77_Charleston"
				],
				"lat1": 3432.000000,
				"nbSeg1": 6
			},
			"pathsExist": false,
			"runtime": 117388750,
			"nomLat1": 1911.000000,
			"nomLat2": 3555.000000,
			"maxNomLat": 3555.000000,
			"mincut": 2
		},
		{
			"s1": "51_Chattanooga",
			"s2": "62_Daytona_Beach",
			"t1": "55_Montgomery",
			"t2": "6_Jacksonville",
			"suurballeNbPaths": 2,
			"suurballeTime": 401471822,
			"suurballePaths": {
				"path0": [
					"62_Daytona_Beach",
					"6_Jacksonville"
				],
				"lat0": 236.000000,
				"nbSeg0": 0,
				"path1": [
					"51_Chattanooga",
					"47_Atlanta",
					"111_None",
					"55_Montgomery"
				],
				"lat1": 709.000000,
				"nbSeg1": 0
			},
			"pathsExist": true,
			"path1": [
				"51_Chattanooga",
				"55_Montgomery"
			],
			"lat1": 709.000000,
			"path2": [
				"62_Daytona_Beach",
				"6_Jacksonville"
			],
			"lat2": 236.000000,
			"maxlat": 709.000000,
			"runtime": 761923155,
			"nomLat1": 709.000000,
			"nomLat2": 236.000000,
			"maxNomLat": 709.000000,
			"mincut": 6
		},
		{
			"s1": "5_Valdosta",
			"s2": "60_Greenville",
			"t1": "28_Pine_Bluff",
			"t2": "68_Vero_Beach",
			"suurballeNbPaths": 2,
			"suurballeTime": 243131997,
			"suurballePaths": {
				"path0": [
					"5_Valdosta",
					"4_Lake_City",
					"7_Gainesville",
					"8_Ocala",
					"63_Orlando",
					"70_Cocoa_Beach",
					"71_Melbourne",
					"68_Vero_Beach"
				],
				"lat0": 829.000000,
				"nbSeg0": 3,
				"path1": [
					"60_Greenville",
					"53_Sylva",
					"52_Knoxville",
					"50_Nashville",
					"91_Jackson",
					"92_Memphis",
					"29_Little_Rock",
					"28_Pine_Bluff"
				],
				"lat1": 1752.000000,
				"nbSeg1": 2
			},
			"pathsExist": false,
			"runtime": 906642584,
			"nomLat1": 2708.000000,
			"nomLat2": 1986.000000,
			"maxNomLat": 2708.000000,
			"mincut": 4
		},
		{
			"s1": "99_None",
			"s2": "93_Pensacola",
			"t1": "47_Atlanta",
			"t2": "104_Charlotte",
			"suurballeNbPaths": 2,
			"suurballeTime": 1187163843,
			"suurballePaths": {
				"path0": [
					"99_None",
					"104_Charlotte"
				],
				"lat0": 213.000000,
				"nbSeg0": 0,
				"path1": [
					"93_Pensacola",
					"94_Mobile",
					"55_Montgomery",
					"111_None",
					"47_Atlanta"
				],
				"lat1": 991.000000,
				"nbSeg1": 1
			},
			"pathsExist": false,
			"runtime": 153063033,
			"nomLat1": 835.000000,
			"nomLat2": 1739.000000,
			"maxNomLat": 1739.000000,
			"mincut": 5
		},
		{
			"s1": "93_Pensacola",
			"s2": "53_Sylva",
			"t1": "83_Lafayette",
			"t2": "68_Vero_Beach",
			"suurballeNbPaths": 2,
			"suurballeTime": 76100490,
			"suurballePaths": {
				"path0": [
					"93_Pensacola",
					"94_Mobile",
					"95_Gulfport",
					"24_New_Orleans",
					"27_Baton_Rouge",
					"83_Lafayette"
				],
				"lat0": 857.000000,
				"nbSeg0": 0,
				"path1": [
					"53_Sylva",
					"60_Greenville",
					"47_Atlanta",
					"46_Macon",
					"5_Valdosta",
					"4_Lake_City",
					"7_Gainesville",
					"8_Ocala",
					"63_Orlando",
					"70_Cocoa_Beach",
					"71_Melbourne",
					"68_Vero_Beach"
				],
				"lat1": 1953.000000,
				"nbSeg1": 6
			},
			"pathsExist": false,
			"runtime": 1110320182,
			"nomLat1": 857.000000,
			"nomLat2": 2149.000000,
			"maxNomLat": 2149.000000,
			"mincut": 4
		},
		{
			"s1": "89_Meridian",
			"s2": "15_Gainesville",
			"t1": "73_Athens",
			"t2": "72_Augusta",
			"suurballeNbPaths": 2,
			"suurballeTime": 568924933,
			"suurballePaths": {
				"path0": [
					"15_Gainesville",
					"97_None",
					"98_None",
					"73_Athens"
				],
				"lat0": 639.000000,
				"nbSeg0": 1,
				"path1": [
					"89_Meridian",
					"90_Tuscaloosa",
					"54_Birmingham",
					"111_None",
					"47_Atlanta",
					"73_Athens"
				],
				"lat1": 968.000000,
				"nbSeg1": 0
			},
			"pathsExist": false,
			"runtime": 633540521,
			"nomLat1": 968.000000,
			"nomLat2": 542.000000,
			"maxNomLat": 968.000000,
			"mincut": 5
		},
		{
			"s1": "1_Sarasota",
			"s2": "30_Myrtle_Beach",
			"t1": "0_Tampa",
			"t2": "15_Gainesville",
			"suurballeNbPaths": 2,
			"suurballeTime": 1057103715,
			"suurballePaths": {
				"path0": [
					"1_Sarasota",
					"0_Tampa"
				],
				"lat0": 118.000000,
				"nbSeg0": 0,
				"path1": [
					"30_Myrtle_Beach",
					"31_Florence",
					"112_None",
					"99_None",
					"98_None",
					"97_None",
					"15_Gainesville"
				],
				"lat1": 1234.000000,
				"nbSeg1": 1
			},
			"pathsExist": false,
			"runtime": 241038532,
			"nomLat1": 118.000000,
			"nomLat2": 1602.000000,
			"maxNomLat": 1602.000000,
			"mincut": 7
		},
		{
			"s1": "65_Ft_Myers",
			"s2": "82_Lake_Charles",
			"t1": "112_None",
			"t2": "66_Fort_Lauderdale",
			"suurballeNbPaths": 2,
			"suurballeTime": 1152910731,
			"suurballePaths": {
				"path0": [
					"65_Ft_Myers",
					"64_Miami",
					"66_Fort_Lauderdale"
				],
				"lat0": 389.000000,
				"nbSeg0": 2,
				"path1": [
					"82_Lake_Charles",
					"83_Lafayette",
					"27_Baton_Rouge",
					"24_New_Orleans",
					"95_Gulfport",
					"94_Mobile",
					"55_Montgomery",
					"111_None",
					"47_Atlanta",
					"73_Athens",
					"98_None",
					"99_None",
					"112_None"
				],
				"lat1": 2554.000000,
				"nbSeg1": 1
			},
			"pathsExist": false,
			"runtime": 148468250,
			"nomLat1": 3206.000000,
			"nomLat2": 2839.000000,
			"maxNomLat": 3206.000000,
			"mincut": 4
		},
		{
			"s1": "7_Gainesville",
			"s2": "11_Lexington",
			"t1": "10_Winston-Salem",
			"t2": "27_Baton_Rouge",
			"suurballeNbPaths": 2,
			"suurballeTime": 499655506,
			"suurballePaths": {
				"path0": [
					"11_Lexington",
					"10_Winston-Salem"
				],
				"lat0": 56.000000,
				"nbSeg0": 0,
				"path1": [
					"7_Gainesville",
					"4_Lake_City",
					"3_Tallahassee",
					"88_Crestview",
					"93_Pensacola",
					"94_Mobile",
					"95_Gulfport",
					"24_New_Orleans",
					"27_Baton_Rouge"
				],
				"lat1": 1594.000000,
				"nbSeg1": 2
			},
			"pathsExist": false,
			"runtime": 854487792,
			"nomLat1": 1817.000000,
			"nomLat2": 2175.000000,
			"maxNomLat": 2175.000000,
			"mincut": 6
		},
		{
			"s1": "47_Atlanta",
			"s2": "102_None",
			"t1": "7_Gainesville",
			"t2": "8_Ocala",
			"suurballeNbPaths": 2,
			"suurballeTime": 664205955,
			"suurballePaths": {
				"path0": [
					"47_Atlanta",
					"3_Tallahassee",
					"86_None",
					"8_Ocala"
				],
				"lat0": 1044.000000,
				"nbSeg0": 0,
				"path1": [
					"102_None",
					"101_None",
					"81_Savannah",
					"6_Jacksonville",
					"4_Lake_City",
					"7_Gainesville"
				],
				"lat1": 1047.000000,
				"nbSeg1": 2
			},
			"pathsExist": false,
			"runtime": 413931389,
			"nomLat1": 1005.000000,
			"nomLat2": 1357.000000,
			"maxNomLat": 1357.000000,
			"mincut": 4
		},
		{
			"s1": "3_Tallahassee",
			"s2": "40_Alexander_City",
			"t1": "77_Charleston",
			"t2": "5_Valdosta",
			"suurballeNbPaths": 2,
			"suurballeTime": 120058876,
			"suurballePaths": {
				"path0": [
					"3_Tallahassee",
					"4_Lake_City",
					"5_Valdosta"
				],
				"lat0": 432.000000,
				"nbSeg0": 2,
				"path1": [
					"40_Alexander_City",
					"49_Anniston",
					"84_None",
					"47_Atlanta",
					"73_Athens",
					"72_Augusta",
					"81_Savannah",
					"77_Charleston"
				],
				"lat1": 1491.000000,
				"nbSeg1": 4
			},
			"pathsExist": false,
			"runtime": 1172306118,
			"nomLat1": 1004.000000,
			"nomLat2": 1153.000000,
			"maxNomLat": 1153.000000,
			"mincut": 6
		},
		{
			"s1": "73_Athens",
			"s2": "107_Bryan",
			"t1": "55_Montgomery",
			"t2": "27_Baton_Rouge",
			"suurballeNbPaths": 2,
			"suurballeTime": 444348506,
			"suurballePaths": {
				"path0": [
					"73_Athens",
					"47_Atlanta",
					"111_None",
					"55_Montgomery"
				],
				"lat0": 591.000000,
				"nbSeg0": 0,
				"path1": [
					"107_Bryan",
					"106_Waco",
					"105_Dallas",
					"23_Longview",
					"20_Shreveport",
					"22_Alexandria",
					"83_Lafayette",
					"27_Baton_Rouge"
				],
				"lat1": 1612.000000,
				"nbSeg1": 1
			},
			"pathsExist": false,
			"runtime": 548011793,
			"nomLat1": 591.000000,
			"nomLat2": 1765.000000,
			"maxNomLat": 1765.000000,
			"mincut": 5
		},
		{
			"s1": "15_Gainesville",
			"s2": "12_Durham",
			"t1": "20_Shreveport",
			"t2": "28_Pine_Bluff",
			"suurballeNbPaths": 2,
			"suurballeTime": 6234934,
			"suurballePaths": {
				"path0": [
					"15_Gainesville",
					"47_Atlanta",
					"111_None",
					"54_Birmingham",
					"90_Tuscaloosa",
					"89_Meridian",
					"25_Jackson",
					"26_Vicksburg",
					"21_Monroe",
					"20_Shreveport"
				],
				"lat0": 1751.000000,
				"nbSeg0": 1,
				"path1": [
					"12_Durham",
					"13_Greensboro",
					"11_Lexington",
					"104_Charlotte",
					"60_Greenville",
					"53_Sylva",
					"52_Knoxville",
					"50_Nashville",
					"91_Jackson",
					"92_Memphis",
					"29_Little_Rock",
					"28_Pine_Bluff"
				],
				"lat1": 2375.000000,
				"nbSeg1": 5
			},
			"pathsExist": false,
			"runtime": 1012339060,
			"nomLat1": 2371.000000,
			"nomLat2": 3154.000000,
			"maxNomLat": 3154.000000,
			"mincut": 3
		},
		{
			"s1": "110_San_Antonia",
			"s2": "65_Ft_Myers",
			"t1": "11_Lexington",
			"t2": "53_Sylva",
			"suurballeNbPaths": 2,
			"suurballeTime": 132635182,
			"suurballePaths": {
				"path0": [
					"65_Ft_Myers",
					"1_Sarasota",
					"0_Tampa",
					"8_Ocala",
					"7_Gainesville",
					"4_Lake_City",
					"6_Jacksonville",
					"81_Savannah",
					"72_Augusta",
					"75_Columbia",
					"104_Charlotte",
					"11_Lexington"
				],
				"lat0": 2107.000000,
				"nbSeg0": 10,
				"path1": [
					"110_San_Antonia",
					"58_Houston",
					"61_Beaumont",
					"82_Lake_Charles",
					"83_Lafayette",
					"27_Baton_Rouge",
					"24_New_Orleans",
					"95_Gulfport",
					"94_Mobile",
					"55_Montgomery",
					"111_None",
					"47_Atlanta",
					"60_Greenville",
					"53_Sylva"
				],
				"lat1": 3163.000000,
				"nbSeg1": 2
			},
			"pathsExist": false,
			"runtime": 1246618292,
			"nomLat1": 3396.000000,
			"nomLat2": 2693.000000,
			"maxNomLat": 3396.000000,
			"mincut": 4
		},
		{
			"s1": "26_Vicksburg",
			"s2": "79_Beaufort",
			"t1": "0_Tampa",
			"t2": "52_Knoxville",
			"suurballeNbPaths": 2,
			"suurballeTime": 635243371,
			"suurballePaths": {
				"path0": [
					"26_Vicksburg",
					"25_Jackson",
					"92_Memphis",
					"91_Jackson",
					"50_Nashville",
					"52_Knoxville"
				],
				"lat0": 1617.000000,
				"nbSeg0": 0,
				"path1": [
					"79_Beaufort",
					"102_None",
					"101_None",
					"81_Savannah",
					"6_Jacksonville",
					"4_Lake_City",
					"7_Gainesville",
					"8_Ocala",
					"0_Tampa"
				],
				"lat1": 1596.000000,
				"nbSeg1": 5
			},
			"pathsExist": false,
			"runtime": 694969475,
			"nomLat1": 3057.000000,
			"nomLat2": 1543.000000,
			"maxNomLat": 3057.000000,
			"mincut": 4
		},
		{
			"s1": "31_Florence",
			"s2": "71_Melbourne",
			"t1": "70_Cocoa_Beach",
			"t2": "54_Birmingham",
			"suurballeNbPaths": 2,
			"suurballeTime": 11280282,
			"suurballePaths": {
				"path0": [
					"71_Melbourne",
					"70_Cocoa_Beach"
				],
				"lat0": 48.000000,
				"nbSeg0": 0,
				"path1": [
					"31_Florence",
					"112_None",
					"99_None",
					"98_None",
					"73_Athens",
					"47_Atlanta",
					"111_None",
					"54_Birmingham"
				],
				"lat1": 1443.000000,
				"nbSeg1": 1
			},
			"pathsExist": false,
			"runtime": 995355537,
			"nomLat1": 1395.000000,
			"nomLat2": 1946.000000,
			"maxNomLat": 1946.000000,
			"mincut": 6
		},
		{
			"s1": "65_Ft_Myers",
			"s2": "46_Macon",
			"t1": "103_None",
			"t2": "70_Cocoa_Beach",
			"suurballeNbPaths": 2,
			"suurballeTime": 1086965531,
			"suurballePaths": {
				"path0": [
					"65_Ft_Myers",
					"1_Sarasota",
					"0_Tampa",
					"63_Orlando",
					"70_Cocoa_Beach"
				],
				"lat0": 646.000000,
				"nbSeg0": 3,
				"path1": [
					"46_Macon",
					"47_Atlanta",
					"73_Athens",
					"72_Augusta",
					"75_Columbia",
					"74_Sumter",
					"103_None"
				],
				"lat1": 1117.000000,
				"nbSeg1": 2
			},
			"pathsExist": false,
			"runtime": 185949309,
			"nomLat1": 1833.000000,
			"nomLat2": 1124.000000,
			"maxNomLat": 1833.000000,
			"mincut": 4
		},
		{
			"s1": "60_Greenville",
			"s2": "67_Hollywood",
			"t1": "110_San_Antonia",
			"t2": "58_Houston",
			"suurballeNbPaths": 2,
			"suurballeTime": 636652897,
			"suurballePaths": {
				"path0": [
					"60_Greenville",
					"47_Atlanta",
					"111_None",
					"54_Birmingham",
					"90_Tuscaloosa",
					"89_Meridian",
					"25_Jackson",
					"26_Vicksburg",
					"21_Monroe",
					"20_Shreveport",
					"23_Longview",
					"105_Dallas",
					"106_Waco",
					"107_Bryan",
					"108_Austin",
					"109_San_Marcos",
					"110_San_Antonia"
				],
				"lat0": 3367.000000,
				"nbSeg0": 4,
				"path1": [
					"67_Hollywood",
					"66_Fort_Lauderdale",
					"85_None",
					"63_Orlando",
					"8_Ocala",
					"86_None",
					"3_Tallahassee",
					"88_Crestview",
					"93_Pensacola",
					"94_Mobile",
					"95_Gulfport",
					"24_New_Orleans",
					"27_Baton_Rouge",
					"83_Lafayette",
					"82_Lake_Charles",
					"61_Beaumont",
					"58_Houston"
				],
				"lat1": 2970.000000,
				"nbSeg1": 3
			},
			"pathsExist": false,
			"runtime": 578691742,
			"nomLat1": 3000.000000,
			"nomLat2": 3185.000000,
			"maxNomLat": 3185.000000,
			"mincut": 2
		},
		{
			"s1": "54_Birmingham",
			"s2": "3_Tallahassee",
			"t1": "76_Orangeburg",
			"t2": "68_Vero_Beach",
			"suurballeNbPaths": 2,
			"suurballeTime": 1123203344,
			"suurballePaths": {
				"path0": [
					"54_Birmingham",
					"111_None",
					"47_Atlanta",
					"73_Athens",
					"72_Augusta",
					"75_Columbia",
					"76_Orangeburg"
				],
				"lat0": 1112.000000,
				"nbSeg0": 2,
				"path1": [
					"3_Tallahassee",
					"86_None",
					"8_Ocala",
					"63_Orlando",
					"70_Cocoa_Beach",
					"71_Melbourne",
					"68_Vero_Beach"
				],
				"lat1": 882.000000,
				"nbSeg1": 2
			},
			"pathsExist": false,
			"runtime": 141418762,
			"nomLat1": 1384.000000,
			"nomLat2": 996.000000,
			"maxNomLat": 1384.000000,
			"mincut": 4
		},
		{
			"s1": "46_Macon",
			"s2": "49_Anniston",
			"t1": "81_Savannah",
			"t2": "25_Jackson",
			"suurballeNbPaths": 2,
			"suurballeTime": 25876166,
			"suurballePaths": {
				"path0": [
					"46_Macon",
					"47_Atlanta",
					"73_Athens",
					"72_Augusta",
					"81_Savannah"
				],
				"lat0": 908.000000,
				"nbSeg0": 2,
				"path1": [
					"49_Anniston",
					"54_Birmingham",
					"90_Tuscaloosa",
					"89_Meridian",
					"25_Jackson"
				],
				"lat1": 770.000000,
				"nbSeg1": 0
			},
			"pathsExist": false,
			"runtime": 1210757794,
			"nomLat1": 1046.000000,
			"nomLat2": 770.000000,
			"maxNomLat": 1046.000000,
			"mincut": 6
		},
		{
			"s1": "85_None",
			"s2": "63_Orlando",
			"t1": "46_Macon",
			"t2": "101_None",
			"suurballeNbPaths": 2,
			"suurballeTime": 943882251,
			"suurballePaths": {
				"path0": [
					"85_None",
					"62_Daytona_Beach",
					"6_Jacksonville",
					"81_Savannah",
					"101_None"
				],
				"lat0": 1003.000000,
				"nbSeg0": 0,
				"path1": [
					"63_Orlando",
					"8_Ocala",
					"7_Gainesville",
					"4_Lake_City",
					"5_Valdosta",
					"46_Macon"
				],
				"lat1": 930.000000,
				"nbSeg1": 3
			},
			"pathsExist": false,
			"runtime": 498888312,
			"nomLat1": 1154.000000,
			"nomLat2": 1216.000000,
			"maxNomLat": 1216.000000,
			"mincut": 4
		},
		{
			"s1": "60_Greenville",
			"s2": "48_Gadsden",
			"t1": "96_Hattiesburg",
			"t2": "62_Daytona_Beach",
			"suurballeNbPaths": 2,
			"suurballeTime": 1115174796,
			"suurballePaths": {
				"path0": [
					"48_Gadsden",
					"49_Anniston",
					"54_Birmingham",
					"90_Tuscaloosa",
					"89_Meridian",
					"96_Hattiesburg"
				],
				"lat0": 826.000000,
				"nbSeg0": 0,
				"path1": [
					"60_Greenville",
					"47_Atlanta",
					"46_Macon",
					"5_Valdosta",
					"4_Lake_City",
					"6_Jacksonville",
					"62_Daytona_Beach"
				],
				"lat1": 1522.000000,
				"nbSeg1": 5
			},
			"pathsExist": false,
			"runtime": 132939503,
			"nomLat1": 1585.000000,
			"nomLat2": 1790.000000,
			"maxNomLat": 1790.000000,
			"mincut": 6
		},
		{
			"s1": "7_Gainesville",
			"s2": "61_Beaumont",
			"t1": "24_New_Orleans",
			"t2": "81_Savannah",
			"suurballeNbPaths": 2,
			"suurballeTime": 9578343,
			"suurballePaths": {
				"path0": [
					"7_Gainesville",
					"4_Lake_City",
					"6_Jacksonville",
					"81_Savannah"
				],
				"lat0": 621.000000,
				"nbSeg0": 2,
				"path1": [
					"61_Beaumont",
					"82_Lake_Charles",
					"83_Lafayette",
					"27_Baton_Rouge",
					"24_New_Orleans"
				],
				"lat1": 693.000000,
				"nbSeg1": 0
			},
			"pathsExist": false,
			"runtime": 1223530163,
			"nomLat1": 1394.000000,
			"nomLat2": 2599.000000,
			"maxNomLat": 2599.000000,
			"mincut": 4
		},
		{
			"s1": "103_None",
			"s2": "59_Ashville",
			"t1": "65_Ft_Myers",
			"t2": "46_Macon",
			"suurballeNbPaths": 2,
			"suurballeTime": 402791084,
			"suurballePaths": {
				"path0": [
					"59_Ashville",
					"60_Greenville",
					"47_Atlanta",
					"46_Macon"
				],
				"lat0": 726.000000,
				"nbSeg0": 2,
				"path1": [
					"103_None",
					"77_Charleston",
					"81_Savannah",
					"6_Jacksonville",
					"4_Lake_City",
					"7_Gainesville",
					"8_Ocala",
					"0_Tampa",
					"1_Sarasota",
					"65_Ft_Myers"
				],
				"lat1": 1695.000000,
				"nbSeg1": 6
			},
			"pathsExist": false,
			"runtime": 965155865,
			"nomLat1": 1833.000000,
			"nomLat2": 726.000000,
			"maxNomLat": 1833.000000,
			"mincut": 4
		},
		{
			"s1": "11_Lexington",
			"s2": "102_None",
			"t1": "21_Monroe",
			"t2": "80_Saunt_Augustine",
			"suurballeNbPaths": 2,
			"suurballeTime": 1164199579,
			"suurballePaths": {
				"path0": [
					"102_None",
					"101_None",
					"81_Savannah",
					"6_Jacksonville",
					"80_Saunt_Augustine"
				],
				"lat0": 869.000000,
				"nbSeg0": 0,
				"path1": [
					"11_Lexington",
					"104_Charlotte",
					"60_Greenville",
					"47_Atlanta",
					"111_None",
					"54_Birmingham",
					"90_Tuscaloosa",
					"89_Meridian",
					"25_Jackson",
					"26_Vicksburg",
					"21_Monroe"
				],
				"lat1": 2122.000000,
				"nbSeg1": 5
			},
			"pathsExist": false,
			"runtime": 257684196,
			"nomLat1": 2742.000000,
			"nomLat2": 869.000000,
			"maxNomLat": 2742.000000,
			"mincut": 4
		},
		{
			"s1": "102_None",
			"s2": "12_Durham",
			"t1": "70_Cocoa_Beach",
			"t2": "97_None",
			"suurballeNbPaths": 2,
			"suurballeTime": 9804041,
			"suurballePaths": {
				"path0": [
					"102_None",
					"101_None",
					"81_Savannah",
					"6_Jacksonville",
					"62_Daytona_Beach",
					"70_Cocoa_Beach"
				],
				"lat0": 1186.000000,
				"nbSeg0": 0,
				"path1": [
					"12_Durham",
					"13_Greensboro",
					"11_Lexington",
					"104_Charlotte",
					"60_Greenville",
					"97_None"
				],
				"lat1": 836.000000,
				"nbSeg1": 3
			},
			"pathsExist": false,
			"runtime": 999580462,
			"nomLat1": 1186.000000,
			"nomLat2": 876.000000,
			"maxNomLat": 1186.000000,
			"mincut": 4
		},
		{
			"s1": "91_Jackson",
			"s2": "16_Hickory",
			"t1": "103_None",
			"t2": "23_Longview",
			"suurballeNbPaths": 2,
			"suurballeTime": 1110795728,
			"suurballePaths": {
				"path0": [
					"16_Hickory",
					"104_Charlotte",
					"75_Columbia",
					"74_Sumter",
					"103_None"
				],
				"lat0": 683.000000,
				"nbSeg0": 2,
				"path1": [
					"91_Jackson",
					"92_Memphis",
					"25_Jackson",
					"26_Vicksburg",
					"21_Monroe",
					"20_Shreveport",
					"23_Longview"
				],
				"lat1": 1475.000000,
				"nbSeg1": 0
			},
			"pathsExist": false,
			"runtime": 296321520,
			"nomLat1": 2097.000000,
			"nomLat2": 3139.000000,
			"maxNomLat": 3139.000000,
			"mincut": 5
		},
		{
			"s1": "107_Bryan",
			"s2": "46_Macon",
			"t1": "42_Opelika",
			"t2": "48_Gadsden",
			"suurballeNbPaths": 2,
			"suurballeTime": 1106531798,
			"suurballePaths": {
				"path0": [
					"46_Macon",
					"47_Atlanta",
					"84_None",
					"14_Newnah?",
					"17_Lagrange?",
					"43_Lagrange",
					"42_Opelika"
				],
				"lat0": 812.000000,
				"nbSeg0": 1,
				"path1": [
					"107_Bryan",
					"106_Waco",
					"105_Dallas",
					"23_Longview",
					"20_Shreveport",
					"21_Monroe",
					"26_Vicksburg",
					"25_Jackson",
					"89_Meridian",
					"90_Tuscaloosa",
					"54_Birmingham",
					"49_Anniston",
					"48_Gadsden"
				],
				"lat1": 2355.000000,
				"nbSeg1": 1
			},
			"pathsExist": false,
			"runtime": 280198106,
			"nomLat1": 2541.000000,
			"nomLat2": 710.000000,
			"maxNomLat": 2541.000000,
			"mincut": 4
		},
		{
			"s1": "107_Bryan",
			"s2": "97_None",
			"t1": "5_Valdosta",
			"t2": "62_Daytona_Beach",
			"suurballeNbPaths": 2,
			"suurballeTime": 7452834,
			"suurballePaths": {
				"path0": [
					"97_None",
					"15_Gainesville",
					"47_Atlanta",
					"46_Macon",
					"5_Valdosta"
				],
				"lat0": 940.000000,
				"nbSeg0": 1,
				"path1": [
					"107_Bryan",
					"106_Waco",
					"105_Dallas",
					"23_Longview",
					"20_Shreveport",
					"22_Alexandria",
					"83_Lafayette",
					"27_Baton_Rouge",
					"24_New_Orleans",
					"95_Gulfport",
					"94_Mobile",
					"93_Pensacola",
					"88_Crestview",
					"3_Tallahassee",
					"4_Lake_City",
					"6_Jacksonville",
					"62_Daytona_Beach"
				],
				"lat1": 3490.000000,
				"nbSeg1": 5
			},
			"pathsExist": false,
			"runtime": 1002417971,
			"nomLat1": 3759.000000,
			"nomLat2": 1874.000000,
			"maxNomLat": 3759.000000,
			"mincut": 5
		},
		{
			"s1": "46_Macon",
			"s2": "30_Myrtle_Beach",
			"t1": "72_Augusta",
			"t2": "100_None",
			"suurballeNbPaths": 2,
			"suurballeTime": 23421236,
			"suurballePaths": {
				"path0": [
					"30_Myrtle_Beach",
					"77_Charleston",
					"100_None"
				],
				"lat0": 451.000000,
				"nbSeg0": 0,
				"path1": [
					"46_Macon",
					"47_Atlanta",
					"73_Athens",
					"72_Augusta"
				],
				"lat1": 613.000000,
				"nbSeg1": 0
			},
			"pathsExist": false,
			"runtime": 1229840129,
			"nomLat1": 613.000000,
			"nomLat2": 451.000000,
			"maxNomLat": 613.000000,
			"mincut": 7
		},
		{
			"s1": "89_Meridian",
			"s2": "80_Saunt_Augustine",
			"t1": "55_Montgomery",
			"t2": "70_Cocoa_Beach",
			"suurballeNbPaths": 2,
			"suurballeTime": 7520779,
			"suurballePaths": {
				"path0": [
					"80_Saunt_Augustine",
					"62_Daytona_Beach",
					"70_Cocoa_Beach"
				],
				"lat0": 323.000000,
				"nbSeg0": 0,
				"path1": [
					"89_Meridian",
					"90_Tuscaloosa",
					"54_Birmingham",
					"55_Montgomery"
				],
				"lat1": 609.000000,
				"nbSeg1": 0
			},
			"pathsExist": true,
			"path1": [
				"89_Meridian",
				"55_Montgomery"
			],
			"lat1": 609.000000,
			"path2": [
				"80_Saunt_Augustine",
				"70_Cocoa_Beach"
			],
			"lat2": 323.000000,
			"maxlat": 609.000000,
			"runtime": 1268096471,
			"nomLat1": 609.000000,
			"nomLat2": 323.000000,
			"maxNomLat": 609.000000,
			"mincut": 5
		},
		{
			"s1": "28_Pine_Bluff",
			"s2": "15_Gainesville",
			"t1": "67_Hollywood",
			"t2": "50_Nashville",
			"suurballeNbPaths": 2,
			"suurballeTime": 11161626,
			"suurballePaths": {
				"path0": [
					"28_Pine_Bluff",
					"29_Little_Rock",
					"92_Memphis",
					"91_Jackson",
					"50_Nashville"
				],
				"lat0": 999.000000,
				"nbSeg0": 1,
				"path1": [
					"15_Gainesville",
					"47_Atlanta",
					"46_Macon",
					"5_Valdosta",
					"4_Lake_City",
					"7_Gainesville",
					"8_Ocala",
					"63_Orlando",
					"85_None",
					"66_Fort_Lauderdale",
					"67_Hollywood"
				],
				"lat1": 1728.000000,
				"nbSeg1": 5
			},
			"pathsExist": false,
			"runtime": 1001800961,
			"nomLat1": 4006.000000,
			"nomLat2": 729.000000,
			"maxNomLat": 4006.000000,
			"mincut": 4
		},
		{
			"s1": "64_Miami",
			"s2": "93_Pensacola",
			"t1": "22_Alexandria",
			"t2": "16_Hickory",
			"suurballeNbPaths": 2,
			"suurballeTime": 1091959000,
			"suurballePaths": {
				"path0": [
					"93_Pensacola",
					"94_Mobile",
					"95_Gulfport",
					"24_New_Orleans",
					"27_Baton_Rouge",
					"83_Lafayette",
					"22_Alexandria"
				],
				"lat0": 1074.000000,
				"nbSeg0": 0,
				"path1": [
					"64_Miami",
					"66_Fort_Lauderdale",
					"85_None",
					"62_Daytona_Beach",
					"6_Jacksonville",
					"81_Savannah",
					"72_Augusta",
					"75_Columbia",
					"104_Charlotte",
					"16_Hickory"
				],
				"lat1": 1904.000000,
				"nbSeg1": 8
			},
			"pathsExist": false,
			"runtime": 144399960,
			"nomLat1": 2793.000000,
			"nomLat2": 1864.000000,
			"maxNomLat": 2793.000000,
			"mincut": 5
		},
		{
			"s1": "82_Lake_Charles",
			"s2": "80_Saunt_Augustine",
			"t1": "90_Tuscaloosa",
			"t2": "111_None",
			"suurballeNbPaths": 2,
			"suurballeTime": 5362531,
			"suurballePaths": {
				"path0": [
					"80_Saunt_Augustine",
					"6_Jacksonville",
					"4_Lake_City",
					"5_Valdosta",
					"46_Macon",
					"47_Atlanta",
					"111_None"
				],
				"lat0": 1229.000000,
				"nbSeg0": 3,
				"path1": [
					"82_Lake_Charles",
					"83_Lafayette",
					"27_Baton_Rouge",
					"24_New_Orleans",
					"95_Gulfport",
					"96_Hattiesburg",
					"89_Meridian",
					"90_Tuscaloosa"
				],
				"lat1": 1366.000000,
				"nbSeg1": 1
			},
			"pathsExist": false,
			"runtime": 1469899049,
			"nomLat1": 1460.000000,
			"nomLat2": 1368.000000,
			"maxNomLat": 1460.000000,
			"mincut": 4
		},
		{
			"s1": "68_Vero_Beach",
			"s2": "88_Crestview",
			"t1": "13_Greensboro",
			"t2": "110_San_Antonia",
			"suurballeNbPaths": 2,
			"suurballeTime": 345589725,
			"suurballePaths": {
				"path0": [
					"68_Vero_Beach",
					"71_Melbourne",
					"70_Cocoa_Beach",
					"62_Daytona_Beach",
					"6_Jacksonville",
					"81_Savannah",
					"72_Augusta",
					"75_Columbia",
					"104_Charlotte",
					"11_Lexington",
					"13_Greensboro"
				],
				"lat0": 1843.000000,
				"nbSeg0": 7,
				"path1": [
					"88_Crestview",
					"93_Pensacola",
					"94_Mobile",
					"95_Gulfport",
					"24_New_Orleans",
					"27_Baton_Rouge",
					"83_Lafayette",
					"82_Lake_Charles",
					"61_Beaumont",
					"58_Houston",
					"110_San_Antonia"
				],
				"lat1": 2054.000000,
				"nbSeg1": 0
			},
			"pathsExist": false,
			"runtime": 741897062,
			"nomLat1": 1871.000000,
			"nomLat2": 2054.000000,
			"maxNomLat": 2054.000000,
			"mincut": 5
		},
		{
			"s1": "82_Lake_Charles",
			"s2": "48_Gadsden",
			"t1": "58_Houston",
			"t2": "49_Anniston",
			"suurballeNbPaths": 2,
			"suurballeTime": 884665658,
			"suurballePaths": {
				"path0": [
					"48_Gadsden",
					"49_Anniston"
				],
				"lat0": 75.000000,
				"nbSeg0": 0,
				"path1": [
					"82_Lake_Charles",
					"61_Beaumont",
					"58_Houston"
				],
				"lat1": 366.000000,
				"nbSeg1": 0
			},
			"pathsExist": false,
			"runtime": 591934712,
			"nomLat1": 366.000000,
			"nomLat2": 75.000000,
			"maxNomLat": 366.000000,
			"mincut": 4
		},
		{
			"s1": "48_Gadsden",
			"s2": "110_San_Antonia",
			"t1": "51_Chattanooga",
			"t2": "65_Ft_Myers",
			"suurballeNbPaths": 2,
			"suurballeTime": 350385601,
			"suurballePaths": {
				"path0": [
					"48_Gadsden",
					"57_Huntsville",
					"50_Nashville",
					"51_Chattanooga"
				],
				"lat0": 744.000000,
				"nbSeg0": 0,
				"path1": [
					"110_San_Antonia",
					"58_Houston",
					"61_Beaumont",
					"82_Lake_Charles",
					"83_Lafayette",
					"27_Baton_Rouge",
					"24_New_Orleans",
					"95_Gulfport",
					"94_Mobile",
					"93_Pensacola",
					"88_Crestview",
					"3_Tallahassee",
					"86_None",
					"8_Ocala",
					"0_Tampa",
					"1_Sarasota",
					"65_Ft_Myers"
				],
				"lat1": 3391.000000,
				"nbSeg1": 1
			},
			"pathsExist": false,
			"runtime": 1029823196,
			"nomLat1": 744.000000,
			"nomLat2": 3968.000000,
			"maxNomLat": 3968.000000,
			"mincut": 4
		},
		{
			"s1": "42_Opelika",
			"s2": "82_Lake_Charles",
			"t1": "27_Baton_Rouge",
			"t2": "57_Huntsville",
			"suurballeNbPaths": 2,
			"suurballeTime": 1002177598,
			"suurballePaths": {
				"path0": [
					"82_Lake_Charles",
					"83_Lafayette",
					"27_Baton_Rouge"
				],
				"lat0": 343.000000,
				"nbSeg0": 0,
				"path1": [
					"42_Opelika",
					"41_Auburn",
					"40_Alexander_City",
					"49_Anniston",
					"48_Gadsden",
					"57_Huntsville"
				],
				"lat1": 500.000000,
				"nbSeg1": 0
			},
			"pathsExist": false,
			"runtime": 239732588,
			"nomLat1": 1827.000000,
			"nomLat2": 2323.000000,
			"maxNomLat": 2323.000000,
			"mincut": 4
		},
		{
			"s1": "110_San_Antonia",
			"s2": "15_Gainesville",
			"t1": "22_Alexandria",
			"t2": "29_Little_Rock",
			"suurballeNbPaths": 2,
			"suurballeTime": 363649091,
			"suurballePaths": {
				"path0": [
					"110_San_Antonia",
					"58_Houston",
					"61_Beaumont",
					"82_Lake_Charles",
					"83_Lafayette",
					"22_Alexandria"
				],
				"lat0": 1289.000000,
				"nbSeg0": 1,
				"path1": [
					"15_Gainesville",
					"47_Atlanta",
					"51_Chattanooga",
					"50_Nashville",
					"91_Jackson",
					"92_Memphis",
					"29_Little_Rock"
				],
				"lat1": 1618.000000,
				"nbSeg1": 0
			},
			"pathsExist": false,
			"runtime": 737677946,
			"nomLat1": 1920.000000,
			"nomLat2": 1618.000000,
			"maxNomLat": 1920.000000,
			"mincut": 4
		},
		{
			"s1": "66_Fort_Lauderdale",
			"s2": "95_Gulfport",
			"t1": "1_Sarasota",
			"t2": "48_Gadsden",
			"suurballeNbPaths": 2,
			"suurballeTime": 1087452937,
			"suurballePaths": {
				"path0": [
					"66_Fort_Lauderdale",
					"64_Miami",
					"65_Ft_Myers",
					"1_Sarasota"
				],
				"lat0": 568.000000,
				"nbSeg0": 3,
				"path1": [
					"95_Gulfport",
					"96_Hattiesburg",
					"89_Meridian",
					"90_Tuscaloosa",
					"54_Birmingham",
					"49_Anniston",
					"48_Gadsden"
				],
				"lat1": 1011.000000,
				"nbSeg1": 1
			},
			"pathsExist": false,
			"runtime": 154347348,
			"nomLat1": 741.000000,
			"nomLat2": 1065.000000,
			"maxNomLat": 1065.000000,
			"mincut": 4
		},
		{
			"s1": "37_Fayatteville",
			"s2": "68_Vero_Beach",
			"t1": "105_Dallas",
			"t2": "109_San_Marcos",
			"suurballeNbPaths": 2,
			"suurballeTime": 276346645,
			"suurballePaths": {
				"path0": [
					"37_Fayatteville",
					"19_Raleigh",
					"104_Charlotte",
					"60_Greenville",
					"47_Atlanta",
					"111_None",
					"54_Birmingham",
					"90_Tuscaloosa",
					"89_Meridian",
					"25_Jackson",
					"26_Vicksburg",
					"21_Monroe",
					"20_Shreveport",
					"23_Longview",
					"105_Dallas"
				],
				"lat0": 3220.000000,
				"nbSeg0": 7,
				"path1": [
					"68_Vero_Beach",
					"71_Melbourne",
					"70_Cocoa_Beach",
					"63_Orlando",
					"8_Ocala",
					"86_None",
					"3_Tallahassee",
					"88_Crestview",
					"93_Pensacola",
					"94_Mobile",
					"95_Gulfport",
					"24_New_Orleans",
					"27_Baton_Rouge",
					"83_Lafayette",
					"82_Lake_Charles",
					"61_Beaumont",
					"58_Houston",
					"110_San_Antonia",
					"109_San_Marcos"
				],
				"lat1": 3437.000000,
				"nbSeg1": 2
			},
			"pathsExist": false,
			"runtime": 1085818554,
			"nomLat1": 3840.000000,
			"nomLat2": 3551.000000,
			"maxNomLat": 3840.000000,
			"mincut": 2
		},
		{
			"s1": "46_Macon",
			"s2": "50_Nashville",
			"t1": "107_Bryan",
			"t2": "61_Beaumont",
			"suurballeNbPaths": 2,
			"suurballeTime": 47976895,
			"suurballePaths": {
				"path0": [
					"46_Macon",
					"47_Atlanta",
					"111_None",
					"55_Montgomery",
					"94_Mobile",
					"95_Gulfport",
					"24_New_Orleans",
					"27_Baton_Rouge",
					"83_Lafayette",
					"82_Lake_Charles",
					"61_Beaumont"
				],
				"lat0": 2109.000000,
				"nbSeg0": 0,
				"path1": [
					"50_Nashville",
					"91_Jackson",
					"92_Memphis",
					"25_Jackson",
					"26_Vicksburg",
					"21_Monroe",
					"20_Shreveport",
					"23_Longview",
					"105_Dallas",
					"106_Waco",
					"107_Bryan"
				],
				"lat1": 2579.000000,
				"nbSeg1": 0
			},
			"pathsExist": false,
			"runtime": 1411990957,
			"nomLat1": 3379.000000,
			"nomLat2": 2201.000000,
			"maxNomLat": 3379.000000,
			"mincut": 2
		},
		{
			"s1": "68_Vero_Beach",
			"s2": "64_Miami",
			"t1": "81_Savannah",
			"t2": "110_San_Antonia",
			"suurballeNbPaths": 2,
			"suurballeTime": 7015368,
			"suurballePaths": {
				"path0": [
					"64_Miami",
					"66_Fort_Lauderdale",
					"85_None",
					"62_Daytona_Beach",
					"6_Jacksonville",
					"81_Savannah"
				],
				"lat0": 1072.000000,
				"nbSeg0": 2,
				"path1": [
					"68_Vero_Beach",
					"71_Melbourne",
					"70_Cocoa_Beach",
					"63_Orlando",
					"8_Ocala",
					"86_None",
					"3_Tallahassee",
					"88_Crestview",
					"93_Pensacola",
					"94_Mobile",
					"95_Gulfport",
					"24_New_Orleans",
					"27_Baton_Rouge",
					"83_Lafayette",
					"82_Lake_Charles",
					"61_Beaumont",
					"58_Houston",
					"110_San_Antonia"
				],
				"lat1": 3310.000000,
				"nbSeg1": 2
			},
			"pathsExist": false,
			"runtime": 1362433218,
			"nomLat1": 902.000000,
			"nomLat2": 3648.000000,
			"maxNomLat": 3648.000000,
			"mincut": 4
		},
		{
			"s1": "41_Auburn",
			"s2": "106_Waco",
			"t1": "92_Memphis",
			"t2": "100_None",
			"suurballeNbPaths": 2,
			"suurballeTime": 1326705300,
			"suurballePaths": {
				"path0": [
					"106_Waco",
					"105_Dallas",
					"23_Longview",
					"20_Shreveport",
					"21_Monroe",
					"26_Vicksburg",
					"25_Jackson",
					"92_Memphis"
				],
				"lat0": 1835.000000,
				"nbSeg0": 0,
				"path1": [
					"41_Auburn",
					"42_Opelika",
					"43_Lagrange",
					"17_Lagrange?",
					"14_Newnah?",
					"84_None",
					"47_Atlanta",
					"73_Athens",
					"72_Augusta",
					"75_Columbia",
					"76_Orangeburg",
					"100_None"
				],
				"lat1": 1524.000000,
				"nbSeg1": 3
			},
			"pathsExist": false,
			"runtime": 143766308,
			"nomLat1": 1542.000000,
			"nomLat2": 4133.000000,
			"maxNomLat": 4133.000000,
			"mincut": 4
		},
		{
			"s1": "17_Lagrange?",
			"s2": "94_Mobile",
			"t1": "51_Chattanooga",
			"t2": "56_Arab",
			"suurballeNbPaths": 2,
			"suurballeTime": 8281248,
			"suurballePaths": {
				"path0": [
					"94_Mobile",
					"55_Montgomery",
					"54_Birmingham",
					"56_Arab"
				],
				"lat0": 811.000000,
				"nbSeg0": 0,
				"path1": [
					"17_Lagrange?",
					"14_Newnah?",
					"84_None",
					"47_Atlanta",
					"51_Chattanooga"
				],
				"lat1": 786.000000,
				"nbSeg1": 0
			},
			"pathsExist": true,
			"path1": [
				"17_Lagrange?",
				"51_Chattanooga"
			],
			"lat1": 786.000000,
			"path2": [
				"94_Mobile",
				"54_Birmingham",
				"56_Arab"
			],
			"lat2": 811.000000,
			"maxlat": 811.000000,
			"runtime": 1069888868,
			"nomLat1": 786.000000,
			"nomLat2": 811.000000,
			"maxNomLat": 811.000000,
			"mincut": 4
		},
		{
			"s1": "53_Sylva",
			"s2": "48_Gadsden",
			"t1": "111_None",
			"t2": "24_New_Orleans",
			"suurballeNbPaths": 2,
			"suurballeTime": 17317549,
			"suurballePaths": {
				"path0": [
					"53_Sylva",
					"60_Greenville",
					"47_Atlanta",
					"111_None"
				],
				"lat0": 748.000000,
				"nbSeg0": 2,
				"path1": [
					"48_Gadsden",
					"49_Anniston",
					"54_Birmingham",
					"90_Tuscaloosa",
					"89_Meridian",
					"96_Hattiesburg",
					"95_Gulfport",
					"24_New_Orleans"
				],
				"lat1": 1190.000000,
				"nbSeg1": 1
			},
			"pathsExist": false,
			"runtime": 1356119523,
			"nomLat1": 748.000000,
			"nomLat2": 1944.000000,
			"maxNomLat": 1944.000000,
			"mincut": 5
		},
		{
			"s1": "41_Auburn",
			"s2": "109_San_Marcos",
			"t1": "40_Alexander_City",
			"t2": "108_Austin",
			"suurballeNbPaths": 2,
			"suurballeTime": 17906134,
			"suurballePaths": {
				"path0": [
					"41_Auburn",
					"40_Alexander_City"
				],
				"lat0": 101.000000,
				"nbSeg0": 0,
				"path1": [
					"109_San_Marcos",
					"108_Austin"
				],
				"lat1": 82.000000,
				"nbSeg1": 2
			},
			"pathsExist": true,
			"path1": [
				"41_Auburn",
				"40_Alexander_City"
			],
			"lat1": 101.000000,
			"path2": [
				"109_San_Marcos",
				"108_Austin"
			],
			"lat2": 82.000000,
			"maxlat": 101.000000,
			"runtime": 1077246850,
			"nomLat1": 101.000000,
			"nomLat2": 82.000000,
			"maxNomLat": 101.000000,
			"mincut": 5
		},
		{
			"s1": "101_None",
			"s2": "25_Jackson",
			"t1": "92_Memphis",
			"t2": "74_Sumter",
			"suurballeNbPaths": 2,
			"suurballeTime": 6466255,
			"suurballePaths": {
				"path0": [
					"25_Jackson",
					"92_Memphis"
				],
				"lat0": 533.000000,
				"nbSeg0": 0,
				"path1": [
					"101_None",
					"81_Savannah",
					"72_Augusta",
					"75_Columbia",
					"74_Sumter"
				],
				"lat1": 799.000000,
				"nbSeg1": 4
			},
			"pathsExist": false,
			"runtime": 1012803308,
			"nomLat1": 2039.000000,
			"nomLat2": 2627.000000,
			"maxNomLat": 2627.000000,
			"mincut": 6
		},
		{
			"s1": "15_Gainesville",
			"s2": "52_Knoxville",
			"t1": "26_Vicksburg",
			"t2": "22_Alexandria",
			"suurballeNbPaths": 2,
			"suurballeTime": 4706259,
			"suurballePaths": {
				"path0": [
					"52_Knoxville",
					"50_Nashville",
					"91_Jackson",
					"92_Memphis",
					"25_Jackson",
					"26_Vicksburg"
				],
				"lat0": 1617.000000,
				"nbSeg0": 0,
				"path1": [
					"15_Gainesville",
					"47_Atlanta",
					"111_None",
					"55_Montgomery",
					"94_Mobile",
					"95_Gulfport",
					"24_New_Orleans",
					"27_Baton_Rouge",
					"83_Lafayette",
					"22_Alexandria"
				],
				"lat1": 1911.000000,
				"nbSeg1": 0
			},
			"pathsExist": false,
			"runtime": 1268035063,
			"nomLat1": 1911.000000,
			"nomLat2": 2509.000000,
			"maxNomLat": 2509.000000,
			"mincut": 2
		},
		{
			"s1": "31_Florence",
			"s2": "10_Winston-Salem",
			"t1": "91_Jackson",
			"t2": "7_Gainesville",
			"suurballeNbPaths": 2,
			"suurballeTime": 7744734,
			"suurballePaths": {
				"path0": [
					"31_Florence",
					"30_Myrtle_Beach",
					"77_Charleston",
					"81_Savannah",
					"6_Jacksonville",
					"4_Lake_City",
					"7_Gainesville"
				],
				"lat0": 1256.000000,
				"nbSeg0": 4,
				"path1": [
					"10_Winston-Salem",
					"104_Charlotte",
					"60_Greenville",
					"53_Sylva",
					"52_Knoxville",
					"50_Nashville",
					"91_Jackson"
				],
				"lat1": 1519.000000,
				"nbSeg1": 3
			},
			"pathsExist": false,
			"runtime": 1259469366,
			"nomLat1": 2484.000000,
			"nomLat2": 1817.000000,
			"maxNomLat": 2484.000000,
			"mincut": 4
		},
		{
			"s1": "7_Gainesville",
			"s2": "68_Vero_Beach",
			"t1": "17_Lagrange?",
			"t2": "92_Memphis",
			"suurballeNbPaths": 2,
			"suurballeTime": 171881943,
			"suurballePaths": {
				"path0": [
					"7_Gainesville",
					"4_Lake_City",
					"5_Valdosta",
					"46_Macon",
					"47_Atlanta",
					"51_Chattanooga",
					"50_Nashville",
					"91_Jackson",
					"92_Memphis"
				],
				"lat0": 1993.000000,
				"nbSeg0": 1,
				"path1": [
					"68_Vero_Beach",
					"71_Melbourne",
					"70_Cocoa_Beach",
					"63_Orlando",
					"8_Ocala",
					"86_None",
					"3_Tallahassee",
					"45_Albany",
					"43_Lagrange",
					"17_Lagrange?"
				],
				"lat1": 1412.000000,
				"nbSeg1": 2
			},
			"pathsExist": false,
			"runtime": 1142166109,
			"nomLat1": 917.000000,
			"nomLat2": 2741.000000,
			"maxNomLat": 2741.000000,
			"mincut": 4
		},
		{
			"s1": "7_Gainesville",
			"s2": "6_Jacksonville",
			"t1": "42_Opelika",
			"t2": "104_Charlotte",
			"suurballeNbPaths": 2,
			"suurballeTime": 148765195,
			"suurballePaths": {
				"path0": [
					"6_Jacksonville",
					"81_Savannah",
					"72_Augusta",
					"75_Columbia",
					"104_Charlotte"
				],
				"lat0": 1048.000000,
				"nbSeg0": 6,
				"path1": [
					"7_Gainesville",
					"4_Lake_City",
					"3_Tallahassee",
					"45_Albany",
					"43_Lagrange",
					"42_Opelika"
				],
				"lat1": 1007.000000,
				"nbSeg1": 2
			},
			"pathsExist": false,
			"runtime": 1271697774,
			"nomLat1": 1007.000000,
			"nomLat2": 1048.000000,
			"maxNomLat": 1048.000000,
			"mincut": 5
		},
		{
			"s1": "100_None",
			"s2": "68_Vero_Beach",
			"t1": "103_None",
			"t2": "55_Montgomery",
			"suurballeNbPaths": 2,
			"suurballeTime": 637743352,
			"suurballePaths": {
				"path0": [
					"100_None",
					"77_Charleston",
					"103_None"
				],
				"lat0": 426.000000,
				"nbSeg0": 0,
				"path1": [
					"68_Vero_Beach",
					"71_Melbourne",
					"70_Cocoa_Beach",
					"63_Orlando",
					"8_Ocala",
					"7_Gainesville",
					"4_Lake_City",
					"5_Valdosta",
					"46_Macon",
					"47_Atlanta",
					"111_None",
					"55_Montgomery"
				],
				"lat1": 1844.000000,
				"nbSeg1": 4
			},
			"pathsExist": false,
			"runtime": 604036165,
			"nomLat1": 426.000000,
			"nomLat2": 2040.000000,
			"maxNomLat": 2040.000000,
			"mincut": 5
		},
		{
			"s1": "23_Longview",
			"s2": "93_Pensacola",
			"t1": "80_Saunt_Augustine",
			"t2": "22_Alexandria",
			"suurballeNbPaths": 2,
			"suurballeTime": 170879781,
			"suurballePaths": {
				"path0": [
					"23_Longview",
					"20_Shreveport",
					"22_Alexandria"
				],
				"lat0": 468.000000,
				"nbSeg0": 0,
				"path1": [
					"93_Pensacola",
					"88_Crestview",
					"3_Tallahassee",
					"4_Lake_City",
					"6_Jacksonville",
					"80_Saunt_Augustine"
				],
				"lat1": 1036.000000,
				"nbSeg1": 4
			},
			"pathsExist": false,
			"runtime": 1095168283,
			"nomLat1": 3547.000000,
			"nomLat2": 1074.000000,
			"maxNomLat": 3547.000000,
			"mincut": 4
		},
		{
			"s1": "42_Opelika",
			"s2": "75_Columbia",
			"t1": "63_Orlando",
			"t2": "48_Gadsden",
			"suurballeNbPaths": 2,
			"suurballeTime": 550303404,
			"suurballePaths": {
				"path0": [
					"42_Opelika",
					"41_Auburn",
					"40_Alexander_City",
					"49_Anniston",
					"48_Gadsden"
				],
				"lat0": 336.000000,
				"nbSeg0": 0,
				"path1": [
					"75_Columbia",
					"72_Augusta",
					"81_Savannah",
					"6_Jacksonville",
					"4_Lake_City",
					"7_Gainesville",
					"8_Ocala",
					"63_Orlando"
				],
				"lat1": 1368.000000,
				"nbSeg1": 9
			},
			"pathsExist": false,
			"runtime": 610296403,
			"nomLat1": 1223.000000,
			"nomLat2": 1356.000000,
			"maxNomLat": 1356.000000,
			"mincut": 6
		},
		{
			"s1": "37_Fayatteville",
			"s2": "93_Pensacola",
			"t1": "69_West_Palm_Beach",
			"t2": "36_Wilmington",
			"suurballeNbPaths": 2,
			"suurballeTime": 8980074,
			"suurballePaths": {
				"path0": [
					"37_Fayatteville",
					"36_Wilmington"
				],
				"lat0": 214.000000,
				"nbSeg0": 2,
				"path1": [
					"93_Pensacola",
					"88_Crestview",
					"3_Tallahassee",
					"86_None",
					"8_Ocala",
					"63_Orlando",
					"70_Cocoa_Beach",
					"71_Melbourne",
					"68_Vero_Beach",
					"69_West_Palm_Beach"
				],
				"lat1": 1566.000000,
				"nbSeg1": 3
			},
			"pathsExist": false,
			"runtime": 931164070,
			"nomLat1": 1978.000000,
			"nomLat2": 2401.000000,
			"maxNomLat": 2401.000000,
			"mincut": 7
		},
		{
			"s1": "31_Florence",
			"s2": "5_Valdosta",
			"t1": "16_Hickory",
			"t2": "63_Orlando",
			"suurballeNbPaths": 2,
			"suurballeTime": 1111730058,
			"suurballePaths": {
				"path0": [
					"31_Florence",
					"112_None",
					"99_None",
					"104_Charlotte",
					"16_Hickory"
				],
				"lat0": 764.000000,
				"nbSeg0": 1,
				"path1": [
					"5_Valdosta",
					"4_Lake_City",
					"7_Gainesville",
					"8_Ocala",
					"63_Orlando"
				],
				"lat1": 550.000000,
				"nbSeg1": 3
			},
			"pathsExist": false,
			"runtime": 151418930,
			"nomLat1": 1070.000000,
			"nomLat2": 764.000000,
			"maxNomLat": 1070.000000,
			"mincut": 6
		},
		{
			"s1": "4_Lake_City",
			"s2": "109_San_Marcos",
			"t1": "101_None",
			"t2": "79_Beaufort",
			"suurballeNbPaths": 2,
			"suurballeTime": 678799888,
			"suurballePaths": {
				"path0": [
					"4_Lake_City",
					"6_Jacksonville",
					"81_Savannah",
					"101_None"
				],
				"lat0": 718.000000,
				"nbSeg0": 2,
				"path1": [
					"109_San_Marcos",
					"110_San_Antonia",
					"58_Houston",
					"61_Beaumont",
					"82_Lake_Charles",
					"83_Lafayette",
					"27_Baton_Rouge",
					"24_New_Orleans",
					"95_Gulfport",
					"94_Mobile",
					"55_Montgomery",
					"111_None",
					"47_Atlanta",
					"73_Athens",
					"72_Augusta",
					"75_Columbia",
					"76_Orangeburg",
					"100_None",
					"102_None",
					"79_Beaufort"
				],
				"lat1": 4080.000000,
				"nbSeg1": 4
			},
			"pathsExist": false,
			"runtime": 784281459,
			"nomLat1": 718.000000,
			"nomLat2": 4093.000000,
			"maxNomLat": 4093.000000,
			"mincut": 2
		},
		{
			"s1": "15_Gainesville",
			"s2": "89_Meridian",
			"t1": "53_Sylva",
			"t2": "70_Cocoa_Beach",
			"suurballeNbPaths": 2,
			"suurballeTime": 6713620,
			"suurballePaths": {
				"path0": [
					"15_Gainesville",
					"97_None",
					"60_Greenville",
					"53_Sylva"
				],
				"lat0": 589.000000,
				"nbSeg0": 1,
				"path1": [
					"89_Meridian",
					"96_Hattiesburg",
					"95_Gulfport",
					"94_Mobile",
					"93_Pensacola",
					"88_Crestview",
					"3_Tallahassee",
					"86_None",
					"8_Ocala",
					"63_Orlando",
					"70_Cocoa_Beach"
				],
				"lat1": 1971.000000,
				"nbSeg1": 3
			},
			"pathsExist": false,
			"runtime": 1290586425,
			"nomLat1": 673.000000,
			"nomLat2": 2275.000000,
			"maxNomLat": 2275.000000,
			"mincut": 5
		},
		{
			"s1": "5_Valdosta",
			"s2": "85_None",
			"t1": "26_Vicksburg",
			"t2": "84_None",
			"suurballeNbPaths": 2,
			"suurballeTime": 25309337,
			"suurballePaths": {
				"path0": [
					"5_Valdosta",
					"46_Macon",
					"47_Atlanta",
					"84_None"
				],
				"lat0": 802.000000,
				"nbSeg0": 0,
				"path1": [
					"85_None",
					"63_Orlando",
					"8_Ocala",
					"86_None",
					"3_Tallahassee",
					"88_Crestview",
					"93_Pensacola",
					"94_Mobile",
					"95_Gulfport",
					"24_New_Orleans",
					"25_Jackson",
					"26_Vicksburg"
				],
				"lat1": 2375.000000,
				"nbSeg1": 3
			},
			"pathsExist": false,
			"runtime": 1361735078,
			"nomLat1": 2362.000000,
			"nomLat2": 1715.000000,
			"maxNomLat": 2362.000000,
			"mincut": 5
		},
		{
			"s1": "7_Gainesville",
			"s2": "8_Ocala",
			"t1": "53_Sylva",
			"t2": "65_Ft_Myers",
			"suurballeNbPaths": 2,
			"suurballeTime": 7009312,
			"suurballePaths": {
				"path0": [
					"8_Ocala",
					"0_Tampa",
					"1_Sarasota",
					"65_Ft_Myers"
				],
				"lat0": 537.000000,
				"nbSeg0": 1,
				"path1": [
					"7_Gainesville",
					"4_Lake_City",
					"5_Valdosta",
					"46_Macon",
					"47_Atlanta",
					"60_Greenville",
					"53_Sylva"
				],
				"lat1": 1401.000000,
				"nbSeg1": 3
			},
			"pathsExist": false,
			"runtime": 1307662345,
			"nomLat1": 1540.000000,
			"nomLat2": 1114.000000,
			"maxNomLat": 1540.000000,
			"mincut": 5
		},
		{
			"s1": "107_Bryan",
			"s2": "20_Shreveport",
			"t1": "13_Greensboro",
			"t2": "64_Miami",
			"suurballeNbPaths": 2,
			"suurballeTime": 6636492,
			"suurballePaths": {
				"path0": [
					"20_Shreveport",
					"21_Monroe",
					"26_Vicksburg",
					"25_Jackson",
					"89_Meridian",
					"90_Tuscaloosa",
					"54_Birmingham",
					"111_None",
					"47_Atlanta",
					"60_Greenville",
					"104_Charlotte",
					"11_Lexington",
					"13_Greensboro"
				],
				"lat0": 2469.000000,
				"nbSeg0": 6,
				"path1": [
					"107_Bryan",
					"106_Waco",
					"105_Dallas",
					"23_Longview",
					"20_Shreveport",
					"22_Alexandria",
					"83_Lafayette",
					"27_Baton_Rouge",
					"24_New_Orleans",
					"95_Gulfport",
					"94_Mobile",
					"93_Pensacola",
					"88_Crestview",
					"3_Tallahassee",
					"86_None",
					"8_Ocala",
					"63_Orlando",
					"85_None",
					"66_Fort_Lauderdale",
					"64_Miami"
				],
				"lat1": 3917.000000,
				"nbSeg1": 4
			},
			"pathsExist": false,
			"runtime": 1095677907,
			"nomLat1": 4054.000000,
			"nomLat2": 4071.000000,
			"maxNomLat": 4071.000000,
			"mincut": 2
		},
		{
			"s1": "48_Gadsden",
			"s2": "51_Chattanooga",
			"t1": "11_Lexington",
			"t2": "81_Savannah",
			"suurballeNbPaths": 2,
			"suurballeTime": 4184974,
			"suurballePaths": {
				"path0": [
					"51_Chattanooga",
					"47_Atlanta",
					"73_Athens",
					"72_Augusta",
					"81_Savannah"
				],
				"lat0": 982.000000,
				"nbSeg0": 2,
				"path1": [
					"48_Gadsden",
					"49_Anniston",
					"84_None",
					"47_Atlanta",
					"60_Greenville",
					"104_Charlotte",
					"11_Lexington"
				],
				"lat1": 1269.000000,
				"nbSeg1": 4
			},
			"pathsExist": false,
			"runtime": 1143144408,
			"nomLat1": 1269.000000,
			"nomLat2": 982.000000,
			"maxNomLat": 1269.000000,
			"mincut": 4
		},
		{
			"s1": "101_None",
			"s2": "10_Winston-Salem",
			"t1": "56_Arab",
			"t2": "11_Lexington",
			"suurballeNbPaths": 2,
			"suurballeTime": 6030631,
			"suurballePaths": {
				"path0": [
					"10_Winston-Salem",
					"11_Lexington"
				],
				"lat0": 56.000000,
				"nbSeg0": 0,
				"path1": [
					"101_None",
					"81_Savannah",
					"72_Augusta",
					"73_Athens",
					"47_Atlanta",
					"111_None",
					"54_Birmingham",
					"56_Arab"
				],
				"lat1": 1498.000000,
				"nbSeg1": 2
			},
			"pathsExist": false,
			"runtime": 1149086500,
			"nomLat1": 1498.000000,
			"nomLat2": 56.000000,
			"maxNomLat": 1498.000000,
			"mincut": 6
		},
		{
			"s1": "71_Melbourne",
			"s2": "59_Ashville",
			"t1": "89_Meridian",
			"t2": "11_Lexington",
			"suurballeNbPaths": 2,
			"suurballeTime": 6888391,
			"suurballePaths": {
				"path0": [
					"59_Ashville",
					"60_Greenville",
					"104_Charlotte",
					"11_Lexington"
				],
				"lat0": 541.000000,
				"nbSeg0": 2,
				"path1": [
					"71_Melbourne",
					"70_Cocoa_Beach",
					"63_Orlando",
					"8_Ocala",
					"86_None",
					"3_Tallahassee",
					"88_Crestview",
					"93_Pensacola",
					"94_Mobile",
					"95_Gulfport",
					"96_Hattiesburg",
					"89_Meridian"
				],
				"lat1": 2019.000000,
				"nbSeg1": 3
			},
			"pathsExist": false,
			"runtime": 1166556258,
			"nomLat1": 2323.000000,
			"nomLat2": 541.000000,
			"maxNomLat": 2323.000000,
			"mincut": 4
		},
		{
			"s1": "82_Lake_Charles",
			"s2": "90_Tuscaloosa",
			"t1": "84_None",
			"t2": "47_Atlanta",
			"suurballeNbPaths": 2,
			"suurballeTime": 4188329,
			"suurballePaths": {
				"path0": [
					"90_Tuscaloosa",
					"54_Birmingham",
					"49_Anniston",
					"84_None"
				],
				"lat0": 505.000000,
				"nbSeg0": 0,
				"path1": [
					"82_Lake_Charles",
					"83_Lafayette",
					"27_Baton_Rouge",
					"24_New_Orleans",
					"95_Gulfport",
					"94_Mobile",
					"55_Montgomery",
					"111_None",
					"47_Atlanta"
				],
				"lat1": 1750.000000,
				"nbSeg1": 0
			},
			"pathsExist": false,
			"runtime": 1163569865,
			"nomLat1": 1965.000000,
			"nomLat2": 562.000000,
			"maxNomLat": 1965.000000,
			"mincut": 3
		},
		{
			"s1": "79_Beaufort",
			"s2": "70_Cocoa_Beach",
			"t1": "2_Dothan",
			"t2": "80_Saunt_Augustine",
			"suurballeNbPaths": 2,
			"suurballeTime": 5882711,
			"suurballePaths": {
				"path0": [
					"70_Cocoa_Beach",
					"62_Daytona_Beach",
					"80_Saunt_Augustine"
				],
				"lat0": 323.000000,
				"nbSeg0": 0,
				"path1": [
					"79_Beaufort",
					"102_None",
					"100_None",
					"76_Orangeburg",
					"75_Columbia",
					"72_Augusta",
					"73_Athens",
					"47_Atlanta",
					"111_None",
					"55_Montgomery",
					"2_Dothan"
				],
				"lat1": 2011.000000,
				"nbSeg1": 3
			},
			"pathsExist": false,
			"runtime": 1406007342,
			"nomLat1": 2183.000000,
			"nomLat2": 323.000000,
			"maxNomLat": 2183.000000,
			"mincut": 4
		},
		{
			"s1": "82_Lake_Charles",
			"s2": "41_Auburn",
			"t1": "14_Newnah?",
			"t2": "17_Lagrange?",
			"suurballeNbPaths": 2,
			"suurballeTime": 4149320,
			"suurballePaths": {
				"path0": [
					"41_Auburn",
					"42_Opelika",
					"43_Lagrange",
					"17_Lagrange?"
				],
				"lat0": 122.000000,
				"nbSeg0": 0,
				"path1": [
					"82_Lake_Charles",
					"83_Lafayette",
					"27_Baton_Rouge",
					"24_New_Orleans",
					"95_Gulfport",
					"96_Hattiesburg",
					"89_Meridian",
					"90_Tuscaloosa",
					"54_Birmingham",
					"49_Anniston",
					"84_None",
					"14_Newnah?"
				],
				"lat1": 2084.000000,
				"nbSeg1": 1
			},
			"pathsExist": false,
			"runtime": 1203809241,
			"nomLat1": 2178.000000,
			"nomLat2": 122.000000,
			"maxNomLat": 2178.000000,
			"mincut": 2
		},
		{
			"s1": "101_None",
			"s2": "74_Sumter",
			"t1": "59_Ashville",
			"t2": "103_None",
			"suurballeNbPaths": 2,
			"suurballeTime": 5061086,
			"suurballePaths": {
				"path0": [
					"101_None",
					"81_Savannah",
					"77_Charleston",
					"103_None"
				],
				"lat0": 654.000000,
				"nbSeg0": 2,
				"path1": [
					"74_Sumter",
					"75_Columbia",
					"104_Charlotte",
					"60_Greenville",
					"59_Ashville"
				],
				"lat1": 740.000000,
				"nbSeg1": 4
			},
			"pathsExist": false,
			"runtime": 1218251642,
			"nomLat1": 1429.000000,
			"nomLat2": 213.000000,
			"maxNomLat": 1429.000000,
			"mincut": 5
		},
		{
			"s1": "68_Vero_Beach",
			"s2": "59_Ashville",
			"t1": "63_Orlando",
			"t2": "98_None",
			"suurballeNbPaths": 2,
			"suurballeTime": 5131659,
			"suurballePaths": {
				"path0": [
					"68_Vero_Beach",
					"71_Melbourne",
					"70_Cocoa_Beach",
					"63_Orlando"
				],
				"lat0": 279.000000,
				"nbSeg0": 0,
				"path1": [
					"59_Ashville",
					"60_Greenville",
					"97_None",
					"98_None"
				],
				"lat1": 571.000000,
				"nbSeg1": 0
			},
			"pathsExist": false,
			"runtime": 1453163652,
			"nomLat1": 279.000000,
			"nomLat2": 571.000000,
			"maxNomLat": 571.000000,
			"mincut": 4
		},
		{
			"s1": "17_Lagrange?",
			"s2": "58_Houston",
			"t1": "66_Fort_Lauderdale",
			"t2": "74_Sumter",
			"suurballeNbPaths": 2,
			"suurballeTime": 5368025,
			"suurballePaths": {
				"path0": [
					"17_Lagrange?",
					"14_Newnah?",
					"84_None",
					"47_Atlanta",
					"73_Athens",
					"72_Augusta",
					"75_Columbia",
					"74_Sumter"
				],
				"lat0": 1198.000000,
				"nbSeg0": 2,
				"path1": [
					"58_Houston",
					"61_Beaumont",
					"82_Lake_Charles",
					"83_Lafayette",
					"27_Baton_Rouge",
					"24_New_Orleans",
					"95_Gulfport",
					"94_Mobile",
					"93_Pensacola",
					"88_Crestview",
					"3_Tallahassee",
					"86_None",
					"8_Ocala",
					"63_Orlando",
					"85_None",
					"66_Fort_Lauderdale"
				],
				"lat1": 2945.000000,
				"nbSeg1": 2
			},
			"pathsExist": false,
			"runtime": 1301524459,
			"nomLat1": 1819.000000,
			"nomLat2": 3083.000000,
			"maxNomLat": 3083.000000,
			"mincut": 4
		},
		{
			"s1": "62_Daytona_Beach",
			"s2": "63_Orlando",
			"t1": "92_Memphis",
			"t2": "37_Fayatteville",
			"suurballeNbPaths": 2,
			"suurballeTime": 4551422,
			"suurballePaths": {
				"path0": [
					"62_Daytona_Beach",
					"6_Jacksonville",
					"81_Savannah",
					"77_Charleston",
					"30_Myrtle_Beach",
					"31_Florence",
					"37_Fayatteville"
				],
				"lat0": 1425.000000,
				"nbSeg0": 3,
				"path1": [
					"63_Orlando",
					"8_Ocala",
					"7_Gainesville",
					"4_Lake_City",
					"5_Valdosta",
					"46_Macon",
					"47_Atlanta",
					"51_Chattanooga",
					"50_Nashville",
					"91_Jackson",
					"92_Memphis"
				],
				"lat1": 2266.000000,
				"nbSeg1": 4
			},
			"pathsExist": false,
			"runtime": 1309527953,
			"nomLat1": 2416.000000,
			"nomLat2": 2338.000000,
			"maxNomLat": 2416.000000,
			"mincut": 4
		},
		{
			"s1": "40_Alexander_City",
			"s2": "17_Lagrange?",
			"t1": "51_Chattanooga",
			"t2": "37_Fayatteville",
			"suurballeNbPaths": 2,
			"suurballeTime": 4129687,
			"suurballePaths": {
				"path0": [
					"40_Alexander_City",
					"49_Anniston",
					"48_Gadsden",
					"57_Huntsville",
					"50_Nashville",
					"51_Chattanooga"
				],
				"lat0": 957.000000,
				"nbSeg0": 1,
				"path1": [
					"17_Lagrange?",
					"14_Newnah?",
					"84_None",
					"47_Atlanta",
					"60_Greenville",
					"104_Charlotte",
					"19_Raleigh",
					"37_Fayatteville"
				],
				"lat1": 1620.000000,
				"nbSeg1": 6
			},
			"pathsExist": false,
			"runtime": 1340729760,
			"nomLat1": 847.000000,
			"nomLat2": 1620.000000,
			"maxNomLat": 1620.000000,
			"mincut": 3
		},
		{
			"s1": "2_Dothan",
			"s2": "22_Alexandria",
			"t1": "63_Orlando",
			"t2": "74_Sumter",
			"suurballeNbPaths": 2,
			"suurballeTime": 4207294,
			"suurballePaths": {
				"path0": [
					"2_Dothan",
					"55_Montgomery",
					"111_None",
					"47_Atlanta",
					"73_Athens",
					"72_Augusta",
					"75_Columbia",
					"74_Sumter"
				],
				"lat0": 1381.000000,
				"nbSeg0": 2,
				"path1": [
					"22_Alexandria",
					"83_Lafayette",
					"27_Baton_Rouge",
					"24_New_Orleans",
					"95_Gulfport",
					"94_Mobile",
					"93_Pensacola",
					"88_Crestview",
					"3_Tallahassee",
					"86_None",
					"8_Ocala",
					"63_Orlando"
				],
				"lat1": 2176.000000,
				"nbSeg1": 2
			},
			"pathsExist": false,
			"runtime": 1340517580,
			"nomLat1": 1371.000000,
			"nomLat2": 2740.000000,
			"maxNomLat": 2740.000000,
			"mincut": 4
		},
		{
			"s1": "86_None",
			"s2": "66_Fort_Lauderdale",
			"t1": "106_Waco",
			"t2": "27_Baton_Rouge",
			"suurballeNbPaths": 2,
			"suurballeTime": 4638794,
			"suurballePaths": {
				"path0": [
					"86_None",
					"3_Tallahassee",
					"88_Crestview",
					"93_Pensacola",
					"94_Mobile",
					"95_Gulfport",
					"24_New_Orleans",
					"27_Baton_Rouge"
				],
				"lat0": 1420.000000,
				"nbSeg0": 0,
				"path1": [
					"66_Fort_Lauderdale",
					"85_None",
					"63_Orlando",
					"8_Ocala",
					"7_Gainesville",
					"4_Lake_City",
					"5_Valdosta",
					"46_Macon",
					"47_Atlanta",
					"111_None",
					"54_Birmingham",
					"90_Tuscaloosa",
					"89_Meridian",
					"25_Jackson",
					"26_Vicksburg",
					"21_Monroe",
					"20_Shreveport",
					"23_Longview",
					"105_Dallas",
					"106_Waco"
				],
				"lat1": 3907.000000,
				"nbSeg1": 5
			},
			"pathsExist": false,
			"runtime": 1339271935,
			"nomLat1": 3793.000000,
			"nomLat2": 2496.000000,
			"maxNomLat": 3793.000000,
			"mincut": 2
		},
		{
			"s1": "4_Lake_City",
			"s2": "6_Jacksonville",
			"t1": "48_Gadsden",
			"t2": "50_Nashville",
			"suurballeNbPaths": 2,
			"suurballeTime": 4071970,
			"suurballePaths": {
				"path0": [
					"4_Lake_City",
					"5_Valdosta",
					"46_Macon",
					"47_Atlanta",
					"51_Chattanooga",
					"50_Nashville"
				],
				"lat0": 1341.000000,
				"nbSeg0": 1,
				"path1": [
					"6_Jacksonville",
					"4_Lake_City",
					"3_Tallahassee",
					"45_Albany",
					"43_Lagrange",
					"42_Opelika",
					"41_Auburn",
					"40_Alexander_City",
					"49_Anniston",
					"48_Gadsden"
				],
				"lat1": 1391.000000,
				"nbSeg1": 5
			},
			"pathsExist": false,
			"runtime": 1360728316,
			"nomLat1": 1390.000000,
			"nomLat2": 1644.000000,
			"maxNomLat": 1644.000000,
			"mincut": 5
		},
		{
			"s1": "72_Augusta",
			"s2": "14_Newnah?",
			"t1": "40_Alexander_City",
			"t2": "3_Tallahassee",
			"suurballeNbPaths": 2,
			"suurballeTime": 5250124,
			"suurballePaths": {
				"path0": [
					"72_Augusta",
					"73_Athens",
					"47_Atlanta",
					"3_Tallahassee"
				],
				"lat0": 1022.000000,
				"nbSeg0": 0,
				"path1": [
					"14_Newnah?",
					"17_Lagrange?",
					"43_Lagrange",
					"42_Opelika",
					"41_Auburn",
					"40_Alexander_City"
				],
				"lat1": 300.000000,
				"nbSeg1": 1
			},
			"pathsExist": false,
			"runtime": 1369744755,
			"nomLat1": 968.000000,
			"nomLat2": 1044.000000,
			"maxNomLat": 1044.000000,
			"mincut": 6
		},
		{
			"s1": "95_Gulfport",
			"s2": "100_None",
			"t1": "93_Pensacola",
			"t2": "96_Hattiesburg",
			"suurballeNbPaths": 2,
			"suurballeTime": 4354231,
			"suurballePaths": {
				"path0": [
					"95_Gulfport",
					"96_Hattiesburg"
				],
				"lat0": 185.000000,
				"nbSeg0": 0,
				"path1": [
					"100_None",
					"77_Charleston",
					"81_Savannah",
					"6_Jacksonville",
					"4_Lake_City",
					"3_Tallahassee",
					"88_Crestview",
					"93_Pensacola"
				],
				"lat1": 1716.000000,
				"nbSeg1": 6
			},
			"pathsExist": false,
			"runtime": 1403372809,
			"nomLat1": 329.000000,
			"nomLat2": 2384.000000,
			"maxNomLat": 2384.000000,
			"mincut": 4
		},
		{
			"s1": "99_None",
			"s2": "104_Charlotte",
			"t1": "105_Dallas",
			"t2": "54_Birmingham",
			"suurballeNbPaths": 2,
			"suurballeTime": 4507402,
			"suurballePaths": {
				"path0": [
					"104_Charlotte",
					"60_Greenville",
					"47_Atlanta",
					"111_None",
					"54_Birmingham"
				],
				"lat0": 1048.000000,
				"nbSeg0": 4,
				"path1": [
					"99_None",
					"98_None",
					"73_Athens",
					"47_Atlanta",
					"84_None",
					"49_Anniston",
					"54_Birmingham"
				],
				"lat1": 1173.000000,
				"nbSeg1": 2
			},
			"pathsExist": false,
			"runtime": 1385588845,
			"nomLat1": 3558.000000,
			"nomLat2": 1048.000000,
			"maxNomLat": 3558.000000,
			"mincut": 5
		},
		{
			"s1": "99_None",
			"s2": "112_None",
			"t1": "7_Gainesville",
			"t2": "2_Dothan",
			"suurballeNbPaths": 2,
			"suurballeTime": 4147583,
			"suurballePaths": {
				"path0": [
					"99_None",
					"98_None",
					"73_Athens",
					"47_Atlanta",
					"111_None",
					"55_Montgomery",
					"2_Dothan"
				],
				"lat0": 1277.000000,
				"nbSeg0": 1,
				"path1": [
					"112_None",
					"74_Sumter",
					"75_Columbia",
					"72_Augusta",
					"81_Savannah",
					"6_Jacksonville",
					"4_Lake_City",
					"7_Gainesville"
				],
				"lat1": 1420.000000,
				"nbSeg1": 6
			},
			"pathsExist": false,
			"runtime": 1458546228,
			"nomLat1": 1840.000000,
			"nomLat2": 1734.000000,
			"maxNomLat": 1840.000000,
			"mincut": 4
		},
		{
			"s1": "77_Charleston",
			"s2": "80_Saunt_Augustine",
			"t1": "106_Waco",
			"t2": "83_Lafayette",
			"suurballeNbPaths": 2,
			"suurballeTime": 5331025,
			"suurballePaths": {
				"path0": [
					"80_Saunt_Augustine",
					"6_Jacksonville",
					"4_Lake_City",
					"3_Tallahassee",
					"88_Crestview",
					"93_Pensacola",
					"94_Mobile",
					"95_Gulfport",
					"24_New_Orleans",
					"27_Baton_Rouge",
					"83_Lafayette"
				],
				"lat0": 1893.000000,
				"nbSeg0": 4,
				"path1": [
					"77_Charleston",
					"81_Savannah",
					"72_Augusta",
					"73_Athens",
					"47_Atlanta",
					"111_None",
					"54_Birmingham",
					"90_Tuscaloosa",
					"89_Meridian",
					"25_Jackson",
					"26_Vicksburg",
					"21_Monroe",
					"20_Shreveport",
					"23_Longview",
					"105_Dallas",
					"106_Waco"
				],
				"lat1": 3269.000000,
				"nbSeg1": 5
			},
			"pathsExist": false,
			"runtime": 1388876104,
			"nomLat1": 3889.000000,
			"nomLat2": 1893.000000,
			"maxNomLat": 3889.000000,
			"mincut": 2
		},
		{
			"s1": "21_Monroe",
			"s2": "37_Fayatteville",
			"t1": "3_Tallahassee",
			"t2": "26_Vicksburg",
			"suurballeNbPaths": 2,
			"suurballeTime": 4891464,
			"suurballePaths": {
				"path0": [
					"21_Monroe",
					"26_Vicksburg"
				],
				"lat0": 201.000000,
				"nbSeg0": 0,
				"path1": [
					"37_Fayatteville",
					"31_Florence",
					"30_Myrtle_Beach",
					"77_Charleston",
					"81_Savannah",
					"6_Jacksonville",
					"4_Lake_City",
					"3_Tallahassee"
				],
				"lat1": 1624.000000,
				"nbSeg1": 7
			},
			"pathsExist": false,
			"runtime": 1422578901,
			"nomLat1": 2592.000000,
			"nomLat2": 2890.000000,
			"maxNomLat": 2890.000000,
			"mincut": 7
		},
		{
			"s1": "69_West_Palm_Beach",
			"s2": "1_Sarasota",
			"t1": "66_Fort_Lauderdale",
			"t2": "89_Meridian",
			"suurballeNbPaths": 2,
			"suurballeTime": 6312308,
			"suurballePaths": {
				"path0": [
					"69_West_Palm_Beach",
					"66_Fort_Lauderdale"
				],
				"lat0": 115.000000,
				"nbSeg0": 0,
				"path1": [
					"1_Sarasota",
					"0_Tampa",
					"8_Ocala",
					"86_None",
					"3_Tallahassee",
					"88_Crestview",
					"93_Pensacola",
					"94_Mobile",
					"95_Gulfport",
					"96_Hattiesburg",
					"89_Meridian"
				],
				"lat1": 2015.000000,
				"nbSeg1": 1
			},
			"pathsExist": true,
			"path1": [
				"69_West_Palm_Beach",
				"66_Fort_Lauderdale"
			],
			"lat1": 115.000000,
			"path2": [
				"1_Sarasota",
				"89_Meridian"
			],
			"lat2": 2205.000000,
			"maxlat": 2205.000000,
			"runtime": 1416258879,
			"nomLat1": 115.000000,
			"nomLat2": 2205.000000,
			"maxNomLat": 2205.000000,
			"mincut": 4
		},
		{
			"s1": "70_Cocoa_Beach",
			"s2": "104_Charlotte",
			"t1": "3_Tallahassee",
			"t2": "66_Fort_Lauderdale",
			"suurballeNbPaths": 2,
			"suurballeTime": 5286732,
			"suurballePaths": {
				"path0": [
					"104_Charlotte",
					"60_Greenville",
					"47_Atlanta",
					"3_Tallahassee"
				],
				"lat0": 1240.000000,
				"nbSeg0": 4,
				"path1": [
					"70_Cocoa_Beach",
					"71_Melbourne",
					"68_Vero_Beach",
					"69_West_Palm_Beach",
					"66_Fort_Lauderdale"
				],
				"lat1": 442.000000,
				"nbSeg1": 1
			},
			"pathsExist": false,
			"runtime": 1393983286,
			"nomLat1": 854.000000,
			"nomLat2": 1710.000000,
			"maxNomLat": 1710.000000,
			"mincut": 8
		},
		{
			"s1": "72_Augusta",
			"s2": "11_Lexington",
			"t1": "81_Savannah",
			"t2": "74_Sumter",
			"suurballeNbPaths": 2,
			"suurballeTime": 6231011,
			"suurballePaths": {
				"path0": [
					"72_Augusta",
					"81_Savannah"
				],
				"lat0": 295.000000,
				"nbSeg0": 2,
				"path1": [
					"11_Lexington",
					"104_Charlotte",
					"75_Columbia",
					"74_Sumter"
				],
				"lat1": 491.000000,
				"nbSeg1": 2
			},
			"pathsExist": true,
			"path1": [
				"72_Augusta",
				"81_Savannah"
			],
			"lat1": 295.000000,
			"path2": [
				"11_Lexington",
				"99_None",
				"74_Sumter"
			],
			"lat2": 785.000000,
			"maxlat": 785.000000,
			"runtime": 1389738814,
			"nomLat1": 295.000000,
			"nomLat2": 491.000000,
			"maxNomLat": 491.000000,
			"mincut": 9
		},
		{
			"s1": "42_Opelika",
			"s2": "13_Greensboro",
			"t1": "84_None",
			"t2": "98_None",
			"suurballeNbPaths": 2,
			"suurballeTime": 5496806,
			"suurballePaths": {
				"path0": [
					"42_Opelika",
					"43_Lagrange",
					"17_Lagrange?",
					"14_Newnah?",
					"84_None"
				],
				"lat0": 390.000000,
				"nbSeg0": 1,
				"path1": [
					"13_Greensboro",
					"11_Lexington",
					"104_Charlotte",
					"99_None",
					"98_None"
				],
				"lat1": 660.000000,
				"nbSeg1": 1
			},
			"pathsExist": false,
			"runtime": 1409253121,
			"nomLat1": 474.000000,
			"nomLat2": 688.000000,
			"maxNomLat": 688.000000,
			"mincut": 5
		},
		{
			"s1": "14_Newnah?",
			"s2": "40_Alexander_City",
			"t1": "112_None",
			"t2": "105_Dallas",
			"suurballeNbPaths": 2,
			"suurballeTime": 4191187,
			"suurballePaths": {
				"path0": [
					"14_Newnah?",
					"84_None",
					"47_Atlanta",
					"73_Athens",
					"98_None",
					"99_None",
					"112_None"
				],
				"lat0": 1230.000000,
				"nbSeg0": 1,
				"path1": [
					"40_Alexander_City",
					"49_Anniston",
					"54_Birmingham",
					"90_Tuscaloosa",
					"89_Meridian",
					"25_Jackson",
					"26_Vicksburg",
					"21_Monroe",
					"20_Shreveport",
					"23_Longview",
					"105_Dallas"
				],
				"lat1": 1971.000000,
				"nbSeg1": 0
			},
			"pathsExist": false,
			"runtime": 1401428131,
			"nomLat1": 1474.000000,
			"nomLat2": 1971.000000,
			"maxNomLat": 1971.000000,
			"mincut": 3
		},
		{
			"s1": "14_Newnah?",
			"s2": "40_Alexander_City",
			"t1": "49_Anniston",
			"t2": "1_Sarasota",
			"suurballeNbPaths": 2,
			"suurballeTime": 5628750,
			"suurballePaths": {
				"path0": [
					"40_Alexander_City",
					"49_Anniston"
				],
				"lat0": 138.000000,
				"nbSeg0": 0,
				"path1": [
					"14_Newnah?",
					"17_Lagrange?",
					"43_Lagrange",
					"45_Albany",
					"3_Tallahassee",
					"86_None",
					"8_Ocala",
					"0_Tampa",
					"1_Sarasota"
				],
				"lat1": 1391.000000,
				"nbSeg1": 1
			},
			"pathsExist": false,
			"runtime": 1398906756,
			"nomLat1": 426.000000,
			"nomLat2": 1966.000000,
			"maxNomLat": 1966.000000,
			"mincut": 3
		},
		{
			"s1": "109_San_Marcos",
			"s2": "49_Anniston",
			"t1": "85_None",
			"t2": "29_Little_Rock",
			"suurballeNbPaths": 2,
			"suurballeTime": 4116752,
			"suurballePaths": {
				"path0": [
					"49_Anniston",
					"40_Alexander_City",
					"41_Auburn",
					"42_Opelika",
					"43_Lagrange",
					"45_Albany",
					"3_Tallahassee",
					"86_None",
					"8_Ocala",
					"63_Orlando",
					"85_None"
				],
				"lat0": 1697.000000,
				"nbSeg0": 3,
				"path1": [
					"109_San_Marcos",
					"108_Austin",
					"107_Bryan",
					"106_Waco",
					"105_Dallas",
					"23_Longview",
					"20_Shreveport",
					"21_Monroe",
					"26_Vicksburg",
					"25_Jackson",
					"28_Pine_Bluff",
					"29_Little_Rock"
				],
				"lat1": 2397.000000,
				"nbSeg1": 3
			},
			"pathsExist": false,
			"runtime": 1450669144,
			"nomLat1": 3439.000000,
			"nomLat2": 1656.000000,
			"maxNomLat": 3439.000000,
			"mincut": 5
		},
		{
			"s1": "94_Mobile",
			"s2": "95_Gulfport",
			"t1": "103_None",
			"t2": "76_Orangeburg",
			"suurballeNbPaths": 2,
			"suurballeTime": 7536751,
			"suurballePaths": {
				"path0": [
					"94_Mobile",
					"55_Montgomery",
					"111_None",
					"47_Atlanta",
					"73_Athens",
					"72_Augusta",
					"75_Columbia",
					"76_Orangeburg"
				],
				"lat0": 1531.000000,
				"nbSeg0": 2,
				"path1": [
					"95_Gulfport",
					"94_Mobile",
					"93_Pensacola",
					"88_Crestview",
					"3_Tallahassee",
					"4_Lake_City",
					"6_Jacksonville",
					"81_Savannah",
					"77_Charleston",
					"103_None"
				],
				"lat1": 2045.000000,
				"nbSeg1": 6
			},
			"pathsExist": false,
			"runtime": 1442203998,
			"nomLat1": 2025.000000,
			"nomLat2": 1986.000000,
			"maxNomLat": 2025.000000,
			"mincut": 4
		}
	],
	"demandsWithSol": 6
}
