{
	"nbDemands": 100,
	"demands": [
		{
			"s1": "152_Malesovice",
			"s2": "187_Sachotin",
			"t1": "138_Hradec_Kralove",
			"t2": "173_None",
			"suurballeNbPaths": 2,
			"suurballeTime": 768051915,
			"suurballePaths": {
				"path0": [
					"187_Sachotin",
					"139_Pardubice",
					"138_Hradec_Kralove"
				],
				"lat0": 132.000000,
				"nbSeg0": 0,
				"path1": [
					"152_Malesovice",
					"153_Uhercice_-_V.Nemcice",
					"148_Hustopece",
					"147_V._Pavlovice",
					"149_Breclav",
					"173_None"
				],
				"lat1": 127.000000,
				"nbSeg1": 0
			},
			"pathsExist": false,
			"runtime": 597931763,
			"nomLat1": 333.000000,
			"nomLat2": 328.000000,
			"maxNomLat": 333.000000,
			"mincut": 4
		},
		{
			"s1": "122_Jemniste",
			"s2": "80_Pozden",
			"t1": "181_Hefmanec",
			"t2": "10_Ceska_Lipa",
			"suurballeNbPaths": 2,
			"suurballeTime": 1278853696,
			"suurballePaths": {
				"path0": [
					"80_Pozden",
					"62_Hospozin",
					"88_Pocedelice",
					"82_Bylany",
					"89_Most",
					"11_Usti_nad_Labem",
					"10_Ceska_Lipa"
				],
				"lat0": 252.000000,
				"nbSeg0": 0,
				"path1": [
					"122_Jemniste",
					"125_Zvestov",
					"124_Hostisov",
					"126_Doubravice",
					"129_Brzina",
					"128_Kamyk",
					"131_Velka",
					"23_Haje",
					"20_Kasejovice",
					"26_Strazovice",
					"28_Chrastovice",
					"58_Budicovice",
					"53_Horami",
					"169_None",
					"59_Zverkovice",
					"56_Tritim",
					"50_Veself_nad_Luznici",
					"183_Dolni_Radoun",
					"181_Hefmanec"
				],
				"lat1": 549.000000,
				"nbSeg1": 0
			},
			"pathsExist": false,
			"runtime": 367589842,
			"nomLat1": 549.000000,
			"nomLat2": 252.000000,
			"maxNomLat": 549.000000,
			"mincut": 3
		},
		{
			"s1": "98_Trstenice",
			"s2": "181_Hefmanec",
			"t1": "164_Libhost",
			"t2": "151_Ivancice",
			"suurballeNbPaths": 2,
			"suurballeTime": 925763134,
			"suurballePaths": {
				"path0": [
					"98_Trstenice",
					"152_Malesovice",
					"146_None",
					"42_Brno3",
					"40_Vyskov",
					"41_Proslejov",
					"46_Olomouc",
					"172_None",
					"164_Libhost"
				],
				"lat0": 316.000000,
				"nbSeg0": 0,
				"path1": [
					"181_Hefmanec",
					"180_Dacice",
					"179_Kninice",
					"143_KS_Hostim",
					"186_Jihlava",
					"187_Sachotin",
					"190_Cerna",
					"191_Brezejc",
					"192_Kralice",
					"151_Ivancice"
				],
				"lat1": 369.000000,
				"nbSeg1": 1
			},
			"pathsExist": false,
			"runtime": 621341964,
			"nomLat1": 316.000000,
			"nomLat2": 219.000000,
			"maxNomLat": 316.000000,
			"mincut": 3
		},
		{
			"s1": "110_Mladotice",
			"s2": "186_Jihlava",
			"t1": "31_Liberec",
			"t2": "28_Chrastovice",
			"suurballeNbPaths": 2,
			"suurballeTime": 935091695,
			"suurballePaths": {
				"path0": [
					"186_Jihlava",
					"187_Sachotin",
					"139_Pardubice",
					"138_Hradec_Kralove",
					"38_Robousy",
					"31_Liberec"
				],
				"lat0": 315.000000,
				"nbSeg0": 0,
				"path1": [
					"110_Mladotice",
					"170_None",
					"93_Plzen",
					"90_Stribro",
					"95_Bor",
					"94_Rozvadov",
					"25_Melnice",
					"100_Hlohova",
					"27_Hraz",
					"26_Strazovice",
					"28_Chrastovice"
				],
				"lat1": 383.000000,
				"nbSeg1": 0
			},
			"pathsExist": false,
			"runtime": 515684514,
			"nomLat1": 417.000000,
			"nomLat2": 461.000000,
			"maxNomLat": 461.000000,
			"mincut": 4
		},
		{
			"s1": "83_Chomutov",
			"s2": "26_Strazovice",
			"t1": "104_Karlovy_Vary",
			"t2": "93_Plzen",
			"suurballeNbPaths": 2,
			"suurballeTime": 768668043,
			"suurballePaths": {
				"path0": [
					"83_Chomutov",
					"104_Karlovy_Vary"
				],
				"lat0": 82.000000,
				"nbSeg0": 0,
				"path1": [
					"26_Strazovice",
					"27_Hraz",
					"100_Hlohova",
					"25_Melnice",
					"94_Rozvadov",
					"95_Bor",
					"90_Stribro",
					"93_Plzen"
				],
				"lat1": 268.000000,
				"nbSeg1": 0
			},
			"pathsExist": false,
			"runtime": 810796125,
			"nomLat1": 82.000000,
			"nomLat2": 268.000000,
			"maxNomLat": 268.000000,
			"mincut": 3
		},
		{
			"s1": "68_Kladno",
			"s2": "147_V._Pavlovice",
			"t1": "61_Zajecice",
			"t2": "131_Velka",
			"suurballeNbPaths": 2,
			"suurballeTime": 1466004282,
			"suurballePaths": {
				"path0": [
					"68_Kladno",
					"67_Praha",
					"69_Hajek",
					"168_None",
					"61_Zajecice"
				],
				"lat0": 146.000000,
				"nbSeg0": 0,
				"path1": [
					"147_V._Pavlovice",
					"148_Hustopece",
					"153_Uhercice_-_V.Nemcice",
					"152_Malesovice",
					"98_Trstenice",
					"143_KS_Hostim",
					"179_Kninice",
					"180_Dacice",
					"181_Hefmanec",
					"183_Dolni_Radoun",
					"50_Veself_nad_Luznici",
					"56_Tritim",
					"59_Zverkovice",
					"169_None",
					"53_Horami",
					"58_Budicovice",
					"28_Chrastovice",
					"26_Strazovice",
					"20_Kasejovice",
					"23_Haje",
					"131_Velka"
				],
				"lat1": 677.000000,
				"nbSeg1": 0
			},
			"pathsExist": false,
			"runtime": 337727368,
			"nomLat1": 146.000000,
			"nomLat2": 677.000000,
			"maxNomLat": 677.000000,
			"mincut": 2
		},
		{
			"s1": "27_Hraz",
			"s2": "167_None",
			"t1": "192_Kralice",
			"t2": "69_Hajek",
			"suurballeNbPaths": 2,
			"suurballeTime": 759548179,
			"suurballePaths": {
				"path0": [
					"167_None",
					"91_Svinomazy",
					"170_None",
					"110_Mladotice",
					"103_Sosen",
					"66_Krupa",
					"80_Pozden",
					"62_Hospozin",
					"145_None",
					"67_Praha",
					"69_Hajek"
				],
				"lat0": 342.000000,
				"nbSeg0": 0,
				"path1": [
					"27_Hraz",
					"26_Strazovice",
					"28_Chrastovice",
					"58_Budicovice",
					"53_Horami",
					"169_None",
					"59_Zverkovice",
					"56_Tritim",
					"50_Veself_nad_Luznici",
					"183_Dolni_Radoun",
					"181_Hefmanec",
					"180_Dacice",
					"179_Kninice",
					"143_KS_Hostim",
					"98_Trstenice",
					"152_Malesovice",
					"151_Ivancice",
					"192_Kralice"
				],
				"lat1": 600.000000,
				"nbSeg1": 0
			},
			"pathsExist": false,
			"runtime": 480440797,
			"nomLat1": 600.000000,
			"nomLat2": 342.000000,
			"maxNomLat": 600.000000,
			"mincut": 3
		},
		{
			"s1": "192_Kralice",
			"s2": "110_Mladotice",
			"t1": "172_None",
			"t2": "170_None",
			"suurballeNbPaths": 2,
			"suurballeTime": 1533900711,
			"suurballePaths": {
				"path0": [
					"110_Mladotice",
					"170_None"
				],
				"lat0": 36.000000,
				"nbSeg0": 0,
				"path1": [
					"192_Kralice",
					"151_Ivancice",
					"146_None",
					"42_Brno3",
					"40_Vyskov",
					"41_Proslejov",
					"46_Olomouc",
					"172_None"
				],
				"lat1": 271.000000,
				"nbSeg1": 0
			},
			"pathsExist": false,
			"runtime": 334641171,
			"nomLat1": 271.000000,
			"nomLat2": 36.000000,
			"maxNomLat": 271.000000,
			"mincut": 4
		},
		{
			"s1": "159_Bukovany",
			"s2": "129_Brzina",
			"t1": "38_Robousy",
			"t2": "190_Cerna",
			"suurballeNbPaths": 2,
			"suurballeTime": 1072068915,
			"suurballePaths": {
				"path0": [
					"159_Bukovany",
					"156_Mutenico",
					"155_Tvrdonice",
					"173_None",
					"149_Breclav",
					"147_V._Pavlovice",
					"148_Hustopece",
					"153_Uhercice_-_V.Nemcice",
					"152_Malesovice",
					"151_Ivancice",
					"192_Kralice",
					"191_Brezejc",
					"190_Cerna"
				],
				"lat0": 355.000000,
				"nbSeg0": 0,
				"path1": [
					"129_Brzina",
					"126_Doubravice",
					"124_Hostisov",
					"125_Zvestov",
					"122_Jemniste",
					"61_Zajecice",
					"168_None",
					"69_Hajek",
					"67_Praha",
					"145_None",
					"62_Hospozin",
					"88_Pocedelice",
					"82_Bylany",
					"89_Most",
					"11_Usti_nad_Labem",
					"10_Ceska_Lipa",
					"31_Liberec",
					"38_Robousy"
				],
				"lat1": 674.000000,
				"nbSeg1": 0
			},
			"pathsExist": false,
			"runtime": 483001363,
			"nomLat1": 690.000000,
			"nomLat2": 562.000000,
			"maxNomLat": 690.000000,
			"mincut": 4
		},
		{
			"s1": "148_Hustopece",
			"s2": "144_None",
			"t1": "61_Zajecice",
			"t2": "147_V._Pavlovice",
			"suurballeNbPaths": 2,
			"suurballeTime": 1593376341,
			"suurballePaths": {
				"path0": [
					"148_Hustopece",
					"147_V._Pavlovice"
				],
				"lat0": 16.000000,
				"nbSeg0": 0,
				"path1": [
					"144_None",
					"70_Radonice",
					"67_Praha",
					"69_Hajek",
					"168_None",
					"61_Zajecice"
				],
				"lat1": 167.000000,
				"nbSeg1": 1
			},
			"pathsExist": false,
			"runtime": 272322762,
			"nomLat1": 632.000000,
			"nomLat2": 478.000000,
			"maxNomLat": 632.000000,
			"mincut": 4
		},
		{
			"s1": "168_None",
			"s2": "95_Bor",
			"t1": "192_Kralice",
			"t2": "41_Proslejov",
			"suurballeNbPaths": 2,
			"suurballeTime": 1286975686,
			"suurballePaths": {
				"path0": [
					"168_None",
					"69_Hajek",
					"67_Praha",
					"70_Radonice",
					"144_None",
					"71_Tuklaty",
					"72_Limuzy",
					"73_KS_Kourim",
					"132_Jindice",
					"135_Vilemovice",
					"134_Vrbice",
					"137_Olesna",
					"187_Sachotin",
					"190_Cerna",
					"191_Brezejc",
					"192_Kralice"
				],
				"lat0": 457.000000,
				"nbSeg0": 1,
				"path1": [
					"95_Bor",
					"94_Rozvadov",
					"25_Melnice",
					"100_Hlohova",
					"27_Hraz",
					"26_Strazovice",
					"28_Chrastovice",
					"58_Budicovice",
					"53_Horami",
					"169_None",
					"59_Zverkovice",
					"56_Tritim",
					"50_Veself_nad_Luznici",
					"183_Dolni_Radoun",
					"181_Hefmanec",
					"180_Dacice",
					"179_Kninice",
					"143_KS_Hostim",
					"98_Trstenice",
					"152_Malesovice",
					"146_None",
					"42_Brno3",
					"40_Vyskov",
					"41_Proslejov"
				],
				"lat1": 859.000000,
				"nbSeg1": 0
			},
			"pathsExist": false,
			"runtime": 536498215,
			"nomLat1": 460.000000,
			"nomLat2": 859.000000,
			"maxNomLat": 859.000000,
			"mincut": 3
		},
		{
			"s1": "124_Hostisov",
			"s2": "121_Sumperk",
			"t1": "41_Proslejov",
			"t2": "169_None",
			"suurballeNbPaths": 2,
			"suurballeTime": 793898043,
			"suurballePaths": {
				"path0": [
					"121_Sumperk",
					"117_Bruntal",
					"115_Opava",
					"1_Ostrava",
					"171_None",
					"2_Chlebovice",
					"164_Libhost",
					"172_None",
					"46_Olomouc",
					"41_Proslejov"
				],
				"lat0": 381.000000,
				"nbSeg0": 0,
				"path1": [
					"124_Hostisov",
					"126_Doubravice",
					"129_Brzina",
					"128_Kamyk",
					"131_Velka",
					"23_Haje",
					"20_Kasejovice",
					"26_Strazovice",
					"28_Chrastovice",
					"58_Budicovice",
					"53_Horami",
					"169_None"
				],
				"lat1": 340.000000,
				"nbSeg1": 0
			},
			"pathsExist": false,
			"runtime": 879759056,
			"nomLat1": 841.000000,
			"nomLat2": 681.000000,
			"maxNomLat": 841.000000,
			"mincut": 4
		},
		{
			"s1": "137_Olesna",
			"s2": "183_Dolni_Radoun",
			"t1": "172_None",
			"t2": "88_Pocedelice",
			"suurballeNbPaths": 2,
			"suurballeTime": 887990301,
			"suurballePaths": {
				"path0": [
					"137_Olesna",
					"134_Vrbice",
					"135_Vilemovice",
					"132_Jindice",
					"73_KS_Kourim",
					"72_Limuzy",
					"71_Tuklaty",
					"144_None",
					"79_Brazdim",
					"63_Zlosyn",
					"64_Nove_Ouholice",
					"62_Hospozin",
					"88_Pocedelice"
				],
				"lat0": 331.000000,
				"nbSeg0": 1,
				"path1": [
					"183_Dolni_Radoun",
					"181_Hefmanec",
					"180_Dacice",
					"179_Kninice",
					"143_KS_Hostim",
					"98_Trstenice",
					"152_Malesovice",
					"146_None",
					"42_Brno3",
					"40_Vyskov",
					"41_Proslejov",
					"46_Olomouc",
					"172_None"
				],
				"lat1": 472.000000,
				"nbSeg1": 0
			},
			"pathsExist": false,
			"runtime": 416430038,
			"nomLat1": 473.000000,
			"nomLat2": 794.000000,
			"maxNomLat": 794.000000,
			"mincut": 4
		},
		{
			"s1": "95_Bor",
			"s2": "187_Sachotin",
			"t1": "190_Cerna",
			"t2": "58_Budicovice",
			"suurballeNbPaths": 2,
			"suurballeTime": 967829226,
			"suurballePaths": {
				"path0": [
					"187_Sachotin",
					"190_Cerna"
				],
				"lat0": 36.000000,
				"nbSeg0": 0,
				"path1": [
					"95_Bor",
					"94_Rozvadov",
					"25_Melnice",
					"100_Hlohova",
					"27_Hraz",
					"26_Strazovice",
					"28_Chrastovice",
					"58_Budicovice"
				],
				"lat1": 271.000000,
				"nbSeg1": 0
			},
			"pathsExist": false,
			"runtime": 564170516,
			"nomLat1": 854.000000,
			"nomLat2": 454.000000,
			"maxNomLat": 854.000000,
			"mincut": 4
		},
		{
			"s1": "191_Brezejc",
			"s2": "46_Olomouc",
			"t1": "70_Radonice",
			"t2": "126_Doubravice",
			"suurballeNbPaths": 2,
			"suurballeTime": 1623376237,
			"suurballePaths": {
				"path0": [
					"191_Brezejc",
					"190_Cerna",
					"187_Sachotin",
					"137_Olesna",
					"134_Vrbice",
					"135_Vilemovice",
					"132_Jindice",
					"73_KS_Kourim",
					"72_Limuzy",
					"71_Tuklaty",
					"144_None",
					"70_Radonice"
				],
				"lat0": 327.000000,
				"nbSeg0": 0,
				"path1": [
					"46_Olomouc",
					"41_Proslejov",
					"40_Vyskov",
					"42_Brno3",
					"146_None",
					"152_Malesovice",
					"98_Trstenice",
					"143_KS_Hostim",
					"179_Kninice",
					"180_Dacice",
					"181_Hefmanec",
					"183_Dolni_Radoun",
					"50_Veself_nad_Luznici",
					"56_Tritim",
					"59_Zverkovice",
					"169_None",
					"53_Horami",
					"58_Budicovice",
					"28_Chrastovice",
					"26_Strazovice",
					"20_Kasejovice",
					"23_Haje",
					"131_Velka",
					"128_Kamyk",
					"129_Brzina",
					"126_Doubravice"
				],
				"lat1": 865.000000,
				"nbSeg1": 0
			},
			"pathsExist": false,
			"runtime": 262623493,
			"nomLat1": 327.000000,
			"nomLat2": 865.000000,
			"maxNomLat": 865.000000,
			"mincut": 3
		},
		{
			"s1": "170_None",
			"s2": "117_Bruntal",
			"t1": "132_Jindice",
			"t2": "90_Stribro",
			"suurballeNbPaths": 2,
			"suurballeTime": 1002754542,
			"suurballePaths": {
				"path0": [
					"170_None",
					"93_Plzen",
					"90_Stribro"
				],
				"lat0": 85.000000,
				"nbSeg0": 0,
				"path1": [
					"117_Bruntal",
					"121_Sumperk",
					"112_Ust_nad_Orlicl",
					"138_Hradec_Kralove",
					"139_Pardubice",
					"187_Sachotin",
					"137_Olesna",
					"134_Vrbice",
					"135_Vilemovice",
					"132_Jindice"
				],
				"lat1": 471.000000,
				"nbSeg1": 0
			},
			"pathsExist": false,
			"runtime": 593663437,
			"nomLat1": 408.000000,
			"nomLat2": 873.000000,
			"maxNomLat": 873.000000,
			"mincut": 5
		},
		{
			"s1": "45_Kyselovice",
			"s2": "103_Sosen",
			"t1": "139_Pardubice",
			"t2": "31_Liberec",
			"suurballeNbPaths": 2,
			"suurballeTime": 1015682542,
			"suurballePaths": {
				"path0": [
					"103_Sosen",
					"66_Krupa",
					"80_Pozden",
					"62_Hospozin",
					"88_Pocedelice",
					"82_Bylany",
					"89_Most",
					"11_Usti_nad_Labem",
					"10_Ceska_Lipa",
					"31_Liberec"
				],
				"lat0": 385.000000,
				"nbSeg0": 0,
				"path1": [
					"45_Kyselovice",
					"49_Osek",
					"172_None",
					"46_Olomouc",
					"41_Proslejov",
					"40_Vyskov",
					"42_Brno3",
					"146_None",
					"151_Ivancice",
					"192_Kralice",
					"191_Brezejc",
					"190_Cerna",
					"187_Sachotin",
					"139_Pardubice"
				],
				"lat1": 544.000000,
				"nbSeg1": 1
			},
			"pathsExist": false,
			"runtime": 633118179,
			"nomLat1": 575.000000,
			"nomLat2": 385.000000,
			"maxNomLat": 575.000000,
			"mincut": 3
		},
		{
			"s1": "181_Hefmanec",
			"s2": "25_Melnice",
			"t1": "156_Mutenico",
			"t2": "169_None",
			"suurballeNbPaths": 2,
			"suurballeTime": 1124362959,
			"suurballePaths": {
				"path0": [
					"25_Melnice",
					"100_Hlohova",
					"27_Hraz",
					"26_Strazovice",
					"28_Chrastovice",
					"58_Budicovice",
					"53_Horami",
					"169_None"
				],
				"lat0": 262.000000,
				"nbSeg0": 0,
				"path1": [
					"181_Hefmanec",
					"180_Dacice",
					"179_Kninice",
					"143_KS_Hostim",
					"98_Trstenice",
					"152_Malesovice",
					"153_Uhercice_-_V.Nemcice",
					"148_Hustopece",
					"147_V._Pavlovice",
					"149_Breclav",
					"173_None",
					"155_Tvrdonice",
					"156_Mutenico"
				],
				"lat1": 388.000000,
				"nbSeg1": 0
			},
			"pathsExist": false,
			"runtime": 244569287,
			"nomLat1": 388.000000,
			"nomLat2": 262.000000,
			"maxNomLat": 388.000000,
			"mincut": 4
		},
		{
			"s1": "69_Hajek",
			"s2": "61_Zajecice",
			"t1": "68_Kladno",
			"t2": "41_Proslejov",
			"suurballeNbPaths": 2,
			"suurballeTime": 1110357534,
			"suurballePaths": {
				"path0": [
					"69_Hajek",
					"67_Praha",
					"68_Kladno"
				],
				"lat0": 74.000000,
				"nbSeg0": 0,
				"path1": [
					"61_Zajecice",
					"122_Jemniste",
					"125_Zvestov",
					"124_Hostisov",
					"126_Doubravice",
					"129_Brzina",
					"128_Kamyk",
					"131_Velka",
					"23_Haje",
					"20_Kasejovice",
					"26_Strazovice",
					"28_Chrastovice",
					"58_Budicovice",
					"53_Horami",
					"169_None",
					"59_Zverkovice",
					"56_Tritim",
					"50_Veself_nad_Luznici",
					"183_Dolni_Radoun",
					"181_Hefmanec",
					"180_Dacice",
					"179_Kninice",
					"143_KS_Hostim",
					"98_Trstenice",
					"152_Malesovice",
					"146_None",
					"42_Brno3",
					"40_Vyskov",
					"41_Proslejov"
				],
				"lat1": 948.000000,
				"nbSeg1": 1
			},
			"pathsExist": false,
			"runtime": 586611807,
			"nomLat1": 74.000000,
			"nomLat2": 759.000000,
			"maxNomLat": 759.000000,
			"mincut": 2
		},
		{
			"s1": "109_Sokolov",
			"s2": "95_Bor",
			"t1": "84_Jirkov",
			"t2": "41_Proslejov",
			"suurballeNbPaths": 2,
			"suurballeTime": 823983257,
			"suurballePaths": {
				"path0": [
					"109_Sokolov",
					"104_Karlovy_Vary",
					"83_Chomutov",
					"84_Jirkov"
				],
				"lat0": 128.000000,
				"nbSeg0": 0,
				"path1": [
					"95_Bor",
					"94_Rozvadov",
					"25_Melnice",
					"100_Hlohova",
					"27_Hraz",
					"26_Strazovice",
					"28_Chrastovice",
					"58_Budicovice",
					"53_Horami",
					"169_None",
					"59_Zverkovice",
					"56_Tritim",
					"50_Veself_nad_Luznici",
					"183_Dolni_Radoun",
					"181_Hefmanec",
					"180_Dacice",
					"179_Kninice",
					"143_KS_Hostim",
					"98_Trstenice",
					"152_Malesovice",
					"146_None",
					"42_Brno3",
					"40_Vyskov",
					"41_Proslejov"
				],
				"lat1": 859.000000,
				"nbSeg1": 0
			},
			"pathsExist": false,
			"runtime": 344873820,
			"nomLat1": 128.000000,
			"nomLat2": 859.000000,
			"maxNomLat": 859.000000,
			"mincut": 3
		},
		{
			"s1": "90_Stribro",
			"s2": "151_Ivancice",
			"t1": "149_Breclav",
			"t2": "31_Liberec",
			"suurballeNbPaths": 2,
			"suurballeTime": 999552733,
			"suurballePaths": {
				"path0": [
					"151_Ivancice",
					"152_Malesovice",
					"153_Uhercice_-_V.Nemcice",
					"148_Hustopece",
					"147_V._Pavlovice",
					"149_Breclav"
				],
				"lat0": 116.000000,
				"nbSeg0": 0,
				"path1": [
					"90_Stribro",
					"167_None",
					"106_Marianske_Lazne",
					"108_Cheb",
					"109_Sokolov",
					"104_Karlovy_Vary",
					"83_Chomutov",
					"82_Bylany",
					"89_Most",
					"11_Usti_nad_Labem",
					"10_Ceska_Lipa",
					"31_Liberec"
				],
				"lat1": 505.000000,
				"nbSeg1": 0
			},
			"pathsExist": false,
			"runtime": 548932658,
			"nomLat1": 1077.000000,
			"nomLat2": 420.000000,
			"maxNomLat": 1077.000000,
			"mincut": 4
		},
		{
			"s1": "90_Stribro",
			"s2": "144_None",
			"t1": "152_Malesovice",
			"t2": "115_Opava",
			"suurballeNbPaths": 2,
			"suurballeTime": 1460069409,
			"suurballePaths": {
				"path0": [
					"144_None",
					"71_Tuklaty",
					"72_Limuzy",
					"73_KS_Kourim",
					"132_Jindice",
					"135_Vilemovice",
					"134_Vrbice",
					"137_Olesna",
					"187_Sachotin",
					"190_Cerna",
					"191_Brezejc",
					"192_Kralice",
					"151_Ivancice",
					"152_Malesovice"
				],
				"lat0": 384.000000,
				"nbSeg0": 1,
				"path1": [
					"90_Stribro",
					"167_None",
					"106_Marianske_Lazne",
					"108_Cheb",
					"109_Sokolov",
					"104_Karlovy_Vary",
					"83_Chomutov",
					"82_Bylany",
					"89_Most",
					"11_Usti_nad_Labem",
					"10_Ceska_Lipa",
					"31_Liberec",
					"38_Robousy",
					"138_Hradec_Kralove",
					"112_Ust_nad_Orlicl",
					"121_Sumperk",
					"117_Bruntal",
					"115_Opava"
				],
				"lat1": 930.000000,
				"nbSeg1": 0
			},
			"pathsExist": false,
			"runtime": 426027970,
			"nomLat1": 986.000000,
			"nomLat2": 628.000000,
			"maxNomLat": 986.000000,
			"mincut": 3
		},
		{
			"s1": "56_Tritim",
			"s2": "31_Liberec",
			"t1": "190_Cerna",
			"t2": "181_Hefmanec",
			"suurballeNbPaths": 2,
			"suurballeTime": 1052460743,
			"suurballePaths": {
				"path0": [
					"56_Tritim",
					"50_Veself_nad_Luznici",
					"183_Dolni_Radoun",
					"181_Hefmanec"
				],
				"lat0": 115.000000,
				"nbSeg0": 0,
				"path1": [
					"31_Liberec",
					"38_Robousy",
					"138_Hradec_Kralove",
					"139_Pardubice",
					"187_Sachotin",
					"190_Cerna"
				],
				"lat1": 316.000000,
				"nbSeg1": 0
			},
			"pathsExist": false,
			"runtime": 617081080,
			"nomLat1": 380.000000,
			"nomLat2": 509.000000,
			"maxNomLat": 509.000000,
			"mincut": 3
		},
		{
			"s1": "106_Marianske_Lazne",
			"s2": "155_Tvrdonice",
			"t1": "88_Pocedelice",
			"t2": "110_Mladotice",
			"suurballeNbPaths": 2,
			"suurballeTime": 1101088517,
			"suurballePaths": {
				"path0": [
					"106_Marianske_Lazne",
					"167_None",
					"91_Svinomazy",
					"170_None",
					"110_Mladotice"
				],
				"lat0": 144.000000,
				"nbSeg0": 0,
				"path1": [
					"155_Tvrdonice",
					"173_None",
					"149_Breclav",
					"147_V._Pavlovice",
					"148_Hustopece",
					"153_Uhercice_-_V.Nemcice",
					"152_Malesovice",
					"151_Ivancice",
					"192_Kralice",
					"191_Brezejc",
					"190_Cerna",
					"187_Sachotin",
					"137_Olesna",
					"134_Vrbice",
					"135_Vilemovice",
					"132_Jindice",
					"73_KS_Kourim",
					"72_Limuzy",
					"71_Tuklaty",
					"144_None",
					"79_Brazdim",
					"63_Zlosyn",
					"64_Nove_Ouholice",
					"62_Hospozin",
					"88_Pocedelice"
				],
				"lat1": 693.000000,
				"nbSeg1": 2
			},
			"pathsExist": false,
			"runtime": 561777397,
			"nomLat1": 274.000000,
			"nomLat2": 1061.000000,
			"maxNomLat": 1061.000000,
			"mincut": 4
		},
		{
			"s1": "172_None",
			"s2": "103_Sosen",
			"t1": "106_Marianske_Lazne",
			"t2": "94_Rozvadov",
			"suurballeNbPaths": 2,
			"suurballeTime": 977209493,
			"suurballePaths": {
				"path0": [
					"103_Sosen",
					"110_Mladotice",
					"170_None",
					"91_Svinomazy",
					"167_None",
					"106_Marianske_Lazne"
				],
				"lat0": 176.000000,
				"nbSeg0": 0,
				"path1": [
					"172_None",
					"46_Olomouc",
					"41_Proslejov",
					"40_Vyskov",
					"42_Brno3",
					"146_None",
					"152_Malesovice",
					"98_Trstenice",
					"143_KS_Hostim",
					"179_Kninice",
					"180_Dacice",
					"181_Hefmanec",
					"183_Dolni_Radoun",
					"50_Veself_nad_Luznici",
					"56_Tritim",
					"59_Zverkovice",
					"169_None",
					"53_Horami",
					"58_Budicovice",
					"28_Chrastovice",
					"26_Strazovice",
					"27_Hraz",
					"100_Hlohova",
					"25_Melnice",
					"94_Rozvadov"
				],
				"lat1": 896.000000,
				"nbSeg1": 1
			},
			"pathsExist": false,
			"runtime": 575729630,
			"nomLat1": 1050.000000,
			"nomLat2": 218.000000,
			"maxNomLat": 1050.000000,
			"mincut": 3
		},
		{
			"s1": "95_Bor",
			"s2": "134_Vrbice",
			"t1": "41_Proslejov",
			"t2": "11_Usti_nad_Labem",
			"suurballeNbPaths": 2,
			"suurballeTime": 1597392171,
			"suurballePaths": {
				"path0": [
					"95_Bor",
					"90_Stribro",
					"167_None",
					"106_Marianske_Lazne",
					"108_Cheb",
					"109_Sokolov",
					"104_Karlovy_Vary",
					"83_Chomutov",
					"82_Bylany",
					"89_Most",
					"11_Usti_nad_Labem"
				],
				"lat0": 407.000000,
				"nbSeg0": 0,
				"path1": [
					"134_Vrbice",
					"137_Olesna",
					"187_Sachotin",
					"190_Cerna",
					"191_Brezejc",
					"192_Kralice",
					"151_Ivancice",
					"146_None",
					"42_Brno3",
					"40_Vyskov",
					"41_Proslejov"
				],
				"lat1": 371.000000,
				"nbSeg1": 1
			},
			"pathsExist": false,
			"runtime": 364985191,
			"nomLat1": 859.000000,
			"nomLat2": 473.000000,
			"maxNomLat": 859.000000,
			"mincut": 3
		},
		{
			"s1": "70_Radonice",
			"s2": "28_Chrastovice",
			"t1": "149_Breclav",
			"t2": "187_Sachotin",
			"suurballeNbPaths": 2,
			"suurballeTime": 1022157600,
			"suurballePaths": {
				"path0": [
					"70_Radonice",
					"144_None",
					"71_Tuklaty",
					"72_Limuzy",
					"73_KS_Kourim",
					"132_Jindice",
					"135_Vilemovice",
					"134_Vrbice",
					"137_Olesna",
					"187_Sachotin"
				],
				"lat0": 255.000000,
				"nbSeg0": 0,
				"path1": [
					"28_Chrastovice",
					"58_Budicovice",
					"53_Horami",
					"169_None",
					"59_Zverkovice",
					"56_Tritim",
					"50_Veself_nad_Luznici",
					"183_Dolni_Radoun",
					"181_Hefmanec",
					"180_Dacice",
					"179_Kninice",
					"143_KS_Hostim",
					"98_Trstenice",
					"152_Malesovice",
					"153_Uhercice_-_V.Nemcice",
					"148_Hustopece",
					"147_V._Pavlovice",
					"149_Breclav"
				],
				"lat1": 552.000000,
				"nbSeg1": 0
			},
			"pathsExist": false,
			"runtime": 542285590,
			"nomLat1": 547.000000,
			"nomLat2": 496.000000,
			"maxNomLat": 547.000000,
			"mincut": 3
		},
		{
			"s1": "49_Osek",
			"s2": "145_None",
			"t1": "91_Svinomazy",
			"t2": "61_Zajecice",
			"suurballeNbPaths": 2,
			"suurballeTime": 1096838054,
			"suurballePaths": {
				"path0": [
					"145_None",
					"62_Hospozin",
					"80_Pozden",
					"66_Krupa",
					"103_Sosen",
					"110_Mladotice",
					"170_None",
					"91_Svinomazy"
				],
				"lat0": 240.000000,
				"nbSeg0": 0,
				"path1": [
					"49_Osek",
					"172_None",
					"46_Olomouc",
					"41_Proslejov",
					"40_Vyskov",
					"42_Brno3",
					"146_None",
					"151_Ivancice",
					"192_Kralice",
					"191_Brezejc",
					"190_Cerna",
					"187_Sachotin",
					"137_Olesna",
					"134_Vrbice",
					"135_Vilemovice",
					"132_Jindice",
					"73_KS_Kourim",
					"72_Limuzy",
					"71_Tuklaty",
					"144_None",
					"70_Radonice",
					"67_Praha",
					"69_Hajek",
					"168_None",
					"61_Zajecice"
				],
				"lat1": 800.000000,
				"nbSeg1": 2
			},
			"pathsExist": false,
			"runtime": 656353712,
			"nomLat1": 1158.000000,
			"nomLat2": 138.000000,
			"maxNomLat": 1158.000000,
			"mincut": 4
		},
		{
			"s1": "179_Kninice",
			"s2": "2_Chlebovice",
			"t1": "56_Tritim",
			"t2": "170_None",
			"suurballeNbPaths": 2,
			"suurballeTime": 1196875122,
			"suurballePaths": {
				"path0": [
					"179_Kninice",
					"180_Dacice",
					"181_Hefmanec",
					"183_Dolni_Radoun",
					"50_Veself_nad_Luznici",
					"56_Tritim"
				],
				"lat0": 184.000000,
				"nbSeg0": 0,
				"path1": [
					"2_Chlebovice",
					"164_Libhost",
					"172_None",
					"46_Olomouc",
					"41_Proslejov",
					"40_Vyskov",
					"42_Brno3",
					"146_None",
					"151_Ivancice",
					"192_Kralice",
					"191_Brezejc",
					"190_Cerna",
					"187_Sachotin",
					"137_Olesna",
					"134_Vrbice",
					"135_Vilemovice",
					"132_Jindice",
					"73_KS_Kourim",
					"72_Limuzy",
					"71_Tuklaty",
					"144_None",
					"79_Brazdim",
					"63_Zlosyn",
					"64_Nove_Ouholice",
					"62_Hospozin",
					"80_Pozden",
					"66_Krupa",
					"103_Sosen",
					"110_Mladotice",
					"170_None"
				],
				"lat1": 937.000000,
				"nbSeg1": 2
			},
			"pathsExist": false,
			"runtime": 683534406,
			"nomLat1": 184.000000,
			"nomLat2": 1004.000000,
			"maxNomLat": 1004.000000,
			"mincut": 3
		},
		{
			"s1": "84_Jirkov",
			"s2": "169_None",
			"t1": "168_None",
			"t2": "143_KS_Hostim",
			"suurballeNbPaths": 2,
			"suurballeTime": 930652144,
			"suurballePaths": {
				"path0": [
					"84_Jirkov",
					"82_Bylany",
					"88_Pocedelice",
					"62_Hospozin",
					"145_None",
					"67_Praha",
					"69_Hajek",
					"168_None"
				],
				"lat0": 244.000000,
				"nbSeg0": 0,
				"path1": [
					"169_None",
					"59_Zverkovice",
					"56_Tritim",
					"50_Veself_nad_Luznici",
					"183_Dolni_Radoun",
					"181_Hefmanec",
					"180_Dacice",
					"179_Kninice",
					"143_KS_Hostim"
				],
				"lat1": 274.000000,
				"nbSeg1": 0
			},
			"pathsExist": false,
			"runtime": 649098638,
			"nomLat1": 244.000000,
			"nomLat2": 274.000000,
			"maxNomLat": 274.000000,
			"mincut": 4
		},
		{
			"s1": "80_Pozden",
			"s2": "98_Trstenice",
			"t1": "170_None",
			"t2": "103_Sosen",
			"suurballeNbPaths": 2,
			"suurballeTime": 1544933083,
			"suurballePaths": {
				"path0": [
					"80_Pozden",
					"66_Krupa",
					"103_Sosen"
				],
				"lat0": 66.000000,
				"nbSeg0": 0,
				"path1": [
					"98_Trstenice",
					"143_KS_Hostim",
					"179_Kninice",
					"180_Dacice",
					"181_Hefmanec",
					"183_Dolni_Radoun",
					"50_Veself_nad_Luznici",
					"56_Tritim",
					"59_Zverkovice",
					"169_None",
					"53_Horami",
					"58_Budicovice",
					"28_Chrastovice",
					"26_Strazovice",
					"27_Hraz",
					"100_Hlohova",
					"25_Melnice",
					"94_Rozvadov",
					"95_Bor",
					"90_Stribro",
					"93_Plzen",
					"170_None"
				],
				"lat1": 766.000000,
				"nbSeg1": 1
			},
			"pathsExist": false,
			"runtime": 408560011,
			"nomLat1": 134.000000,
			"nomLat2": 824.000000,
			"maxNomLat": 824.000000,
			"mincut": 3
		},
		{
			"s1": "72_Limuzy",
			"s2": "156_Mutenico",
			"t1": "89_Most",
			"t2": "41_Proslejov",
			"suurballeNbPaths": 2,
			"suurballeTime": 1417723101,
			"suurballePaths": {
				"path0": [
					"156_Mutenico",
					"159_Bukovany",
					"44_Bezmerov",
					"45_Kyselovice",
					"49_Osek",
					"172_None",
					"46_Olomouc",
					"41_Proslejov"
				],
				"lat0": 252.000000,
				"nbSeg0": 0,
				"path1": [
					"72_Limuzy",
					"71_Tuklaty",
					"144_None",
					"79_Brazdim",
					"63_Zlosyn",
					"64_Nove_Ouholice",
					"62_Hospozin",
					"88_Pocedelice",
					"82_Bylany",
					"89_Most"
				],
				"lat1": 247.000000,
				"nbSeg1": 1
			},
			"pathsExist": false,
			"runtime": 372151961,
			"nomLat1": 281.000000,
			"nomLat2": 252.000000,
			"maxNomLat": 281.000000,
			"mincut": 4
		},
		{
			"s1": "186_Jihlava",
			"s2": "67_Praha",
			"t1": "149_Breclav",
			"t2": "134_Vrbice",
			"suurballeNbPaths": 2,
			"suurballeTime": 1309318650,
			"suurballePaths": {
				"path0": [
					"186_Jihlava",
					"143_KS_Hostim",
					"98_Trstenice",
					"152_Malesovice",
					"153_Uhercice_-_V.Nemcice",
					"148_Hustopece",
					"147_V._Pavlovice",
					"149_Breclav"
				],
				"lat0": 257.000000,
				"nbSeg0": 0,
				"path1": [
					"67_Praha",
					"70_Radonice",
					"144_None",
					"71_Tuklaty",
					"72_Limuzy",
					"73_KS_Kourim",
					"132_Jindice",
					"135_Vilemovice",
					"134_Vrbice"
				],
				"lat1": 222.000000,
				"nbSeg1": 1
			},
			"pathsExist": false,
			"runtime": 658998223,
			"nomLat1": 257.000000,
			"nomLat2": 225.000000,
			"maxNomLat": 257.000000,
			"mincut": 4
		},
		{
			"s1": "29_Beroun",
			"s2": "125_Zvestov",
			"t1": "149_Breclav",
			"t2": "40_Vyskov",
			"suurballeNbPaths": 2,
			"suurballeTime": 1138681753,
			"suurballePaths": {
				"path0": [
					"29_Beroun",
					"67_Praha",
					"70_Radonice",
					"144_None",
					"71_Tuklaty",
					"72_Limuzy",
					"73_KS_Kourim",
					"132_Jindice",
					"135_Vilemovice",
					"134_Vrbice",
					"137_Olesna",
					"187_Sachotin",
					"190_Cerna",
					"191_Brezejc",
					"192_Kralice",
					"151_Ivancice",
					"146_None",
					"42_Brno3",
					"40_Vyskov"
				],
				"lat0": 602.000000,
				"nbSeg0": 2,
				"path1": [
					"125_Zvestov",
					"124_Hostisov",
					"126_Doubravice",
					"129_Brzina",
					"128_Kamyk",
					"131_Velka",
					"23_Haje",
					"20_Kasejovice",
					"26_Strazovice",
					"28_Chrastovice",
					"58_Budicovice",
					"53_Horami",
					"169_None",
					"59_Zverkovice",
					"56_Tritim",
					"50_Veself_nad_Luznici",
					"183_Dolni_Radoun",
					"181_Hefmanec",
					"180_Dacice",
					"179_Kninice",
					"143_KS_Hostim",
					"98_Trstenice",
					"152_Malesovice",
					"153_Uhercice_-_V.Nemcice",
					"148_Hustopece",
					"147_V._Pavlovice",
					"149_Breclav"
				],
				"lat1": 809.000000,
				"nbSeg1": 1
			},
			"pathsExist": false,
			"runtime": 458290716,
			"nomLat1": 631.000000,
			"nomLat2": 777.000000,
			"maxNomLat": 777.000000,
			"mincut": 3
		},
		{
			"s1": "67_Praha",
			"s2": "159_Bukovany",
			"t1": "89_Most",
			"t2": "80_Pozden",
			"suurballeNbPaths": 2,
			"suurballeTime": 861806629,
			"suurballePaths": {
				"path0": [
					"67_Praha",
					"145_None",
					"62_Hospozin",
					"80_Pozden"
				],
				"lat0": 106.000000,
				"nbSeg0": 0,
				"path1": [
					"159_Bukovany",
					"156_Mutenico",
					"155_Tvrdonice",
					"173_None",
					"149_Breclav",
					"147_V._Pavlovice",
					"148_Hustopece",
					"153_Uhercice_-_V.Nemcice",
					"152_Malesovice",
					"151_Ivancice",
					"192_Kralice",
					"191_Brezejc",
					"190_Cerna",
					"187_Sachotin",
					"137_Olesna",
					"134_Vrbice",
					"135_Vilemovice",
					"132_Jindice",
					"73_KS_Kourim",
					"72_Limuzy",
					"71_Tuklaty",
					"144_None",
					"79_Brazdim",
					"63_Zlosyn",
					"64_Nove_Ouholice",
					"62_Hospozin",
					"88_Pocedelice",
					"82_Bylany",
					"89_Most"
				],
				"lat1": 811.000000,
				"nbSeg1": 2
			},
			"pathsExist": false,
			"runtime": 573191952,
			"nomLat1": 167.000000,
			"nomLat2": 1087.000000,
			"maxNomLat": 1087.000000,
			"mincut": 4
		},
		{
			"s1": "61_Zajecice",
			"s2": "100_Hlohova",
			"t1": "106_Marianske_Lazne",
			"t2": "23_Haje",
			"suurballeNbPaths": 2,
			"suurballeTime": 1059286429,
			"suurballePaths": {
				"path0": [
					"100_Hlohova",
					"25_Melnice",
					"94_Rozvadov",
					"95_Bor",
					"90_Stribro",
					"167_None",
					"106_Marianske_Lazne"
				],
				"lat0": 214.000000,
				"nbSeg0": 0,
				"path1": [
					"61_Zajecice",
					"122_Jemniste",
					"125_Zvestov",
					"124_Hostisov",
					"126_Doubravice",
					"129_Brzina",
					"128_Kamyk",
					"131_Velka",
					"23_Haje"
				],
				"lat1": 189.000000,
				"nbSeg1": 0
			},
			"pathsExist": false,
			"runtime": 206132527,
			"nomLat1": 488.000000,
			"nomLat2": 163.000000,
			"maxNomLat": 488.000000,
			"mincut": 4
		},
		{
			"s1": "38_Robousy",
			"s2": "121_Sumperk",
			"t1": "91_Svinomazy",
			"t2": "178_Brno2",
			"suurballeNbPaths": 2,
			"suurballeTime": 1262349277,
			"suurballePaths": {
				"path0": [
					"121_Sumperk",
					"117_Bruntal",
					"115_Opava",
					"1_Ostrava",
					"171_None",
					"2_Chlebovice",
					"164_Libhost",
					"172_None",
					"46_Olomouc",
					"41_Proslejov",
					"40_Vyskov",
					"42_Brno3",
					"178_Brno2"
				],
				"lat0": 483.000000,
				"nbSeg0": 1,
				"path1": [
					"38_Robousy",
					"31_Liberec",
					"10_Ceska_Lipa",
					"11_Usti_nad_Labem",
					"89_Most",
					"82_Bylany",
					"88_Pocedelice",
					"62_Hospozin",
					"80_Pozden",
					"66_Krupa",
					"103_Sosen",
					"110_Mladotice",
					"170_None",
					"91_Svinomazy"
				],
				"lat1": 567.000000,
				"nbSeg1": 1
			},
			"pathsExist": false,
			"runtime": 714991419,
			"nomLat1": 583.000000,
			"nomLat2": 567.000000,
			"maxNomLat": 583.000000,
			"mincut": 3
		},
		{
			"s1": "191_Brezejc",
			"s2": "59_Zverkovice",
			"t1": "139_Pardubice",
			"t2": "122_Jemniste",
			"suurballeNbPaths": 2,
			"suurballeTime": 998188923,
			"suurballePaths": {
				"path0": [
					"191_Brezejc",
					"190_Cerna",
					"187_Sachotin",
					"139_Pardubice"
				],
				"lat0": 168.000000,
				"nbSeg0": 0,
				"path1": [
					"59_Zverkovice",
					"169_None",
					"53_Horami",
					"58_Budicovice",
					"28_Chrastovice",
					"26_Strazovice",
					"20_Kasejovice",
					"23_Haje",
					"131_Velka",
					"128_Kamyk",
					"129_Brzina",
					"126_Doubravice",
					"124_Hostisov",
					"125_Zvestov",
					"122_Jemniste"
				],
				"lat1": 422.000000,
				"nbSeg1": 0
			},
			"pathsExist": false,
			"runtime": 674728702,
			"nomLat1": 168.000000,
			"nomLat2": 422.000000,
			"maxNomLat": 422.000000,
			"mincut": 4
		},
		{
			"s1": "67_Praha",
			"s2": "58_Budicovice",
			"t1": "131_Velka",
			"t2": "27_Hraz",
			"suurballeNbPaths": 2,
			"suurballeTime": 1086856192,
			"suurballePaths": {
				"path0": [
					"58_Budicovice",
					"28_Chrastovice",
					"26_Strazovice",
					"27_Hraz"
				],
				"lat0": 123.000000,
				"nbSeg0": 0,
				"path1": [
					"67_Praha",
					"69_Hajek",
					"168_None",
					"61_Zajecice",
					"122_Jemniste",
					"125_Zvestov",
					"124_Hostisov",
					"126_Doubravice",
					"129_Brzina",
					"128_Kamyk",
					"131_Velka"
				],
				"lat1": 262.000000,
				"nbSeg1": 0
			},
			"pathsExist": false,
			"runtime": 602572535,
			"nomLat1": 262.000000,
			"nomLat2": 123.000000,
			"maxNomLat": 262.000000,
			"mincut": 3
		},
		{
			"s1": "124_Hostisov",
			"s2": "132_Jindice",
			"t1": "64_Nove_Ouholice",
			"t2": "148_Hustopece",
			"suurballeNbPaths": 2,
			"suurballeTime": 1020485375,
			"suurballePaths": {
				"path0": [
					"124_Hostisov",
					"125_Zvestov",
					"122_Jemniste",
					"61_Zajecice",
					"168_None",
					"69_Hajek",
					"67_Praha",
					"79_Brazdim",
					"63_Zlosyn",
					"64_Nove_Ouholice"
				],
				"lat0": 264.000000,
				"nbSeg0": 1,
				"path1": [
					"132_Jindice",
					"135_Vilemovice",
					"134_Vrbice",
					"137_Olesna",
					"187_Sachotin",
					"190_Cerna",
					"191_Brezejc",
					"192_Kralice",
					"151_Ivancice",
					"152_Malesovice",
					"153_Uhercice_-_V.Nemcice",
					"148_Hustopece"
				],
				"lat1": 326.000000,
				"nbSeg1": 1
			},
			"pathsExist": false,
			"runtime": 403481775,
			"nomLat1": 278.000000,
			"nomLat2": 362.000000,
			"maxNomLat": 362.000000,
			"mincut": 4
		},
		{
			"s1": "89_Most",
			"s2": "67_Praha",
			"t1": "42_Brno3",
			"t2": "177_Brno1",
			"suurballeNbPaths": 2,
			"suurballeTime": 1080430094,
			"suurballePaths": {
				"path0": [
					"89_Most",
					"11_Usti_nad_Labem",
					"10_Ceska_Lipa",
					"31_Liberec",
					"38_Robousy",
					"138_Hradec_Kralove",
					"139_Pardubice",
					"187_Sachotin",
					"186_Jihlava",
					"143_KS_Hostim",
					"98_Trstenice",
					"152_Malesovice",
					"146_None",
					"42_Brno3"
				],
				"lat0": 743.000000,
				"nbSeg0": 1,
				"path1": [
					"67_Praha",
					"70_Radonice",
					"144_None",
					"71_Tuklaty",
					"72_Limuzy",
					"73_KS_Kourim",
					"132_Jindice",
					"135_Vilemovice",
					"134_Vrbice",
					"137_Olesna",
					"187_Sachotin",
					"190_Cerna",
					"191_Brezejc",
					"192_Kralice",
					"151_Ivancice",
					"146_None",
					"177_Brno1"
				],
				"lat1": 496.000000,
				"nbSeg1": 2
			},
			"pathsExist": false,
			"runtime": 356374360,
			"nomLat1": 743.000000,
			"nomLat2": 560.000000,
			"maxNomLat": 743.000000,
			"mincut": 3
		},
		{
			"s1": "138_Hradec_Kralove",
			"s2": "104_Karlovy_Vary",
			"t1": "156_Mutenico",
			"t2": "180_Dacice",
			"suurballeNbPaths": 2,
			"suurballeTime": 1305779135,
			"suurballePaths": {
				"path0": [
					"138_Hradec_Kralove",
					"139_Pardubice",
					"187_Sachotin",
					"186_Jihlava",
					"143_KS_Hostim",
					"179_Kninice",
					"180_Dacice"
				],
				"lat0": 317.000000,
				"nbSeg0": 0,
				"path1": [
					"104_Karlovy_Vary",
					"83_Chomutov",
					"82_Bylany",
					"88_Pocedelice",
					"62_Hospozin",
					"64_Nove_Ouholice",
					"63_Zlosyn",
					"79_Brazdim",
					"144_None",
					"71_Tuklaty",
					"72_Limuzy",
					"73_KS_Kourim",
					"132_Jindice",
					"135_Vilemovice",
					"134_Vrbice",
					"137_Olesna",
					"187_Sachotin",
					"190_Cerna",
					"191_Brezejc",
					"192_Kralice",
					"151_Ivancice",
					"152_Malesovice",
					"153_Uhercice_-_V.Nemcice",
					"148_Hustopece",
					"147_V._Pavlovice",
					"149_Breclav",
					"173_None",
					"155_Tvrdonice",
					"156_Mutenico"
				],
				"lat1": 875.000000,
				"nbSeg1": 2
			},
			"pathsExist": false,
			"runtime": 666417301,
			"nomLat1": 527.000000,
			"nomLat2": 775.000000,
			"maxNomLat": 775.000000,
			"mincut": 4
		},
		{
			"s1": "169_None",
			"s2": "180_Dacice",
			"t1": "53_Horami",
			"t2": "191_Brezejc",
			"suurballeNbPaths": 2,
			"suurballeTime": 1015163969,
			"suurballePaths": {
				"path0": [
					"169_None",
					"53_Horami"
				],
				"lat0": 36.000000,
				"nbSeg0": 0,
				"path1": [
					"180_Dacice",
					"179_Kninice",
					"143_KS_Hostim",
					"98_Trstenice",
					"152_Malesovice",
					"151_Ivancice",
					"192_Kralice",
					"191_Brezejc"
				],
				"lat1": 243.000000,
				"nbSeg1": 1
			},
			"pathsExist": false,
			"runtime": 691942812,
			"nomLat1": 36.000000,
			"nomLat2": 257.000000,
			"maxNomLat": 257.000000,
			"mincut": 2
		},
		{
			"s1": "50_Veself_nad_Luznici",
			"s2": "181_Hefmanec",
			"t1": "153_Uhercice_-_V.Nemcice",
			"t2": "31_Liberec",
			"suurballeNbPaths": 2,
			"suurballeTime": 1085351111,
			"suurballePaths": {
				"path0": [
					"181_Hefmanec",
					"180_Dacice",
					"179_Kninice",
					"143_KS_Hostim",
					"98_Trstenice",
					"152_Malesovice",
					"153_Uhercice_-_V.Nemcice"
				],
				"lat0": 220.000000,
				"nbSeg0": 0,
				"path1": [
					"50_Veself_nad_Luznici",
					"56_Tritim",
					"59_Zverkovice",
					"169_None",
					"53_Horami",
					"58_Budicovice",
					"28_Chrastovice",
					"26_Strazovice",
					"27_Hraz",
					"100_Hlohova",
					"25_Melnice",
					"94_Rozvadov",
					"95_Bor",
					"90_Stribro",
					"167_None",
					"106_Marianske_Lazne",
					"108_Cheb",
					"109_Sokolov",
					"104_Karlovy_Vary",
					"83_Chomutov",
					"82_Bylany",
					"89_Most",
					"11_Usti_nad_Labem",
					"10_Ceska_Lipa",
					"31_Liberec"
				],
				"lat1": 952.000000,
				"nbSeg1": 1
			},
			"pathsExist": false,
			"runtime": 619348636,
			"nomLat1": 302.000000,
			"nomLat2": 509.000000,
			"maxNomLat": 509.000000,
			"mincut": 2
		},
		{
			"s1": "180_Dacice",
			"s2": "128_Kamyk",
			"t1": "95_Bor",
			"t2": "31_Liberec",
			"suurballeNbPaths": 2,
			"suurballeTime": 1224150609,
			"suurballePaths": {
				"path0": [
					"180_Dacice",
					"179_Kninice",
					"143_KS_Hostim",
					"186_Jihlava",
					"187_Sachotin",
					"139_Pardubice",
					"138_Hradec_Kralove",
					"38_Robousy",
					"31_Liberec"
				],
				"lat0": 465.000000,
				"nbSeg0": 0,
				"path1": [
					"128_Kamyk",
					"131_Velka",
					"23_Haje",
					"20_Kasejovice",
					"26_Strazovice",
					"27_Hraz",
					"100_Hlohova",
					"25_Melnice",
					"94_Rozvadov",
					"95_Bor"
				],
				"lat1": 310.000000,
				"nbSeg1": 0
			},
			"pathsExist": false,
			"runtime": 717211161,
			"nomLat1": 540.000000,
			"nomLat2": 610.000000,
			"maxNomLat": 610.000000,
			"mincut": 3
		},
		{
			"s1": "164_Libhost",
			"s2": "38_Robousy",
			"t1": "91_Svinomazy",
			"t2": "135_Vilemovice",
			"suurballeNbPaths": 2,
			"suurballeTime": 1090980962,
			"suurballePaths": {
				"path0": [
					"38_Robousy",
					"31_Liberec",
					"10_Ceska_Lipa",
					"11_Usti_nad_Labem",
					"89_Most",
					"82_Bylany",
					"88_Pocedelice",
					"62_Hospozin",
					"80_Pozden",
					"66_Krupa",
					"103_Sosen",
					"110_Mladotice",
					"170_None",
					"91_Svinomazy"
				],
				"lat0": 567.000000,
				"nbSeg0": 1,
				"path1": [
					"164_Libhost",
					"172_None",
					"46_Olomouc",
					"41_Proslejov",
					"40_Vyskov",
					"42_Brno3",
					"146_None",
					"151_Ivancice",
					"192_Kralice",
					"191_Brezejc",
					"190_Cerna",
					"187_Sachotin",
					"137_Olesna",
					"134_Vrbice",
					"135_Vilemovice"
				],
				"lat1": 504.000000,
				"nbSeg1": 1
			},
			"pathsExist": false,
			"runtime": 545792365,
			"nomLat1": 1086.000000,
			"nomLat2": 292.000000,
			"maxNomLat": 1086.000000,
			"mincut": 3
		},
		{
			"s1": "156_Mutenico",
			"s2": "171_None",
			"t1": "94_Rozvadov",
			"t2": "20_Kasejovice",
			"suurballeNbPaths": 2,
			"suurballeTime": 1098780524,
			"suurballePaths": {
				"path0": [
					"171_None",
					"1_Ostrava",
					"115_Opava",
					"117_Bruntal",
					"121_Sumperk",
					"112_Ust_nad_Orlicl",
					"138_Hradec_Kralove",
					"38_Robousy",
					"31_Liberec",
					"10_Ceska_Lipa",
					"11_Usti_nad_Labem",
					"89_Most",
					"82_Bylany",
					"83_Chomutov",
					"104_Karlovy_Vary",
					"109_Sokolov",
					"108_Cheb",
					"106_Marianske_Lazne",
					"167_None",
					"90_Stribro",
					"95_Bor",
					"94_Rozvadov"
				],
				"lat0": 1085.000000,
				"nbSeg0": 0,
				"path1": [
					"156_Mutenico",
					"155_Tvrdonice",
					"173_None",
					"149_Breclav",
					"147_V._Pavlovice",
					"148_Hustopece",
					"153_Uhercice_-_V.Nemcice",
					"152_Malesovice",
					"98_Trstenice",
					"143_KS_Hostim",
					"179_Kninice",
					"180_Dacice",
					"181_Hefmanec",
					"183_Dolni_Radoun",
					"50_Veself_nad_Luznici",
					"56_Tritim",
					"59_Zverkovice",
					"169_None",
					"53_Horami",
					"58_Budicovice",
					"28_Chrastovice",
					"26_Strazovice",
					"20_Kasejovice"
				],
				"lat1": 726.000000,
				"nbSeg1": 0
			},
			"pathsExist": false,
			"runtime": 463489437,
			"nomLat1": 852.000000,
			"nomLat2": 1066.000000,
			"maxNomLat": 1066.000000,
			"mincut": 3
		},
		{
			"s1": "124_Hostisov",
			"s2": "149_Breclav",
			"t1": "138_Hradec_Kralove",
			"t2": "106_Marianske_Lazne",
			"suurballeNbPaths": 2,
			"suurballeTime": 1209557655,
			"suurballePaths": {
				"path0": [
					"149_Breclav",
					"147_V._Pavlovice",
					"148_Hustopece",
					"153_Uhercice_-_V.Nemcice",
					"152_Malesovice",
					"151_Ivancice",
					"192_Kralice",
					"191_Brezejc",
					"190_Cerna",
					"187_Sachotin",
					"139_Pardubice",
					"138_Hradec_Kralove"
				],
				"lat0": 388.000000,
				"nbSeg0": 1,
				"path1": [
					"124_Hostisov",
					"126_Doubravice",
					"129_Brzina",
					"128_Kamyk",
					"131_Velka",
					"23_Haje",
					"20_Kasejovice",
					"26_Strazovice",
					"27_Hraz",
					"100_Hlohova",
					"25_Melnice",
					"94_Rozvadov",
					"95_Bor",
					"90_Stribro",
					"167_None",
					"106_Marianske_Lazne"
				],
				"lat1": 484.000000,
				"nbSeg1": 1
			},
			"pathsExist": false,
			"runtime": 146758382,
			"nomLat1": 689.000000,
			"nomLat2": 1005.000000,
			"maxNomLat": 1005.000000,
			"mincut": 4
		},
		{
			"s1": "109_Sokolov",
			"s2": "41_Proslejov",
			"t1": "112_Ust_nad_Orlicl",
			"t2": "2_Chlebovice",
			"suurballeNbPaths": 2,
			"suurballeTime": 1175422023,
			"suurballePaths": {
				"path0": [
					"41_Proslejov",
					"46_Olomouc",
					"172_None",
					"164_Libhost",
					"2_Chlebovice"
				],
				"lat0": 135.000000,
				"nbSeg0": 0,
				"path1": [
					"109_Sokolov",
					"104_Karlovy_Vary",
					"83_Chomutov",
					"82_Bylany",
					"89_Most",
					"11_Usti_nad_Labem",
					"10_Ceska_Lipa",
					"31_Liberec",
					"38_Robousy",
					"138_Hradec_Kralove",
					"112_Ust_nad_Orlicl"
				],
				"lat1": 575.000000,
				"nbSeg1": 0
			},
			"pathsExist": false,
			"runtime": 503159703,
			"nomLat1": 575.000000,
			"nomLat2": 135.000000,
			"maxNomLat": 575.000000,
			"mincut": 2
		},
		{
			"s1": "178_Brno2",
			"s2": "170_None",
			"t1": "147_V._Pavlovice",
			"t2": "172_None",
			"suurballeNbPaths": 2,
			"suurballeTime": 1223407669,
			"suurballePaths": {
				"path0": [
					"178_Brno2",
					"42_Brno3",
					"40_Vyskov",
					"41_Proslejov",
					"46_Olomouc",
					"172_None"
				],
				"lat0": 171.000000,
				"nbSeg0": 0,
				"path1": [
					"170_None",
					"110_Mladotice",
					"103_Sosen",
					"66_Krupa",
					"80_Pozden",
					"62_Hospozin",
					"64_Nove_Ouholice",
					"63_Zlosyn",
					"79_Brazdim",
					"144_None",
					"71_Tuklaty",
					"72_Limuzy",
					"73_KS_Kourim",
					"132_Jindice",
					"135_Vilemovice",
					"134_Vrbice",
					"137_Olesna",
					"187_Sachotin",
					"190_Cerna",
					"191_Brezejc",
					"192_Kralice",
					"151_Ivancice",
					"152_Malesovice",
					"153_Uhercice_-_V.Nemcice",
					"148_Hustopece",
					"147_V._Pavlovice"
				],
				"lat1": 716.000000,
				"nbSeg1": 2
			},
			"pathsExist": false,
			"runtime": 713267341,
			"nomLat1": 135.000000,
			"nomLat2": 1070.000000,
			"maxNomLat": 1070.000000,
			"mincut": 3
		},
		{
			"s1": "191_Brezejc",
			"s2": "190_Cerna",
			"t1": "56_Tritim",
			"t2": "125_Zvestov",
			"suurballeNbPaths": 2,
			"suurballeTime": 1456134160,
			"suurballePaths": {
				"path0": [
					"191_Brezejc",
					"192_Kralice",
					"151_Ivancice",
					"152_Malesovice",
					"98_Trstenice",
					"143_KS_Hostim",
					"179_Kninice",
					"180_Dacice",
					"181_Hefmanec",
					"183_Dolni_Radoun",
					"50_Veself_nad_Luznici",
					"56_Tritim"
				],
				"lat0": 402.000000,
				"nbSeg0": 1,
				"path1": [
					"190_Cerna",
					"187_Sachotin",
					"137_Olesna",
					"134_Vrbice",
					"135_Vilemovice",
					"132_Jindice",
					"73_KS_Kourim",
					"72_Limuzy",
					"71_Tuklaty",
					"144_None",
					"70_Radonice",
					"67_Praha",
					"69_Hajek",
					"168_None",
					"61_Zajecice",
					"122_Jemniste",
					"125_Zvestov"
				],
				"lat1": 483.000000,
				"nbSeg1": 1
			},
			"pathsExist": false,
			"runtime": 540899139,
			"nomLat1": 416.000000,
			"nomLat2": 486.000000,
			"maxNomLat": 486.000000,
			"mincut": 2
		},
		{
			"s1": "95_Bor",
			"s2": "144_None",
			"t1": "28_Chrastovice",
			"t2": "93_Plzen",
			"suurballeNbPaths": 2,
			"suurballeTime": 1644150106,
			"suurballePaths": {
				"path0": [
					"95_Bor",
					"94_Rozvadov",
					"25_Melnice",
					"100_Hlohova",
					"27_Hraz",
					"26_Strazovice",
					"28_Chrastovice"
				],
				"lat0": 229.000000,
				"nbSeg0": 0,
				"path1": [
					"144_None",
					"79_Brazdim",
					"63_Zlosyn",
					"64_Nove_Ouholice",
					"62_Hospozin",
					"80_Pozden",
					"66_Krupa",
					"103_Sosen",
					"110_Mladotice",
					"170_None",
					"93_Plzen"
				],
				"lat1": 310.000000,
				"nbSeg1": 1
			},
			"pathsExist": false,
			"runtime": 336078049,
			"nomLat1": 229.000000,
			"nomLat2": 344.000000,
			"maxNomLat": 344.000000,
			"mincut": 4
		},
		{
			"s1": "115_Opava",
			"s2": "172_None",
			"t1": "173_None",
			"t2": "38_Robousy",
			"suurballeNbPaths": 2,
			"suurballeTime": 1055160539,
			"suurballePaths": {
				"path0": [
					"115_Opava",
					"117_Bruntal",
					"121_Sumperk",
					"112_Ust_nad_Orlicl",
					"138_Hradec_Kralove",
					"38_Robousy"
				],
				"lat0": 347.000000,
				"nbSeg0": 0,
				"path1": [
					"172_None",
					"49_Osek",
					"45_Kyselovice",
					"44_Bezmerov",
					"159_Bukovany",
					"156_Mutenico",
					"155_Tvrdonice",
					"173_None"
				],
				"lat1": 250.000000,
				"nbSeg1": 0
			},
			"pathsExist": false,
			"runtime": 448299831,
			"nomLat1": 442.000000,
			"nomLat2": 539.000000,
			"maxNomLat": 539.000000,
			"mincut": 3
		},
		{
			"s1": "58_Budicovice",
			"s2": "139_Pardubice",
			"t1": "38_Robousy",
			"t2": "69_Hajek",
			"suurballeNbPaths": 2,
			"suurballeTime": 998893944,
			"suurballePaths": {
				"path0": [
					"139_Pardubice",
					"138_Hradec_Kralove",
					"38_Robousy"
				],
				"lat0": 106.000000,
				"nbSeg0": 0,
				"path1": [
					"58_Budicovice",
					"28_Chrastovice",
					"26_Strazovice",
					"20_Kasejovice",
					"23_Haje",
					"131_Velka",
					"128_Kamyk",
					"129_Brzina",
					"126_Doubravice",
					"124_Hostisov",
					"125_Zvestov",
					"122_Jemniste",
					"61_Zajecice",
					"168_None",
					"69_Hajek"
				],
				"lat1": 432.000000,
				"nbSeg1": 0
			},
			"pathsExist": false,
			"runtime": 655393792,
			"nomLat1": 656.000000,
			"nomLat2": 571.000000,
			"maxNomLat": 656.000000,
			"mincut": 3
		},
		{
			"s1": "144_None",
			"s2": "90_Stribro",
			"t1": "73_KS_Kourim",
			"t2": "172_None",
			"suurballeNbPaths": 2,
			"suurballeTime": 1092661074,
			"suurballePaths": {
				"path0": [
					"144_None",
					"71_Tuklaty",
					"72_Limuzy",
					"73_KS_Kourim"
				],
				"lat0": 75.000000,
				"nbSeg0": 0,
				"path1": [
					"90_Stribro",
					"95_Bor",
					"94_Rozvadov",
					"25_Melnice",
					"100_Hlohova",
					"27_Hraz",
					"26_Strazovice",
					"28_Chrastovice",
					"58_Budicovice",
					"53_Horami",
					"169_None",
					"59_Zverkovice",
					"56_Tritim",
					"50_Veself_nad_Luznici",
					"183_Dolni_Radoun",
					"181_Hefmanec",
					"180_Dacice",
					"179_Kninice",
					"143_KS_Hostim",
					"98_Trstenice",
					"152_Malesovice",
					"146_None",
					"42_Brno3",
					"40_Vyskov",
					"41_Proslejov",
					"46_Olomouc",
					"172_None"
				],
				"lat1": 961.000000,
				"nbSeg1": 1
			},
			"pathsExist": false,
			"runtime": 713040222,
			"nomLat1": 75.000000,
			"nomLat2": 1122.000000,
			"maxNomLat": 1122.000000,
			"mincut": 3
		},
		{
			"s1": "135_Vilemovice",
			"s2": "26_Strazovice",
			"t1": "41_Proslejov",
			"t2": "187_Sachotin",
			"suurballeNbPaths": 2,
			"suurballeTime": 1169484036,
			"suurballePaths": {
				"path0": [
					"135_Vilemovice",
					"134_Vrbice",
					"137_Olesna",
					"187_Sachotin"
				],
				"lat0": 90.000000,
				"nbSeg0": 0,
				"path1": [
					"26_Strazovice",
					"28_Chrastovice",
					"58_Budicovice",
					"53_Horami",
					"169_None",
					"59_Zverkovice",
					"56_Tritim",
					"50_Veself_nad_Luznici",
					"183_Dolni_Radoun",
					"181_Hefmanec",
					"180_Dacice",
					"179_Kninice",
					"143_KS_Hostim",
					"98_Trstenice",
					"152_Malesovice",
					"146_None",
					"42_Brno3",
					"40_Vyskov",
					"41_Proslejov"
				],
				"lat1": 673.000000,
				"nbSeg1": 0
			},
			"pathsExist": false,
			"runtime": 764091936,
			"nomLat1": 460.000000,
			"nomLat2": 539.000000,
			"maxNomLat": 539.000000,
			"mincut": 3
		},
		{
			"s1": "28_Chrastovice",
			"s2": "58_Budicovice",
			"t1": "29_Beroun",
			"t2": "168_None",
			"suurballeNbPaths": 2,
			"suurballeTime": 1252136973,
			"suurballePaths": {
				"path0": [
					"28_Chrastovice",
					"26_Strazovice",
					"20_Kasejovice",
					"23_Haje",
					"131_Velka",
					"128_Kamyk",
					"129_Brzina",
					"126_Doubravice",
					"124_Hostisov",
					"125_Zvestov",
					"122_Jemniste",
					"61_Zajecice",
					"168_None"
				],
				"lat0": 354.000000,
				"nbSeg0": 0,
				"path1": [
					"58_Budicovice",
					"53_Horami",
					"169_None",
					"59_Zverkovice",
					"56_Tritim",
					"50_Veself_nad_Luznici",
					"183_Dolni_Radoun",
					"181_Hefmanec",
					"180_Dacice",
					"179_Kninice",
					"143_KS_Hostim",
					"186_Jihlava",
					"187_Sachotin",
					"137_Olesna",
					"134_Vrbice",
					"135_Vilemovice",
					"132_Jindice",
					"73_KS_Kourim",
					"72_Limuzy",
					"71_Tuklaty",
					"144_None",
					"70_Radonice",
					"67_Praha",
					"29_Beroun"
				],
				"lat1": 790.000000,
				"nbSeg1": 2
			},
			"pathsExist": false,
			"runtime": 768412914,
			"nomLat1": 472.000000,
			"nomLat2": 396.000000,
			"maxNomLat": 472.000000,
			"mincut": 2
		},
		{
			"s1": "179_Kninice",
			"s2": "83_Chomutov",
			"t1": "110_Mladotice",
			"t2": "178_Brno2",
			"suurballeNbPaths": 2,
			"suurballeTime": 1123388748,
			"suurballePaths": {
				"path0": [
					"179_Kninice",
					"143_KS_Hostim",
					"98_Trstenice",
					"152_Malesovice",
					"146_None",
					"177_Brno1",
					"178_Brno2"
				],
				"lat0": 202.000000,
				"nbSeg0": 1,
				"path1": [
					"83_Chomutov",
					"82_Bylany",
					"88_Pocedelice",
					"62_Hospozin",
					"80_Pozden",
					"66_Krupa",
					"103_Sosen",
					"110_Mladotice"
				],
				"lat1": 241.000000,
				"nbSeg1": 0
			},
			"pathsExist": false,
			"runtime": 562553854,
			"nomLat1": 857.000000,
			"nomLat2": 786.000000,
			"maxNomLat": 857.000000,
			"mincut": 4
		},
		{
			"s1": "53_Horami",
			"s2": "124_Hostisov",
			"t1": "64_Nove_Ouholice",
			"t2": "148_Hustopece",
			"suurballeNbPaths": 2,
			"suurballeTime": 1187756402,
			"suurballePaths": {
				"path0": [
					"124_Hostisov",
					"125_Zvestov",
					"122_Jemniste",
					"61_Zajecice",
					"168_None",
					"69_Hajek",
					"67_Praha",
					"79_Brazdim",
					"63_Zlosyn",
					"64_Nove_Ouholice"
				],
				"lat0": 264.000000,
				"nbSeg0": 1,
				"path1": [
					"53_Horami",
					"169_None",
					"59_Zverkovice",
					"56_Tritim",
					"50_Veself_nad_Luznici",
					"183_Dolni_Radoun",
					"181_Hefmanec",
					"180_Dacice",
					"179_Kninice",
					"143_KS_Hostim",
					"98_Trstenice",
					"152_Malesovice",
					"153_Uhercice_-_V.Nemcice",
					"148_Hustopece"
				],
				"lat1": 435.000000,
				"nbSeg1": 0
			},
			"pathsExist": false,
			"runtime": 466060178,
			"nomLat1": 605.000000,
			"nomLat2": 714.000000,
			"maxNomLat": 714.000000,
			"mincut": 3
		},
		{
			"s1": "67_Praha",
			"s2": "155_Tvrdonice",
			"t1": "82_Bylany",
			"t2": "88_Pocedelice",
			"suurballeNbPaths": 2,
			"suurballeTime": 1560957419,
			"suurballePaths": {
				"path0": [
					"67_Praha",
					"145_None",
					"62_Hospozin",
					"88_Pocedelice"
				],
				"lat0": 112.000000,
				"nbSeg0": 0,
				"path1": [
					"155_Tvrdonice",
					"173_None",
					"149_Breclav",
					"147_V._Pavlovice",
					"148_Hustopece",
					"153_Uhercice_-_V.Nemcice",
					"152_Malesovice",
					"151_Ivancice",
					"192_Kralice",
					"191_Brezejc",
					"190_Cerna",
					"187_Sachotin",
					"139_Pardubice",
					"138_Hradec_Kralove",
					"38_Robousy",
					"31_Liberec",
					"10_Ceska_Lipa",
					"11_Usti_nad_Labem",
					"89_Most",
					"82_Bylany"
				],
				"lat1": 810.000000,
				"nbSeg1": 1
			},
			"pathsExist": false,
			"runtime": 416679533,
			"nomLat1": 155.000000,
			"nomLat2": 889.000000,
			"maxNomLat": 889.000000,
			"mincut": 3
		},
		{
			"s1": "108_Cheb",
			"s2": "131_Velka",
			"t1": "167_None",
			"t2": "144_None",
			"suurballeNbPaths": 2,
			"suurballeTime": 1101479578,
			"suurballePaths": {
				"path0": [
					"108_Cheb",
					"106_Marianske_Lazne",
					"167_None"
				],
				"lat0": 85.000000,
				"nbSeg0": 0,
				"path1": [
					"131_Velka",
					"128_Kamyk",
					"129_Brzina",
					"126_Doubravice",
					"124_Hostisov",
					"125_Zvestov",
					"122_Jemniste",
					"61_Zajecice",
					"168_None",
					"69_Hajek",
					"67_Praha",
					"70_Radonice",
					"144_None"
				],
				"lat1": 327.000000,
				"nbSeg1": 1
			},
			"pathsExist": false,
			"runtime": 564109844,
			"nomLat1": 85.000000,
			"nomLat2": 330.000000,
			"maxNomLat": 330.000000,
			"mincut": 4
		},
		{
			"s1": "131_Velka",
			"s2": "45_Kyselovice",
			"t1": "179_Kninice",
			"t2": "59_Zverkovice",
			"suurballeNbPaths": 2,
			"suurballeTime": 1102050999,
			"suurballePaths": {
				"path0": [
					"131_Velka",
					"23_Haje",
					"20_Kasejovice",
					"26_Strazovice",
					"28_Chrastovice",
					"58_Budicovice",
					"53_Horami",
					"169_None",
					"59_Zverkovice"
				],
				"lat0": 298.000000,
				"nbSeg0": 0,
				"path1": [
					"45_Kyselovice",
					"44_Bezmerov",
					"159_Bukovany",
					"156_Mutenico",
					"155_Tvrdonice",
					"173_None",
					"149_Breclav",
					"147_V._Pavlovice",
					"148_Hustopece",
					"153_Uhercice_-_V.Nemcice",
					"152_Malesovice",
					"98_Trstenice",
					"143_KS_Hostim",
					"179_Kninice"
				],
				"lat1": 432.000000,
				"nbSeg1": 1
			},
			"pathsExist": false,
			"runtime": 897575860,
			"nomLat1": 494.000000,
			"nomLat2": 629.000000,
			"maxNomLat": 629.000000,
			"mincut": 2
		},
		{
			"s1": "62_Hospozin",
			"s2": "128_Kamyk",
			"t1": "56_Tritim",
			"t2": "49_Osek",
			"suurballeNbPaths": 2,
			"suurballeTime": 1085860147,
			"suurballePaths": {
				"path0": [
					"128_Kamyk",
					"131_Velka",
					"23_Haje",
					"20_Kasejovice",
					"26_Strazovice",
					"28_Chrastovice",
					"58_Budicovice",
					"53_Horami",
					"169_None",
					"59_Zverkovice",
					"56_Tritim"
				],
				"lat0": 319.000000,
				"nbSeg0": 0,
				"path1": [
					"62_Hospozin",
					"64_Nove_Ouholice",
					"63_Zlosyn",
					"79_Brazdim",
					"144_None",
					"71_Tuklaty",
					"72_Limuzy",
					"73_KS_Kourim",
					"132_Jindice",
					"135_Vilemovice",
					"134_Vrbice",
					"137_Olesna",
					"187_Sachotin",
					"190_Cerna",
					"191_Brezejc",
					"192_Kralice",
					"151_Ivancice",
					"146_None",
					"42_Brno3",
					"40_Vyskov",
					"41_Proslejov",
					"46_Olomouc",
					"172_None",
					"49_Osek"
				],
				"lat1": 739.000000,
				"nbSeg1": 2
			},
			"pathsExist": false,
			"runtime": 512335733,
			"nomLat1": 909.000000,
			"nomLat2": 902.000000,
			"maxNomLat": 909.000000,
			"mincut": 3
		},
		{
			"s1": "10_Ceska_Lipa",
			"s2": "172_None",
			"t1": "181_Hefmanec",
			"t2": "190_Cerna",
			"suurballeNbPaths": 2,
			"suurballeTime": 1216674721,
			"suurballePaths": {
				"path0": [
					"10_Ceska_Lipa",
					"31_Liberec",
					"38_Robousy",
					"138_Hradec_Kralove",
					"139_Pardubice",
					"187_Sachotin",
					"190_Cerna"
				],
				"lat0": 383.000000,
				"nbSeg0": 0,
				"path1": [
					"172_None",
					"46_Olomouc",
					"41_Proslejov",
					"40_Vyskov",
					"42_Brno3",
					"146_None",
					"152_Malesovice",
					"98_Trstenice",
					"143_KS_Hostim",
					"179_Kninice",
					"180_Dacice",
					"181_Hefmanec"
				],
				"lat1": 432.000000,
				"nbSeg1": 0
			},
			"pathsExist": false,
			"runtime": 801066396,
			"nomLat1": 576.000000,
			"nomLat2": 342.000000,
			"maxNomLat": 576.000000,
			"mincut": 4
		},
		{
			"s1": "168_None",
			"s2": "73_KS_Kourim",
			"t1": "187_Sachotin",
			"t2": "104_Karlovy_Vary",
			"suurballeNbPaths": 2,
			"suurballeTime": 1598534079,
			"suurballePaths": {
				"path0": [
					"73_KS_Kourim",
					"132_Jindice",
					"135_Vilemovice",
					"134_Vrbice",
					"137_Olesna",
					"187_Sachotin"
				],
				"lat0": 144.000000,
				"nbSeg0": 0,
				"path1": [
					"168_None",
					"69_Hajek",
					"67_Praha",
					"145_None",
					"62_Hospozin",
					"88_Pocedelice",
					"82_Bylany",
					"83_Chomutov",
					"104_Karlovy_Vary"
				],
				"lat1": 329.000000,
				"nbSeg1": 0
			},
			"pathsExist": false,
			"runtime": 428297446,
			"nomLat1": 353.000000,
			"nomLat2": 406.000000,
			"maxNomLat": 406.000000,
			"mincut": 4
		},
		{
			"s1": "40_Vyskov",
			"s2": "156_Mutenico",
			"t1": "168_None",
			"t2": "173_None",
			"suurballeNbPaths": 2,
			"suurballeTime": 1181696674,
			"suurballePaths": {
				"path0": [
					"156_Mutenico",
					"155_Tvrdonice",
					"173_None"
				],
				"lat0": 67.000000,
				"nbSeg0": 0,
				"path1": [
					"40_Vyskov",
					"42_Brno3",
					"146_None",
					"151_Ivancice",
					"192_Kralice",
					"191_Brezejc",
					"190_Cerna",
					"187_Sachotin",
					"137_Olesna",
					"134_Vrbice",
					"135_Vilemovice",
					"132_Jindice",
					"73_KS_Kourim",
					"72_Limuzy",
					"71_Tuklaty",
					"144_None",
					"70_Radonice",
					"67_Praha",
					"69_Hajek",
					"168_None"
				],
				"lat1": 616.000000,
				"nbSeg1": 2
			},
			"pathsExist": false,
			"runtime": 251277048,
			"nomLat1": 680.000000,
			"nomLat2": 67.000000,
			"maxNomLat": 680.000000,
			"mincut": 3
		},
		{
			"s1": "134_Vrbice",
			"s2": "11_Usti_nad_Labem",
			"t1": "29_Beroun",
			"t2": "42_Brno3",
			"suurballeNbPaths": 2,
			"suurballeTime": 1226964513,
			"suurballePaths": {
				"path0": [
					"11_Usti_nad_Labem",
					"89_Most",
					"82_Bylany",
					"88_Pocedelice",
					"62_Hospozin",
					"145_None",
					"67_Praha",
					"29_Beroun"
				],
				"lat0": 278.000000,
				"nbSeg0": 0,
				"path1": [
					"134_Vrbice",
					"137_Olesna",
					"187_Sachotin",
					"190_Cerna",
					"191_Brezejc",
					"192_Kralice",
					"151_Ivancice",
					"146_None",
					"42_Brno3"
				],
				"lat1": 274.000000,
				"nbSeg1": 1
			},
			"pathsExist": false,
			"runtime": 474615708,
			"nomLat1": 277.000000,
			"nomLat2": 684.000000,
			"maxNomLat": 684.000000,
			"mincut": 4
		},
		{
			"s1": "31_Liberec",
			"s2": "27_Hraz",
			"t1": "94_Rozvadov",
			"t2": "143_KS_Hostim",
			"suurballeNbPaths": 2,
			"suurballeTime": 1605510261,
			"suurballePaths": {
				"path0": [
					"27_Hraz",
					"100_Hlohova",
					"25_Melnice",
					"94_Rozvadov"
				],
				"lat0": 116.000000,
				"nbSeg0": 0,
				"path1": [
					"31_Liberec",
					"38_Robousy",
					"138_Hradec_Kralove",
					"139_Pardubice",
					"187_Sachotin",
					"186_Jihlava",
					"143_KS_Hostim"
				],
				"lat1": 398.000000,
				"nbSeg1": 0
			},
			"pathsExist": false,
			"runtime": 426658231,
			"nomLat1": 570.000000,
			"nomLat2": 459.000000,
			"maxNomLat": 570.000000,
			"mincut": 4
		},
		{
			"s1": "135_Vilemovice",
			"s2": "73_KS_Kourim",
			"t1": "42_Brno3",
			"t2": "53_Horami",
			"suurballeNbPaths": 2,
			"suurballeTime": 1135014108,
			"suurballePaths": {
				"path0": [
					"135_Vilemovice",
					"134_Vrbice",
					"137_Olesna",
					"187_Sachotin",
					"190_Cerna",
					"191_Brezejc",
					"192_Kralice",
					"151_Ivancice",
					"146_None",
					"42_Brno3"
				],
				"lat0": 302.000000,
				"nbSeg0": 1,
				"path1": [
					"73_KS_Kourim",
					"72_Limuzy",
					"71_Tuklaty",
					"144_None",
					"70_Radonice",
					"67_Praha",
					"69_Hajek",
					"168_None",
					"61_Zajecice",
					"122_Jemniste",
					"125_Zvestov",
					"124_Hostisov",
					"126_Doubravice",
					"129_Brzina",
					"128_Kamyk",
					"131_Velka",
					"23_Haje",
					"20_Kasejovice",
					"26_Strazovice",
					"28_Chrastovice",
					"58_Budicovice",
					"53_Horami"
				],
				"lat1": 628.000000,
				"nbSeg1": 1
			},
			"pathsExist": false,
			"runtime": 774574196,
			"nomLat1": 363.000000,
			"nomLat2": 572.000000,
			"maxNomLat": 572.000000,
			"mincut": 2
		},
		{
			"s1": "84_Jirkov",
			"s2": "10_Ceska_Lipa",
			"t1": "148_Hustopece",
			"t2": "170_None",
			"suurballeNbPaths": 2,
			"suurballeTime": 1078324040,
			"suurballePaths": {
				"path0": [
					"84_Jirkov",
					"82_Bylany",
					"88_Pocedelice",
					"62_Hospozin",
					"80_Pozden",
					"66_Krupa",
					"103_Sosen",
					"110_Mladotice",
					"170_None"
				],
				"lat0": 274.000000,
				"nbSeg0": 1,
				"path1": [
					"10_Ceska_Lipa",
					"31_Liberec",
					"38_Robousy",
					"138_Hradec_Kralove",
					"139_Pardubice",
					"187_Sachotin",
					"190_Cerna",
					"191_Brezejc",
					"192_Kralice",
					"151_Ivancice",
					"152_Malesovice",
					"153_Uhercice_-_V.Nemcice",
					"148_Hustopece"
				],
				"lat1": 554.000000,
				"nbSeg1": 1
			},
			"pathsExist": false,
			"runtime": 469050352,
			"nomLat1": 748.000000,
			"nomLat2": 386.000000,
			"maxNomLat": 748.000000,
			"mincut": 3
		},
		{
			"s1": "126_Doubravice",
			"s2": "61_Zajecice",
			"t1": "41_Proslejov",
			"t2": "109_Sokolov",
			"suurballeNbPaths": 2,
			"suurballeTime": 1246983109,
			"suurballePaths": {
				"path0": [
					"61_Zajecice",
					"168_None",
					"69_Hajek",
					"67_Praha",
					"145_None",
					"62_Hospozin",
					"88_Pocedelice",
					"82_Bylany",
					"83_Chomutov",
					"104_Karlovy_Vary",
					"109_Sokolov"
				],
				"lat0": 398.000000,
				"nbSeg0": 0,
				"path1": [
					"126_Doubravice",
					"129_Brzina",
					"128_Kamyk",
					"131_Velka",
					"23_Haje",
					"20_Kasejovice",
					"26_Strazovice",
					"28_Chrastovice",
					"58_Budicovice",
					"53_Horami",
					"169_None",
					"59_Zverkovice",
					"56_Tritim",
					"50_Veself_nad_Luznici",
					"183_Dolni_Radoun",
					"181_Hefmanec",
					"180_Dacice",
					"179_Kninice",
					"143_KS_Hostim",
					"98_Trstenice",
					"152_Malesovice",
					"146_None",
					"42_Brno3",
					"40_Vyskov",
					"41_Proslejov"
				],
				"lat1": 832.000000,
				"nbSeg1": 0
			},
			"pathsExist": false,
			"runtime": 374367380,
			"nomLat1": 832.000000,
			"nomLat2": 398.000000,
			"maxNomLat": 832.000000,
			"mincut": 2
		},
		{
			"s1": "187_Sachotin",
			"s2": "144_None",
			"t1": "152_Malesovice",
			"t2": "131_Velka",
			"suurballeNbPaths": 2,
			"suurballeTime": 1280860772,
			"suurballePaths": {
				"path0": [
					"187_Sachotin",
					"190_Cerna",
					"191_Brezejc",
					"192_Kralice",
					"151_Ivancice",
					"152_Malesovice"
				],
				"lat0": 165.000000,
				"nbSeg0": 1,
				"path1": [
					"144_None",
					"70_Radonice",
					"67_Praha",
					"69_Hajek",
					"168_None",
					"61_Zajecice",
					"122_Jemniste",
					"125_Zvestov",
					"124_Hostisov",
					"126_Doubravice",
					"129_Brzina",
					"128_Kamyk",
					"131_Velka"
				],
				"lat1": 327.000000,
				"nbSeg1": 1
			},
			"pathsExist": false,
			"runtime": 704136237,
			"nomLat1": 201.000000,
			"nomLat2": 330.000000,
			"maxNomLat": 330.000000,
			"mincut": 5
		},
		{
			"s1": "121_Sumperk",
			"s2": "132_Jindice",
			"t1": "79_Brazdim",
			"t2": "98_Trstenice",
			"suurballeNbPaths": 2,
			"suurballeTime": 1313867513,
			"suurballePaths": {
				"path0": [
					"132_Jindice",
					"73_KS_Kourim",
					"72_Limuzy",
					"71_Tuklaty",
					"144_None",
					"79_Brazdim"
				],
				"lat0": 136.000000,
				"nbSeg0": 0,
				"path1": [
					"121_Sumperk",
					"112_Ust_nad_Orlicl",
					"138_Hradec_Kralove",
					"139_Pardubice",
					"187_Sachotin",
					"186_Jihlava",
					"143_KS_Hostim",
					"98_Trstenice"
				],
				"lat1": 448.000000,
				"nbSeg1": 0
			},
			"pathsExist": false,
			"runtime": 753109920,
			"nomLat1": 694.000000,
			"nomLat2": 278.000000,
			"maxNomLat": 694.000000,
			"mincut": 4
		},
		{
			"s1": "104_Karlovy_Vary",
			"s2": "46_Olomouc",
			"t1": "89_Most",
			"t2": "27_Hraz",
			"suurballeNbPaths": 2,
			"suurballeTime": 1102177434,
			"suurballePaths": {
				"path0": [
					"104_Karlovy_Vary",
					"83_Chomutov",
					"82_Bylany",
					"89_Most"
				],
				"lat0": 120.000000,
				"nbSeg0": 0,
				"path1": [
					"46_Olomouc",
					"41_Proslejov",
					"40_Vyskov",
					"42_Brno3",
					"146_None",
					"152_Malesovice",
					"98_Trstenice",
					"143_KS_Hostim",
					"179_Kninice",
					"180_Dacice",
					"181_Hefmanec",
					"183_Dolni_Radoun",
					"50_Veself_nad_Luznici",
					"56_Tritim",
					"59_Zverkovice",
					"169_None",
					"53_Horami",
					"58_Budicovice",
					"28_Chrastovice",
					"26_Strazovice",
					"27_Hraz"
				],
				"lat1": 744.000000,
				"nbSeg1": 0
			},
			"pathsExist": false,
			"runtime": 474215259,
			"nomLat1": 120.000000,
			"nomLat2": 744.000000,
			"maxNomLat": 744.000000,
			"mincut": 4
		},
		{
			"s1": "29_Beroun",
			"s2": "131_Velka",
			"t1": "95_Bor",
			"t2": "27_Hraz",
			"suurballeNbPaths": 2,
			"suurballeTime": 1669326659,
			"suurballePaths": {
				"path0": [
					"131_Velka",
					"23_Haje",
					"20_Kasejovice",
					"26_Strazovice",
					"27_Hraz"
				],
				"lat0": 153.000000,
				"nbSeg0": 0,
				"path1": [
					"29_Beroun",
					"67_Praha",
					"145_None",
					"62_Hospozin",
					"80_Pozden",
					"66_Krupa",
					"103_Sosen",
					"110_Mladotice",
					"170_None",
					"93_Plzen",
					"90_Stribro",
					"95_Bor"
				],
				"lat1": 410.000000,
				"nbSeg1": 0
			},
			"pathsExist": false,
			"runtime": 396706886,
			"nomLat1": 410.000000,
			"nomLat2": 153.000000,
			"maxNomLat": 410.000000,
			"mincut": 2
		},
		{
			"s1": "139_Pardubice",
			"s2": "143_KS_Hostim",
			"t1": "186_Jihlava",
			"t2": "58_Budicovice",
			"suurballeNbPaths": 2,
			"suurballeTime": 1131465894,
			"suurballePaths": {
				"path0": [
					"139_Pardubice",
					"187_Sachotin",
					"186_Jihlava"
				],
				"lat0": 131.000000,
				"nbSeg0": 0,
				"path1": [
					"143_KS_Hostim",
					"179_Kninice",
					"180_Dacice",
					"181_Hefmanec",
					"183_Dolni_Radoun",
					"50_Veself_nad_Luznici",
					"56_Tritim",
					"59_Zverkovice",
					"169_None",
					"53_Horami",
					"58_Budicovice"
				],
				"lat1": 336.000000,
				"nbSeg1": 0
			},
			"pathsExist": false,
			"runtime": 411363955,
			"nomLat1": 131.000000,
			"nomLat2": 336.000000,
			"maxNomLat": 336.000000,
			"mincut": 4
		},
		{
			"s1": "151_Ivancice",
			"s2": "155_Tvrdonice",
			"t1": "168_None",
			"t2": "50_Veself_nad_Luznici",
			"suurballeNbPaths": 2,
			"suurballeTime": 1228763899,
			"suurballePaths": {
				"path0": [
					"155_Tvrdonice",
					"173_None",
					"149_Breclav",
					"147_V._Pavlovice",
					"148_Hustopece",
					"153_Uhercice_-_V.Nemcice",
					"152_Malesovice",
					"98_Trstenice",
					"143_KS_Hostim",
					"179_Kninice",
					"180_Dacice",
					"181_Hefmanec",
					"183_Dolni_Radoun",
					"50_Veself_nad_Luznici"
				],
				"lat0": 439.000000,
				"nbSeg0": 0,
				"path1": [
					"151_Ivancice",
					"192_Kralice",
					"191_Brezejc",
					"190_Cerna",
					"187_Sachotin",
					"137_Olesna",
					"134_Vrbice",
					"135_Vilemovice",
					"132_Jindice",
					"73_KS_Kourim",
					"72_Limuzy",
					"71_Tuklaty",
					"144_None",
					"70_Radonice",
					"67_Praha",
					"69_Hajek",
					"168_None"
				],
				"lat1": 490.000000,
				"nbSeg1": 1
			},
			"pathsExist": false,
			"runtime": 557516067,
			"nomLat1": 493.000000,
			"nomLat2": 439.000000,
			"maxNomLat": 493.000000,
			"mincut": 3
		},
		{
			"s1": "49_Osek",
			"s2": "63_Zlosyn",
			"t1": "50_Veself_nad_Luznici",
			"t2": "191_Brezejc",
			"suurballeNbPaths": 2,
			"suurballeTime": 1281433402,
			"suurballePaths": {
				"path0": [
					"63_Zlosyn",
					"79_Brazdim",
					"144_None",
					"71_Tuklaty",
					"72_Limuzy",
					"73_KS_Kourim",
					"132_Jindice",
					"135_Vilemovice",
					"134_Vrbice",
					"137_Olesna",
					"187_Sachotin",
					"190_Cerna",
					"191_Brezejc"
				],
				"lat0": 363.000000,
				"nbSeg0": 0,
				"path1": [
					"49_Osek",
					"172_None",
					"46_Olomouc",
					"41_Proslejov",
					"40_Vyskov",
					"42_Brno3",
					"146_None",
					"152_Malesovice",
					"98_Trstenice",
					"143_KS_Hostim",
					"179_Kninice",
					"180_Dacice",
					"181_Hefmanec",
					"183_Dolni_Radoun",
					"50_Veself_nad_Luznici"
				],
				"lat1": 550.000000,
				"nbSeg1": 0
			},
			"pathsExist": false,
			"runtime": 645187422,
			"nomLat1": 550.000000,
			"nomLat2": 363.000000,
			"maxNomLat": 550.000000,
			"mincut": 4
		},
		{
			"s1": "42_Brno3",
			"s2": "83_Chomutov",
			"t1": "187_Sachotin",
			"t2": "79_Brazdim",
			"suurballeNbPaths": 2,
			"suurballeTime": 1427289339,
			"suurballePaths": {
				"path0": [
					"42_Brno3",
					"146_None",
					"151_Ivancice",
					"192_Kralice",
					"191_Brezejc",
					"190_Cerna",
					"187_Sachotin"
				],
				"lat0": 212.000000,
				"nbSeg0": 1,
				"path1": [
					"83_Chomutov",
					"82_Bylany",
					"88_Pocedelice",
					"62_Hospozin",
					"64_Nove_Ouholice",
					"63_Zlosyn",
					"79_Brazdim"
				],
				"lat1": 179.000000,
				"nbSeg1": 1
			},
			"pathsExist": false,
			"runtime": 626379338,
			"nomLat1": 273.000000,
			"nomLat2": 213.000000,
			"maxNomLat": 273.000000,
			"mincut": 5
		},
		{
			"s1": "40_Vyskov",
			"s2": "192_Kralice",
			"t1": "28_Chrastovice",
			"t2": "112_Ust_nad_Orlicl",
			"suurballeNbPaths": 2,
			"suurballeTime": 1253490691,
			"suurballePaths": {
				"path0": [
					"192_Kralice",
					"191_Brezejc",
					"190_Cerna",
					"187_Sachotin",
					"139_Pardubice",
					"138_Hradec_Kralove",
					"112_Ust_nad_Orlicl"
				],
				"lat0": 323.000000,
				"nbSeg0": 0,
				"path1": [
					"40_Vyskov",
					"42_Brno3",
					"146_None",
					"152_Malesovice",
					"98_Trstenice",
					"143_KS_Hostim",
					"179_Kninice",
					"180_Dacice",
					"181_Hefmanec",
					"183_Dolni_Radoun",
					"50_Veself_nad_Luznici",
					"56_Tritim",
					"59_Zverkovice",
					"169_None",
					"53_Horami",
					"58_Budicovice",
					"28_Chrastovice"
				],
				"lat1": 587.000000,
				"nbSeg1": 0
			},
			"pathsExist": false,
			"runtime": 801980097,
			"nomLat1": 587.000000,
			"nomLat2": 323.000000,
			"maxNomLat": 587.000000,
			"mincut": 3
		},
		{
			"s1": "62_Hospozin",
			"s2": "1_Ostrava",
			"t1": "31_Liberec",
			"t2": "147_V._Pavlovice",
			"suurballeNbPaths": 2,
			"suurballeTime": 1148932796,
			"suurballePaths": {
				"path0": [
					"62_Hospozin",
					"88_Pocedelice",
					"82_Bylany",
					"89_Most",
					"11_Usti_nad_Labem",
					"10_Ceska_Lipa",
					"31_Liberec"
				],
				"lat0": 285.000000,
				"nbSeg0": 0,
				"path1": [
					"1_Ostrava",
					"171_None",
					"2_Chlebovice",
					"164_Libhost",
					"172_None",
					"46_Olomouc",
					"41_Proslejov",
					"40_Vyskov",
					"42_Brno3",
					"146_None",
					"152_Malesovice",
					"153_Uhercice_-_V.Nemcice",
					"148_Hustopece",
					"147_V._Pavlovice"
				],
				"lat1": 434.000000,
				"nbSeg1": 1
			},
			"pathsExist": false,
			"runtime": 341672870,
			"nomLat1": 285.000000,
			"nomLat2": 457.000000,
			"maxNomLat": 457.000000,
			"mincut": 4
		},
		{
			"s1": "177_Brno1",
			"s2": "169_None",
			"t1": "63_Zlosyn",
			"t2": "25_Melnice",
			"suurballeNbPaths": 2,
			"suurballeTime": 1568591813,
			"suurballePaths": {
				"path0": [
					"169_None",
					"53_Horami",
					"58_Budicovice",
					"28_Chrastovice",
					"26_Strazovice",
					"27_Hraz",
					"100_Hlohova",
					"25_Melnice"
				],
				"lat0": 262.000000,
				"nbSeg0": 0,
				"path1": [
					"177_Brno1",
					"146_None",
					"151_Ivancice",
					"192_Kralice",
					"191_Brezejc",
					"190_Cerna",
					"187_Sachotin",
					"137_Olesna",
					"134_Vrbice",
					"135_Vilemovice",
					"132_Jindice",
					"73_KS_Kourim",
					"72_Limuzy",
					"71_Tuklaty",
					"144_None",
					"79_Brazdim",
					"63_Zlosyn"
				],
				"lat1": 503.000000,
				"nbSeg1": 1
			},
			"pathsExist": false,
			"runtime": 528855268,
			"nomLat1": 564.000000,
			"nomLat2": 262.000000,
			"maxNomLat": 564.000000,
			"mincut": 3
		},
		{
			"s1": "80_Pozden",
			"s2": "25_Melnice",
			"t1": "143_KS_Hostim",
			"t2": "93_Plzen",
			"suurballeNbPaths": 2,
			"suurballeTime": 1212947389,
			"suurballePaths": {
				"path0": [
					"25_Melnice",
					"94_Rozvadov",
					"95_Bor",
					"90_Stribro",
					"93_Plzen"
				],
				"lat0": 153.000000,
				"nbSeg0": 0,
				"path1": [
					"80_Pozden",
					"62_Hospozin",
					"64_Nove_Ouholice",
					"63_Zlosyn",
					"79_Brazdim",
					"144_None",
					"71_Tuklaty",
					"72_Limuzy",
					"73_KS_Kourim",
					"132_Jindice",
					"135_Vilemovice",
					"134_Vrbice",
					"137_Olesna",
					"187_Sachotin",
					"186_Jihlava",
					"143_KS_Hostim"
				],
				"lat1": 477.000000,
				"nbSeg1": 1
			},
			"pathsExist": false,
			"runtime": 280375101,
			"nomLat1": 717.000000,
			"nomLat2": 153.000000,
			"maxNomLat": 717.000000,
			"mincut": 4
		},
		{
			"s1": "149_Breclav",
			"s2": "106_Marianske_Lazne",
			"t1": "126_Doubravice",
			"t2": "186_Jihlava",
			"suurballeNbPaths": 2,
			"suurballeTime": 1179422945,
			"suurballePaths": {
				"path0": [
					"149_Breclav",
					"147_V._Pavlovice",
					"148_Hustopece",
					"153_Uhercice_-_V.Nemcice",
					"152_Malesovice",
					"98_Trstenice",
					"143_KS_Hostim",
					"186_Jihlava"
				],
				"lat0": 257.000000,
				"nbSeg0": 0,
				"path1": [
					"106_Marianske_Lazne",
					"167_None",
					"90_Stribro",
					"95_Bor",
					"94_Rozvadov",
					"25_Melnice",
					"100_Hlohova",
					"27_Hraz",
					"26_Strazovice",
					"20_Kasejovice",
					"23_Haje",
					"131_Velka",
					"128_Kamyk",
					"129_Brzina",
					"126_Doubravice"
				],
				"lat1": 450.000000,
				"nbSeg1": 0
			},
			"pathsExist": false,
			"runtime": 491525588,
			"nomLat1": 754.000000,
			"nomLat2": 748.000000,
			"maxNomLat": 754.000000,
			"mincut": 4
		},
		{
			"s1": "70_Radonice",
			"s2": "155_Tvrdonice",
			"t1": "177_Brno1",
			"t2": "46_Olomouc",
			"suurballeNbPaths": 2,
			"suurballeTime": 1414069430,
			"suurballePaths": {
				"path0": [
					"155_Tvrdonice",
					"156_Mutenico",
					"159_Bukovany",
					"44_Bezmerov",
					"45_Kyselovice",
					"49_Osek",
					"172_None",
					"46_Olomouc"
				],
				"lat0": 250.000000,
				"nbSeg0": 0,
				"path1": [
					"70_Radonice",
					"144_None",
					"71_Tuklaty",
					"72_Limuzy",
					"73_KS_Kourim",
					"132_Jindice",
					"135_Vilemovice",
					"134_Vrbice",
					"137_Olesna",
					"187_Sachotin",
					"190_Cerna",
					"191_Brezejc",
					"192_Kralice",
					"151_Ivancice",
					"146_None",
					"177_Brno1"
				],
				"lat1": 467.000000,
				"nbSeg1": 1
			},
			"pathsExist": false,
			"runtime": 421348661,
			"nomLat1": 528.000000,
			"nomLat2": 250.000000,
			"maxNomLat": 528.000000,
			"mincut": 3
		},
		{
			"s1": "67_Praha",
			"s2": "40_Vyskov",
			"t1": "177_Brno1",
			"t2": "180_Dacice",
			"suurballeNbPaths": 2,
			"suurballeTime": 1262793714,
			"suurballePaths": {
				"path0": [
					"40_Vyskov",
					"42_Brno3",
					"178_Brno2",
					"177_Brno1"
				],
				"lat0": 64.000000,
				"nbSeg0": 1,
				"path1": [
					"67_Praha",
					"70_Radonice",
					"144_None",
					"71_Tuklaty",
					"72_Limuzy",
					"73_KS_Kourim",
					"132_Jindice",
					"135_Vilemovice",
					"134_Vrbice",
					"137_Olesna",
					"187_Sachotin",
					"186_Jihlava",
					"143_KS_Hostim",
					"179_Kninice",
					"180_Dacice"
				],
				"lat1": 469.000000,
				"nbSeg1": 1
			},
			"pathsExist": false,
			"runtime": 474168832,
			"nomLat1": 560.000000,
			"nomLat2": 276.000000,
			"maxNomLat": 560.000000,
			"mincut": 4
		},
		{
			"s1": "26_Strazovice",
			"s2": "148_Hustopece",
			"t1": "73_KS_Kourim",
			"t2": "129_Brzina",
			"suurballeNbPaths": 2,
			"suurballeTime": 1750746746,
			"suurballePaths": {
				"path0": [
					"26_Strazovice",
					"20_Kasejovice",
					"23_Haje",
					"131_Velka",
					"128_Kamyk",
					"129_Brzina"
				],
				"lat0": 138.000000,
				"nbSeg0": 0,
				"path1": [
					"148_Hustopece",
					"153_Uhercice_-_V.Nemcice",
					"152_Malesovice",
					"151_Ivancice",
					"192_Kralice",
					"191_Brezejc",
					"190_Cerna",
					"187_Sachotin",
					"137_Olesna",
					"134_Vrbice",
					"135_Vilemovice",
					"132_Jindice",
					"73_KS_Kourim"
				],
				"lat1": 351.000000,
				"nbSeg1": 1
			},
			"pathsExist": false,
			"runtime": 404632176,
			"nomLat1": 520.000000,
			"nomLat2": 684.000000,
			"maxNomLat": 684.000000,
			"mincut": 4
		},
		{
			"s1": "56_Tritim",
			"s2": "70_Radonice",
			"t1": "44_Bezmerov",
			"t2": "82_Bylany",
			"suurballeNbPaths": 2,
			"suurballeTime": 1367636487,
			"suurballePaths": {
				"path0": [
					"70_Radonice",
					"67_Praha",
					"145_None",
					"62_Hospozin",
					"88_Pocedelice",
					"82_Bylany"
				],
				"lat0": 184.000000,
				"nbSeg0": 0,
				"path1": [
					"56_Tritim",
					"50_Veself_nad_Luznici",
					"183_Dolni_Radoun",
					"181_Hefmanec",
					"180_Dacice",
					"179_Kninice",
					"143_KS_Hostim",
					"98_Trstenice",
					"152_Malesovice",
					"153_Uhercice_-_V.Nemcice",
					"148_Hustopece",
					"147_V._Pavlovice",
					"149_Breclav",
					"173_None",
					"155_Tvrdonice",
					"156_Mutenico",
					"159_Bukovany",
					"44_Bezmerov"
				],
				"lat1": 600.000000,
				"nbSeg1": 1
			},
			"pathsExist": false,
			"runtime": 401683491,
			"nomLat1": 633.000000,
			"nomLat2": 184.000000,
			"maxNomLat": 633.000000,
			"mincut": 4
		},
		{
			"s1": "29_Beroun",
			"s2": "84_Jirkov",
			"t1": "10_Ceska_Lipa",
			"t2": "20_Kasejovice",
			"suurballeNbPaths": 2,
			"suurballeTime": 1359415423,
			"suurballePaths": {
				"path0": [
					"84_Jirkov",
					"82_Bylany",
					"89_Most",
					"11_Usti_nad_Labem",
					"10_Ceska_Lipa"
				],
				"lat0": 158.000000,
				"nbSeg0": 0,
				"path1": [
					"29_Beroun",
					"67_Praha",
					"69_Hajek",
					"168_None",
					"61_Zajecice",
					"122_Jemniste",
					"125_Zvestov",
					"124_Hostisov",
					"126_Doubravice",
					"129_Brzina",
					"128_Kamyk",
					"131_Velka",
					"23_Haje",
					"20_Kasejovice"
				],
				"lat1": 401.000000,
				"nbSeg1": 0
			},
			"pathsExist": false,
			"runtime": 773869893,
			"nomLat1": 342.000000,
			"nomLat2": 537.000000,
			"maxNomLat": 537.000000,
			"mincut": 4
		},
		{
			"s1": "88_Pocedelice",
			"s2": "95_Bor",
			"t1": "45_Kyselovice",
			"t2": "164_Libhost",
			"suurballeNbPaths": 2,
			"suurballeTime": 1292227885,
			"suurballePaths": {
				"path0": [
					"88_Pocedelice",
					"62_Hospozin",
					"64_Nove_Ouholice",
					"63_Zlosyn",
					"79_Brazdim",
					"144_None",
					"71_Tuklaty",
					"72_Limuzy",
					"73_KS_Kourim",
					"132_Jindice",
					"135_Vilemovice",
					"134_Vrbice",
					"137_Olesna",
					"187_Sachotin",
					"190_Cerna",
					"191_Brezejc",
					"192_Kralice",
					"151_Ivancice",
					"146_None",
					"42_Brno3",
					"40_Vyskov",
					"41_Proslejov",
					"46_Olomouc",
					"172_None",
					"164_Libhost"
				],
				"lat0": 779.000000,
				"nbSeg0": 2,
				"path1": [
					"95_Bor",
					"94_Rozvadov",
					"25_Melnice",
					"100_Hlohova",
					"27_Hraz",
					"26_Strazovice",
					"28_Chrastovice",
					"58_Budicovice",
					"53_Horami",
					"169_None",
					"59_Zverkovice",
					"56_Tritim",
					"50_Veself_nad_Luznici",
					"183_Dolni_Radoun",
					"181_Hefmanec",
					"180_Dacice",
					"179_Kninice",
					"143_KS_Hostim",
					"98_Trstenice",
					"152_Malesovice",
					"153_Uhercice_-_V.Nemcice",
					"148_Hustopece",
					"147_V._Pavlovice",
					"149_Breclav",
					"173_None",
					"155_Tvrdonice",
					"156_Mutenico",
					"159_Bukovany",
					"44_Bezmerov",
					"45_Kyselovice"
				],
				"lat1": 997.000000,
				"nbSeg1": 1
			},
			"pathsExist": false,
			"runtime": 280025184,
			"nomLat1": 932.000000,
			"nomLat2": 1119.000000,
			"maxNomLat": 1119.000000,
			"mincut": 3
		},
		{
			"s1": "143_KS_Hostim",
			"s2": "2_Chlebovice",
			"t1": "183_Dolni_Radoun",
			"t2": "41_Proslejov",
			"suurballeNbPaths": 2,
			"suurballeTime": 1245437453,
			"suurballePaths": {
				"path0": [
					"143_KS_Hostim",
					"179_Kninice",
					"180_Dacice",
					"181_Hefmanec",
					"183_Dolni_Radoun"
				],
				"lat0": 151.000000,
				"nbSeg0": 0,
				"path1": [
					"2_Chlebovice",
					"164_Libhost",
					"172_None",
					"46_Olomouc",
					"41_Proslejov"
				],
				"lat1": 135.000000,
				"nbSeg1": 0
			},
			"pathsExist": false,
			"runtime": 562781380,
			"nomLat1": 151.000000,
			"nomLat2": 135.000000,
			"maxNomLat": 151.000000,
			"mincut": 4
		},
		{
			"s1": "167_None",
			"s2": "149_Breclav",
			"t1": "177_Brno1",
			"t2": "129_Brzina",
			"suurballeNbPaths": 2,
			"suurballeTime": 1354554609,
			"suurballePaths": {
				"path0": [
					"149_Breclav",
					"147_V._Pavlovice",
					"148_Hustopece",
					"153_Uhercice_-_V.Nemcice",
					"152_Malesovice",
					"146_None",
					"177_Brno1"
				],
				"lat0": 163.000000,
				"nbSeg0": 0,
				"path1": [
					"167_None",
					"90_Stribro",
					"95_Bor",
					"94_Rozvadov",
					"25_Melnice",
					"100_Hlohova",
					"27_Hraz",
					"26_Strazovice",
					"20_Kasejovice",
					"23_Haje",
					"131_Velka",
					"128_Kamyk",
					"129_Brzina"
				],
				"lat1": 393.000000,
				"nbSeg1": 0
			},
			"pathsExist": false,
			"runtime": 805467519,
			"nomLat1": 1022.000000,
			"nomLat2": 733.000000,
			"maxNomLat": 1022.000000,
			"mincut": 4
		},
		{
			"s1": "83_Chomutov",
			"s2": "91_Svinomazy",
			"t1": "59_Zverkovice",
			"t2": "192_Kralice",
			"suurballeNbPaths": 2,
			"suurballeTime": 1186110082,
			"suurballePaths": {
				"path0": [
					"91_Svinomazy",
					"167_None",
					"90_Stribro",
					"95_Bor",
					"94_Rozvadov",
					"25_Melnice",
					"100_Hlohova",
					"27_Hraz",
					"26_Strazovice",
					"28_Chrastovice",
					"58_Budicovice",
					"53_Horami",
					"169_None",
					"59_Zverkovice"
				],
				"lat0": 474.000000,
				"nbSeg0": 0,
				"path1": [
					"83_Chomutov",
					"82_Bylany",
					"88_Pocedelice",
					"62_Hospozin",
					"64_Nove_Ouholice",
					"63_Zlosyn",
					"79_Brazdim",
					"144_None",
					"71_Tuklaty",
					"72_Limuzy",
					"73_KS_Kourim",
					"132_Jindice",
					"135_Vilemovice",
					"134_Vrbice",
					"137_Olesna",
					"187_Sachotin",
					"190_Cerna",
					"191_Brezejc",
					"192_Kralice"
				],
				"lat1": 541.000000,
				"nbSeg1": 1
			},
			"pathsExist": false,
			"runtime": 862766693,
			"nomLat1": 679.000000,
			"nomLat2": 892.000000,
			"maxNomLat": 892.000000,
			"mincut": 3
		},
		{
			"s1": "180_Dacice",
			"s2": "134_Vrbice",
			"t1": "11_Usti_nad_Labem",
			"t2": "149_Breclav",
			"suurballeNbPaths": 2,
			"suurballeTime": 1825142925,
			"suurballePaths": {
				"path0": [
					"180_Dacice",
					"179_Kninice",
					"143_KS_Hostim",
					"98_Trstenice",
					"152_Malesovice",
					"153_Uhercice_-_V.Nemcice",
					"148_Hustopece",
					"147_V._Pavlovice",
					"149_Breclav"
				],
				"lat0": 241.000000,
				"nbSeg0": 0,
				"path1": [
					"134_Vrbice",
					"135_Vilemovice",
					"132_Jindice",
					"73_KS_Kourim",
					"72_Limuzy",
					"71_Tuklaty",
					"144_None",
					"79_Brazdim",
					"63_Zlosyn",
					"64_Nove_Ouholice",
					"62_Hospozin",
					"88_Pocedelice",
					"82_Bylany",
					"89_Most",
					"11_Usti_nad_Labem"
				],
				"lat1": 417.000000,
				"nbSeg1": 1
			},
			"pathsExist": false,
			"runtime": 351596393,
			"nomLat1": 596.000000,
			"nomLat2": 354.000000,
			"maxNomLat": 596.000000,
			"mincut": 3
		},
		{
			"s1": "177_Brno1",
			"s2": "156_Mutenico",
			"t1": "2_Chlebovice",
			"t2": "139_Pardubice",
			"suurballeNbPaths": 2,
			"suurballeTime": 1372836915,
			"suurballePaths": {
				"path0": [
					"177_Brno1",
					"146_None",
					"151_Ivancice",
					"192_Kralice",
					"191_Brezejc",
					"190_Cerna",
					"187_Sachotin",
					"139_Pardubice"
				],
				"lat0": 308.000000,
				"nbSeg0": 1,
				"path1": [
					"156_Mutenico",
					"159_Bukovany",
					"44_Bezmerov",
					"45_Kyselovice",
					"49_Osek",
					"172_None",
					"164_Libhost",
					"2_Chlebovice"
				],
				"lat1": 249.000000,
				"nbSeg1": 0
			},
			"pathsExist": false,
			"runtime": 520011804,
			"nomLat1": 304.000000,
			"nomLat2": 491.000000,
			"maxNomLat": 491.000000,
			"mincut": 3
		},
		{
			"s1": "171_None",
			"s2": "94_Rozvadov",
			"t1": "124_Hostisov",
			"t2": "151_Ivancice",
			"suurballeNbPaths": 2,
			"suurballeTime": 1191330733,
			"suurballePaths": {
				"path0": [
					"171_None",
					"2_Chlebovice",
					"164_Libhost",
					"172_None",
					"46_Olomouc",
					"41_Proslejov",
					"40_Vyskov",
					"42_Brno3",
					"146_None",
					"151_Ivancice"
				],
				"lat0": 340.000000,
				"nbSeg0": 0,
				"path1": [
					"94_Rozvadov",
					"25_Melnice",
					"100_Hlohova",
					"27_Hraz",
					"26_Strazovice",
					"20_Kasejovice",
					"23_Haje",
					"131_Velka",
					"128_Kamyk",
					"129_Brzina",
					"126_Doubravice",
					"124_Hostisov"
				],
				"lat1": 347.000000,
				"nbSeg1": 0
			},
			"pathsExist": false,
			"runtime": 496424768,
			"nomLat1": 1056.000000,
			"nomLat2": 683.000000,
			"maxNomLat": 1056.000000,
			"mincut": 4
		},
		{
			"s1": "89_Most",
			"s2": "58_Budicovice",
			"t1": "44_Bezmerov",
			"t2": "73_KS_Kourim",
			"suurballeNbPaths": 2,
			"suurballeTime": 1230980563,
			"suurballePaths": {
				"path0": [
					"89_Most",
					"82_Bylany",
					"88_Pocedelice",
					"62_Hospozin",
					"64_Nove_Ouholice",
					"63_Zlosyn",
					"79_Brazdim",
					"144_None",
					"71_Tuklaty",
					"72_Limuzy",
					"73_KS_Kourim"
				],
				"lat0": 276.000000,
				"nbSeg0": 1,
				"path1": [
					"58_Budicovice",
					"53_Horami",
					"169_None",
					"59_Zverkovice",
					"56_Tritim",
					"50_Veself_nad_Luznici",
					"183_Dolni_Radoun",
					"181_Hefmanec",
					"180_Dacice",
					"179_Kninice",
					"143_KS_Hostim",
					"98_Trstenice",
					"152_Malesovice",
					"153_Uhercice_-_V.Nemcice",
					"148_Hustopece",
					"147_V._Pavlovice",
					"149_Breclav",
					"173_None",
					"155_Tvrdonice",
					"156_Mutenico",
					"159_Bukovany",
					"44_Bezmerov"
				],
				"lat1": 710.000000,
				"nbSeg1": 1
			},
			"pathsExist": false,
			"runtime": 473662673,
			"nomLat1": 893.000000,
			"nomLat2": 598.000000,
			"maxNomLat": 893.000000,
			"mincut": 3
		},
		{
			"s1": "183_Dolni_Radoun",
			"s2": "134_Vrbice",
			"t1": "124_Hostisov",
			"t2": "115_Opava",
			"suurballeNbPaths": 2,
			"suurballeTime": 1926158437,
			"suurballePaths": {
				"path0": [
					"134_Vrbice",
					"137_Olesna",
					"187_Sachotin",
					"139_Pardubice",
					"138_Hradec_Kralove",
					"112_Ust_nad_Orlicl",
					"121_Sumperk",
					"117_Bruntal",
					"115_Opava"
				],
				"lat0": 471.000000,
				"nbSeg0": 0,
				"path1": [
					"183_Dolni_Radoun",
					"50_Veself_nad_Luznici",
					"56_Tritim",
					"59_Zverkovice",
					"169_None",
					"53_Horami",
					"58_Budicovice",
					"28_Chrastovice",
					"26_Strazovice",
					"20_Kasejovice",
					"23_Haje",
					"131_Velka",
					"128_Kamyk",
					"129_Brzina",
					"126_Doubravice",
					"124_Hostisov"
				],
				"lat1": 463.000000,
				"nbSeg1": 0
			},
			"pathsExist": false,
			"runtime": 261074798,
			"nomLat1": 463.000000,
			"nomLat2": 471.000000,
			"maxNomLat": 471.000000,
			"mincut": 4
		},
		{
			"s1": "121_Sumperk",
			"s2": "94_Rozvadov",
			"t1": "20_Kasejovice",
			"t2": "11_Usti_nad_Labem",
			"suurballeNbPaths": 2,
			"suurballeTime": 1260263556,
			"suurballePaths": {
				"path0": [
					"94_Rozvadov",
					"25_Melnice",
					"100_Hlohova",
					"27_Hraz",
					"26_Strazovice",
					"20_Kasejovice"
				],
				"lat0": 182.000000,
				"nbSeg0": 0,
				"path1": [
					"121_Sumperk",
					"112_Ust_nad_Orlicl",
					"138_Hradec_Kralove",
					"38_Robousy",
					"31_Liberec",
					"10_Ceska_Lipa",
					"11_Usti_nad_Labem"
				],
				"lat1": 436.000000,
				"nbSeg1": 0
			},
			"pathsExist": false,
			"runtime": 841931280,
			"nomLat1": 856.000000,
			"nomLat2": 439.000000,
			"maxNomLat": 856.000000,
			"mincut": 4
		},
		{
			"s1": "59_Zverkovice",
			"s2": "167_None",
			"t1": "26_Strazovice",
			"t2": "67_Praha",
			"suurballeNbPaths": 2,
			"suurballeTime": 1244497432,
			"suurballePaths": {
				"path0": [
					"59_Zverkovice",
					"169_None",
					"53_Horami",
					"58_Budicovice",
					"28_Chrastovice",
					"26_Strazovice"
				],
				"lat0": 183.000000,
				"nbSeg0": 0,
				"path1": [
					"167_None",
					"91_Svinomazy",
					"170_None",
					"110_Mladotice",
					"103_Sosen",
					"66_Krupa",
					"80_Pozden",
					"62_Hospozin",
					"145_None",
					"67_Praha"
				],
				"lat1": 312.000000,
				"nbSeg1": 0
			},
			"pathsExist": false,
			"runtime": 588003488,
			"nomLat1": 183.000000,
			"nomLat2": 312.000000,
			"maxNomLat": 312.000000,
			"mincut": 5
		}
	],
	"demandsWithSol": 0
}
