{
	"nbDemands": 100,
	"demands": [
		{
			"s1": "3_Hamburg",
			"s2": "11_None",
			"t1": "56_Medias",
			"t2": "114_Hodonin",
			"suurballeNbPaths": 2,
			"suurballeTime": 780880410,
			"suurballePaths": {
				"path0": [
					"11_None",
					"100_Torun",
					"93_Inowroclaw",
					"94_Poznan",
					"92_Leszno",
					"91_Wroclaw",
					"109_Opole",
					"110_Katowice",
					"121_Bielsko",
					"116_Ostrava",
					"115_Zlin",
					"114_Hodonin"
				],
				"lat0": 1463.000000,
				"nbSeg0": 1,
				"path1": [
					"3_Hamburg",
					"125_Frankfurt_am_Main",
					"15_Amsterdam,_London",
					"131_Wien",
					"130_Bratislava",
					"61_Gyor",
					"33_Tatabanya",
					"129_Budapest",
					"71_Szolnok",
					"88_Debrecen",
					"89_Bors",
					"25_Oradea",
					"50_Poieni",
					"57_Cluj",
					"56_Medias"
				],
				"lat1": 2408.000000,
				"nbSeg1": 3
			},
			"pathsExist": false,
			"runtime": 372060412,
			"nomLat1": 3923.000000,
			"nomLat2": 2934.000000,
			"maxNomLat": 3923.000000,
			"mincut": 3
		},
		{
			"s1": "82_Szentes",
			"s2": "119_Jihlava",
			"t1": "133_Pristina",
			"t2": "52_Iasi",
			"suurballeNbPaths": 2,
			"suurballeTime": 920207454,
			"suurballePaths": {
				"path0": [
					"82_Szentes",
					"81_Szeged",
					"20_Beograd",
					"133_Pristina"
				],
				"lat0": 766.000000,
				"nbSeg0": 0,
				"path1": [
					"119_Jihlava",
					"120_Brno",
					"130_Bratislava",
					"61_Gyor",
					"33_Tatabanya",
					"129_Budapest",
					"71_Szolnok",
					"88_Debrecen",
					"89_Bors",
					"25_Oradea",
					"50_Poieni",
					"57_Cluj",
					"56_Medias",
					"59_Dumbravita",
					"19_Ulmi",
					"142_Bucuresti",
					"28_Ploiesti",
					"54_Brasov",
					"55_Bacau",
					"52_Iasi"
				],
				"lat1": 2574.000000,
				"nbSeg1": 3
			},
			"pathsExist": false,
			"runtime": 413741479,
			"nomLat1": 766.000000,
			"nomLat2": 3754.000000,
			"maxNomLat": 3754.000000,
			"mincut": 4
		},
		{
			"s1": "36_Rozvadov",
			"s2": "99_Konin",
			"t1": "48_Riga",
			"t2": "65_Dnipropetrovsk",
			"suurballeNbPaths": 2,
			"suurballeTime": 936461725,
			"suurballePaths": {
				"path0": [
					"99_Konin",
					"103_Kutno",
					"18_Lowicz",
					"41_Warszawa",
					"44_Vilnius",
					"48_Riga"
				],
				"lat0": 1432.000000,
				"nbSeg0": 1,
				"path1": [
					"36_Rozvadov",
					"39_Plzen",
					"70_Praha",
					"77_Hradec_Kralove",
					"116_Ostrava",
					"121_Bielsko",
					"110_Katowice",
					"107_Krakow",
					"67_Tarnow",
					"102_Rzeszow",
					"66_Lviv",
					"40_Kyiv",
					"65_Dnipropetrovsk"
				],
				"lat1": 2964.000000,
				"nbSeg1": 1
			},
			"pathsExist": false,
			"runtime": 289762739,
			"nomLat1": 4056.000000,
			"nomLat2": 2606.000000,
			"maxNomLat": 4056.000000,
			"mincut": 3
		},
		{
			"s1": "37_Karlovy_Vary",
			"s2": "76_Usti_nad_Labem",
			"t1": "40_Kyiv",
			"t2": "129_Budapest",
			"suurballeNbPaths": 2,
			"suurballeTime": 873789165,
			"suurballePaths": {
				"path0": [
					"37_Karlovy_Vary",
					"75_Cheb",
					"36_Rozvadov",
					"39_Plzen",
					"70_Praha",
					"120_Brno",
					"130_Bratislava",
					"61_Gyor",
					"33_Tatabanya",
					"129_Budapest"
				],
				"lat0": 1225.000000,
				"nbSeg0": 0,
				"path1": [
					"76_Usti_nad_Labem",
					"38_Liberec",
					"77_Hradec_Kralove",
					"116_Ostrava",
					"121_Bielsko",
					"110_Katowice",
					"107_Krakow",
					"67_Tarnow",
					"102_Rzeszow",
					"66_Lviv",
					"40_Kyiv"
				],
				"lat1": 2152.000000,
				"nbSeg1": 0
			},
			"pathsExist": false,
			"runtime": 268175394,
			"nomLat1": 2319.000000,
			"nomLat2": 1266.000000,
			"maxNomLat": 2319.000000,
			"mincut": 2
		},
		{
			"s1": "14_None",
			"s2": "67_Tarnow",
			"t1": "131_Wien",
			"t2": "59_Dumbravita",
			"suurballeNbPaths": 2,
			"suurballeTime": 1015178613,
			"suurballePaths": {
				"path0": [
					"14_None",
					"94_Poznan",
					"17_None",
					"132_Berlin",
					"125_Frankfurt_am_Main",
					"15_Amsterdam,_London",
					"131_Wien"
				],
				"lat0": 1990.000000,
				"nbSeg0": 1,
				"path1": [
					"67_Tarnow",
					"107_Krakow",
					"110_Katowice",
					"121_Bielsko",
					"116_Ostrava",
					"115_Zlin",
					"114_Hodonin",
					"130_Bratislava",
					"61_Gyor",
					"33_Tatabanya",
					"129_Budapest",
					"71_Szolnok",
					"88_Debrecen",
					"89_Bors",
					"25_Oradea",
					"50_Poieni",
					"57_Cluj",
					"56_Medias",
					"59_Dumbravita"
				],
				"lat1": 2109.000000,
				"nbSeg1": 2
			},
			"pathsExist": false,
			"runtime": 362575459,
			"nomLat1": 2478.000000,
			"nomLat2": 5248.000000,
			"maxNomLat": 5248.000000,
			"mincut": 3
		},
		{
			"s1": "16_None",
			"s2": "122_Most",
			"t1": "133_Pristina",
			"t2": "32_Szekesfehervar",
			"suurballeNbPaths": 2,
			"suurballeTime": 1122744197,
			"suurballePaths": {
				"path0": [
					"122_Most",
					"76_Usti_nad_Labem",
					"38_Liberec",
					"77_Hradec_Kralove",
					"70_Praha",
					"120_Brno",
					"130_Bratislava",
					"61_Gyor",
					"33_Tatabanya",
					"129_Budapest",
					"32_Szekesfehervar"
				],
				"lat0": 1427.000000,
				"nbSeg0": 0,
				"path1": [
					"16_None",
					"95_Tczew",
					"96_Bydgoszcz",
					"93_Inowroclaw",
					"94_Poznan",
					"92_Leszno",
					"91_Wroclaw",
					"109_Opole",
					"110_Katowice",
					"121_Bielsko",
					"116_Ostrava",
					"115_Zlin",
					"114_Hodonin",
					"130_Bratislava",
					"131_Wien",
					"124_Zagreb",
					"141_Sarajevo",
					"133_Pristina"
				],
				"lat1": 3285.000000,
				"nbSeg1": 2
			},
			"pathsExist": false,
			"runtime": 284611634,
			"nomLat1": 4296.000000,
			"nomLat2": 1427.000000,
			"maxNomLat": 4296.000000,
			"mincut": 3
		},
		{
			"s1": "19_Ulmi",
			"s2": "102_Rzeszow",
			"t1": "6_Slupsk",
			"t2": "73_Tapolca",
			"suurballeNbPaths": 2,
			"suurballeTime": 1003739741,
			"suurballePaths": {
				"path0": [
					"19_Ulmi",
					"59_Dumbravita",
					"56_Medias",
					"57_Cluj",
					"50_Poieni",
					"25_Oradea",
					"89_Bors",
					"88_Debrecen",
					"71_Szolnok",
					"129_Budapest",
					"32_Szekesfehervar",
					"35_Veszprem",
					"73_Tapolca"
				],
				"lat0": 1498.000000,
				"nbSeg0": 1,
				"path1": [
					"102_Rzeszow",
					"67_Tarnow",
					"107_Krakow",
					"110_Katowice",
					"109_Opole",
					"91_Wroclaw",
					"92_Leszno",
					"94_Poznan",
					"14_None",
					"9_Szczecin",
					"8_Kolobrzeg",
					"7_Koszalin",
					"6_Slupsk"
				],
				"lat1": 1806.000000,
				"nbSeg1": 1
			},
			"pathsExist": false,
			"runtime": 261707890,
			"nomLat1": 5502.000000,
			"nomLat2": 6592.000000,
			"maxNomLat": 6592.000000,
			"mincut": 4
		},
		{
			"s1": "115_Zlin",
			"s2": "34_Keszthely",
			"t1": "61_Gyor",
			"t2": "2_Kobenhavn",
			"suurballeNbPaths": 2,
			"suurballeTime": 1109812250,
			"suurballePaths": {
				"path0": [
					"115_Zlin",
					"114_Hodonin",
					"130_Bratislava",
					"61_Gyor"
				],
				"lat0": 346.000000,
				"nbSeg0": 0,
				"path1": [
					"34_Keszthely",
					"72_Zalaegerszeg",
					"31_Szombathely",
					"62_Sopron",
					"131_Wien",
					"15_Amsterdam,_London",
					"125_Frankfurt_am_Main",
					"3_Hamburg",
					"2_Kobenhavn"
				],
				"lat1": 1989.000000,
				"nbSeg1": 2
			},
			"pathsExist": false,
			"runtime": 280034677,
			"nomLat1": 346.000000,
			"nomLat2": 3006.000000,
			"maxNomLat": 3006.000000,
			"mincut": 4
		},
		{
			"s1": "40_Kyiv",
			"s2": "3_Hamburg",
			"t1": "98_Olsztyn",
			"t2": "113_Olomouc",
			"suurballeNbPaths": 2,
			"suurballeTime": 847728561,
			"suurballePaths": {
				"path0": [
					"40_Kyiv",
					"66_Lviv",
					"102_Rzeszow",
					"101_Lublin",
					"41_Warszawa",
					"98_Olsztyn"
				],
				"lat0": 1818.000000,
				"nbSeg0": 0,
				"path1": [
					"3_Hamburg",
					"125_Frankfurt_am_Main",
					"15_Amsterdam,_London",
					"131_Wien",
					"130_Bratislava",
					"120_Brno",
					"113_Olomouc"
				],
				"lat1": 1586.000000,
				"nbSeg1": 2
			},
			"pathsExist": false,
			"runtime": 158829173,
			"nomLat1": 1818.000000,
			"nomLat2": 1771.000000,
			"maxNomLat": 1818.000000,
			"mincut": 3
		},
		{
			"s1": "129_Budapest",
			"s2": "88_Debrecen",
			"t1": "107_Krakow",
			"t2": "93_Inowroclaw",
			"suurballeNbPaths": 2,
			"suurballeTime": 992052224,
			"suurballePaths": {
				"path0": [
					"129_Budapest",
					"33_Tatabanya",
					"61_Gyor",
					"130_Bratislava",
					"114_Hodonin",
					"115_Zlin",
					"116_Ostrava",
					"121_Bielsko",
					"110_Katowice",
					"107_Krakow"
				],
				"lat0": 973.000000,
				"nbSeg0": 1,
				"path1": [
					"88_Debrecen",
					"71_Szolnok",
					"129_Budapest",
					"32_Szekesfehervar",
					"35_Veszprem",
					"73_Tapolca",
					"34_Keszthely",
					"72_Zalaegerszeg",
					"31_Szombathely",
					"62_Sopron",
					"131_Wien",
					"15_Amsterdam,_London",
					"125_Frankfurt_am_Main",
					"132_Berlin",
					"17_None",
					"94_Poznan",
					"93_Inowroclaw"
				],
				"lat1": 2876.000000,
				"nbSeg1": 3
			},
			"pathsExist": false,
			"runtime": 115418026,
			"nomLat1": 1055.000000,
			"nomLat2": 3173.000000,
			"maxNomLat": 3173.000000,
			"mincut": 3
		},
		{
			"s1": "112_Edirne",
			"s2": "2_Kobenhavn",
			"t1": "79_Kiskunhalas",
			"t2": "21_Balvanesti",
			"suurballeNbPaths": 2,
			"suurballeTime": 1123245303,
			"suurballePaths": {
				"path0": [
					"112_Edirne",
					"87_Burgas",
					"51_Sliven",
					"29_Giurgiu",
					"142_Bucuresti",
					"22_Alexandria",
					"23_Craiova",
					"21_Balvanesti"
				],
				"lat0": 1237.000000,
				"nbSeg0": 1,
				"path1": [
					"2_Kobenhavn",
					"3_Hamburg",
					"125_Frankfurt_am_Main",
					"15_Amsterdam,_London",
					"131_Wien",
					"130_Bratislava",
					"61_Gyor",
					"33_Tatabanya",
					"129_Budapest",
					"86_Paks",
					"79_Kiskunhalas"
				],
				"lat1": 2309.000000,
				"nbSeg1": 2
			},
			"pathsExist": false,
			"runtime": 443842390,
			"nomLat1": 1754.000000,
			"nomLat2": 4879.000000,
			"maxNomLat": 4879.000000,
			"mincut": 5
		},
		{
			"s1": "79_Kiskunhalas",
			"s2": "27_Timisoara",
			"t1": "31_Szombathely",
			"t2": "43_Athina",
			"suurballeNbPaths": 2,
			"suurballeTime": 1438966591,
			"suurballePaths": {
				"path0": [
					"27_Timisoara",
					"144_Sofia",
					"140_Plovdiv",
					"138_Petrich",
					"137_Thessaloniki",
					"43_Athina"
				],
				"lat0": 1776.000000,
				"nbSeg0": 1,
				"path1": [
					"79_Kiskunhalas",
					"86_Paks",
					"129_Budapest",
					"33_Tatabanya",
					"61_Gyor",
					"62_Sopron",
					"31_Szombathely"
				],
				"lat1": 667.000000,
				"nbSeg1": 0
			},
			"pathsExist": false,
			"runtime": 128948809,
			"nomLat1": 667.000000,
			"nomLat2": 2025.000000,
			"maxNomLat": 2025.000000,
			"mincut": 4
		},
		{
			"s1": "116_Ostrava",
			"s2": "9_Szczecin",
			"t1": "56_Medias",
			"t2": "42_Tirane",
			"suurballeNbPaths": 2,
			"suurballeTime": 1043220797,
			"suurballePaths": {
				"path0": [
					"116_Ostrava",
					"113_Olomouc",
					"120_Brno",
					"130_Bratislava",
					"131_Wien",
					"124_Zagreb",
					"141_Sarajevo",
					"133_Pristina",
					"148_Skopje",
					"42_Tirane"
				],
				"lat0": 2323.000000,
				"nbSeg0": 1,
				"path1": [
					"9_Szczecin",
					"14_None",
					"94_Poznan",
					"92_Leszno",
					"91_Wroclaw",
					"109_Opole",
					"110_Katowice",
					"121_Bielsko",
					"116_Ostrava",
					"115_Zlin",
					"114_Hodonin",
					"130_Bratislava",
					"61_Gyor",
					"33_Tatabanya",
					"129_Budapest",
					"71_Szolnok",
					"88_Debrecen",
					"89_Bors",
					"25_Oradea",
					"50_Poieni",
					"57_Cluj",
					"56_Medias"
				],
				"lat1": 2769.000000,
				"nbSeg1": 3
			},
			"pathsExist": false,
			"runtime": 5721493,
			"nomLat1": 4429.000000,
			"nomLat2": 4505.000000,
			"maxNomLat": 4505.000000,
			"mincut": 3
		},
		{
			"s1": "95_Tczew",
			"s2": "148_Skopje",
			"t1": "101_Lublin",
			"t2": "21_Balvanesti",
			"suurballeNbPaths": 2,
			"suurballeTime": 1183756559,
			"suurballePaths": {
				"path0": [
					"148_Skopje",
					"144_Sofia",
					"27_Timisoara",
					"26_Caransebes",
					"21_Balvanesti"
				],
				"lat0": 1209.000000,
				"nbSeg0": 0,
				"path1": [
					"95_Tczew",
					"96_Bydgoszcz",
					"93_Inowroclaw",
					"100_Torun",
					"97_Wloclawek",
					"103_Kutno",
					"18_Lowicz",
					"41_Warszawa",
					"101_Lublin"
				],
				"lat1": 973.000000,
				"nbSeg1": 3
			},
			"pathsExist": false,
			"runtime": 345148093,
			"nomLat1": 1069.000000,
			"nomLat2": 1209.000000,
			"maxNomLat": 1209.000000,
			"mincut": 4
		},
		{
			"s1": "65_Dnipropetrovsk",
			"s2": "91_Wroclaw",
			"t1": "108_Kielce",
			"t2": "28_Ploiesti",
			"suurballeNbPaths": 2,
			"suurballeTime": 1094683838,
			"suurballePaths": {
				"path0": [
					"65_Dnipropetrovsk",
					"40_Kyiv",
					"66_Lviv",
					"102_Rzeszow",
					"67_Tarnow",
					"107_Krakow",
					"108_Kielce"
				],
				"lat0": 2112.000000,
				"nbSeg0": 0,
				"path1": [
					"91_Wroclaw",
					"109_Opole",
					"110_Katowice",
					"121_Bielsko",
					"116_Ostrava",
					"115_Zlin",
					"114_Hodonin",
					"130_Bratislava",
					"61_Gyor",
					"33_Tatabanya",
					"129_Budapest",
					"71_Szolnok",
					"88_Debrecen",
					"89_Bors",
					"25_Oradea",
					"50_Poieni",
					"57_Cluj",
					"56_Medias",
					"59_Dumbravita",
					"19_Ulmi",
					"142_Bucuresti",
					"28_Ploiesti"
				],
				"lat1": 2544.000000,
				"nbSeg1": 3
			},
			"pathsExist": false,
			"runtime": 258910920,
			"nomLat1": 2112.000000,
			"nomLat2": 4952.000000,
			"maxNomLat": 4952.000000,
			"mincut": 4
		},
		{
			"s1": "87_Burgas",
			"s2": "114_Hodonin",
			"t1": "5_Gdynia",
			"t2": "23_Craiova",
			"suurballeNbPaths": 2,
			"suurballeTime": 1255243147,
			"suurballePaths": {
				"path0": [
					"87_Burgas",
					"51_Sliven",
					"29_Giurgiu",
					"142_Bucuresti",
					"22_Alexandria",
					"23_Craiova"
				],
				"lat0": 857.000000,
				"nbSeg0": 1,
				"path1": [
					"114_Hodonin",
					"115_Zlin",
					"116_Ostrava",
					"121_Bielsko",
					"110_Katowice",
					"109_Opole",
					"91_Wroclaw",
					"92_Leszno",
					"94_Poznan",
					"93_Inowroclaw",
					"96_Bydgoszcz",
					"95_Tczew",
					"16_None",
					"4_Gdansk",
					"5_Gdynia"
				],
				"lat1": 1972.000000,
				"nbSeg1": 2
			},
			"pathsExist": false,
			"runtime": 40002501,
			"nomLat1": 5711.000000,
			"nomLat2": 3143.000000,
			"maxNomLat": 5711.000000,
			"mincut": 4
		},
		{
			"s1": "97_Wloclawek",
			"s2": "107_Krakow",
			"t1": "33_Tatabanya",
			"t2": "57_Cluj",
			"suurballeNbPaths": 2,
			"suurballeTime": 1141353556,
			"suurballePaths": {
				"path0": [
					"107_Krakow",
					"110_Katowice",
					"121_Bielsko",
					"116_Ostrava",
					"115_Zlin",
					"114_Hodonin",
					"130_Bratislava",
					"61_Gyor",
					"33_Tatabanya"
				],
				"lat0": 890.000000,
				"nbSeg0": 1,
				"path1": [
					"97_Wloclawek",
					"100_Torun",
					"93_Inowroclaw",
					"94_Poznan",
					"17_None",
					"132_Berlin",
					"125_Frankfurt_am_Main",
					"15_Amsterdam,_London",
					"131_Wien",
					"62_Sopron",
					"31_Szombathely",
					"72_Zalaegerszeg",
					"34_Keszthely",
					"73_Tapolca",
					"35_Veszprem",
					"32_Szekesfehervar",
					"129_Budapest",
					"71_Szolnok",
					"88_Debrecen",
					"89_Bors",
					"25_Oradea",
					"50_Poieni",
					"57_Cluj"
				],
				"lat1": 3359.000000,
				"nbSeg1": 4
			},
			"pathsExist": false,
			"runtime": 277767572,
			"nomLat1": 2940.000000,
			"nomLat2": 4577.000000,
			"maxNomLat": 4577.000000,
			"mincut": 3
		},
		{
			"s1": "23_Craiova",
			"s2": "113_Olomouc",
			"t1": "105_Radom",
			"t2": "55_Bacau",
			"suurballeNbPaths": 2,
			"suurballeTime": 619893604,
			"suurballePaths": {
				"path0": [
					"23_Craiova",
					"22_Alexandria",
					"142_Bucuresti",
					"28_Ploiesti",
					"54_Brasov",
					"55_Bacau"
				],
				"lat0": 841.000000,
				"nbSeg0": 0,
				"path1": [
					"113_Olomouc",
					"116_Ostrava",
					"121_Bielsko",
					"110_Katowice",
					"107_Krakow",
					"108_Kielce",
					"105_Radom"
				],
				"lat1": 728.000000,
				"nbSeg1": 0
			},
			"pathsExist": false,
			"runtime": 110947335,
			"nomLat1": 8267.000000,
			"nomLat2": 3261.000000,
			"maxNomLat": 8267.000000,
			"mincut": 4
		},
		{
			"s1": "26_Caransebes",
			"s2": "7_Koszalin",
			"t1": "129_Budapest",
			"t2": "125_Frankfurt_am_Main",
			"suurballeNbPaths": 2,
			"suurballeTime": 760970271,
			"suurballePaths": {
				"path0": [
					"26_Caransebes",
					"27_Timisoara",
					"24_Arad",
					"81_Szeged",
					"79_Kiskunhalas",
					"86_Paks",
					"129_Budapest"
				],
				"lat0": 741.000000,
				"nbSeg0": 0,
				"path1": [
					"7_Koszalin",
					"8_Kolobrzeg",
					"9_Szczecin",
					"14_None",
					"94_Poznan",
					"17_None",
					"132_Berlin",
					"125_Frankfurt_am_Main"
				],
				"lat1": 1985.000000,
				"nbSeg1": 0
			},
			"pathsExist": false,
			"runtime": 163769631,
			"nomLat1": 741.000000,
			"nomLat2": 1985.000000,
			"maxNomLat": 1985.000000,
			"mincut": 4
		},
		{
			"s1": "93_Inowroclaw",
			"s2": "28_Ploiesti",
			"t1": "70_Praha",
			"t2": "34_Keszthely",
			"suurballeNbPaths": 2,
			"suurballeTime": 1425093398,
			"suurballePaths": {
				"path0": [
					"93_Inowroclaw",
					"94_Poznan",
					"92_Leszno",
					"91_Wroclaw",
					"109_Opole",
					"110_Katowice",
					"121_Bielsko",
					"116_Ostrava",
					"77_Hradec_Kralove",
					"70_Praha"
				],
				"lat0": 1386.000000,
				"nbSeg0": 1,
				"path1": [
					"28_Ploiesti",
					"142_Bucuresti",
					"19_Ulmi",
					"59_Dumbravita",
					"56_Medias",
					"57_Cluj",
					"50_Poieni",
					"25_Oradea",
					"89_Bors",
					"88_Debrecen",
					"71_Szolnok",
					"129_Budapest",
					"32_Szekesfehervar",
					"35_Veszprem",
					"73_Tapolca",
					"34_Keszthely"
				],
				"lat1": 1684.000000,
				"nbSeg1": 2
			},
			"pathsExist": false,
			"runtime": 180361887,
			"nomLat1": 2075.000000,
			"nomLat2": 2602.000000,
			"maxNomLat": 2602.000000,
			"mincut": 5
		},
		{
			"s1": "76_Usti_nad_Labem",
			"s2": "73_Tapolca",
			"t1": "134_Podgorica",
			"t2": "19_Ulmi",
			"suurballeNbPaths": 2,
			"suurballeTime": 1200335741,
			"suurballePaths": {
				"path0": [
					"76_Usti_nad_Labem",
					"38_Liberec",
					"77_Hradec_Kralove",
					"116_Ostrava",
					"115_Zlin",
					"114_Hodonin",
					"130_Bratislava",
					"131_Wien",
					"124_Zagreb",
					"141_Sarajevo",
					"134_Podgorica"
				],
				"lat0": 2271.000000,
				"nbSeg0": 1,
				"path1": [
					"73_Tapolca",
					"35_Veszprem",
					"32_Szekesfehervar",
					"129_Budapest",
					"71_Szolnok",
					"88_Debrecen",
					"89_Bors",
					"25_Oradea",
					"50_Poieni",
					"57_Cluj",
					"56_Medias",
					"59_Dumbravita",
					"19_Ulmi"
				],
				"lat1": 1498.000000,
				"nbSeg1": 1
			},
			"pathsExist": false,
			"runtime": 288605159,
			"nomLat1": 3357.000000,
			"nomLat2": 2586.000000,
			"maxNomLat": 3357.000000,
			"mincut": 3
		},
		{
			"s1": "59_Dumbravita",
			"s2": "130_Bratislava",
			"t1": "62_Sopron",
			"t2": "131_Wien",
			"suurballeNbPaths": 2,
			"suurballeTime": 877499193,
			"suurballePaths": {
				"path0": [
					"130_Bratislava",
					"131_Wien"
				],
				"lat0": 96.000000,
				"nbSeg0": 0,
				"path1": [
					"59_Dumbravita",
					"56_Medias",
					"57_Cluj",
					"50_Poieni",
					"25_Oradea",
					"89_Bors",
					"88_Debrecen",
					"71_Szolnok",
					"129_Budapest",
					"33_Tatabanya",
					"61_Gyor",
					"62_Sopron"
				],
				"lat1": 1325.000000,
				"nbSeg1": 1
			},
			"pathsExist": false,
			"runtime": 198288861,
			"nomLat1": 2759.000000,
			"nomLat2": 96.000000,
			"maxNomLat": 2759.000000,
			"mincut": 6
		},
		{
			"s1": "27_Timisoara",
			"s2": "34_Keszthely",
			"t1": "74_Tekirdag",
			"t2": "127_Sankt_Peterburg",
			"suurballeNbPaths": 2,
			"suurballeTime": 830020099,
			"suurballePaths": {
				"path0": [
					"27_Timisoara",
					"144_Sofia",
					"140_Plovdiv",
					"90_Haskovo",
					"111_Svilengrad",
					"112_Edirne",
					"74_Tekirdag"
				],
				"lat0": 1325.000000,
				"nbSeg0": 1,
				"path1": [
					"34_Keszthely",
					"72_Zalaegerszeg",
					"31_Szombathely",
					"62_Sopron",
					"131_Wien",
					"15_Amsterdam,_London",
					"125_Frankfurt_am_Main",
					"3_Hamburg",
					"2_Kobenhavn",
					"128_Stockholm",
					"49_Helsinki",
					"127_Sankt_Peterburg"
				],
				"lat1": 4027.000000,
				"nbSeg1": 2
			},
			"pathsExist": false,
			"runtime": 197234402,
			"nomLat1": 1817.000000,
			"nomLat2": 5044.000000,
			"maxNomLat": 5044.000000,
			"mincut": 4
		},
		{
			"s1": "56_Medias",
			"s2": "6_Slupsk",
			"t1": "98_Olsztyn",
			"t2": "8_Kolobrzeg",
			"suurballeNbPaths": 2,
			"suurballeTime": 1311609598,
			"suurballePaths": {
				"path0": [
					"6_Slupsk",
					"7_Koszalin",
					"8_Kolobrzeg"
				],
				"lat0": 178.000000,
				"nbSeg0": 0,
				"path1": [
					"56_Medias",
					"57_Cluj",
					"50_Poieni",
					"25_Oradea",
					"89_Bors",
					"88_Debrecen",
					"71_Szolnok",
					"129_Budapest",
					"33_Tatabanya",
					"61_Gyor",
					"130_Bratislava",
					"114_Hodonin",
					"115_Zlin",
					"116_Ostrava",
					"121_Bielsko",
					"110_Katowice",
					"107_Krakow",
					"108_Kielce",
					"105_Radom",
					"41_Warszawa",
					"98_Olsztyn"
				],
				"lat1": 2564.000000,
				"nbSeg1": 2
			},
			"pathsExist": false,
			"runtime": 221526551,
			"nomLat1": 7759.000000,
			"nomLat2": 178.000000,
			"maxNomLat": 7759.000000,
			"mincut": 4
		},
		{
			"s1": "28_Ploiesti",
			"s2": "27_Timisoara",
			"t1": "120_Brno",
			"t2": "9_Szczecin",
			"suurballeNbPaths": 2,
			"suurballeTime": 1285656387,
			"suurballePaths": {
				"path0": [
					"27_Timisoara",
					"24_Arad",
					"81_Szeged",
					"79_Kiskunhalas",
					"86_Paks",
					"129_Budapest",
					"33_Tatabanya",
					"61_Gyor",
					"130_Bratislava",
					"120_Brno"
				],
				"lat0": 1102.000000,
				"nbSeg0": 1,
				"path1": [
					"28_Ploiesti",
					"142_Bucuresti",
					"19_Ulmi",
					"59_Dumbravita",
					"56_Medias",
					"57_Cluj",
					"50_Poieni",
					"25_Oradea",
					"89_Bors",
					"88_Debrecen",
					"71_Szolnok",
					"129_Budapest",
					"32_Szekesfehervar",
					"35_Veszprem",
					"73_Tapolca",
					"34_Keszthely",
					"72_Zalaegerszeg",
					"31_Szombathely",
					"62_Sopron",
					"131_Wien",
					"130_Bratislava",
					"114_Hodonin",
					"115_Zlin",
					"116_Ostrava",
					"121_Bielsko",
					"110_Katowice",
					"109_Opole",
					"91_Wroclaw",
					"92_Leszno",
					"94_Poznan",
					"14_None",
					"9_Szczecin"
				],
				"lat1": 3741.000000,
				"nbSeg1": 6
			},
			"pathsExist": false,
			"runtime": 271502659,
			"nomLat1": 2763.000000,
			"nomLat2": 5189.000000,
			"maxNomLat": 5189.000000,
			"mincut": 3
		},
		{
			"s1": "27_Timisoara",
			"s2": "82_Szentes",
			"t1": "21_Balvanesti",
			"t2": "40_Kyiv",
			"suurballeNbPaths": 2,
			"suurballeTime": 1183241004,
			"suurballePaths": {
				"path0": [
					"27_Timisoara",
					"26_Caransebes",
					"21_Balvanesti"
				],
				"lat0": 281.000000,
				"nbSeg0": 0,
				"path1": [
					"82_Szentes",
					"85_Kecskemet",
					"78_Dunaujvaros",
					"129_Budapest",
					"33_Tatabanya",
					"61_Gyor",
					"130_Bratislava",
					"114_Hodonin",
					"115_Zlin",
					"116_Ostrava",
					"121_Bielsko",
					"110_Katowice",
					"107_Krakow",
					"67_Tarnow",
					"102_Rzeszow",
					"66_Lviv",
					"40_Kyiv"
				],
				"lat1": 2547.000000,
				"nbSeg1": 2
			},
			"pathsExist": false,
			"runtime": 399665430,
			"nomLat1": 281.000000,
			"nomLat2": 8643.000000,
			"maxNomLat": 8643.000000,
			"mincut": 4
		},
		{
			"s1": "31_Szombathely",
			"s2": "55_Bacau",
			"t1": "38_Liberec",
			"t2": "52_Iasi",
			"suurballeNbPaths": 2,
			"suurballeTime": 1432169217,
			"suurballePaths": {
				"path0": [
					"55_Bacau",
					"52_Iasi"
				],
				"lat0": 147.000000,
				"nbSeg0": 0,
				"path1": [
					"31_Szombathely",
					"62_Sopron",
					"131_Wien",
					"130_Bratislava",
					"114_Hodonin",
					"115_Zlin",
					"116_Ostrava",
					"77_Hradec_Kralove",
					"38_Liberec"
				],
				"lat1": 1111.000000,
				"nbSeg1": 2
			},
			"pathsExist": false,
			"runtime": 178611844,
			"nomLat1": 2197.000000,
			"nomLat2": 147.000000,
			"maxNomLat": 2197.000000,
			"mincut": 4
		},
		{
			"s1": "38_Liberec",
			"s2": "21_Balvanesti",
			"t1": "99_Konin",
			"t2": "140_Plovdiv",
			"suurballeNbPaths": 2,
			"suurballeTime": 1127404306,
			"suurballePaths": {
				"path0": [
					"21_Balvanesti",
					"23_Craiova",
					"22_Alexandria",
					"142_Bucuresti",
					"29_Giurgiu",
					"51_Sliven",
					"140_Plovdiv"
				],
				"lat0": 1113.000000,
				"nbSeg0": 1,
				"path1": [
					"38_Liberec",
					"77_Hradec_Kralove",
					"116_Ostrava",
					"121_Bielsko",
					"110_Katowice",
					"109_Opole",
					"91_Wroclaw",
					"92_Leszno",
					"94_Poznan",
					"99_Konin"
				],
				"lat1": 1342.000000,
				"nbSeg1": 1
			},
			"pathsExist": false,
			"runtime": 351625601,
			"nomLat1": 2379.000000,
			"nomLat2": 1139.000000,
			"maxNomLat": 2379.000000,
			"mincut": 4
		},
		{
			"s1": "7_Koszalin",
			"s2": "24_Arad",
			"t1": "146_Istanbul",
			"t2": "23_Craiova",
			"suurballeNbPaths": 2,
			"suurballeTime": 1315412087,
			"suurballePaths": {
				"path0": [
					"24_Arad",
					"27_Timisoara",
					"26_Caransebes",
					"21_Balvanesti",
					"23_Craiova"
				],
				"lat0": 544.000000,
				"nbSeg0": 0,
				"path1": [
					"7_Koszalin",
					"8_Kolobrzeg",
					"9_Szczecin",
					"14_None",
					"94_Poznan",
					"92_Leszno",
					"91_Wroclaw",
					"109_Opole",
					"110_Katowice",
					"121_Bielsko",
					"116_Ostrava",
					"115_Zlin",
					"114_Hodonin",
					"130_Bratislava",
					"61_Gyor",
					"33_Tatabanya",
					"129_Budapest",
					"86_Paks",
					"79_Kiskunhalas",
					"80_Tompa",
					"20_Beograd",
					"144_Sofia",
					"140_Plovdiv",
					"90_Haskovo",
					"111_Svilengrad",
					"112_Edirne",
					"145_Istanbul",
					"146_Istanbul"
				],
				"lat1": 4189.000000,
				"nbSeg1": 6
			},
			"pathsExist": false,
			"runtime": 302395108,
			"nomLat1": 5788.000000,
			"nomLat2": 544.000000,
			"maxNomLat": 5788.000000,
			"mincut": 4
		},
		{
			"s1": "136_Izmir",
			"s2": "89_Bors",
			"t1": "75_Cheb",
			"t2": "114_Hodonin",
			"suurballeNbPaths": 2,
			"suurballeTime": 1479245736,
			"suurballePaths": {
				"path0": [
					"89_Bors",
					"88_Debrecen",
					"71_Szolnok",
					"129_Budapest",
					"33_Tatabanya",
					"61_Gyor",
					"130_Bratislava",
					"114_Hodonin"
				],
				"lat0": 876.000000,
				"nbSeg0": 0,
				"path1": [
					"136_Izmir",
					"135_Balikesir",
					"112_Edirne",
					"111_Svilengrad",
					"90_Haskovo",
					"140_Plovdiv",
					"144_Sofia",
					"20_Beograd",
					"80_Tompa",
					"79_Kiskunhalas",
					"86_Paks",
					"129_Budapest",
					"32_Szekesfehervar",
					"35_Veszprem",
					"73_Tapolca",
					"34_Keszthely",
					"72_Zalaegerszeg",
					"31_Szombathely",
					"62_Sopron",
					"131_Wien",
					"130_Bratislava",
					"120_Brno",
					"70_Praha",
					"39_Plzen",
					"36_Rozvadov",
					"75_Cheb"
				],
				"lat1": 3897.000000,
				"nbSeg1": 6
			},
			"pathsExist": false,
			"runtime": 121335681,
			"nomLat1": 5352.000000,
			"nomLat2": 876.000000,
			"maxNomLat": 5352.000000,
			"mincut": 3
		},
		{
			"s1": "128_Stockholm",
			"s2": "119_Jihlava",
			"t1": "123_Ljubljana",
			"t2": "66_Lviv",
			"suurballeNbPaths": 2,
			"suurballeTime": 1393600969,
			"suurballePaths": {
				"path0": [
					"119_Jihlava",
					"120_Brno",
					"130_Bratislava",
					"131_Wien",
					"123_Ljubljana"
				],
				"lat0": 905.000000,
				"nbSeg0": 0,
				"path1": [
					"128_Stockholm",
					"45_Tallinn",
					"44_Vilnius",
					"41_Warszawa",
					"101_Lublin",
					"102_Rzeszow",
					"66_Lviv"
				],
				"lat1": 2925.000000,
				"nbSeg1": 1
			},
			"pathsExist": false,
			"runtime": 233878149,
			"nomLat1": 3485.000000,
			"nomLat2": 1186.000000,
			"maxNomLat": 3485.000000,
			"mincut": 5
		},
		{
			"s1": "21_Balvanesti",
			"s2": "61_Gyor",
			"t1": "64_Kharkiv",
			"t2": "32_Szekesfehervar",
			"suurballeNbPaths": 2,
			"suurballeTime": 960215108,
			"suurballePaths": {
				"path0": [
					"21_Balvanesti",
					"26_Caransebes",
					"27_Timisoara",
					"24_Arad",
					"81_Szeged",
					"79_Kiskunhalas",
					"86_Paks",
					"129_Budapest",
					"32_Szekesfehervar"
				],
				"lat0": 977.000000,
				"nbSeg0": 0,
				"path1": [
					"61_Gyor",
					"130_Bratislava",
					"114_Hodonin",
					"115_Zlin",
					"116_Ostrava",
					"121_Bielsko",
					"110_Katowice",
					"107_Krakow",
					"67_Tarnow",
					"102_Rzeszow",
					"66_Lviv",
					"40_Kyiv",
					"64_Kharkiv"
				],
				"lat1": 2762.000000,
				"nbSeg1": 1
			},
			"pathsExist": false,
			"runtime": 407060125,
			"nomLat1": 9057.000000,
			"nomLat2": 289.000000,
			"maxNomLat": 9057.000000,
			"mincut": 4
		},
		{
			"s1": "52_Iasi",
			"s2": "28_Ploiesti",
			"t1": "87_Burgas",
			"t2": "32_Szekesfehervar",
			"suurballeNbPaths": 2,
			"suurballeTime": 758962459,
			"suurballePaths": {
				"path0": [
					"52_Iasi",
					"53_Galati",
					"58_Constanta",
					"117_Varna",
					"87_Burgas"
				],
				"lat0": 939.000000,
				"nbSeg0": 0,
				"path1": [
					"28_Ploiesti",
					"142_Bucuresti",
					"19_Ulmi",
					"59_Dumbravita",
					"56_Medias",
					"57_Cluj",
					"50_Poieni",
					"25_Oradea",
					"89_Bors",
					"88_Debrecen",
					"71_Szolnok",
					"129_Budapest",
					"32_Szekesfehervar"
				],
				"lat1": 1502.000000,
				"nbSeg1": 1
			},
			"pathsExist": false,
			"runtime": 189691246,
			"nomLat1": 939.000000,
			"nomLat2": 1920.000000,
			"maxNomLat": 1920.000000,
			"mincut": 2
		},
		{
			"s1": "72_Zalaegerszeg",
			"s2": "87_Burgas",
			"t1": "117_Varna",
			"t2": "64_Kharkiv",
			"suurballeNbPaths": 2,
			"suurballeTime": 1346032578,
			"suurballePaths": {
				"path0": [
					"87_Burgas",
					"117_Varna"
				],
				"lat0": 150.000000,
				"nbSeg0": 0,
				"path1": [
					"72_Zalaegerszeg",
					"31_Szombathely",
					"62_Sopron",
					"131_Wien",
					"130_Bratislava",
					"114_Hodonin",
					"115_Zlin",
					"116_Ostrava",
					"121_Bielsko",
					"110_Katowice",
					"107_Krakow",
					"67_Tarnow",
					"102_Rzeszow",
					"66_Lviv",
					"40_Kyiv",
					"64_Kharkiv"
				],
				"lat1": 3021.000000,
				"nbSeg1": 3
			},
			"pathsExist": false,
			"runtime": 294347295,
			"nomLat1": 2613.000000,
			"nomLat2": 8771.000000,
			"maxNomLat": 8771.000000,
			"mincut": 5
		},
		{
			"s1": "43_Athina",
			"s2": "49_Helsinki",
			"t1": "90_Haskovo",
			"t2": "128_Stockholm",
			"suurballeNbPaths": 2,
			"suurballeTime": 1100888860,
			"suurballePaths": {
				"path0": [
					"49_Helsinki",
					"128_Stockholm"
				],
				"lat0": 664.000000,
				"nbSeg0": 0,
				"path1": [
					"43_Athina",
					"137_Thessaloniki",
					"138_Petrich",
					"140_Plovdiv",
					"90_Haskovo"
				],
				"lat1": 1042.000000,
				"nbSeg1": 0
			},
			"pathsExist": false,
			"runtime": 258472474,
			"nomLat1": 1042.000000,
			"nomLat2": 664.000000,
			"maxNomLat": 1042.000000,
			"mincut": 4
		},
		{
			"s1": "8_Kolobrzeg",
			"s2": "144_Sofia",
			"t1": "37_Karlovy_Vary",
			"t2": "89_Bors",
			"suurballeNbPaths": 2,
			"suurballeTime": 1417749460,
			"suurballePaths": {
				"path0": [
					"144_Sofia",
					"27_Timisoara",
					"24_Arad",
					"25_Oradea",
					"89_Bors"
				],
				"lat0": 928.000000,
				"nbSeg0": 0,
				"path1": [
					"8_Kolobrzeg",
					"9_Szczecin",
					"14_None",
					"94_Poznan",
					"92_Leszno",
					"91_Wroclaw",
					"109_Opole",
					"110_Katowice",
					"121_Bielsko",
					"116_Ostrava",
					"77_Hradec_Kralove",
					"38_Liberec",
					"76_Usti_nad_Labem",
					"122_Most",
					"37_Karlovy_Vary"
				],
				"lat1": 2176.000000,
				"nbSeg1": 1
			},
			"pathsExist": false,
			"runtime": 191714039,
			"nomLat1": 3005.000000,
			"nomLat2": 928.000000,
			"maxNomLat": 3005.000000,
			"mincut": 4
		},
		{
			"s1": "64_Kharkiv",
			"s2": "137_Thessaloniki",
			"t1": "31_Szombathely",
			"t2": "109_Opole",
			"suurballeNbPaths": 2,
			"suurballeTime": 1305299703,
			"suurballePaths": {
				"path0": [
					"64_Kharkiv",
					"40_Kyiv",
					"66_Lviv",
					"102_Rzeszow",
					"67_Tarnow",
					"107_Krakow",
					"110_Katowice",
					"109_Opole"
				],
				"lat0": 2243.000000,
				"nbSeg0": 0,
				"path1": [
					"137_Thessaloniki",
					"138_Petrich",
					"140_Plovdiv",
					"144_Sofia",
					"20_Beograd",
					"80_Tompa",
					"79_Kiskunhalas",
					"86_Paks",
					"129_Budapest",
					"33_Tatabanya",
					"61_Gyor",
					"62_Sopron",
					"31_Szombathely"
				],
				"lat1": 2187.000000,
				"nbSeg1": 2
			},
			"pathsExist": false,
			"runtime": 347706098,
			"nomLat1": 6515.000000,
			"nomLat2": 5749.000000,
			"maxNomLat": 6515.000000,
			"mincut": 4
		},
		{
			"s1": "40_Kyiv",
			"s2": "132_Berlin",
			"t1": "67_Tarnow",
			"t2": "113_Olomouc",
			"suurballeNbPaths": 2,
			"suurballeTime": 1152621670,
			"suurballePaths": {
				"path0": [
					"40_Kyiv",
					"66_Lviv",
					"102_Rzeszow",
					"67_Tarnow"
				],
				"lat0": 1148.000000,
				"nbSeg0": 0,
				"path1": [
					"132_Berlin",
					"17_None",
					"94_Poznan",
					"92_Leszno",
					"91_Wroclaw",
					"109_Opole",
					"110_Katowice",
					"121_Bielsko",
					"116_Ostrava",
					"113_Olomouc"
				],
				"lat1": 1389.000000,
				"nbSeg1": 1
			},
			"pathsExist": false,
			"runtime": 282283122,
			"nomLat1": 1148.000000,
			"nomLat2": 1823.000000,
			"maxNomLat": 1823.000000,
			"mincut": 4
		},
		{
			"s1": "146_Istanbul",
			"s2": "66_Lviv",
			"t1": "45_Tallinn",
			"t2": "136_Izmir",
			"suurballeNbPaths": 2,
			"suurballeTime": 1316838458,
			"suurballePaths": {
				"path0": [
					"146_Istanbul",
					"135_Balikesir",
					"136_Izmir"
				],
				"lat0": 555.000000,
				"nbSeg0": 1,
				"path1": [
					"66_Lviv",
					"102_Rzeszow",
					"101_Lublin",
					"41_Warszawa",
					"44_Vilnius",
					"45_Tallinn"
				],
				"lat1": 2290.000000,
				"nbSeg1": 0
			},
			"pathsExist": false,
			"runtime": 342923963,
			"nomLat1": 6455.000000,
			"nomLat2": 11125.000000,
			"maxNomLat": 11125.000000,
			"mincut": 4
		},
		{
			"s1": "85_Kecskemet",
			"s2": "90_Haskovo",
			"t1": "57_Cluj",
			"t2": "94_Poznan",
			"suurballeNbPaths": 2,
			"suurballeTime": 875783687,
			"suurballePaths": {
				"path0": [
					"90_Haskovo",
					"140_Plovdiv",
					"51_Sliven",
					"29_Giurgiu",
					"142_Bucuresti",
					"19_Ulmi",
					"59_Dumbravita",
					"56_Medias",
					"57_Cluj"
				],
				"lat0": 1314.000000,
				"nbSeg0": 1,
				"path1": [
					"85_Kecskemet",
					"78_Dunaujvaros",
					"129_Budapest",
					"33_Tatabanya",
					"61_Gyor",
					"130_Bratislava",
					"114_Hodonin",
					"115_Zlin",
					"116_Ostrava",
					"121_Bielsko",
					"110_Katowice",
					"109_Opole",
					"91_Wroclaw",
					"92_Leszno",
					"94_Poznan"
				],
				"lat1": 1617.000000,
				"nbSeg1": 2
			},
			"pathsExist": false,
			"runtime": 168211151,
			"nomLat1": 740.000000,
			"nomLat2": 4391.000000,
			"maxNomLat": 4391.000000,
			"mincut": 4
		},
		{
			"s1": "110_Katowice",
			"s2": "4_Gdansk",
			"t1": "41_Warszawa",
			"t2": "21_Balvanesti",
			"suurballeNbPaths": 2,
			"suurballeTime": 1129870679,
			"suurballePaths": {
				"path0": [
					"4_Gdansk",
					"16_None",
					"95_Tczew",
					"96_Bydgoszcz",
					"93_Inowroclaw",
					"100_Torun",
					"97_Wloclawek",
					"103_Kutno",
					"18_Lowicz",
					"41_Warszawa"
				],
				"lat0": 1226.000000,
				"nbSeg0": 3,
				"path1": [
					"110_Katowice",
					"121_Bielsko",
					"116_Ostrava",
					"115_Zlin",
					"114_Hodonin",
					"130_Bratislava",
					"61_Gyor",
					"33_Tatabanya",
					"129_Budapest",
					"86_Paks",
					"79_Kiskunhalas",
					"81_Szeged",
					"24_Arad",
					"27_Timisoara",
					"26_Caransebes",
					"21_Balvanesti"
				],
				"lat1": 1731.000000,
				"nbSeg1": 2
			},
			"pathsExist": false,
			"runtime": 96981810,
			"nomLat1": 568.000000,
			"nomLat2": 5911.000000,
			"maxNomLat": 5911.000000,
			"mincut": 5
		},
		{
			"s1": "6_Slupsk",
			"s2": "90_Haskovo",
			"t1": "57_Cluj",
			"t2": "94_Poznan",
			"suurballeNbPaths": 2,
			"suurballeTime": 1462570858,
			"suurballePaths": {
				"path0": [
					"6_Slupsk",
					"7_Koszalin",
					"8_Kolobrzeg",
					"9_Szczecin",
					"14_None",
					"94_Poznan"
				],
				"lat0": 873.000000,
				"nbSeg0": 0,
				"path1": [
					"90_Haskovo",
					"140_Plovdiv",
					"51_Sliven",
					"29_Giurgiu",
					"142_Bucuresti",
					"19_Ulmi",
					"59_Dumbravita",
					"56_Medias",
					"57_Cluj"
				],
				"lat1": 1314.000000,
				"nbSeg1": 1
			},
			"pathsExist": false,
			"runtime": 210339321,
			"nomLat1": 5209.000000,
			"nomLat2": 4391.000000,
			"maxNomLat": 5209.000000,
			"mincut": 4
		},
		{
			"s1": "137_Thessaloniki",
			"s2": "53_Galati",
			"t1": "112_Edirne",
			"t2": "136_Izmir",
			"suurballeNbPaths": 2,
			"suurballeTime": 802737111,
			"suurballePaths": {
				"path0": [
					"53_Galati",
					"58_Constanta",
					"117_Varna",
					"87_Burgas",
					"112_Edirne"
				],
				"lat0": 814.000000,
				"nbSeg0": 0,
				"path1": [
					"137_Thessaloniki",
					"138_Petrich",
					"140_Plovdiv",
					"90_Haskovo",
					"111_Svilengrad",
					"112_Edirne"
				],
				"lat1": 685.000000,
				"nbSeg1": 1
			},
			"pathsExist": false,
			"runtime": 97768673,
			"nomLat1": 1016.000000,
			"nomLat2": 1495.000000,
			"maxNomLat": 1495.000000,
			"mincut": 3
		},
		{
			"s1": "91_Wroclaw",
			"s2": "86_Paks",
			"t1": "93_Inowroclaw",
			"t2": "80_Tompa",
			"suurballeNbPaths": 2,
			"suurballeTime": 849381273,
			"suurballePaths": {
				"path0": [
					"86_Paks",
					"79_Kiskunhalas",
					"80_Tompa"
				],
				"lat0": 137.000000,
				"nbSeg0": 0,
				"path1": [
					"91_Wroclaw",
					"92_Leszno",
					"94_Poznan",
					"93_Inowroclaw"
				],
				"lat1": 438.000000,
				"nbSeg1": 0
			},
			"pathsExist": false,
			"runtime": 92177780,
			"nomLat1": 438.000000,
			"nomLat2": 137.000000,
			"maxNomLat": 438.000000,
			"mincut": 4
		},
		{
			"s1": "89_Bors",
			"s2": "16_None",
			"t1": "80_Tompa",
			"t2": "105_Radom",
			"suurballeNbPaths": 2,
			"suurballeTime": 1175097720,
			"suurballePaths": {
				"path0": [
					"89_Bors",
					"25_Oradea",
					"24_Arad",
					"81_Szeged",
					"79_Kiskunhalas",
					"80_Tompa"
				],
				"lat0": 503.000000,
				"nbSeg0": 1,
				"path1": [
					"16_None",
					"95_Tczew",
					"96_Bydgoszcz",
					"93_Inowroclaw",
					"100_Torun",
					"97_Wloclawek",
					"103_Kutno",
					"18_Lowicz",
					"41_Warszawa",
					"105_Radom"
				],
				"lat1": 1128.000000,
				"nbSeg1": 3
			},
			"pathsExist": false,
			"runtime": 355025879,
			"nomLat1": 931.000000,
			"nomLat2": 1224.000000,
			"maxNomLat": 1224.000000,
			"mincut": 4
		},
		{
			"s1": "125_Frankfurt_am_Main",
			"s2": "40_Kyiv",
			"t1": "28_Ploiesti",
			"t2": "52_Iasi",
			"suurballeNbPaths": 2,
			"suurballeTime": 1075320361,
			"suurballePaths": {
				"path0": [
					"125_Frankfurt_am_Main",
					"15_Amsterdam,_London",
					"131_Wien",
					"62_Sopron",
					"31_Szombathely",
					"72_Zalaegerszeg",
					"34_Keszthely",
					"73_Tapolca",
					"35_Veszprem",
					"32_Szekesfehervar",
					"129_Budapest",
					"71_Szolnok",
					"88_Debrecen",
					"89_Bors",
					"25_Oradea",
					"50_Poieni",
					"57_Cluj",
					"56_Medias",
					"59_Dumbravita",
					"19_Ulmi",
					"142_Bucuresti",
					"28_Ploiesti"
				],
				"lat0": 2530.000000,
				"nbSeg0": 4,
				"path1": [
					"40_Kyiv",
					"66_Lviv",
					"102_Rzeszow",
					"67_Tarnow",
					"107_Krakow",
					"110_Katowice",
					"121_Bielsko",
					"116_Ostrava",
					"115_Zlin",
					"114_Hodonin",
					"130_Bratislava",
					"61_Gyor",
					"33_Tatabanya",
					"129_Budapest",
					"86_Paks",
					"79_Kiskunhalas",
					"81_Szeged",
					"24_Arad",
					"27_Timisoara",
					"26_Caransebes",
					"21_Balvanesti",
					"23_Craiova",
					"22_Alexandria",
					"142_Bucuresti",
					"58_Constanta",
					"53_Galati",
					"52_Iasi"
				],
				"lat1": 4584.000000,
				"nbSeg1": 3
			},
			"pathsExist": false,
			"runtime": 205514669,
			"nomLat1": 3459.000000,
			"nomLat2": 10334.000000,
			"maxNomLat": 10334.000000,
			"mincut": 2
		},
		{
			"s1": "121_Bielsko",
			"s2": "141_Sarajevo",
			"t1": "29_Giurgiu",
			"t2": "6_Slupsk",
			"suurballeNbPaths": 2,
			"suurballeTime": 1414595454,
			"suurballePaths": {
				"path0": [
					"141_Sarajevo",
					"133_Pristina",
					"148_Skopje",
					"144_Sofia",
					"139_Pleven",
					"29_Giurgiu"
				],
				"lat0": 1299.000000,
				"nbSeg0": 1,
				"path1": [
					"121_Bielsko",
					"110_Katowice",
					"109_Opole",
					"91_Wroclaw",
					"92_Leszno",
					"94_Poznan",
					"14_None",
					"9_Szczecin",
					"8_Kolobrzeg",
					"7_Koszalin",
					"6_Slupsk"
				],
				"lat1": 1520.000000,
				"nbSeg1": 0
			},
			"pathsExist": false,
			"runtime": 280972807,
			"nomLat1": 4508.000000,
			"nomLat2": 4030.000000,
			"maxNomLat": 4508.000000,
			"mincut": 5
		},
		{
			"s1": "79_Kiskunhalas",
			"s2": "52_Iasi",
			"t1": "101_Lublin",
			"t2": "65_Dnipropetrovsk",
			"suurballeNbPaths": 2,
			"suurballeTime": 903572264,
			"suurballePaths": {
				"path0": [
					"79_Kiskunhalas",
					"86_Paks",
					"129_Budapest",
					"33_Tatabanya",
					"61_Gyor",
					"130_Bratislava",
					"114_Hodonin",
					"115_Zlin",
					"116_Ostrava",
					"121_Bielsko",
					"110_Katowice",
					"107_Krakow",
					"67_Tarnow",
					"102_Rzeszow",
					"66_Lviv",
					"40_Kyiv",
					"65_Dnipropetrovsk"
				],
				"lat0": 3170.000000,
				"nbSeg0": 1,
				"path1": [
					"52_Iasi",
					"55_Bacau",
					"54_Brasov",
					"28_Ploiesti",
					"142_Bucuresti",
					"19_Ulmi",
					"59_Dumbravita",
					"56_Medias",
					"57_Cluj",
					"50_Poieni",
					"25_Oradea",
					"89_Bors",
					"88_Debrecen",
					"71_Szolnok",
					"129_Budapest",
					"32_Szekesfehervar",
					"35_Veszprem",
					"73_Tapolca",
					"34_Keszthely",
					"72_Zalaegerszeg",
					"31_Szombathely",
					"62_Sopron",
					"131_Wien",
					"15_Amsterdam,_London",
					"125_Frankfurt_am_Main",
					"132_Berlin",
					"17_None",
					"94_Poznan",
					"99_Konin",
					"103_Kutno",
					"18_Lowicz",
					"41_Warszawa",
					"101_Lublin"
				],
				"lat1": 5031.000000,
				"nbSeg1": 6
			},
			"pathsExist": false,
			"runtime": 204891820,
			"nomLat1": 7096.000000,
			"nomLat2": 9968.000000,
			"maxNomLat": 9968.000000,
			"mincut": 3
		},
		{
			"s1": "123_Ljubljana",
			"s2": "8_Kolobrzeg",
			"t1": "33_Tatabanya",
			"t2": "146_Istanbul",
			"suurballeNbPaths": 2,
			"suurballeTime": 1218035882,
			"suurballePaths": {
				"path0": [
					"123_Ljubljana",
					"124_Zagreb",
					"141_Sarajevo",
					"133_Pristina",
					"148_Skopje",
					"144_Sofia",
					"140_Plovdiv",
					"90_Haskovo",
					"111_Svilengrad",
					"112_Edirne",
					"145_Istanbul",
					"146_Istanbul"
				],
				"lat0": 2418.000000,
				"nbSeg0": 3,
				"path1": [
					"8_Kolobrzeg",
					"9_Szczecin",
					"14_None",
					"94_Poznan",
					"92_Leszno",
					"91_Wroclaw",
					"109_Opole",
					"110_Katowice",
					"121_Bielsko",
					"116_Ostrava",
					"115_Zlin",
					"114_Hodonin",
					"130_Bratislava",
					"61_Gyor",
					"33_Tatabanya"
				],
				"lat1": 2027.000000,
				"nbSeg1": 2
			},
			"pathsExist": false,
			"runtime": 33011321,
			"nomLat1": 812.000000,
			"nomLat2": 5720.000000,
			"maxNomLat": 5720.000000,
			"mincut": 3
		},
		{
			"s1": "40_Kyiv",
			"s2": "74_Tekirdag",
			"t1": "148_Skopje",
			"t2": "18_Lowicz",
			"suurballeNbPaths": 2,
			"suurballeTime": 1466681372,
			"suurballePaths": {
				"path0": [
					"40_Kyiv",
					"66_Lviv",
					"102_Rzeszow",
					"101_Lublin",
					"41_Warszawa",
					"18_Lowicz"
				],
				"lat0": 1648.000000,
				"nbSeg0": 0,
				"path1": [
					"74_Tekirdag",
					"112_Edirne",
					"111_Svilengrad",
					"90_Haskovo",
					"140_Plovdiv",
					"144_Sofia",
					"148_Skopje"
				],
				"lat1": 985.000000,
				"nbSeg1": 1
			},
			"pathsExist": false,
			"runtime": 235407975,
			"nomLat1": 8528.000000,
			"nomLat2": 5585.000000,
			"maxNomLat": 8528.000000,
			"mincut": 4
		},
		{
			"s1": "131_Wien",
			"s2": "14_None",
			"t1": "58_Constanta",
			"t2": "7_Koszalin",
			"suurballeNbPaths": 2,
			"suurballeTime": 1314635478,
			"suurballePaths": {
				"path0": [
					"14_None",
					"9_Szczecin",
					"8_Kolobrzeg",
					"7_Koszalin"
				],
				"lat0": 507.000000,
				"nbSeg0": 0,
				"path1": [
					"131_Wien",
					"130_Bratislava",
					"61_Gyor",
					"33_Tatabanya",
					"129_Budapest",
					"71_Szolnok",
					"88_Debrecen",
					"89_Bors",
					"25_Oradea",
					"50_Poieni",
					"57_Cluj",
					"56_Medias",
					"59_Dumbravita",
					"19_Ulmi",
					"142_Bucuresti",
					"58_Constanta"
				],
				"lat1": 2040.000000,
				"nbSeg1": 3
			},
			"pathsExist": false,
			"runtime": 377533812,
			"nomLat1": 2737.000000,
			"nomLat2": 507.000000,
			"maxNomLat": 2737.000000,
			"mincut": 5
		},
		{
			"s1": "35_Veszprem",
			"s2": "55_Bacau",
			"t1": "148_Skopje",
			"t2": "51_Sliven",
			"suurballeNbPaths": 2,
			"suurballeTime": 920855763,
			"suurballePaths": {
				"path0": [
					"55_Bacau",
					"54_Brasov",
					"28_Ploiesti",
					"142_Bucuresti",
					"29_Giurgiu",
					"51_Sliven"
				],
				"lat0": 827.000000,
				"nbSeg0": 1,
				"path1": [
					"35_Veszprem",
					"32_Szekesfehervar",
					"129_Budapest",
					"86_Paks",
					"79_Kiskunhalas",
					"80_Tompa",
					"20_Beograd",
					"133_Pristina",
					"148_Skopje"
				],
				"lat1": 1311.000000,
				"nbSeg1": 2
			},
			"pathsExist": false,
			"runtime": 181423116,
			"nomLat1": 1766.000000,
			"nomLat2": 1177.000000,
			"maxNomLat": 1766.000000,
			"mincut": 4
		},
		{
			"s1": "57_Cluj",
			"s2": "37_Karlovy_Vary",
			"t1": "110_Katowice",
			"t2": "102_Rzeszow",
			"suurballeNbPaths": 2,
			"suurballeTime": 913226948,
			"suurballePaths": {
				"path0": [
					"37_Karlovy_Vary",
					"122_Most",
					"76_Usti_nad_Labem",
					"38_Liberec",
					"77_Hradec_Kralove",
					"116_Ostrava",
					"121_Bielsko",
					"110_Katowice"
				],
				"lat0": 922.000000,
				"nbSeg0": 0,
				"path1": [
					"57_Cluj",
					"50_Poieni",
					"25_Oradea",
					"89_Bors",
					"88_Debrecen",
					"71_Szolnok",
					"129_Budapest",
					"33_Tatabanya",
					"61_Gyor",
					"130_Bratislava",
					"131_Wien",
					"15_Amsterdam,_London",
					"125_Frankfurt_am_Main",
					"132_Berlin",
					"17_None",
					"94_Poznan",
					"92_Leszno",
					"91_Wroclaw",
					"109_Opole",
					"110_Katowice"
				],
				"lat1": 3380.000000,
				"nbSeg1": 4
			},
			"pathsExist": false,
			"runtime": 188736329,
			"nomLat1": 4460.000000,
			"nomLat2": 1296.000000,
			"maxNomLat": 4460.000000,
			"mincut": 3
		},
		{
			"s1": "42_Tirane",
			"s2": "59_Dumbravita",
			"t1": "35_Veszprem",
			"t2": "127_Sankt_Peterburg",
			"suurballeNbPaths": 2,
			"suurballeTime": 1487648433,
			"suurballePaths": {
				"path0": [
					"59_Dumbravita",
					"56_Medias",
					"57_Cluj",
					"50_Poieni",
					"25_Oradea",
					"89_Bors",
					"88_Debrecen",
					"71_Szolnok",
					"129_Budapest",
					"32_Szekesfehervar",
					"35_Veszprem"
				],
				"lat0": 1176.000000,
				"nbSeg0": 0,
				"path1": [
					"42_Tirane",
					"148_Skopje",
					"133_Pristina",
					"141_Sarajevo",
					"124_Zagreb",
					"131_Wien",
					"15_Amsterdam,_London",
					"125_Frankfurt_am_Main",
					"3_Hamburg",
					"2_Kobenhavn",
					"128_Stockholm",
					"49_Helsinki",
					"127_Sankt_Peterburg"
				],
				"lat1": 5464.000000,
				"nbSeg1": 1
			},
			"pathsExist": false,
			"runtime": 234443751,
			"nomLat1": 2026.000000,
			"nomLat2": 6834.000000,
			"maxNomLat": 6834.000000,
			"mincut": 3
		},
		{
			"s1": "65_Dnipropetrovsk",
			"s2": "57_Cluj",
			"t1": "32_Szekesfehervar",
			"t2": "40_Kyiv",
			"suurballeNbPaths": 2,
			"suurballeTime": 1602864748,
			"suurballePaths": {
				"path0": [
					"65_Dnipropetrovsk",
					"40_Kyiv"
				],
				"lat0": 659.000000,
				"nbSeg0": 0,
				"path1": [
					"57_Cluj",
					"50_Poieni",
					"25_Oradea",
					"89_Bors",
					"88_Debrecen",
					"71_Szolnok",
					"129_Budapest",
					"32_Szekesfehervar"
				],
				"lat1": 793.000000,
				"nbSeg1": 0
			},
			"pathsExist": false,
			"runtime": 122663482,
			"nomLat1": 7180.000000,
			"nomLat2": 9131.000000,
			"maxNomLat": 9131.000000,
			"mincut": 4
		},
		{
			"s1": "103_Kutno",
			"s2": "68_Banska_Bystrica",
			"t1": "20_Beograd",
			"t2": "4_Gdansk",
			"suurballeNbPaths": 2,
			"suurballeTime": 1214739116,
			"suurballePaths": {
				"path0": [
					"103_Kutno",
					"97_Wloclawek",
					"100_Torun",
					"93_Inowroclaw",
					"96_Bydgoszcz",
					"95_Tczew",
					"16_None",
					"4_Gdansk"
				],
				"lat0": 1024.000000,
				"nbSeg0": 2,
				"path1": [
					"68_Banska_Bystrica",
					"130_Bratislava",
					"61_Gyor",
					"33_Tatabanya",
					"129_Budapest",
					"86_Paks",
					"79_Kiskunhalas",
					"80_Tompa",
					"20_Beograd"
				],
				"lat1": 1173.000000,
				"nbSeg1": 2
			},
			"pathsExist": false,
			"runtime": 393316083,
			"nomLat1": 3777.000000,
			"nomLat2": 3549.000000,
			"maxNomLat": 3777.000000,
			"mincut": 5
		},
		{
			"s1": "131_Wien",
			"s2": "119_Jihlava",
			"t1": "92_Leszno",
			"t2": "93_Inowroclaw",
			"suurballeNbPaths": 2,
			"suurballeTime": 1608801672,
			"suurballePaths": {
				"path0": [
					"131_Wien",
					"15_Amsterdam,_London",
					"125_Frankfurt_am_Main",
					"132_Berlin",
					"17_None",
					"94_Poznan",
					"93_Inowroclaw"
				],
				"lat0": 1901.000000,
				"nbSeg0": 1,
				"path1": [
					"119_Jihlava",
					"120_Brno",
					"113_Olomouc",
					"116_Ostrava",
					"121_Bielsko",
					"110_Katowice",
					"109_Opole",
					"91_Wroclaw",
					"92_Leszno"
				],
				"lat1": 1002.000000,
				"nbSeg1": 1
			},
			"pathsExist": false,
			"runtime": 122635758,
			"nomLat1": 2342.000000,
			"nomLat2": 2523.000000,
			"maxNomLat": 2523.000000,
			"mincut": 3
		},
		{
			"s1": "53_Galati",
			"s2": "121_Bielsko",
			"t1": "86_Paks",
			"t2": "101_Lublin",
			"suurballeNbPaths": 2,
			"suurballeTime": 1277365607,
			"suurballePaths": {
				"path0": [
					"121_Bielsko",
					"110_Katowice",
					"107_Krakow",
					"67_Tarnow",
					"102_Rzeszow",
					"101_Lublin"
				],
				"lat0": 700.000000,
				"nbSeg0": 0,
				"path1": [
					"53_Galati",
					"58_Constanta",
					"142_Bucuresti",
					"22_Alexandria",
					"23_Craiova",
					"21_Balvanesti",
					"26_Caransebes",
					"27_Timisoara",
					"24_Arad",
					"81_Szeged",
					"79_Kiskunhalas",
					"86_Paks"
				],
				"lat1": 1837.000000,
				"nbSeg1": 1
			},
			"pathsExist": false,
			"runtime": 59269063,
			"nomLat1": 2182.000000,
			"nomLat2": 700.000000,
			"maxNomLat": 2182.000000,
			"mincut": 4
		},
		{
			"s1": "130_Bratislava",
			"s2": "16_None",
			"t1": "56_Medias",
			"t2": "123_Ljubljana",
			"suurballeNbPaths": 2,
			"suurballeTime": 1347592461,
			"suurballePaths": {
				"path0": [
					"130_Bratislava",
					"131_Wien",
					"123_Ljubljana"
				],
				"lat0": 564.000000,
				"nbSeg0": 0,
				"path1": [
					"16_None",
					"95_Tczew",
					"96_Bydgoszcz",
					"93_Inowroclaw",
					"94_Poznan",
					"92_Leszno",
					"91_Wroclaw",
					"109_Opole",
					"110_Katowice",
					"121_Bielsko",
					"116_Ostrava",
					"115_Zlin",
					"114_Hodonin",
					"130_Bratislava",
					"61_Gyor",
					"33_Tatabanya",
					"129_Budapest",
					"71_Szolnok",
					"88_Debrecen",
					"89_Bors",
					"25_Oradea",
					"50_Poieni",
					"57_Cluj",
					"56_Medias"
				],
				"lat1": 2954.000000,
				"nbSeg1": 3
			},
			"pathsExist": false,
			"runtime": 334648108,
			"nomLat1": 2361.000000,
			"nomLat2": 3387.000000,
			"maxNomLat": 3387.000000,
			"mincut": 4
		},
		{
			"s1": "16_None",
			"s2": "134_Podgorica",
			"t1": "11_None",
			"t2": "24_Arad",
			"suurballeNbPaths": 2,
			"suurballeTime": 887652228,
			"suurballePaths": {
				"path0": [
					"16_None",
					"95_Tczew",
					"11_None"
				],
				"lat0": 512.000000,
				"nbSeg0": 0,
				"path1": [
					"134_Podgorica",
					"20_Beograd",
					"81_Szeged",
					"24_Arad"
				],
				"lat1": 902.000000,
				"nbSeg1": 0
			},
			"pathsExist": false,
			"runtime": 100949326,
			"nomLat1": 512.000000,
			"nomLat2": 902.000000,
			"maxNomLat": 902.000000,
			"mincut": 4
		},
		{
			"s1": "119_Jihlava",
			"s2": "72_Zalaegerszeg",
			"t1": "82_Szentes",
			"t2": "38_Liberec",
			"suurballeNbPaths": 2,
			"suurballeTime": 1514646448,
			"suurballePaths": {
				"path0": [
					"119_Jihlava",
					"118_Ceske_Budejovice",
					"70_Praha",
					"77_Hradec_Kralove",
					"38_Liberec"
				],
				"lat0": 689.000000,
				"nbSeg0": 1,
				"path1": [
					"72_Zalaegerszeg",
					"34_Keszthely",
					"73_Tapolca",
					"35_Veszprem",
					"32_Szekesfehervar",
					"129_Budapest",
					"78_Dunaujvaros",
					"85_Kecskemet",
					"82_Szentes"
				],
				"lat1": 636.000000,
				"nbSeg1": 1
			},
			"pathsExist": false,
			"runtime": 234463048,
			"nomLat1": 2063.000000,
			"nomLat2": 2808.000000,
			"maxNomLat": 2808.000000,
			"mincut": 4
		},
		{
			"s1": "115_Zlin",
			"s2": "122_Most",
			"t1": "40_Kyiv",
			"t2": "50_Poieni",
			"suurballeNbPaths": 2,
			"suurballeTime": 1199216489,
			"suurballePaths": {
				"path0": [
					"115_Zlin",
					"114_Hodonin",
					"130_Bratislava",
					"61_Gyor",
					"33_Tatabanya",
					"129_Budapest",
					"71_Szolnok",
					"88_Debrecen",
					"89_Bors",
					"25_Oradea",
					"50_Poieni"
				],
				"lat0": 1127.000000,
				"nbSeg0": 1,
				"path1": [
					"122_Most",
					"76_Usti_nad_Labem",
					"38_Liberec",
					"77_Hradec_Kralove",
					"116_Ostrava",
					"121_Bielsko",
					"110_Katowice",
					"107_Krakow",
					"67_Tarnow",
					"102_Rzeszow",
					"66_Lviv",
					"40_Kyiv"
				],
				"lat1": 2211.000000,
				"nbSeg1": 0
			},
			"pathsExist": false,
			"runtime": 364092939,
			"nomLat1": 1720.000000,
			"nomLat2": 4205.000000,
			"maxNomLat": 4205.000000,
			"mincut": 4
		},
		{
			"s1": "134_Podgorica",
			"s2": "120_Brno",
			"t1": "49_Helsinki",
			"t2": "8_Kolobrzeg",
			"suurballeNbPaths": 2,
			"suurballeTime": 1448530522,
			"suurballePaths": {
				"path0": [
					"134_Podgorica",
					"141_Sarajevo",
					"124_Zagreb",
					"131_Wien",
					"15_Amsterdam,_London",
					"125_Frankfurt_am_Main",
					"3_Hamburg",
					"2_Kobenhavn",
					"128_Stockholm",
					"49_Helsinki"
				],
				"lat0": 4421.000000,
				"nbSeg0": 1,
				"path1": [
					"120_Brno",
					"113_Olomouc",
					"116_Ostrava",
					"121_Bielsko",
					"110_Katowice",
					"109_Opole",
					"91_Wroclaw",
					"92_Leszno",
					"94_Poznan",
					"14_None",
					"9_Szczecin",
					"8_Kolobrzeg"
				],
				"lat1": 1684.000000,
				"nbSeg1": 1
			},
			"pathsExist": false,
			"runtime": 308551553,
			"nomLat1": 4909.000000,
			"nomLat2": 2918.000000,
			"maxNomLat": 4909.000000,
			"mincut": 3
		},
		{
			"s1": "14_None",
			"s2": "58_Constanta",
			"t1": "129_Budapest",
			"t2": "115_Zlin",
			"suurballeNbPaths": 2,
			"suurballeTime": 1023775170,
			"suurballePaths": {
				"path0": [
					"14_None",
					"94_Poznan",
					"92_Leszno",
					"91_Wroclaw",
					"109_Opole",
					"110_Katowice",
					"121_Bielsko",
					"116_Ostrava",
					"115_Zlin"
				],
				"lat0": 1138.000000,
				"nbSeg0": 1,
				"path1": [
					"58_Constanta",
					"142_Bucuresti",
					"19_Ulmi",
					"59_Dumbravita",
					"56_Medias",
					"57_Cluj",
					"50_Poieni",
					"25_Oradea",
					"89_Bors",
					"88_Debrecen",
					"71_Szolnok",
					"129_Budapest"
				],
				"lat1": 1644.000000,
				"nbSeg1": 1
			},
			"pathsExist": false,
			"runtime": 196370540,
			"nomLat1": 2905.000000,
			"nomLat2": 3066.000000,
			"maxNomLat": 3066.000000,
			"mincut": 5
		},
		{
			"s1": "90_Haskovo",
			"s2": "127_Sankt_Peterburg",
			"t1": "79_Kiskunhalas",
			"t2": "56_Medias",
			"suurballeNbPaths": 2,
			"suurballeTime": 1287071616,
			"suurballePaths": {
				"path0": [
					"90_Haskovo",
					"140_Plovdiv",
					"51_Sliven",
					"29_Giurgiu",
					"142_Bucuresti",
					"19_Ulmi",
					"59_Dumbravita",
					"56_Medias"
				],
				"lat0": 1163.000000,
				"nbSeg0": 0,
				"path1": [
					"127_Sankt_Peterburg",
					"49_Helsinki",
					"128_Stockholm",
					"2_Kobenhavn",
					"3_Hamburg",
					"125_Frankfurt_am_Main",
					"15_Amsterdam,_London",
					"131_Wien",
					"130_Bratislava",
					"61_Gyor",
					"33_Tatabanya",
					"129_Budapest",
					"86_Paks",
					"79_Kiskunhalas"
				],
				"lat1": 4347.000000,
				"nbSeg1": 2
			},
			"pathsExist": false,
			"runtime": 208486296,
			"nomLat1": 1270.000000,
			"nomLat2": 6446.000000,
			"maxNomLat": 6446.000000,
			"mincut": 4
		},
		{
			"s1": "121_Bielsko",
			"s2": "14_None",
			"t1": "61_Gyor",
			"t2": "79_Kiskunhalas",
			"suurballeNbPaths": 2,
			"suurballeTime": 1348071973,
			"suurballePaths": {
				"path0": [
					"121_Bielsko",
					"116_Ostrava",
					"115_Zlin",
					"114_Hodonin",
					"130_Bratislava",
					"61_Gyor"
				],
				"lat0": 581.000000,
				"nbSeg0": 1,
				"path1": [
					"14_None",
					"94_Poznan",
					"17_None",
					"132_Berlin",
					"125_Frankfurt_am_Main",
					"15_Amsterdam,_London",
					"131_Wien",
					"62_Sopron",
					"61_Gyor"
				],
				"lat1": 2230.000000,
				"nbSeg1": 2
			},
			"pathsExist": false,
			"runtime": 411821353,
			"nomLat1": 663.000000,
			"nomLat2": 4119.000000,
			"maxNomLat": 4119.000000,
			"mincut": 3
		},
		{
			"s1": "84_Kosice",
			"s2": "58_Constanta",
			"t1": "28_Ploiesti",
			"t2": "122_Most",
			"suurballeNbPaths": 2,
			"suurballeTime": 1482499777,
			"suurballePaths": {
				"path0": [
					"58_Constanta",
					"142_Bucuresti",
					"28_Ploiesti"
				],
				"lat0": 446.000000,
				"nbSeg0": 0,
				"path1": [
					"84_Kosice",
					"130_Bratislava",
					"114_Hodonin",
					"115_Zlin",
					"116_Ostrava",
					"77_Hradec_Kralove",
					"38_Liberec",
					"76_Usti_nad_Labem",
					"122_Most"
				],
				"lat1": 1530.000000,
				"nbSeg1": 1
			},
			"pathsExist": false,
			"runtime": 274042342,
			"nomLat1": 3079.000000,
			"nomLat2": 4925.000000,
			"maxNomLat": 4925.000000,
			"mincut": 4
		},
		{
			"s1": "55_Bacau",
			"s2": "127_Sankt_Peterburg",
			"t1": "142_Bucuresti",
			"t2": "94_Poznan",
			"suurballeNbPaths": 2,
			"suurballeTime": 1215295074,
			"suurballePaths": {
				"path0": [
					"55_Bacau",
					"54_Brasov",
					"28_Ploiesti",
					"142_Bucuresti"
				],
				"lat0": 487.000000,
				"nbSeg0": 0,
				"path1": [
					"127_Sankt_Peterburg",
					"49_Helsinki",
					"128_Stockholm",
					"45_Tallinn",
					"44_Vilnius",
					"41_Warszawa",
					"18_Lowicz",
					"103_Kutno",
					"99_Konin",
					"94_Poznan"
				],
				"lat1": 3830.000000,
				"nbSeg1": 1
			},
			"pathsExist": false,
			"runtime": 131834922,
			"nomLat1": 487.000000,
			"nomLat2": 4403.000000,
			"maxNomLat": 4403.000000,
			"mincut": 4
		},
		{
			"s1": "25_Oradea",
			"s2": "61_Gyor",
			"t1": "19_Ulmi",
			"t2": "56_Medias",
			"suurballeNbPaths": 2,
			"suurballeTime": 1259184017,
			"suurballePaths": {
				"path0": [
					"25_Oradea",
					"50_Poieni",
					"57_Cluj",
					"56_Medias"
				],
				"lat0": 378.000000,
				"nbSeg0": 0,
				"path1": [
					"61_Gyor",
					"33_Tatabanya",
					"129_Budapest",
					"86_Paks",
					"79_Kiskunhalas",
					"81_Szeged",
					"24_Arad",
					"27_Timisoara",
					"26_Caransebes",
					"21_Balvanesti",
					"23_Craiova",
					"22_Alexandria",
					"142_Bucuresti",
					"19_Ulmi"
				],
				"lat1": 1642.000000,
				"nbSeg1": 2
			},
			"pathsExist": false,
			"runtime": 338153699,
			"nomLat1": 786.000000,
			"nomLat2": 1029.000000,
			"maxNomLat": 1029.000000,
			"mincut": 2
		},
		{
			"s1": "85_Kecskemet",
			"s2": "75_Cheb",
			"t1": "79_Kiskunhalas",
			"t2": "128_Stockholm",
			"suurballeNbPaths": 2,
			"suurballeTime": 1594744044,
			"suurballePaths": {
				"path0": [
					"85_Kecskemet",
					"82_Szentes",
					"81_Szeged",
					"79_Kiskunhalas"
				],
				"lat0": 267.000000,
				"nbSeg0": 0,
				"path1": [
					"75_Cheb",
					"36_Rozvadov",
					"39_Plzen",
					"70_Praha",
					"125_Frankfurt_am_Main",
					"3_Hamburg",
					"2_Kobenhavn",
					"128_Stockholm"
				],
				"lat1": 3035.000000,
				"nbSeg1": 0
			},
			"pathsExist": false,
			"runtime": 152103836,
			"nomLat1": 267.000000,
			"nomLat2": 3035.000000,
			"maxNomLat": 3035.000000,
			"mincut": 4
		},
		{
			"s1": "94_Poznan",
			"s2": "73_Tapolca",
			"t1": "75_Cheb",
			"t2": "137_Thessaloniki",
			"suurballeNbPaths": 2,
			"suurballeTime": 1078207031,
			"suurballePaths": {
				"path0": [
					"94_Poznan",
					"92_Leszno",
					"91_Wroclaw",
					"109_Opole",
					"110_Katowice",
					"121_Bielsko",
					"116_Ostrava",
					"77_Hradec_Kralove",
					"70_Praha",
					"39_Plzen",
					"36_Rozvadov",
					"75_Cheb"
				],
				"lat0": 1551.000000,
				"nbSeg0": 1,
				"path1": [
					"73_Tapolca",
					"35_Veszprem",
					"32_Szekesfehervar",
					"129_Budapest",
					"86_Paks",
					"79_Kiskunhalas",
					"80_Tompa",
					"20_Beograd",
					"144_Sofia",
					"140_Plovdiv",
					"138_Petrich",
					"137_Thessaloniki"
				],
				"lat1": 2026.000000,
				"nbSeg1": 1
			},
			"pathsExist": false,
			"runtime": 92082788,
			"nomLat1": 2240.000000,
			"nomLat2": 3297.000000,
			"maxNomLat": 3297.000000,
			"mincut": 4
		},
		{
			"s1": "127_Sankt_Peterburg",
			"s2": "115_Zlin",
			"t1": "117_Varna",
			"t2": "129_Budapest",
			"suurballeNbPaths": 2,
			"suurballeTime": 1639179501,
			"suurballePaths": {
				"path0": [
					"115_Zlin",
					"114_Hodonin",
					"130_Bratislava",
					"61_Gyor",
					"33_Tatabanya",
					"129_Budapest"
				],
				"lat0": 533.000000,
				"nbSeg0": 0,
				"path1": [
					"127_Sankt_Peterburg",
					"49_Helsinki",
					"128_Stockholm",
					"2_Kobenhavn",
					"3_Hamburg",
					"125_Frankfurt_am_Main",
					"15_Amsterdam,_London",
					"131_Wien",
					"62_Sopron",
					"31_Szombathely",
					"72_Zalaegerszeg",
					"34_Keszthely",
					"73_Tapolca",
					"35_Veszprem",
					"32_Szekesfehervar",
					"129_Budapest"
				],
				"lat1": 4311.000000,
				"nbSeg1": 3
			},
			"pathsExist": false,
			"runtime": 131163758,
			"nomLat1": 6709.000000,
			"nomLat2": 533.000000,
			"maxNomLat": 6709.000000,
			"mincut": 3
		},
		{
			"s1": "62_Sopron",
			"s2": "96_Bydgoszcz",
			"t1": "141_Sarajevo",
			"t2": "38_Liberec",
			"suurballeNbPaths": 2,
			"suurballeTime": 1240086582,
			"suurballePaths": {
				"path0": [
					"62_Sopron",
					"131_Wien",
					"124_Zagreb",
					"141_Sarajevo"
				],
				"lat0": 1041.000000,
				"nbSeg0": 0,
				"path1": [
					"96_Bydgoszcz",
					"93_Inowroclaw",
					"94_Poznan",
					"92_Leszno",
					"91_Wroclaw",
					"109_Opole",
					"110_Katowice",
					"121_Bielsko",
					"116_Ostrava",
					"77_Hradec_Kralove",
					"38_Liberec"
				],
				"lat1": 1426.000000,
				"nbSeg1": 1
			},
			"pathsExist": false,
			"runtime": 228199176,
			"nomLat1": 1041.000000,
			"nomLat2": 2463.000000,
			"maxNomLat": 2463.000000,
			"mincut": 5
		},
		{
			"s1": "28_Ploiesti",
			"s2": "32_Szekesfehervar",
			"t1": "113_Olomouc",
			"t2": "85_Kecskemet",
			"suurballeNbPaths": 2,
			"suurballeTime": 1170190901,
			"suurballePaths": {
				"path0": [
					"32_Szekesfehervar",
					"129_Budapest",
					"33_Tatabanya",
					"61_Gyor",
					"130_Bratislava",
					"120_Brno",
					"113_Olomouc"
				],
				"lat0": 722.000000,
				"nbSeg0": 0,
				"path1": [
					"28_Ploiesti",
					"142_Bucuresti",
					"22_Alexandria",
					"23_Craiova",
					"21_Balvanesti",
					"26_Caransebes",
					"27_Timisoara",
					"24_Arad",
					"81_Szeged",
					"82_Szentes",
					"85_Kecskemet"
				],
				"lat1": 1326.000000,
				"nbSeg1": 1
			},
			"pathsExist": false,
			"runtime": 376207668,
			"nomLat1": 2875.000000,
			"nomLat2": 304.000000,
			"maxNomLat": 2875.000000,
			"mincut": 4
		},
		{
			"s1": "32_Szekesfehervar",
			"s2": "58_Constanta",
			"t1": "116_Ostrava",
			"t2": "142_Bucuresti",
			"suurballeNbPaths": 2,
			"suurballeTime": 987740819,
			"suurballePaths": {
				"path0": [
					"58_Constanta",
					"142_Bucuresti"
				],
				"lat0": 345.000000,
				"nbSeg0": 0,
				"path1": [
					"32_Szekesfehervar",
					"129_Budapest",
					"33_Tatabanya",
					"61_Gyor",
					"130_Bratislava",
					"114_Hodonin",
					"115_Zlin",
					"116_Ostrava"
				],
				"lat1": 776.000000,
				"nbSeg1": 1
			},
			"pathsExist": false,
			"runtime": 228223321,
			"nomLat1": 858.000000,
			"nomLat2": 345.000000,
			"maxNomLat": 858.000000,
			"mincut": 5
		},
		{
			"s1": "92_Leszno",
			"s2": "9_Szczecin",
			"t1": "76_Usti_nad_Labem",
			"t2": "7_Koszalin",
			"suurballeNbPaths": 2,
			"suurballeTime": 1499236699,
			"suurballePaths": {
				"path0": [
					"9_Szczecin",
					"8_Kolobrzeg",
					"7_Koszalin"
				],
				"lat0": 251.000000,
				"nbSeg0": 0,
				"path1": [
					"92_Leszno",
					"91_Wroclaw",
					"109_Opole",
					"110_Katowice",
					"121_Bielsko",
					"116_Ostrava",
					"77_Hradec_Kralove",
					"38_Liberec",
					"76_Usti_nad_Labem"
				],
				"lat1": 1194.000000,
				"nbSeg1": 1
			},
			"pathsExist": false,
			"runtime": 274706532,
			"nomLat1": 2471.000000,
			"nomLat2": 251.000000,
			"maxNomLat": 2471.000000,
			"mincut": 4
		},
		{
			"s1": "43_Athina",
			"s2": "130_Bratislava",
			"t1": "137_Thessaloniki",
			"t2": "62_Sopron",
			"suurballeNbPaths": 2,
			"suurballeTime": 1476681784,
			"suurballePaths": {
				"path0": [
					"43_Athina",
					"137_Thessaloniki"
				],
				"lat0": 510.000000,
				"nbSeg0": 0,
				"path1": [
					"130_Bratislava",
					"131_Wien",
					"62_Sopron"
				],
				"lat1": 202.000000,
				"nbSeg1": 1
			},
			"pathsExist": true,
			"path1": [
				"43_Athina",
				"137_Thessaloniki"
			],
			"lat1": 510.000000,
			"path2": [
				"130_Bratislava",
				"62_Sopron"
			],
			"lat2": 247.000000,
			"maxlat": 510.000000,
			"runtime": 120254119,
			"nomLat1": 510.000000,
			"nomLat2": 247.000000,
			"maxNomLat": 510.000000,
			"mincut": 5
		},
		{
			"s1": "111_Svilengrad",
			"s2": "134_Podgorica",
			"t1": "39_Plzen",
			"t2": "88_Debrecen",
			"suurballeNbPaths": 2,
			"suurballeTime": 1439692470,
			"suurballePaths": {
				"path0": [
					"134_Podgorica",
					"141_Sarajevo",
					"124_Zagreb",
					"131_Wien",
					"130_Bratislava",
					"120_Brno",
					"70_Praha",
					"39_Plzen"
				],
				"lat0": 1991.000000,
				"nbSeg0": 1,
				"path1": [
					"111_Svilengrad",
					"90_Haskovo",
					"140_Plovdiv",
					"144_Sofia",
					"27_Timisoara",
					"24_Arad",
					"25_Oradea",
					"89_Bors",
					"88_Debrecen"
				],
				"lat1": 1458.000000,
				"nbSeg1": 0
			},
			"pathsExist": false,
			"runtime": 109552920,
			"nomLat1": 4096.000000,
			"nomLat2": 1195.000000,
			"maxNomLat": 4096.000000,
			"mincut": 4
		},
		{
			"s1": "56_Medias",
			"s2": "28_Ploiesti",
			"t1": "71_Szolnok",
			"t2": "91_Wroclaw",
			"suurballeNbPaths": 2,
			"suurballeTime": 1487370174,
			"suurballePaths": {
				"path0": [
					"56_Medias",
					"57_Cluj",
					"50_Poieni",
					"25_Oradea",
					"89_Bors",
					"88_Debrecen",
					"71_Szolnok"
				],
				"lat0": 681.000000,
				"nbSeg0": 0,
				"path1": [
					"28_Ploiesti",
					"142_Bucuresti",
					"22_Alexandria",
					"23_Craiova",
					"21_Balvanesti",
					"26_Caransebes",
					"27_Timisoara",
					"24_Arad",
					"81_Szeged",
					"79_Kiskunhalas",
					"86_Paks",
					"129_Budapest",
					"33_Tatabanya",
					"61_Gyor",
					"130_Bratislava",
					"114_Hodonin",
					"115_Zlin",
					"116_Ostrava",
					"121_Bielsko",
					"110_Katowice",
					"109_Opole",
					"91_Wroclaw"
				],
				"lat1": 2651.000000,
				"nbSeg1": 3
			},
			"pathsExist": false,
			"runtime": 259472717,
			"nomLat1": 681.000000,
			"nomLat2": 4952.000000,
			"maxNomLat": 4952.000000,
			"mincut": 4
		},
		{
			"s1": "134_Podgorica",
			"s2": "19_Ulmi",
			"t1": "96_Bydgoszcz",
			"t2": "131_Wien",
			"suurballeNbPaths": 2,
			"suurballeTime": 1248215857,
			"suurballePaths": {
				"path0": [
					"134_Podgorica",
					"141_Sarajevo",
					"124_Zagreb",
					"131_Wien"
				],
				"lat0": 1228.000000,
				"nbSeg0": 0,
				"path1": [
					"19_Ulmi",
					"59_Dumbravita",
					"56_Medias",
					"57_Cluj",
					"50_Poieni",
					"25_Oradea",
					"89_Bors",
					"88_Debrecen",
					"71_Szolnok",
					"129_Budapest",
					"33_Tatabanya",
					"61_Gyor",
					"130_Bratislava",
					"114_Hodonin",
					"115_Zlin",
					"116_Ostrava",
					"121_Bielsko",
					"110_Katowice",
					"109_Opole",
					"91_Wroclaw",
					"92_Leszno",
					"94_Poznan",
					"93_Inowroclaw",
					"96_Bydgoszcz"
				],
				"lat1": 2903.000000,
				"nbSeg1": 3
			},
			"pathsExist": false,
			"runtime": 4006789,
			"nomLat1": 3688.000000,
			"nomLat2": 2407.000000,
			"maxNomLat": 3688.000000,
			"mincut": 3
		},
		{
			"s1": "92_Leszno",
			"s2": "65_Dnipropetrovsk",
			"t1": "83_Zilina",
			"t2": "126_Moskva",
			"suurballeNbPaths": 2,
			"suurballeTime": 1345034195,
			"suurballePaths": {
				"path0": [
					"65_Dnipropetrovsk",
					"64_Kharkiv",
					"126_Moskva"
				],
				"lat0": 1411.000000,
				"nbSeg0": 0,
				"path1": [
					"92_Leszno",
					"91_Wroclaw",
					"109_Opole",
					"110_Katowice",
					"121_Bielsko",
					"116_Ostrava",
					"115_Zlin",
					"114_Hodonin",
					"130_Bratislava",
					"83_Zilina"
				],
				"lat1": 1281.000000,
				"nbSeg1": 1
			},
			"pathsExist": false,
			"runtime": 419875078,
			"nomLat1": 2724.000000,
			"nomLat2": 1411.000000,
			"maxNomLat": 2724.000000,
			"mincut": 4
		},
		{
			"s1": "117_Varna",
			"s2": "125_Frankfurt_am_Main",
			"t1": "32_Szekesfehervar",
			"t2": "39_Plzen",
			"suurballeNbPaths": 2,
			"suurballeTime": 1276085199,
			"suurballePaths": {
				"path0": [
					"125_Frankfurt_am_Main",
					"70_Praha",
					"39_Plzen"
				],
				"lat0": 830.000000,
				"nbSeg0": 0,
				"path1": [
					"117_Varna",
					"51_Sliven",
					"140_Plovdiv",
					"144_Sofia",
					"20_Beograd",
					"80_Tompa",
					"79_Kiskunhalas",
					"86_Paks",
					"129_Budapest",
					"32_Szekesfehervar"
				],
				"lat1": 1955.000000,
				"nbSeg1": 1
			},
			"pathsExist": false,
			"runtime": 369444186,
			"nomLat1": 1989.000000,
			"nomLat2": 830.000000,
			"maxNomLat": 1989.000000,
			"mincut": 4
		},
		{
			"s1": "6_Slupsk",
			"s2": "19_Ulmi",
			"t1": "7_Koszalin",
			"t2": "56_Medias",
			"suurballeNbPaths": 2,
			"suurballeTime": 1223728727,
			"suurballePaths": {
				"path0": [
					"6_Slupsk",
					"7_Koszalin"
				],
				"lat0": 110.000000,
				"nbSeg0": 0,
				"path1": [
					"19_Ulmi",
					"59_Dumbravita",
					"56_Medias"
				],
				"lat1": 408.000000,
				"nbSeg1": 0
			},
			"pathsExist": false,
			"runtime": 301754323,
			"nomLat1": 110.000000,
			"nomLat2": 408.000000,
			"maxNomLat": 408.000000,
			"mincut": 4
		},
		{
			"s1": "87_Burgas",
			"s2": "119_Jihlava",
			"t1": "11_None",
			"t2": "125_Frankfurt_am_Main",
			"suurballeNbPaths": 2,
			"suurballeTime": 1499708882,
			"suurballePaths": {
				"path0": [
					"119_Jihlava",
					"120_Brno",
					"113_Olomouc",
					"116_Ostrava",
					"121_Bielsko",
					"110_Katowice",
					"109_Opole",
					"91_Wroclaw",
					"92_Leszno",
					"94_Poznan",
					"93_Inowroclaw",
					"100_Torun",
					"11_None"
				],
				"lat0": 1604.000000,
				"nbSeg0": 1,
				"path1": [
					"87_Burgas",
					"51_Sliven",
					"140_Plovdiv",
					"144_Sofia",
					"20_Beograd",
					"80_Tompa",
					"79_Kiskunhalas",
					"86_Paks",
					"129_Budapest",
					"33_Tatabanya",
					"61_Gyor",
					"130_Bratislava",
					"131_Wien",
					"15_Amsterdam,_London",
					"125_Frankfurt_am_Main"
				],
				"lat1": 2683.000000,
				"nbSeg1": 4
			},
			"pathsExist": false,
			"runtime": 286053794,
			"nomLat1": 5154.000000,
			"nomLat2": 1134.000000,
			"maxNomLat": 5154.000000,
			"mincut": 4
		},
		{
			"s1": "145_Istanbul",
			"s2": "61_Gyor",
			"t1": "113_Olomouc",
			"t2": "43_Athina",
			"suurballeNbPaths": 2,
			"suurballeTime": 1441258488,
			"suurballePaths": {
				"path0": [
					"61_Gyor",
					"130_Bratislava",
					"120_Brno",
					"113_Olomouc"
				],
				"lat0": 433.000000,
				"nbSeg0": 0,
				"path1": [
					"145_Istanbul",
					"112_Edirne",
					"111_Svilengrad",
					"90_Haskovo",
					"140_Plovdiv",
					"138_Petrich",
					"137_Thessaloniki",
					"43_Athina"
				],
				"lat1": 1554.000000,
				"nbSeg1": 1
			},
			"pathsExist": false,
			"runtime": 300493839,
			"nomLat1": 3214.000000,
			"nomLat2": 2848.000000,
			"maxNomLat": 3214.000000,
			"mincut": 4
		},
		{
			"s1": "138_Petrich",
			"s2": "17_None",
			"t1": "24_Arad",
			"t2": "29_Giurgiu",
			"suurballeNbPaths": 2,
			"suurballeTime": 1335477774,
			"suurballePaths": {
				"path0": [
					"138_Petrich",
					"140_Plovdiv",
					"51_Sliven",
					"29_Giurgiu"
				],
				"lat0": 732.000000,
				"nbSeg0": 0,
				"path1": [
					"17_None",
					"94_Poznan",
					"92_Leszno",
					"91_Wroclaw",
					"109_Opole",
					"110_Katowice",
					"121_Bielsko",
					"116_Ostrava",
					"115_Zlin",
					"114_Hodonin",
					"130_Bratislava",
					"61_Gyor",
					"33_Tatabanya",
					"129_Budapest",
					"86_Paks",
					"79_Kiskunhalas",
					"81_Szeged",
					"24_Arad"
				],
				"lat1": 2179.000000,
				"nbSeg1": 3
			},
			"pathsExist": false,
			"runtime": 338898049,
			"nomLat1": 1202.000000,
			"nomLat2": 4216.000000,
			"maxNomLat": 4216.000000,
			"mincut": 4
		},
		{
			"s1": "33_Tatabanya",
			"s2": "73_Tapolca",
			"t1": "9_Szczecin",
			"t2": "100_Torun",
			"suurballeNbPaths": 2,
			"suurballeTime": 1466937591,
			"suurballePaths": {
				"path0": [
					"73_Tapolca",
					"34_Keszthely",
					"72_Zalaegerszeg",
					"31_Szombathely",
					"62_Sopron",
					"131_Wien",
					"15_Amsterdam,_London",
					"125_Frankfurt_am_Main",
					"132_Berlin",
					"17_None",
					"94_Poznan",
					"14_None",
					"9_Szczecin"
				],
				"lat0": 2616.000000,
				"nbSeg0": 2,
				"path1": [
					"33_Tatabanya",
					"61_Gyor",
					"130_Bratislava",
					"114_Hodonin",
					"115_Zlin",
					"116_Ostrava",
					"121_Bielsko",
					"110_Katowice",
					"109_Opole",
					"91_Wroclaw",
					"92_Leszno",
					"94_Poznan",
					"93_Inowroclaw",
					"100_Torun"
				],
				"lat1": 1558.000000,
				"nbSeg1": 2
			},
			"pathsExist": false,
			"runtime": 349739423,
			"nomLat1": 3078.000000,
			"nomLat2": 3347.000000,
			"maxNomLat": 3347.000000,
			"mincut": 3
		},
		{
			"s1": "97_Wloclawek",
			"s2": "18_Lowicz",
			"t1": "135_Balikesir",
			"t2": "140_Plovdiv",
			"suurballeNbPaths": 2,
			"suurballeTime": 1581947918,
			"suurballePaths": {
				"path0": [
					"18_Lowicz",
					"41_Warszawa",
					"105_Radom",
					"108_Kielce",
					"107_Krakow",
					"110_Katowice",
					"121_Bielsko",
					"116_Ostrava",
					"115_Zlin",
					"114_Hodonin",
					"130_Bratislava",
					"61_Gyor",
					"33_Tatabanya",
					"129_Budapest",
					"86_Paks",
					"79_Kiskunhalas",
					"80_Tompa",
					"20_Beograd",
					"144_Sofia",
					"140_Plovdiv"
				],
				"lat0": 2922.000000,
				"nbSeg0": 3,
				"path1": [
					"97_Wloclawek",
					"100_Torun",
					"93_Inowroclaw",
					"94_Poznan",
					"17_None",
					"132_Berlin",
					"125_Frankfurt_am_Main",
					"15_Amsterdam,_London",
					"131_Wien",
					"62_Sopron",
					"31_Szombathely",
					"72_Zalaegerszeg",
					"34_Keszthely",
					"73_Tapolca",
					"35_Veszprem",
					"32_Szekesfehervar",
					"129_Budapest",
					"71_Szolnok",
					"88_Debrecen",
					"89_Bors",
					"25_Oradea",
					"50_Poieni",
					"57_Cluj",
					"56_Medias",
					"59_Dumbravita",
					"19_Ulmi",
					"142_Bucuresti",
					"29_Giurgiu",
					"51_Sliven",
					"87_Burgas",
					"112_Edirne",
					"135_Balikesir"
				],
				"lat1": 5097.000000,
				"nbSeg1": 6
			},
			"pathsExist": false,
			"runtime": 235825353,
			"nomLat1": 5673.000000,
			"nomLat2": 4626.000000,
			"maxNomLat": 5673.000000,
			"mincut": 3
		},
		{
			"s1": "67_Tarnow",
			"s2": "5_Gdynia",
			"t1": "38_Liberec",
			"t2": "37_Karlovy_Vary",
			"suurballeNbPaths": 2,
			"suurballeTime": 1623411002,
			"suurballePaths": {
				"path0": [
					"67_Tarnow",
					"107_Krakow",
					"110_Katowice",
					"121_Bielsko",
					"116_Ostrava",
					"77_Hradec_Kralove",
					"38_Liberec"
				],
				"lat0": 878.000000,
				"nbSeg0": 0,
				"path1": [
					"5_Gdynia",
					"4_Gdansk",
					"16_None",
					"95_Tczew",
					"96_Bydgoszcz",
					"93_Inowroclaw",
					"94_Poznan",
					"17_None",
					"132_Berlin",
					"125_Frankfurt_am_Main",
					"70_Praha",
					"39_Plzen",
					"36_Rozvadov",
					"75_Cheb",
					"37_Karlovy_Vary"
				],
				"lat1": 3301.000000,
				"nbSeg1": 1
			},
			"pathsExist": false,
			"runtime": 195940917,
			"nomLat1": 878.000000,
			"nomLat2": 3349.000000,
			"maxNomLat": 3349.000000,
			"mincut": 2
		},
		{
			"s1": "89_Bors",
			"s2": "108_Kielce",
			"t1": "73_Tapolca",
			"t2": "76_Usti_nad_Labem",
			"suurballeNbPaths": 2,
			"suurballeTime": 1518236903,
			"suurballePaths": {
				"path0": [
					"89_Bors",
					"88_Debrecen",
					"71_Szolnok",
					"129_Budapest",
					"32_Szekesfehervar",
					"35_Veszprem",
					"73_Tapolca"
				],
				"lat0": 690.000000,
				"nbSeg0": 0,
				"path1": [
					"108_Kielce",
					"107_Krakow",
					"110_Katowice",
					"121_Bielsko",
					"116_Ostrava",
					"77_Hradec_Kralove",
					"38_Liberec",
					"76_Usti_nad_Labem"
				],
				"lat1": 1045.000000,
				"nbSeg1": 0
			},
			"pathsExist": false,
			"runtime": 300376547,
			"nomLat1": 690.000000,
			"nomLat2": 1045.000000,
			"maxNomLat": 1045.000000,
			"mincut": 4
		},
		{
			"s1": "129_Budapest",
			"s2": "70_Praha",
			"t1": "147_Ankara",
			"t2": "19_Ulmi",
			"suurballeNbPaths": 2,
			"suurballeTime": 960187407,
			"suurballePaths": {
				"path0": [
					"129_Budapest",
					"71_Szolnok",
					"88_Debrecen",
					"89_Bors",
					"25_Oradea",
					"50_Poieni",
					"57_Cluj",
					"56_Medias",
					"59_Dumbravita",
					"19_Ulmi"
				],
				"lat0": 1250.000000,
				"nbSeg0": 1,
				"path1": [
					"70_Praha",
					"120_Brno",
					"130_Bratislava",
					"61_Gyor",
					"33_Tatabanya",
					"129_Budapest",
					"86_Paks",
					"79_Kiskunhalas",
					"80_Tompa",
					"20_Beograd",
					"144_Sofia",
					"140_Plovdiv",
					"90_Haskovo",
					"111_Svilengrad",
					"112_Edirne",
					"145_Istanbul",
					"146_Istanbul",
					"147_Ankara"
				],
				"lat1": 3425.000000,
				"nbSeg1": 4
			},
			"pathsExist": false,
			"runtime": 164651590,
			"nomLat1": 2753.000000,
			"nomLat2": 4093.000000,
			"maxNomLat": 4093.000000,
			"mincut": 4
		},
		{
			"s1": "122_Most",
			"s2": "17_None",
			"t1": "16_None",
			"t2": "99_Konin",
			"suurballeNbPaths": 2,
			"suurballeTime": 1592226126,
			"suurballePaths": {
				"path0": [
					"17_None",
					"94_Poznan",
					"99_Konin"
				],
				"lat0": 410.000000,
				"nbSeg0": 0,
				"path1": [
					"122_Most",
					"76_Usti_nad_Labem",
					"38_Liberec",
					"77_Hradec_Kralove",
					"116_Ostrava",
					"121_Bielsko",
					"110_Katowice",
					"109_Opole",
					"91_Wroclaw",
					"92_Leszno",
					"94_Poznan",
					"93_Inowroclaw",
					"96_Bydgoszcz",
					"95_Tczew",
					"16_None"
				],
				"lat1": 2070.000000,
				"nbSeg1": 1
			},
			"pathsExist": false,
			"runtime": 235213279,
			"nomLat1": 3107.000000,
			"nomLat2": 410.000000,
			"maxNomLat": 3107.000000,
			"mincut": 3
		},
		{
			"s1": "44_Vilnius",
			"s2": "97_Wloclawek",
			"t1": "2_Kobenhavn",
			"t2": "59_Dumbravita",
			"suurballeNbPaths": 2,
			"suurballeTime": 1193609922,
			"suurballePaths": {
				"path0": [
					"44_Vilnius",
					"45_Tallinn",
					"128_Stockholm",
					"2_Kobenhavn"
				],
				"lat0": 2394.000000,
				"nbSeg0": 0,
				"path1": [
					"97_Wloclawek",
					"103_Kutno",
					"18_Lowicz",
					"41_Warszawa",
					"105_Radom",
					"108_Kielce",
					"107_Krakow",
					"110_Katowice",
					"121_Bielsko",
					"116_Ostrava",
					"115_Zlin",
					"114_Hodonin",
					"130_Bratislava",
					"61_Gyor",
					"33_Tatabanya",
					"129_Budapest",
					"71_Szolnok",
					"88_Debrecen",
					"89_Bors",
					"25_Oradea",
					"50_Poieni",
					"57_Cluj",
					"56_Medias",
					"59_Dumbravita"
				],
				"lat1": 2719.000000,
				"nbSeg1": 3
			},
			"pathsExist": false,
			"runtime": 123395973,
			"nomLat1": 2394.000000,
			"nomLat2": 5249.000000,
			"maxNomLat": 5249.000000,
			"mincut": 3
		},
		{
			"s1": "73_Tapolca",
			"s2": "11_None",
			"t1": "134_Podgorica",
			"t2": "118_Ceske_Budejovice",
			"suurballeNbPaths": 2,
			"suurballeTime": 1561882641,
			"suurballePaths": {
				"path0": [
					"73_Tapolca",
					"35_Veszprem",
					"32_Szekesfehervar",
					"129_Budapest",
					"86_Paks",
					"79_Kiskunhalas",
					"80_Tompa",
					"20_Beograd",
					"134_Podgorica"
				],
				"lat0": 1314.000000,
				"nbSeg0": 1,
				"path1": [
					"11_None",
					"100_Torun",
					"93_Inowroclaw",
					"94_Poznan",
					"92_Leszno",
					"91_Wroclaw",
					"109_Opole",
					"110_Katowice",
					"121_Bielsko",
					"116_Ostrava",
					"113_Olomouc",
					"120_Brno",
					"119_Jihlava",
					"118_Ceske_Budejovice"
				],
				"lat1": 1765.000000,
				"nbSeg1": 2
			},
			"pathsExist": false,
			"runtime": 274577834,
			"nomLat1": 1407.000000,
			"nomLat2": 2601.000000,
			"maxNomLat": 2601.000000,
			"mincut": 4
		},
		{
			"s1": "107_Krakow",
			"s2": "14_None",
			"t1": "137_Thessaloniki",
			"t2": "124_Zagreb",
			"suurballeNbPaths": 2,
			"suurballeTime": 986853415,
			"suurballePaths": {
				"path0": [
					"14_None",
					"94_Poznan",
					"17_None",
					"132_Berlin",
					"125_Frankfurt_am_Main",
					"15_Amsterdam,_London",
					"131_Wien",
					"124_Zagreb"
				],
				"lat0": 2441.000000,
				"nbSeg0": 1,
				"path1": [
					"107_Krakow",
					"110_Katowice",
					"121_Bielsko",
					"116_Ostrava",
					"115_Zlin",
					"114_Hodonin",
					"130_Bratislava",
					"61_Gyor",
					"33_Tatabanya",
					"129_Budapest",
					"86_Paks",
					"79_Kiskunhalas",
					"80_Tompa",
					"20_Beograd",
					"144_Sofia",
					"140_Plovdiv",
					"138_Petrich",
					"137_Thessaloniki"
				],
				"lat1": 2751.000000,
				"nbSeg1": 3
			},
			"pathsExist": false,
			"runtime": 150759040,
			"nomLat1": 5581.000000,
			"nomLat2": 2929.000000,
			"maxNomLat": 5581.000000,
			"mincut": 3
		},
		{
			"s1": "50_Poieni",
			"s2": "16_None",
			"t1": "31_Szombathely",
			"t2": "140_Plovdiv",
			"suurballeNbPaths": 2,
			"suurballeTime": 1619297768,
			"suurballePaths": {
				"path0": [
					"50_Poieni",
					"25_Oradea",
					"24_Arad",
					"27_Timisoara",
					"144_Sofia",
					"140_Plovdiv"
				],
				"lat0": 1260.000000,
				"nbSeg0": 0,
				"path1": [
					"16_None",
					"95_Tczew",
					"96_Bydgoszcz",
					"93_Inowroclaw",
					"94_Poznan",
					"92_Leszno",
					"91_Wroclaw",
					"109_Opole",
					"110_Katowice",
					"121_Bielsko",
					"116_Ostrava",
					"115_Zlin",
					"114_Hodonin",
					"130_Bratislava",
					"131_Wien",
					"62_Sopron",
					"31_Szombathely"
				],
				"lat1": 2102.000000,
				"nbSeg1": 3
			},
			"pathsExist": false,
			"runtime": 223079455,
			"nomLat1": 2211.000000,
			"nomLat2": 4964.000000,
			"maxNomLat": 4964.000000,
			"mincut": 4
		},
		{
			"s1": "86_Paks",
			"s2": "64_Kharkiv",
			"t1": "72_Zalaegerszeg",
			"t2": "111_Svilengrad",
			"suurballeNbPaths": 2,
			"suurballeTime": 998829844,
			"suurballePaths": {
				"path0": [
					"86_Paks",
					"79_Kiskunhalas",
					"80_Tompa",
					"20_Beograd",
					"144_Sofia",
					"140_Plovdiv",
					"90_Haskovo",
					"111_Svilengrad"
				],
				"lat0": 1425.000000,
				"nbSeg0": 1,
				"path1": [
					"64_Kharkiv",
					"40_Kyiv",
					"66_Lviv",
					"102_Rzeszow",
					"67_Tarnow",
					"107_Krakow",
					"110_Katowice",
					"121_Bielsko",
					"116_Ostrava",
					"115_Zlin",
					"114_Hodonin",
					"130_Bratislava",
					"131_Wien",
					"62_Sopron",
					"31_Szombathely",
					"72_Zalaegerszeg"
				],
				"lat1": 3021.000000,
				"nbSeg1": 3
			},
			"pathsExist": false,
			"runtime": 193523948,
			"nomLat1": 657.000000,
			"nomLat2": 8587.000000,
			"maxNomLat": 8587.000000,
			"mincut": 4
		},
		{
			"s1": "23_Craiova",
			"s2": "122_Most",
			"t1": "81_Szeged",
			"t2": "67_Tarnow",
			"suurballeNbPaths": 2,
			"suurballeTime": 988220621,
			"suurballePaths": {
				"path0": [
					"23_Craiova",
					"21_Balvanesti",
					"26_Caransebes",
					"27_Timisoara",
					"24_Arad",
					"81_Szeged"
				],
				"lat0": 699.000000,
				"nbSeg0": 0,
				"path1": [
					"122_Most",
					"76_Usti_nad_Labem",
					"38_Liberec",
					"77_Hradec_Kralove",
					"116_Ostrava",
					"121_Bielsko",
					"110_Katowice",
					"107_Krakow",
					"67_Tarnow"
				],
				"lat1": 1063.000000,
				"nbSeg1": 0
			},
			"pathsExist": false,
			"runtime": 200039149,
			"nomLat1": 699.000000,
			"nomLat2": 1063.000000,
			"maxNomLat": 1063.000000,
			"mincut": 4
		},
		{
			"s1": "102_Rzeszow",
			"s2": "88_Debrecen",
			"t1": "110_Katowice",
			"t2": "11_None",
			"suurballeNbPaths": 2,
			"suurballeTime": 1275639118,
			"suurballePaths": {
				"path0": [
					"102_Rzeszow",
					"101_Lublin",
					"41_Warszawa",
					"98_Olsztyn",
					"11_None"
				],
				"lat0": 1051.000000,
				"nbSeg0": 0,
				"path1": [
					"88_Debrecen",
					"71_Szolnok",
					"129_Budapest",
					"33_Tatabanya",
					"61_Gyor",
					"130_Bratislava",
					"114_Hodonin",
					"115_Zlin",
					"116_Ostrava",
					"121_Bielsko",
					"110_Katowice"
				],
				"lat1": 1213.000000,
				"nbSeg1": 1
			},
			"pathsExist": false,
			"runtime": 440273548,
			"nomLat1": 374.000000,
			"nomLat2": 3488.000000,
			"maxNomLat": 3488.000000,
			"mincut": 5
		},
		{
			"s1": "25_Oradea",
			"s2": "39_Plzen",
			"t1": "140_Plovdiv",
			"t2": "128_Stockholm",
			"suurballeNbPaths": 2,
			"suurballeTime": 1180998820,
			"suurballePaths": {
				"path0": [
					"25_Oradea",
					"24_Arad",
					"27_Timisoara",
					"144_Sofia",
					"140_Plovdiv"
				],
				"lat0": 1130.000000,
				"nbSeg0": 0,
				"path1": [
					"39_Plzen",
					"70_Praha",
					"125_Frankfurt_am_Main",
					"3_Hamburg",
					"2_Kobenhavn",
					"128_Stockholm"
				],
				"lat1": 2847.000000,
				"nbSeg1": 0
			},
			"pathsExist": false,
			"runtime": 181125435,
			"nomLat1": 1130.000000,
			"nomLat2": 2847.000000,
			"maxNomLat": 2847.000000,
			"mincut": 5
		}
	],
	"demandsWithSol": 1
}
