{
	"nbDemands": 100,
	"demands": [
		{
			"s1": "9_Dresden",
			"s2": "66_Szolnok",
			"t1": "51_Bordeaux",
			"t2": "6_Salzburg",
			"suurballeNbPaths": 2,
			"suurballeTime": 1143166896,
			"suurballePaths": {
				"path0": [
					"66_Szolnok",
					"32_Budapest",
					"33_Vienna",
					"6_Salzburg"
				],
				"lat0": 946.000000,
				"nbSeg0": 0,
				"path1": [
					"9_Dresden",
					"8_Leipzig",
					"7_Nuremberg",
					"18_Frankfurt",
					"27_Strasbourg",
					"16_Paris",
					"89_Poltiers",
					"51_Bordeaux"
				],
				"lat1": 2693.000000,
				"nbSeg1": 0
			},
			"pathsExist": false,
			"runtime": 135872068,
			"nomLat1": 2693.000000,
			"nomLat2": 946.000000,
			"maxNomLat": 2693.000000,
			"mincut": 4
		},
		{
			"s1": "101_Rome",
			"s2": "59_Gotenburg",
			"t1": "66_Szolnok",
			"t2": "93_Toulouse",
			"suurballeNbPaths": 2,
			"suurballeTime": 673651308,
			"suurballePaths": {
				"path0": [
					"101_Rome",
					"2_Pisa",
					"55_Genoa",
					"92_Nice",
					"57_Marseille",
					"50_Narborne",
					"93_Toulouse"
				],
				"lat0": 1767.000000,
				"nbSeg0": 0,
				"path1": [
					"59_Gotenburg",
					"53_Copenhagen",
					"36_None",
					"39_Berlin",
					"9_Dresden",
					"8_Leipzig",
					"64_Prague",
					"45_Brno",
					"74_Bratislava",
					"32_Budapest",
					"66_Szolnok"
				],
				"lat1": 2839.000000,
				"nbSeg1": 2
			},
			"pathsExist": false,
			"runtime": 639962198,
			"nomLat1": 3578.000000,
			"nomLat2": 4420.000000,
			"maxNomLat": 4420.000000,
			"mincut": 4
		},
		{
			"s1": "16_Paris",
			"s2": "57_Marseille",
			"t1": "94_None",
			"t2": "25_Basle",
			"suurballeNbPaths": 2,
			"suurballeTime": 591567081,
			"suurballePaths": {
				"path0": [
					"57_Marseille",
					"50_Narborne",
					"95_Barcelona",
					"86_Valencia",
					"94_None"
				],
				"lat0": 1544.000000,
				"nbSeg0": 0,
				"path1": [
					"16_Paris",
					"56_Lyon",
					"77_Geneva",
					"29_Lausanne",
					"28_Berne",
					"25_Basle"
				],
				"lat1": 1196.000000,
				"nbSeg1": 1
			},
			"pathsExist": false,
			"runtime": 606561408,
			"nomLat1": 2826.000000,
			"nomLat2": 1001.000000,
			"maxNomLat": 2826.000000,
			"mincut": 4
		},
		{
			"s1": "93_Toulouse",
			"s2": "104_Utrecht",
			"t1": "61_Zandvort",
			"t2": "92_Nice",
			"suurballeNbPaths": 2,
			"suurballeTime": 1175146830,
			"suurballePaths": {
				"path0": [
					"104_Utrecht",
					"13_Amsterdam",
					"61_Zandvort"
				],
				"lat0": 108.000000,
				"nbSeg0": 0,
				"path1": [
					"93_Toulouse",
					"50_Narborne",
					"57_Marseille",
					"92_Nice"
				],
				"lat1": 823.000000,
				"nbSeg1": 0
			},
			"pathsExist": false,
			"runtime": 135324203,
			"nomLat1": 3114.000000,
			"nomLat2": 2952.000000,
			"maxNomLat": 3114.000000,
			"mincut": 4
		},
		{
			"s1": "45_Brno",
			"s2": "3_Florence",
			"t1": "35_Hamburg",
			"t2": "25_Basle",
			"suurballeNbPaths": 2,
			"suurballeTime": 706692816,
			"suurballePaths": {
				"path0": [
					"3_Florence",
					"49_Bologna",
					"38_Milan",
					"52_Zurich",
					"25_Basle"
				],
				"lat0": 973.000000,
				"nbSeg0": 0,
				"path1": [
					"45_Brno",
					"64_Prague",
					"7_Nuremberg",
					"18_Frankfurt",
					"47_Bonn",
					"46_Cologne",
					"34_Dusseldorf",
					"102_Essen",
					"103_Dortmund",
					"0_Bremen",
					"35_Hamburg"
				],
				"lat1": 1989.000000,
				"nbSeg1": 4
			},
			"pathsExist": false,
			"runtime": 678662008,
			"nomLat1": 2917.000000,
			"nomLat2": 973.000000,
			"maxNomLat": 2917.000000,
			"mincut": 4
		},
		{
			"s1": "31_None",
			"s2": "65_Warsaw",
			"t1": "19_Munich",
			"t2": "83_New_York",
			"suurballeNbPaths": 2,
			"suurballeTime": 1205583473,
			"suurballePaths": {
				"path0": [
					"31_None",
					"10_London",
					"83_New_York"
				],
				"lat0": 648.000000,
				"nbSeg0": 0,
				"path1": [
					"65_Warsaw",
					"67_Krakow",
					"45_Brno",
					"33_Vienna",
					"6_Salzburg",
					"19_Munich"
				],
				"lat1": 1666.000000,
				"nbSeg1": 1
			},
			"pathsExist": false,
			"runtime": 182637461,
			"nomLat1": 2028.000000,
			"nomLat2": 4390.000000,
			"maxNomLat": 4390.000000,
			"mincut": 5
		},
		{
			"s1": "27_Strasbourg",
			"s2": "4_Udine",
			"t1": "69_Szeged",
			"t2": "41_Edirne",
			"suurballeNbPaths": 2,
			"suurballeTime": 1241675746,
			"suurballePaths": {
				"path0": [
					"4_Udine",
					"5_Graz",
					"33_Vienna",
					"32_Budapest",
					"43_Timisoara",
					"69_Szeged"
				],
				"lat0": 1551.000000,
				"nbSeg0": 0,
				"path1": [
					"27_Strasbourg",
					"12_Stuttgart",
					"19_Munich",
					"6_Salzburg",
					"33_Vienna",
					"45_Brno",
					"74_Bratislava",
					"32_Budapest",
					"66_Szolnok",
					"109_None",
					"42_Bucharest",
					"68_Ruse",
					"41_Edirne"
				],
				"lat1": 3129.000000,
				"nbSeg1": 6
			},
			"pathsExist": false,
			"runtime": 148112206,
			"nomLat1": 2090.000000,
			"nomLat2": 2597.000000,
			"maxNomLat": 2597.000000,
			"mincut": 3
		},
		{
			"s1": "18_Frankfurt",
			"s2": "50_Narborne",
			"t1": "65_Warsaw",
			"t2": "27_Strasbourg",
			"suurballeNbPaths": 2,
			"suurballeTime": 613608961,
			"suurballePaths": {
				"path0": [
					"18_Frankfurt",
					"27_Strasbourg"
				],
				"lat0": 310.000000,
				"nbSeg0": 0,
				"path1": [
					"50_Narborne",
					"57_Marseille",
					"92_Nice",
					"55_Genoa",
					"2_Pisa",
					"3_Florence",
					"49_Bologna",
					"48_Venice",
					"4_Udine",
					"5_Graz",
					"33_Vienna",
					"45_Brno",
					"67_Krakow",
					"65_Warsaw"
				],
				"lat1": 3377.000000,
				"nbSeg1": 1
			},
			"pathsExist": false,
			"runtime": 655728028,
			"nomLat1": 1909.000000,
			"nomLat2": 2115.000000,
			"maxNomLat": 2115.000000,
			"mincut": 6
		},
		{
			"s1": "10_London",
			"s2": "66_Szolnok",
			"t1": "32_Budapest",
			"t2": "72_Lille",
			"suurballeNbPaths": 2,
			"suurballeTime": 679621348,
			"suurballePaths": {
				"path0": [
					"66_Szolnok",
					"32_Budapest"
				],
				"lat0": 161.000000,
				"nbSeg0": 0,
				"path1": [
					"10_London",
					"31_None",
					"20_Calais",
					"72_Lille"
				],
				"lat1": 865.000000,
				"nbSeg1": 0
			},
			"pathsExist": false,
			"runtime": 546879479,
			"nomLat1": 3363.000000,
			"nomLat2": 2659.000000,
			"maxNomLat": 3363.000000,
			"mincut": 4
		},
		{
			"s1": "65_Warsaw",
			"s2": "35_Hamburg",
			"t1": "62_Istanbul",
			"t2": "68_Ruse",
			"suurballeNbPaths": 2,
			"suurballeTime": 1270383283,
			"suurballePaths": {
				"path0": [
					"65_Warsaw",
					"67_Krakow",
					"45_Brno",
					"74_Bratislava",
					"32_Budapest",
					"66_Szolnok",
					"109_None",
					"42_Bucharest",
					"68_Ruse"
				],
				"lat0": 2317.000000,
				"nbSeg0": 2,
				"path1": [
					"35_Hamburg",
					"0_Bremen",
					"103_Dortmund",
					"102_Essen",
					"34_Dusseldorf",
					"46_Cologne",
					"47_Bonn",
					"18_Frankfurt",
					"7_Nuremberg",
					"19_Munich",
					"6_Salzburg",
					"33_Vienna",
					"32_Budapest",
					"43_Timisoara",
					"81_Plovdiv",
					"40_Sofia",
					"41_Edirne",
					"62_Istanbul"
				],
				"lat1": 4669.000000,
				"nbSeg1": 8
			},
			"pathsExist": false,
			"runtime": 83394296,
			"nomLat1": 3587.000000,
			"nomLat2": 4698.000000,
			"maxNomLat": 4698.000000,
			"mincut": 3
		},
		{
			"s1": "89_Poltiers",
			"s2": "4_Udine",
			"t1": "28_Berne",
			"t2": "13_Amsterdam",
			"suurballeNbPaths": 2,
			"suurballeTime": 604065369,
			"suurballePaths": {
				"path0": [
					"4_Udine",
					"48_Venice",
					"38_Milan",
					"52_Zurich",
					"25_Basle",
					"28_Berne"
				],
				"lat0": 1198.000000,
				"nbSeg0": 2,
				"path1": [
					"89_Poltiers",
					"16_Paris",
					"72_Lille",
					"11_Brussels",
					"106_Antwerp",
					"105_Rotterdam",
					"13_Amsterdam"
				],
				"lat1": 1307.000000,
				"nbSeg1": 2
			},
			"pathsExist": false,
			"runtime": 567238263,
			"nomLat1": 1569.000000,
			"nomLat2": 2888.000000,
			"maxNomLat": 2888.000000,
			"mincut": 4
		},
		{
			"s1": "103_Dortmund",
			"s2": "76_Madrid",
			"t1": "102_Essen",
			"t2": "64_Prague",
			"suurballeNbPaths": 2,
			"suurballeTime": 1242945349,
			"suurballePaths": {
				"path0": [
					"103_Dortmund",
					"102_Essen"
				],
				"lat0": 56.000000,
				"nbSeg0": 0,
				"path1": [
					"76_Madrid",
					"88_Bilbao",
					"51_Bordeaux",
					"89_Poltiers",
					"16_Paris",
					"27_Strasbourg",
					"18_Frankfurt",
					"7_Nuremberg",
					"64_Prague"
				],
				"lat1": 3531.000000,
				"nbSeg1": 0
			},
			"pathsExist": false,
			"runtime": 127482647,
			"nomLat1": 56.000000,
			"nomLat2": 3531.000000,
			"maxNomLat": 3531.000000,
			"mincut": 4
		},
		{
			"s1": "64_Prague",
			"s2": "82_Washington_DC",
			"t1": "95_Barcelona",
			"t2": "9_Dresden",
			"suurballeNbPaths": 2,
			"suurballeTime": 588369581,
			"suurballePaths": {
				"path0": [
					"64_Prague",
					"8_Leipzig",
					"9_Dresden"
				],
				"lat0": 510.000000,
				"nbSeg0": 0,
				"path1": [
					"82_Washington_DC",
					"10_London",
					"31_None",
					"20_Calais",
					"72_Lille",
					"16_Paris",
					"89_Poltiers",
					"51_Bordeaux",
					"50_Narborne",
					"95_Barcelona"
				],
				"lat1": 3331.000000,
				"nbSeg1": 1
			},
			"pathsExist": false,
			"runtime": 648220017,
			"nomLat1": 3519.000000,
			"nomLat2": 3413.000000,
			"maxNomLat": 3519.000000,
			"mincut": 4
		},
		{
			"s1": "78_Varna",
			"s2": "13_Amsterdam",
			"t1": "104_Utrecht",
			"t2": "9_Dresden",
			"suurballeNbPaths": 2,
			"suurballeTime": 862588105,
			"suurballePaths": {
				"path0": [
					"13_Amsterdam",
					"104_Utrecht"
				],
				"lat0": 63.000000,
				"nbSeg0": 0,
				"path1": [
					"78_Varna",
					"43_Timisoara",
					"32_Budapest",
					"74_Bratislava",
					"45_Brno",
					"64_Prague",
					"8_Leipzig",
					"9_Dresden"
				],
				"lat1": 2742.000000,
				"nbSeg1": 1
			},
			"pathsExist": false,
			"runtime": 487281178,
			"nomLat1": 3623.000000,
			"nomLat2": 1521.000000,
			"maxNomLat": 3623.000000,
			"mincut": 4
		},
		{
			"s1": "90_Cagliari",
			"s2": "52_Zurich",
			"t1": "93_Toulouse",
			"t2": "44_Stockholm",
			"suurballeNbPaths": 2,
			"suurballeTime": 590031363,
			"suurballePaths": {
				"path0": [
					"90_Cagliari",
					"91_Olbia",
					"101_Rome",
					"2_Pisa",
					"55_Genoa",
					"92_Nice",
					"57_Marseille",
					"50_Narborne",
					"93_Toulouse"
				],
				"lat0": 2551.000000,
				"nbSeg0": 0,
				"path1": [
					"52_Zurich",
					"12_Stuttgart",
					"26_Karlsruhe",
					"18_Frankfurt",
					"47_Bonn",
					"46_Cologne",
					"34_Dusseldorf",
					"102_Essen",
					"103_Dortmund",
					"0_Bremen",
					"35_Hamburg",
					"53_Copenhagen",
					"44_Stockholm"
				],
				"lat1": 2895.000000,
				"nbSeg1": 5
			},
			"pathsExist": false,
			"runtime": 656652629,
			"nomLat1": 2551.000000,
			"nomLat2": 3274.000000,
			"maxNomLat": 3274.000000,
			"mincut": 4
		},
		{
			"s1": "5_Graz",
			"s2": "3_Florence",
			"t1": "14_Moscow",
			"t2": "86_Valencia",
			"suurballeNbPaths": 2,
			"suurballeTime": 708236667,
			"suurballePaths": {
				"path0": [
					"3_Florence",
					"2_Pisa",
					"55_Genoa",
					"92_Nice",
					"57_Marseille",
					"50_Narborne",
					"95_Barcelona",
					"86_Valencia"
				],
				"lat0": 2078.000000,
				"nbSeg0": 0,
				"path1": [
					"5_Graz",
					"33_Vienna",
					"45_Brno",
					"64_Prague",
					"8_Leipzig",
					"9_Dresden",
					"39_Berlin",
					"36_None",
					"53_Copenhagen",
					"44_Stockholm",
					"14_Moscow"
				],
				"lat1": 5168.000000,
				"nbSeg1": 1
			},
			"pathsExist": false,
			"runtime": 516931377,
			"nomLat1": 5789.000000,
			"nomLat2": 2078.000000,
			"maxNomLat": 5789.000000,
			"mincut": 4
		},
		{
			"s1": "43_Timisoara",
			"s2": "52_Zurich",
			"t1": "20_Calais",
			"t2": "36_None",
			"suurballeNbPaths": 2,
			"suurballeTime": 620004614,
			"suurballePaths": {
				"path0": [
					"43_Timisoara",
					"32_Budapest",
					"74_Bratislava",
					"45_Brno",
					"64_Prague",
					"8_Leipzig",
					"9_Dresden",
					"39_Berlin",
					"36_None"
				],
				"lat0": 2370.000000,
				"nbSeg0": 2,
				"path1": [
					"52_Zurich",
					"12_Stuttgart",
					"26_Karlsruhe",
					"18_Frankfurt",
					"47_Bonn",
					"46_Cologne",
					"21_Liege",
					"11_Brussels",
					"72_Lille",
					"20_Calais"
				],
				"lat1": 1515.000000,
				"nbSeg1": 6
			},
			"pathsExist": false,
			"runtime": 595532583,
			"nomLat1": 3088.000000,
			"nomLat2": 2047.000000,
			"maxNomLat": 3088.000000,
			"mincut": 4
		},
		{
			"s1": "61_Zandvort",
			"s2": "81_Plovdiv",
			"t1": "91_Olbia",
			"t2": "102_Essen",
			"suurballeNbPaths": 2,
			"suurballeTime": 650838089,
			"suurballePaths": {
				"path0": [
					"61_Zandvort",
					"13_Amsterdam",
					"104_Utrecht",
					"34_Dusseldorf",
					"102_Essen"
				],
				"lat0": 417.000000,
				"nbSeg0": 0,
				"path1": [
					"81_Plovdiv",
					"40_Sofia",
					"71_Thessalonika",
					"63_Bari",
					"84_Naples",
					"101_Rome",
					"91_Olbia"
				],
				"lat1": 2624.000000,
				"nbSeg1": 0
			},
			"pathsExist": false,
			"runtime": 567659857,
			"nomLat1": 4710.000000,
			"nomLat2": 3239.000000,
			"maxNomLat": 4710.000000,
			"mincut": 4
		},
		{
			"s1": "37_None",
			"s2": "51_Bordeaux",
			"t1": "93_Toulouse",
			"t2": "24_Nancy",
			"suurballeNbPaths": 2,
			"suurballeTime": 740530575,
			"suurballePaths": {
				"path0": [
					"51_Bordeaux",
					"93_Toulouse"
				],
				"lat0": 355.000000,
				"nbSeg0": 0,
				"path1": [
					"37_None",
					"61_Zandvort",
					"13_Amsterdam",
					"104_Utrecht",
					"34_Dusseldorf",
					"46_Cologne",
					"47_Bonn",
					"18_Frankfurt",
					"27_Strasbourg",
					"24_Nancy"
				],
				"lat1": 1550.000000,
				"nbSeg1": 4
			},
			"pathsExist": false,
			"runtime": 573892755,
			"nomLat1": 2761.000000,
			"nomLat2": 1319.000000,
			"maxNomLat": 2761.000000,
			"mincut": 4
		},
		{
			"s1": "43_Timisoara",
			"s2": "90_Cagliari",
			"t1": "18_Frankfurt",
			"t2": "19_Munich",
			"suurballeNbPaths": 2,
			"suurballeTime": 1078785920,
			"suurballePaths": {
				"path0": [
					"43_Timisoara",
					"32_Budapest",
					"33_Vienna",
					"6_Salzburg",
					"19_Munich"
				],
				"lat0": 1413.000000,
				"nbSeg0": 0,
				"path1": [
					"90_Cagliari",
					"91_Olbia",
					"101_Rome",
					"3_Florence",
					"49_Bologna",
					"38_Milan",
					"52_Zurich",
					"12_Stuttgart",
					"26_Karlsruhe",
					"18_Frankfurt"
				],
				"lat1": 2618.000000,
				"nbSeg1": 1
			},
			"pathsExist": false,
			"runtime": 302269069,
			"nomLat1": 2034.000000,
			"nomLat2": 2618.000000,
			"maxNomLat": 2618.000000,
			"mincut": 5
		},
		{
			"s1": "16_Paris",
			"s2": "76_Madrid",
			"t1": "88_Bilbao",
			"t2": "69_Szeged",
			"suurballeNbPaths": 2,
			"suurballeTime": 652854414,
			"suurballePaths": {
				"path0": [
					"76_Madrid",
					"88_Bilbao"
				],
				"lat0": 542.000000,
				"nbSeg0": 0,
				"path1": [
					"16_Paris",
					"27_Strasbourg",
					"12_Stuttgart",
					"19_Munich",
					"6_Salzburg",
					"33_Vienna",
					"32_Budapest",
					"43_Timisoara",
					"69_Szeged"
				],
				"lat1": 2756.000000,
				"nbSeg1": 2
			},
			"pathsExist": false,
			"runtime": 576169998,
			"nomLat1": 1275.000000,
			"nomLat2": 4573.000000,
			"maxNomLat": 4573.000000,
			"mincut": 4
		},
		{
			"s1": "63_Bari",
			"s2": "106_Antwerp",
			"t1": "79_Haskovo",
			"t2": "77_Geneva",
			"suurballeNbPaths": 2,
			"suurballeTime": 600119823,
			"suurballePaths": {
				"path0": [
					"63_Bari",
					"71_Thessalonika",
					"41_Edirne",
					"68_Ruse",
					"42_Bucharest",
					"79_Haskovo"
				],
				"lat0": 2153.000000,
				"nbSeg0": 1,
				"path1": [
					"106_Antwerp",
					"11_Brussels",
					"72_Lille",
					"16_Paris",
					"56_Lyon",
					"77_Geneva"
				],
				"lat1": 1428.000000,
				"nbSeg1": 2
			},
			"pathsExist": false,
			"runtime": 635708731,
			"nomLat1": 3212.000000,
			"nomLat2": 1428.000000,
			"maxNomLat": 3212.000000,
			"mincut": 4
		},
		{
			"s1": "17_Dubai",
			"s2": "104_Utrecht",
			"t1": "88_Bilbao",
			"t2": "36_None",
			"suurballeNbPaths": 2,
			"suurballeTime": 687390178,
			"suurballePaths": {
				"path0": [
					"104_Utrecht",
					"34_Dusseldorf",
					"102_Essen",
					"103_Dortmund",
					"0_Bremen",
					"35_Hamburg",
					"75_Hannover",
					"36_None"
				],
				"lat0": 1438.000000,
				"nbSeg0": 1,
				"path1": [
					"17_Dubai",
					"23_Slough",
					"31_None",
					"20_Calais",
					"72_Lille",
					"16_Paris",
					"89_Poltiers",
					"51_Bordeaux",
					"88_Bilbao"
				],
				"lat1": 2838.000000,
				"nbSeg1": 1
			},
			"pathsExist": false,
			"runtime": 574769380,
			"nomLat1": 2838.000000,
			"nomLat2": 1698.000000,
			"maxNomLat": 2838.000000,
			"mincut": 3
		},
		{
			"s1": "104_Utrecht",
			"s2": "35_Hamburg",
			"t1": "10_London",
			"t2": "102_Essen",
			"suurballeNbPaths": 2,
			"suurballeTime": 566660463,
			"suurballePaths": {
				"path0": [
					"35_Hamburg",
					"0_Bremen",
					"103_Dortmund",
					"102_Essen"
				],
				"lat0": 551.000000,
				"nbSeg0": 0,
				"path1": [
					"104_Utrecht",
					"13_Amsterdam",
					"61_Zandvort",
					"37_None",
					"10_London"
				],
				"lat1": 814.000000,
				"nbSeg1": 0
			},
			"pathsExist": false,
			"runtime": 675871053,
			"nomLat1": 814.000000,
			"nomLat2": 551.000000,
			"maxNomLat": 814.000000,
			"mincut": 4
		},
		{
			"s1": "51_Bordeaux",
			"s2": "29_Lausanne",
			"t1": "28_Berne",
			"t2": "21_Liege",
			"suurballeNbPaths": 2,
			"suurballeTime": 651894531,
			"suurballePaths": {
				"path0": [
					"29_Lausanne",
					"28_Berne"
				],
				"lat0": 135.000000,
				"nbSeg0": 0,
				"path1": [
					"51_Bordeaux",
					"89_Poltiers",
					"16_Paris",
					"72_Lille",
					"11_Brussels",
					"21_Liege"
				],
				"lat1": 1501.000000,
				"nbSeg1": 2
			},
			"pathsExist": false,
			"runtime": 610318772,
			"nomLat1": 1918.000000,
			"nomLat2": 1598.000000,
			"maxNomLat": 1918.000000,
			"mincut": 4
		},
		{
			"s1": "90_Cagliari",
			"s2": "13_Amsterdam",
			"t1": "27_Strasbourg",
			"t2": "44_Stockholm",
			"suurballeNbPaths": 2,
			"suurballeTime": 641508234,
			"suurballePaths": {
				"path0": [
					"90_Cagliari",
					"91_Olbia",
					"101_Rome",
					"3_Florence",
					"49_Bologna",
					"38_Milan",
					"52_Zurich",
					"12_Stuttgart",
					"27_Strasbourg"
				],
				"lat0": 2479.000000,
				"nbSeg0": 0,
				"path1": [
					"13_Amsterdam",
					"104_Utrecht",
					"34_Dusseldorf",
					"102_Essen",
					"103_Dortmund",
					"0_Bremen",
					"35_Hamburg",
					"53_Copenhagen",
					"44_Stockholm"
				],
				"lat1": 2282.000000,
				"nbSeg1": 0
			},
			"pathsExist": false,
			"runtime": 608941514,
			"nomLat1": 2479.000000,
			"nomLat2": 2282.000000,
			"maxNomLat": 2479.000000,
			"mincut": 5
		},
		{
			"s1": "49_Bologna",
			"s2": "14_Moscow",
			"t1": "79_Haskovo",
			"t2": "29_Lausanne",
			"suurballeNbPaths": 2,
			"suurballeTime": 742261843,
			"suurballePaths": {
				"path0": [
					"49_Bologna",
					"38_Milan",
					"52_Zurich",
					"25_Basle",
					"28_Berne",
					"29_Lausanne"
				],
				"lat0": 1089.000000,
				"nbSeg0": 0,
				"path1": [
					"14_Moscow",
					"44_Stockholm",
					"53_Copenhagen",
					"36_None",
					"39_Berlin",
					"9_Dresden",
					"8_Leipzig",
					"64_Prague",
					"45_Brno",
					"74_Bratislava",
					"32_Budapest",
					"66_Szolnok",
					"109_None",
					"42_Bucharest",
					"79_Haskovo"
				],
				"lat1": 6554.000000,
				"nbSeg1": 3
			},
			"pathsExist": false,
			"runtime": 517813397,
			"nomLat1": 4202.000000,
			"nomLat2": 6699.000000,
			"maxNomLat": 6699.000000,
			"mincut": 4
		},
		{
			"s1": "74_Bratislava",
			"s2": "76_Madrid",
			"t1": "0_Bremen",
			"t2": "11_Brussels",
			"suurballeNbPaths": 2,
			"suurballeTime": 770944541,
			"suurballePaths": {
				"path0": [
					"76_Madrid",
					"88_Bilbao",
					"51_Bordeaux",
					"89_Poltiers",
					"16_Paris",
					"72_Lille",
					"11_Brussels"
				],
				"lat0": 2322.000000,
				"nbSeg0": 2,
				"path1": [
					"74_Bratislava",
					"45_Brno",
					"64_Prague",
					"7_Nuremberg",
					"18_Frankfurt",
					"47_Bonn",
					"46_Cologne",
					"34_Dusseldorf",
					"102_Essen",
					"103_Dortmund",
					"0_Bremen"
				],
				"lat1": 2034.000000,
				"nbSeg1": 4
			},
			"pathsExist": false,
			"runtime": 511295635,
			"nomLat1": 3288.000000,
			"nomLat2": 2322.000000,
			"maxNomLat": 3288.000000,
			"mincut": 4
		},
		{
			"s1": "0_Bremen",
			"s2": "28_Berne",
			"t1": "84_Naples",
			"t2": "94_None",
			"suurballeNbPaths": 2,
			"suurballeTime": 764526746,
			"suurballePaths": {
				"path0": [
					"28_Berne",
					"29_Lausanne",
					"77_Geneva",
					"56_Lyon",
					"57_Marseille",
					"50_Narborne",
					"95_Barcelona",
					"86_Valencia",
					"94_None"
				],
				"lat0": 2424.000000,
				"nbSeg0": 2,
				"path1": [
					"0_Bremen",
					"103_Dortmund",
					"102_Essen",
					"34_Dusseldorf",
					"46_Cologne",
					"47_Bonn",
					"18_Frankfurt",
					"26_Karlsruhe",
					"12_Stuttgart",
					"52_Zurich",
					"38_Milan",
					"49_Bologna",
					"3_Florence",
					"101_Rome",
					"84_Naples"
				],
				"lat1": 2926.000000,
				"nbSeg1": 6
			},
			"pathsExist": false,
			"runtime": 493586281,
			"nomLat1": 3610.000000,
			"nomLat2": 2424.000000,
			"maxNomLat": 3610.000000,
			"mincut": 4
		},
		{
			"s1": "32_Budapest",
			"s2": "36_None",
			"t1": "47_Bonn",
			"t2": "6_Salzburg",
			"suurballeNbPaths": 2,
			"suurballeTime": 1153503819,
			"suurballePaths": {
				"path0": [
					"32_Budapest",
					"33_Vienna",
					"6_Salzburg"
				],
				"lat0": 785.000000,
				"nbSeg0": 0,
				"path1": [
					"36_None",
					"75_Hannover",
					"35_Hamburg",
					"0_Bremen",
					"103_Dortmund",
					"102_Essen",
					"34_Dusseldorf",
					"46_Cologne",
					"47_Bonn"
				],
				"lat1": 1291.000000,
				"nbSeg1": 3
			},
			"pathsExist": false,
			"runtime": 241377882,
			"nomLat1": 1826.000000,
			"nomLat2": 1644.000000,
			"maxNomLat": 1826.000000,
			"mincut": 5
		},
		{
			"s1": "65_Warsaw",
			"s2": "41_Edirne",
			"t1": "7_Nuremberg",
			"t2": "29_Lausanne",
			"suurballeNbPaths": 2,
			"suurballeTime": 788302453,
			"suurballePaths": {
				"path0": [
					"65_Warsaw",
					"67_Krakow",
					"45_Brno",
					"64_Prague",
					"7_Nuremberg"
				],
				"lat0": 1594.000000,
				"nbSeg0": 0,
				"path1": [
					"41_Edirne",
					"71_Thessalonika",
					"63_Bari",
					"70_Pescara",
					"49_Bologna",
					"38_Milan",
					"52_Zurich",
					"25_Basle",
					"28_Berne",
					"29_Lausanne"
				],
				"lat1": 3294.000000,
				"nbSeg1": 0
			},
			"pathsExist": false,
			"runtime": 494580901,
			"nomLat1": 1594.000000,
			"nomLat2": 3294.000000,
			"maxNomLat": 3294.000000,
			"mincut": 5
		},
		{
			"s1": "86_Valencia",
			"s2": "87_Seville",
			"t1": "37_None",
			"t2": "91_Olbia",
			"suurballeNbPaths": 2,
			"suurballeTime": 1327911912,
			"suurballePaths": {
				"path0": [
					"86_Valencia",
					"95_Barcelona",
					"50_Narborne",
					"57_Marseille",
					"92_Nice",
					"55_Genoa",
					"2_Pisa",
					"101_Rome",
					"91_Olbia"
				],
				"lat0": 2862.000000,
				"nbSeg0": 0,
				"path1": [
					"87_Seville",
					"76_Madrid",
					"88_Bilbao",
					"51_Bordeaux",
					"89_Poltiers",
					"16_Paris",
					"72_Lille",
					"11_Brussels",
					"106_Antwerp",
					"107_Ghent",
					"58_Bruges",
					"37_None"
				],
				"lat1": 3565.000000,
				"nbSeg1": 2
			},
			"pathsExist": false,
			"runtime": 84393573,
			"nomLat1": 3877.000000,
			"nomLat2": 4196.000000,
			"maxNomLat": 4196.000000,
			"mincut": 2
		},
		{
			"s1": "48_Venice",
			"s2": "79_Haskovo",
			"t1": "91_Olbia",
			"t2": "0_Bremen",
			"suurballeNbPaths": 2,
			"suurballeTime": 1121754125,
			"suurballePaths": {
				"path0": [
					"48_Venice",
					"49_Bologna",
					"3_Florence",
					"101_Rome",
					"91_Olbia"
				],
				"lat0": 1210.000000,
				"nbSeg0": 0,
				"path1": [
					"79_Haskovo",
					"42_Bucharest",
					"109_None",
					"66_Szolnok",
					"32_Budapest",
					"74_Bratislava",
					"45_Brno",
					"64_Prague",
					"7_Nuremberg",
					"18_Frankfurt",
					"47_Bonn",
					"46_Cologne",
					"34_Dusseldorf",
					"102_Essen",
					"103_Dortmund",
					"0_Bremen"
				],
				"lat1": 3646.000000,
				"nbSeg1": 6
			},
			"pathsExist": false,
			"runtime": 286278720,
			"nomLat1": 1210.000000,
			"nomLat2": 4978.000000,
			"maxNomLat": 4978.000000,
			"mincut": 4
		},
		{
			"s1": "13_Amsterdam",
			"s2": "0_Bremen",
			"t1": "88_Bilbao",
			"t2": "59_Gotenburg",
			"suurballeNbPaths": 2,
			"suurballeTime": 714891684,
			"suurballePaths": {
				"path0": [
					"0_Bremen",
					"35_Hamburg",
					"53_Copenhagen",
					"59_Gotenburg"
				],
				"lat0": 1034.000000,
				"nbSeg0": 0,
				"path1": [
					"13_Amsterdam",
					"105_Rotterdam",
					"106_Antwerp",
					"11_Brussels",
					"72_Lille",
					"16_Paris",
					"89_Poltiers",
					"51_Bordeaux",
					"88_Bilbao"
				],
				"lat1": 2088.000000,
				"nbSeg1": 2
			},
			"pathsExist": false,
			"runtime": 570281202,
			"nomLat1": 2088.000000,
			"nomLat2": 1034.000000,
			"maxNomLat": 2088.000000,
			"mincut": 4
		},
		{
			"s1": "19_Munich",
			"s2": "53_Copenhagen",
			"t1": "69_Szeged",
			"t2": "45_Brno",
			"suurballeNbPaths": 2,
			"suurballeTime": 650619526,
			"suurballePaths": {
				"path0": [
					"19_Munich",
					"6_Salzburg",
					"33_Vienna",
					"32_Budapest",
					"43_Timisoara",
					"69_Szeged"
				],
				"lat0": 1585.000000,
				"nbSeg0": 0,
				"path1": [
					"53_Copenhagen",
					"36_None",
					"39_Berlin",
					"9_Dresden",
					"8_Leipzig",
					"64_Prague",
					"45_Brno"
				],
				"lat1": 1811.000000,
				"nbSeg1": 1
			},
			"pathsExist": false,
			"runtime": 640750105,
			"nomLat1": 1585.000000,
			"nomLat2": 2432.000000,
			"maxNomLat": 2432.000000,
			"mincut": 5
		},
		{
			"s1": "94_None",
			"s2": "60_Oslo",
			"t1": "41_Edirne",
			"t2": "11_Brussels",
			"suurballeNbPaths": 2,
			"suurballeTime": 786181036,
			"suurballePaths": {
				"path0": [
					"60_Oslo",
					"59_Gotenburg",
					"53_Copenhagen",
					"35_Hamburg",
					"0_Bremen",
					"103_Dortmund",
					"102_Essen",
					"34_Dusseldorf",
					"46_Cologne",
					"21_Liege",
					"11_Brussels"
				],
				"lat0": 2296.000000,
				"nbSeg0": 3,
				"path1": [
					"94_None",
					"86_Valencia",
					"95_Barcelona",
					"50_Narborne",
					"57_Marseille",
					"92_Nice",
					"55_Genoa",
					"2_Pisa",
					"101_Rome",
					"84_Naples",
					"63_Bari",
					"71_Thessalonika",
					"41_Edirne"
				],
				"lat1": 4663.000000,
				"nbSeg1": 0
			},
			"pathsExist": false,
			"runtime": 492895121,
			"nomLat1": 4663.000000,
			"nomLat2": 3053.000000,
			"maxNomLat": 4663.000000,
			"mincut": 4
		},
		{
			"s1": "46_Cologne",
			"s2": "67_Krakow",
			"t1": "36_None",
			"t2": "103_Dortmund",
			"suurballeNbPaths": 2,
			"suurballeTime": 940181165,
			"suurballePaths": {
				"path0": [
					"46_Cologne",
					"34_Dusseldorf",
					"102_Essen",
					"103_Dortmund"
				],
				"lat0": 173.000000,
				"nbSeg0": 2,
				"path1": [
					"67_Krakow",
					"65_Warsaw",
					"1_Poznan",
					"39_Berlin",
					"36_None"
				],
				"lat1": 1645.000000,
				"nbSeg1": 0
			},
			"pathsExist": false,
			"runtime": 490434652,
			"nomLat1": 1775.000000,
			"nomLat2": 2978.000000,
			"maxNomLat": 2978.000000,
			"mincut": 2
		},
		{
			"s1": "50_Narborne",
			"s2": "25_Basle",
			"t1": "79_Haskovo",
			"t2": "102_Essen",
			"suurballeNbPaths": 2,
			"suurballeTime": 1139270815,
			"suurballePaths": {
				"path0": [
					"25_Basle",
					"52_Zurich",
					"12_Stuttgart",
					"26_Karlsruhe",
					"18_Frankfurt",
					"47_Bonn",
					"46_Cologne",
					"34_Dusseldorf",
					"102_Essen"
				],
				"lat0": 1114.000000,
				"nbSeg0": 5,
				"path1": [
					"50_Narborne",
					"57_Marseille",
					"92_Nice",
					"55_Genoa",
					"2_Pisa",
					"3_Florence",
					"49_Bologna",
					"48_Venice",
					"4_Udine",
					"5_Graz",
					"33_Vienna",
					"32_Budapest",
					"66_Szolnok",
					"109_None",
					"42_Bucharest",
					"79_Haskovo"
				],
				"lat1": 4032.000000,
				"nbSeg1": 3
			},
			"pathsExist": false,
			"runtime": 267530966,
			"nomLat1": 4950.000000,
			"nomLat2": 1285.000000,
			"maxNomLat": 4950.000000,
			"mincut": 4
		},
		{
			"s1": "58_Bruges",
			"s2": "14_Moscow",
			"t1": "49_Bologna",
			"t2": "22_Dublin",
			"suurballeNbPaths": 2,
			"suurballeTime": 765650951,
			"suurballePaths": {
				"path0": [
					"58_Bruges",
					"37_None",
					"10_London",
					"22_Dublin"
				],
				"lat0": 1482.000000,
				"nbSeg0": 2,
				"path1": [
					"14_Moscow",
					"44_Stockholm",
					"53_Copenhagen",
					"35_Hamburg",
					"0_Bremen",
					"103_Dortmund",
					"102_Essen",
					"34_Dusseldorf",
					"46_Cologne",
					"47_Bonn",
					"18_Frankfurt",
					"26_Karlsruhe",
					"12_Stuttgart",
					"52_Zurich",
					"38_Milan",
					"49_Bologna"
				],
				"lat1": 5648.000000,
				"nbSeg1": 5
			},
			"pathsExist": false,
			"runtime": 533391582,
			"nomLat1": 2570.000000,
			"nomLat2": 5858.000000,
			"maxNomLat": 5858.000000,
			"mincut": 4
		},
		{
			"s1": "88_Bilbao",
			"s2": "22_Dublin",
			"t1": "0_Bremen",
			"t2": "15_Helsinki",
			"suurballeNbPaths": 2,
			"suurballeTime": 683581589,
			"suurballePaths": {
				"path0": [
					"22_Dublin",
					"10_London",
					"37_None",
					"61_Zandvort",
					"13_Amsterdam",
					"104_Utrecht",
					"34_Dusseldorf",
					"102_Essen",
					"103_Dortmund",
					"0_Bremen"
				],
				"lat0": 2287.000000,
				"nbSeg0": 2,
				"path1": [
					"88_Bilbao",
					"51_Bordeaux",
					"89_Poltiers",
					"16_Paris",
					"27_Strasbourg",
					"18_Frankfurt",
					"7_Nuremberg",
					"8_Leipzig",
					"9_Dresden",
					"39_Berlin",
					"36_None",
					"53_Copenhagen",
					"44_Stockholm",
					"15_Helsinki"
				],
				"lat1": 5649.000000,
				"nbSeg1": 0
			},
			"pathsExist": false,
			"runtime": 613945338,
			"nomLat1": 3024.000000,
			"nomLat2": 4473.000000,
			"maxNomLat": 4473.000000,
			"mincut": 2
		},
		{
			"s1": "88_Bilbao",
			"s2": "91_Olbia",
			"t1": "60_Oslo",
			"t2": "3_Florence",
			"suurballeNbPaths": 2,
			"suurballeTime": 787887649,
			"suurballePaths": {
				"path0": [
					"91_Olbia",
					"101_Rome",
					"3_Florence"
				],
				"lat0": 848.000000,
				"nbSeg0": 0,
				"path1": [
					"88_Bilbao",
					"51_Bordeaux",
					"89_Poltiers",
					"16_Paris",
					"72_Lille",
					"11_Brussels",
					"21_Liege",
					"46_Cologne",
					"34_Dusseldorf",
					"102_Essen",
					"103_Dortmund",
					"0_Bremen",
					"35_Hamburg",
					"53_Copenhagen",
					"59_Gotenburg",
					"60_Oslo"
				],
				"lat1": 4076.000000,
				"nbSeg1": 5
			},
			"pathsExist": false,
			"runtime": 528005150,
			"nomLat1": 5683.000000,
			"nomLat2": 848.000000,
			"maxNomLat": 5683.000000,
			"mincut": 4
		},
		{
			"s1": "87_Seville",
			"s2": "17_Dubai",
			"t1": "103_Dortmund",
			"t2": "31_None",
			"suurballeNbPaths": 2,
			"suurballeTime": 1298501619,
			"suurballePaths": {
				"path0": [
					"17_Dubai",
					"23_Slough",
					"31_None"
				],
				"lat0": 706.000000,
				"nbSeg0": 1,
				"path1": [
					"87_Seville",
					"76_Madrid",
					"88_Bilbao",
					"51_Bordeaux",
					"89_Poltiers",
					"16_Paris",
					"72_Lille",
					"11_Brussels",
					"21_Liege",
					"46_Cologne",
					"34_Dusseldorf",
					"102_Essen",
					"103_Dortmund"
				],
				"lat1": 3479.000000,
				"nbSeg1": 4
			},
			"pathsExist": false,
			"runtime": 167843940,
			"nomLat1": 3890.000000,
			"nomLat2": 706.000000,
			"maxNomLat": 3890.000000,
			"mincut": 4
		},
		{
			"s1": "18_Frankfurt",
			"s2": "15_Helsinki",
			"t1": "48_Venice",
			"t2": "38_Milan",
			"suurballeNbPaths": 2,
			"suurballeTime": 649852888,
			"suurballePaths": {
				"path0": [
					"18_Frankfurt",
					"26_Karlsruhe",
					"12_Stuttgart",
					"52_Zurich",
					"38_Milan"
				],
				"lat0": 966.000000,
				"nbSeg0": 1,
				"path1": [
					"15_Helsinki",
					"44_Stockholm",
					"53_Copenhagen",
					"36_None",
					"39_Berlin",
					"9_Dresden",
					"8_Leipzig",
					"64_Prague",
					"45_Brno",
					"33_Vienna",
					"5_Graz",
					"4_Udine",
					"48_Venice"
				],
				"lat1": 4295.000000,
				"nbSeg1": 1
			},
			"pathsExist": false,
			"runtime": 645255444,
			"nomLat1": 1549.000000,
			"nomLat2": 4304.000000,
			"maxNomLat": 4304.000000,
			"mincut": 4
		},
		{
			"s1": "104_Utrecht",
			"s2": "94_None",
			"t1": "11_Brussels",
			"t2": "41_Edirne",
			"suurballeNbPaths": 2,
			"suurballeTime": 677613331,
			"suurballePaths": {
				"path0": [
					"104_Utrecht",
					"13_Amsterdam",
					"105_Rotterdam",
					"106_Antwerp",
					"11_Brussels"
				],
				"lat0": 371.000000,
				"nbSeg0": 1,
				"path1": [
					"94_None",
					"86_Valencia",
					"95_Barcelona",
					"50_Narborne",
					"57_Marseille",
					"92_Nice",
					"55_Genoa",
					"2_Pisa",
					"101_Rome",
					"84_Naples",
					"63_Bari",
					"71_Thessalonika",
					"41_Edirne"
				],
				"lat1": 4663.000000,
				"nbSeg1": 0
			},
			"pathsExist": false,
			"runtime": 622779740,
			"nomLat1": 644.000000,
			"nomLat2": 4663.000000,
			"maxNomLat": 4663.000000,
			"mincut": 4
		},
		{
			"s1": "51_Bordeaux",
			"s2": "35_Hamburg",
			"t1": "84_Naples",
			"t2": "76_Madrid",
			"suurballeNbPaths": 2,
			"suurballeTime": 676382012,
			"suurballePaths": {
				"path0": [
					"51_Bordeaux",
					"88_Bilbao",
					"76_Madrid"
				],
				"lat0": 974.000000,
				"nbSeg0": 0,
				"path1": [
					"35_Hamburg",
					"0_Bremen",
					"103_Dortmund",
					"102_Essen",
					"34_Dusseldorf",
					"46_Cologne",
					"47_Bonn",
					"18_Frankfurt",
					"26_Karlsruhe",
					"12_Stuttgart",
					"52_Zurich",
					"38_Milan",
					"49_Bologna",
					"3_Florence",
					"101_Rome",
					"84_Naples"
				],
				"lat1": 3089.000000,
				"nbSeg1": 6
			},
			"pathsExist": false,
			"runtime": 605028622,
			"nomLat1": 2427.000000,
			"nomLat2": 5138.000000,
			"maxNomLat": 5138.000000,
			"mincut": 5
		},
		{
			"s1": "19_Munich",
			"s2": "31_None",
			"t1": "47_Bonn",
			"t2": "9_Dresden",
			"suurballeNbPaths": 2,
			"suurballeTime": 1263322527,
			"suurballePaths": {
				"path0": [
					"19_Munich",
					"7_Nuremberg",
					"8_Leipzig",
					"9_Dresden"
				],
				"lat0": 814.000000,
				"nbSeg0": 0,
				"path1": [
					"31_None",
					"20_Calais",
					"72_Lille",
					"11_Brussels",
					"21_Liege",
					"46_Cologne",
					"47_Bonn"
				],
				"lat1": 1045.000000,
				"nbSeg1": 3
			},
			"pathsExist": false,
			"runtime": 177443537,
			"nomLat1": 793.000000,
			"nomLat2": 2707.000000,
			"maxNomLat": 2707.000000,
			"mincut": 6
		},
		{
			"s1": "106_Antwerp",
			"s2": "104_Utrecht",
			"t1": "61_Zandvort",
			"t2": "72_Lille",
			"suurballeNbPaths": 2,
			"suurballeTime": 1145629161,
			"suurballePaths": {
				"path0": [
					"106_Antwerp",
					"11_Brussels",
					"72_Lille"
				],
				"lat0": 233.000000,
				"nbSeg0": 2,
				"path1": [
					"104_Utrecht",
					"13_Amsterdam",
					"61_Zandvort"
				],
				"lat1": 108.000000,
				"nbSeg1": 0
			},
			"pathsExist": false,
			"runtime": 306473091,
			"nomLat1": 280.000000,
			"nomLat2": 804.000000,
			"maxNomLat": 804.000000,
			"mincut": 4
		},
		{
			"s1": "6_Salzburg",
			"s2": "30_None",
			"t1": "106_Antwerp",
			"t2": "3_Florence",
			"suurballeNbPaths": 2,
			"suurballeTime": 699704728,
			"suurballePaths": {
				"path0": [
					"30_None",
					"84_Naples",
					"101_Rome",
					"3_Florence"
				],
				"lat0": 1062.000000,
				"nbSeg0": 0,
				"path1": [
					"6_Salzburg",
					"19_Munich",
					"7_Nuremberg",
					"18_Frankfurt",
					"47_Bonn",
					"46_Cologne",
					"21_Liege",
					"11_Brussels",
					"106_Antwerp"
				],
				"lat1": 1436.000000,
				"nbSeg1": 3
			},
			"pathsExist": false,
			"runtime": 587379886,
			"nomLat1": 1946.000000,
			"nomLat2": 1062.000000,
			"maxNomLat": 1946.000000,
			"mincut": 4
		},
		{
			"s1": "57_Marseille",
			"s2": "53_Copenhagen",
			"t1": "88_Bilbao",
			"t2": "49_Bologna",
			"suurballeNbPaths": 2,
			"suurballeTime": 1163595130,
			"suurballePaths": {
				"path0": [
					"57_Marseille",
					"50_Narborne",
					"51_Bordeaux",
					"88_Bilbao"
				],
				"lat0": 1327.000000,
				"nbSeg0": 0,
				"path1": [
					"53_Copenhagen",
					"35_Hamburg",
					"0_Bremen",
					"103_Dortmund",
					"102_Essen",
					"34_Dusseldorf",
					"46_Cologne",
					"47_Bonn",
					"18_Frankfurt",
					"26_Karlsruhe",
					"12_Stuttgart",
					"52_Zurich",
					"38_Milan",
					"49_Bologna"
				],
				"lat1": 2725.000000,
				"nbSeg1": 5
			},
			"pathsExist": false,
			"runtime": 295992240,
			"nomLat1": 1327.000000,
			"nomLat2": 3104.000000,
			"maxNomLat": 3104.000000,
			"mincut": 6
		},
		{
			"s1": "79_Haskovo",
			"s2": "76_Madrid",
			"t1": "39_Berlin",
			"t2": "38_Milan",
			"suurballeNbPaths": 2,
			"suurballeTime": 727143951,
			"suurballePaths": {
				"path0": [
					"76_Madrid",
					"88_Bilbao",
					"51_Bordeaux",
					"50_Narborne",
					"57_Marseille",
					"92_Nice",
					"55_Genoa",
					"54_Turin",
					"38_Milan"
				],
				"lat0": 2823.000000,
				"nbSeg0": 4,
				"path1": [
					"79_Haskovo",
					"42_Bucharest",
					"109_None",
					"66_Szolnok",
					"32_Budapest",
					"74_Bratislava",
					"45_Brno",
					"64_Prague",
					"8_Leipzig",
					"9_Dresden",
					"39_Berlin"
				],
				"lat1": 2925.000000,
				"nbSeg1": 3
			},
			"pathsExist": false,
			"runtime": 551346589,
			"nomLat1": 3624.000000,
			"nomLat2": 3310.000000,
			"maxNomLat": 3624.000000,
			"mincut": 4
		},
		{
			"s1": "52_Zurich",
			"s2": "47_Bonn",
			"t1": "77_Geneva",
			"t2": "73_Luxembourg",
			"suurballeNbPaths": 2,
			"suurballeTime": 649199498,
			"suurballePaths": {
				"path0": [
					"47_Bonn",
					"73_Luxembourg"
				],
				"lat0": 242.000000,
				"nbSeg0": 0,
				"path1": [
					"52_Zurich",
					"25_Basle",
					"28_Berne",
					"29_Lausanne",
					"77_Geneva"
				],
				"lat1": 475.000000,
				"nbSeg1": 0
			},
			"pathsExist": false,
			"runtime": 597987704,
			"nomLat1": 475.000000,
			"nomLat2": 242.000000,
			"maxNomLat": 475.000000,
			"mincut": 4
		},
		{
			"s1": "68_Ruse",
			"s2": "74_Bratislava",
			"t1": "43_Timisoara",
			"t2": "53_Copenhagen",
			"suurballeNbPaths": 2,
			"suurballeTime": 1117199242,
			"suurballePaths": {
				"path0": [
					"68_Ruse",
					"42_Bucharest",
					"43_Timisoara"
				],
				"lat0": 800.000000,
				"nbSeg0": 0,
				"path1": [
					"74_Bratislava",
					"45_Brno",
					"64_Prague",
					"8_Leipzig",
					"9_Dresden",
					"39_Berlin",
					"36_None",
					"53_Copenhagen"
				],
				"lat1": 2019.000000,
				"nbSeg1": 1
			},
			"pathsExist": false,
			"runtime": 261421079,
			"nomLat1": 800.000000,
			"nomLat2": 2640.000000,
			"maxNomLat": 2640.000000,
			"mincut": 5
		},
		{
			"s1": "57_Marseille",
			"s2": "45_Brno",
			"t1": "15_Helsinki",
			"t2": "93_Toulouse",
			"suurballeNbPaths": 2,
			"suurballeTime": 760218667,
			"suurballePaths": {
				"path0": [
					"57_Marseille",
					"50_Narborne",
					"93_Toulouse"
				],
				"lat0": 554.000000,
				"nbSeg0": 0,
				"path1": [
					"45_Brno",
					"64_Prague",
					"8_Leipzig",
					"9_Dresden",
					"39_Berlin",
					"36_None",
					"53_Copenhagen",
					"44_Stockholm",
					"15_Helsinki"
				],
				"lat1": 3349.000000,
				"nbSeg1": 1
			},
			"pathsExist": false,
			"runtime": 586713200,
			"nomLat1": 5497.000000,
			"nomLat2": 3227.000000,
			"maxNomLat": 5497.000000,
			"mincut": 4
		},
		{
			"s1": "0_Bremen",
			"s2": "93_Toulouse",
			"t1": "90_Cagliari",
			"t2": "66_Szolnok",
			"suurballeNbPaths": 2,
			"suurballeTime": 722158199,
			"suurballePaths": {
				"path0": [
					"93_Toulouse",
					"50_Narborne",
					"57_Marseille",
					"92_Nice",
					"55_Genoa",
					"2_Pisa",
					"101_Rome",
					"91_Olbia",
					"90_Cagliari"
				],
				"lat0": 2551.000000,
				"nbSeg0": 0,
				"path1": [
					"0_Bremen",
					"103_Dortmund",
					"102_Essen",
					"34_Dusseldorf",
					"46_Cologne",
					"47_Bonn",
					"18_Frankfurt",
					"7_Nuremberg",
					"64_Prague",
					"45_Brno",
					"74_Bratislava",
					"32_Budapest",
					"66_Szolnok"
				],
				"lat1": 2468.000000,
				"nbSeg1": 5
			},
			"pathsExist": false,
			"runtime": 602500011,
			"nomLat1": 3562.000000,
			"nomLat2": 3512.000000,
			"maxNomLat": 3562.000000,
			"mincut": 4
		},
		{
			"s1": "101_Rome",
			"s2": "0_Bremen",
			"t1": "20_Calais",
			"t2": "33_Vienna",
			"suurballeNbPaths": 2,
			"suurballeTime": 887354720,
			"suurballePaths": {
				"path0": [
					"101_Rome",
					"3_Florence",
					"49_Bologna",
					"48_Venice",
					"4_Udine",
					"5_Graz",
					"33_Vienna"
				],
				"lat0": 1509.000000,
				"nbSeg0": 0,
				"path1": [
					"0_Bremen",
					"103_Dortmund",
					"102_Essen",
					"34_Dusseldorf",
					"46_Cologne",
					"21_Liege",
					"11_Brussels",
					"72_Lille",
					"20_Calais"
				],
				"lat1": 1152.000000,
				"nbSeg1": 4
			},
			"pathsExist": false,
			"runtime": 476802342,
			"nomLat1": 2840.000000,
			"nomLat2": 3269.000000,
			"maxNomLat": 3269.000000,
			"mincut": 5
		},
		{
			"s1": "30_None",
			"s2": "74_Bratislava",
			"t1": "29_Lausanne",
			"t2": "90_Cagliari",
			"suurballeNbPaths": 2,
			"suurballeTime": 684338887,
			"suurballePaths": {
				"path0": [
					"30_None",
					"85_Mazara_del_Vallo",
					"90_Cagliari"
				],
				"lat0": 934.000000,
				"nbSeg0": 0,
				"path1": [
					"74_Bratislava",
					"45_Brno",
					"33_Vienna",
					"6_Salzburg",
					"19_Munich",
					"12_Stuttgart",
					"52_Zurich",
					"25_Basle",
					"28_Berne",
					"29_Lausanne"
				],
				"lat1": 2003.000000,
				"nbSeg1": 4
			},
			"pathsExist": false,
			"runtime": 652814808,
			"nomLat1": 2804.000000,
			"nomLat2": 4658.000000,
			"maxNomLat": 4658.000000,
			"mincut": 4
		},
		{
			"s1": "106_Antwerp",
			"s2": "48_Venice",
			"t1": "6_Salzburg",
			"t2": "87_Seville",
			"suurballeNbPaths": 2,
			"suurballeTime": 648728762,
			"suurballePaths": {
				"path0": [
					"48_Venice",
					"4_Udine",
					"5_Graz",
					"33_Vienna",
					"6_Salzburg"
				],
				"lat0": 1181.000000,
				"nbSeg0": 0,
				"path1": [
					"106_Antwerp",
					"11_Brussels",
					"72_Lille",
					"16_Paris",
					"89_Poltiers",
					"51_Bordeaux",
					"88_Bilbao",
					"76_Madrid",
					"87_Seville"
				],
				"lat1": 3051.000000,
				"nbSeg1": 2
			},
			"pathsExist": false,
			"runtime": 613694932,
			"nomLat1": 1946.000000,
			"nomLat2": 4378.000000,
			"maxNomLat": 4378.000000,
			"mincut": 4
		},
		{
			"s1": "53_Copenhagen",
			"s2": "69_Szeged",
			"t1": "72_Lille",
			"t2": "78_Varna",
			"suurballeNbPaths": 2,
			"suurballeTime": 870992763,
			"suurballePaths": {
				"path0": [
					"69_Szeged",
					"43_Timisoara",
					"78_Varna"
				],
				"lat0": 1177.000000,
				"nbSeg0": 0,
				"path1": [
					"53_Copenhagen",
					"35_Hamburg",
					"0_Bremen",
					"103_Dortmund",
					"102_Essen",
					"34_Dusseldorf",
					"46_Cologne",
					"21_Liege",
					"11_Brussels",
					"72_Lille"
				],
				"lat1": 1641.000000,
				"nbSeg1": 4
			},
			"pathsExist": false,
			"runtime": 493358130,
			"nomLat1": 3181.000000,
			"nomLat2": 1177.000000,
			"maxNomLat": 3181.000000,
			"mincut": 4
		},
		{
			"s1": "48_Venice",
			"s2": "102_Essen",
			"t1": "30_None",
			"t2": "0_Bremen",
			"suurballeNbPaths": 2,
			"suurballeTime": 847953399,
			"suurballePaths": {
				"path0": [
					"102_Essen",
					"103_Dortmund",
					"0_Bremen"
				],
				"lat0": 388.000000,
				"nbSeg0": 0,
				"path1": [
					"48_Venice",
					"49_Bologna",
					"3_Florence",
					"101_Rome",
					"84_Naples",
					"30_None"
				],
				"lat1": 1424.000000,
				"nbSeg1": 1
			},
			"pathsExist": false,
			"runtime": 492282345,
			"nomLat1": 1937.000000,
			"nomLat2": 388.000000,
			"maxNomLat": 1937.000000,
			"mincut": 4
		},
		{
			"s1": "41_Edirne",
			"s2": "52_Zurich",
			"t1": "19_Munich",
			"t2": "15_Helsinki",
			"suurballeNbPaths": 2,
			"suurballeTime": 759048693,
			"suurballePaths": {
				"path0": [
					"52_Zurich",
					"12_Stuttgart",
					"19_Munich"
				],
				"lat0": 600.000000,
				"nbSeg0": 2,
				"path1": [
					"41_Edirne",
					"68_Ruse",
					"42_Bucharest",
					"109_None",
					"66_Szolnok",
					"32_Budapest",
					"74_Bratislava",
					"45_Brno",
					"64_Prague",
					"8_Leipzig",
					"9_Dresden",
					"39_Berlin",
					"36_None",
					"53_Copenhagen",
					"44_Stockholm",
					"15_Helsinki"
				],
				"lat1": 5163.000000,
				"nbSeg1": 3
			},
			"pathsExist": false,
			"runtime": 671281014,
			"nomLat1": 2810.000000,
			"nomLat2": 3938.000000,
			"maxNomLat": 3938.000000,
			"mincut": 6
		},
		{
			"s1": "43_Timisoara",
			"s2": "86_Valencia",
			"t1": "66_Szolnok",
			"t2": "79_Haskovo",
			"suurballeNbPaths": 2,
			"suurballeTime": 778892516,
			"suurballePaths": {
				"path0": [
					"43_Timisoara",
					"79_Haskovo"
				],
				"lat0": 917.000000,
				"nbSeg0": 0,
				"path1": [
					"86_Valencia",
					"95_Barcelona",
					"50_Narborne",
					"57_Marseille",
					"92_Nice",
					"55_Genoa",
					"2_Pisa",
					"3_Florence",
					"49_Bologna",
					"48_Venice",
					"4_Udine",
					"5_Graz",
					"33_Vienna",
					"32_Budapest",
					"66_Szolnok"
				],
				"lat1": 3719.000000,
				"nbSeg1": 1
			},
			"pathsExist": false,
			"runtime": 585548194,
			"nomLat1": 592.000000,
			"nomLat2": 5815.000000,
			"maxNomLat": 5815.000000,
			"mincut": 4
		},
		{
			"s1": "72_Lille",
			"s2": "58_Bruges",
			"t1": "61_Zandvort",
			"t2": "53_Copenhagen",
			"suurballeNbPaths": 2,
			"suurballeTime": 849040504,
			"suurballePaths": {
				"path0": [
					"58_Bruges",
					"107_Ghent",
					"106_Antwerp",
					"105_Rotterdam",
					"13_Amsterdam",
					"61_Zandvort"
				],
				"lat0": 441.000000,
				"nbSeg0": 1,
				"path1": [
					"72_Lille",
					"11_Brussels",
					"21_Liege",
					"46_Cologne",
					"34_Dusseldorf",
					"102_Essen",
					"103_Dortmund",
					"0_Bremen",
					"35_Hamburg",
					"53_Copenhagen"
				],
				"lat1": 1641.000000,
				"nbSeg1": 4
			},
			"pathsExist": false,
			"runtime": 520878543,
			"nomLat1": 1571.000000,
			"nomLat2": 2159.000000,
			"maxNomLat": 2159.000000,
			"mincut": 4
		},
		{
			"s1": "8_Leipzig",
			"s2": "86_Valencia",
			"t1": "40_Sofia",
			"t2": "28_Berne",
			"suurballeNbPaths": 2,
			"suurballeTime": 793457375,
			"suurballePaths": {
				"path0": [
					"86_Valencia",
					"95_Barcelona",
					"50_Narborne",
					"57_Marseille",
					"56_Lyon",
					"77_Geneva",
					"29_Lausanne",
					"28_Berne"
				],
				"lat0": 2071.000000,
				"nbSeg0": 2,
				"path1": [
					"8_Leipzig",
					"64_Prague",
					"45_Brno",
					"74_Bratislava",
					"32_Budapest",
					"66_Szolnok",
					"109_None",
					"42_Bucharest",
					"68_Ruse",
					"40_Sofia"
				],
				"lat1": 2535.000000,
				"nbSeg1": 2
			},
			"pathsExist": false,
			"runtime": 595154375,
			"nomLat1": 2678.000000,
			"nomLat2": 2071.000000,
			"maxNomLat": 2678.000000,
			"mincut": 5
		},
		{
			"s1": "87_Seville",
			"s2": "30_None",
			"t1": "18_Frankfurt",
			"t2": "34_Dusseldorf",
			"suurballeNbPaths": 2,
			"suurballeTime": 751674548,
			"suurballePaths": {
				"path0": [
					"30_None",
					"84_Naples",
					"101_Rome",
					"3_Florence",
					"49_Bologna",
					"38_Milan",
					"52_Zurich",
					"12_Stuttgart",
					"26_Karlsruhe",
					"18_Frankfurt"
				],
				"lat0": 2506.000000,
				"nbSeg0": 2,
				"path1": [
					"87_Seville",
					"76_Madrid",
					"88_Bilbao",
					"51_Bordeaux",
					"89_Poltiers",
					"16_Paris",
					"72_Lille",
					"11_Brussels",
					"21_Liege",
					"46_Cologne",
					"34_Dusseldorf"
				],
				"lat1": 3368.000000,
				"nbSeg1": 4
			},
			"pathsExist": false,
			"runtime": 627593127,
			"nomLat1": 3449.000000,
			"nomLat2": 3520.000000,
			"maxNomLat": 3520.000000,
			"mincut": 4
		},
		{
			"s1": "11_Brussels",
			"s2": "55_Genoa",
			"t1": "101_Rome",
			"t2": "30_None",
			"suurballeNbPaths": 2,
			"suurballeTime": 884007382,
			"suurballePaths": {
				"path0": [
					"55_Genoa",
					"2_Pisa",
					"101_Rome"
				],
				"lat0": 682.000000,
				"nbSeg0": 0,
				"path1": [
					"11_Brussels",
					"21_Liege",
					"46_Cologne",
					"47_Bonn",
					"18_Frankfurt",
					"26_Karlsruhe",
					"12_Stuttgart",
					"52_Zurich",
					"38_Milan",
					"49_Bologna",
					"3_Florence",
					"101_Rome"
				],
				"lat1": 2430.000000,
				"nbSeg1": 4
			},
			"pathsExist": false,
			"runtime": 521257679,
			"nomLat1": 2841.000000,
			"nomLat2": 1354.000000,
			"maxNomLat": 2841.000000,
			"mincut": 3
		},
		{
			"s1": "64_Prague",
			"s2": "84_Naples",
			"t1": "68_Ruse",
			"t2": "0_Bremen",
			"suurballeNbPaths": 2,
			"suurballeTime": 797182694,
			"suurballePaths": {
				"path0": [
					"84_Naples",
					"63_Bari",
					"71_Thessalonika",
					"41_Edirne",
					"68_Ruse"
				],
				"lat0": 1940.000000,
				"nbSeg0": 1,
				"path1": [
					"64_Prague",
					"7_Nuremberg",
					"18_Frankfurt",
					"47_Bonn",
					"46_Cologne",
					"34_Dusseldorf",
					"102_Essen",
					"103_Dortmund",
					"0_Bremen"
				],
				"lat1": 1511.000000,
				"nbSeg1": 4
			},
			"pathsExist": false,
			"runtime": 604802843,
			"nomLat1": 2096.000000,
			"nomLat2": 3610.000000,
			"maxNomLat": 3610.000000,
			"mincut": 5
		},
		{
			"s1": "81_Plovdiv",
			"s2": "50_Narborne",
			"t1": "43_Timisoara",
			"t2": "41_Edirne",
			"suurballeNbPaths": 2,
			"suurballeTime": 783287407,
			"suurballePaths": {
				"path0": [
					"81_Plovdiv",
					"40_Sofia",
					"41_Edirne"
				],
				"lat0": 577.000000,
				"nbSeg0": 0,
				"path1": [
					"50_Narborne",
					"57_Marseille",
					"92_Nice",
					"55_Genoa",
					"2_Pisa",
					"3_Florence",
					"49_Bologna",
					"48_Venice",
					"4_Udine",
					"5_Graz",
					"33_Vienna",
					"32_Budapest",
					"43_Timisoara"
				],
				"lat1": 3124.000000,
				"nbSeg1": 2
			},
			"pathsExist": false,
			"runtime": 635709571,
			"nomLat1": 820.000000,
			"nomLat2": 3445.000000,
			"maxNomLat": 3445.000000,
			"mincut": 4
		},
		{
			"s1": "27_Strasbourg",
			"s2": "50_Narborne",
			"t1": "106_Antwerp",
			"t2": "49_Bologna",
			"suurballeNbPaths": 2,
			"suurballeTime": 795241125,
			"suurballePaths": {
				"path0": [
					"27_Strasbourg",
					"18_Frankfurt",
					"47_Bonn",
					"46_Cologne",
					"21_Liege",
					"11_Brussels",
					"106_Antwerp"
				],
				"lat0": 979.000000,
				"nbSeg0": 3,
				"path1": [
					"50_Narborne",
					"57_Marseille",
					"92_Nice",
					"55_Genoa",
					"2_Pisa",
					"3_Florence",
					"49_Bologna"
				],
				"lat1": 1353.000000,
				"nbSeg1": 1
			},
			"pathsExist": false,
			"runtime": 622467124,
			"nomLat1": 1244.000000,
			"nomLat2": 1618.000000,
			"maxNomLat": 1618.000000,
			"mincut": 5
		},
		{
			"s1": "6_Salzburg",
			"s2": "89_Poltiers",
			"t1": "42_Bucharest",
			"t2": "80_Veliko_Turnovo",
			"suurballeNbPaths": 2,
			"suurballeTime": 899462685,
			"suurballePaths": {
				"path0": [
					"6_Salzburg",
					"33_Vienna",
					"32_Budapest",
					"66_Szolnok",
					"109_None",
					"42_Bucharest"
				],
				"lat0": 1652.000000,
				"nbSeg0": 1,
				"path1": [
					"89_Poltiers",
					"51_Bordeaux",
					"50_Narborne",
					"57_Marseille",
					"92_Nice",
					"55_Genoa",
					"2_Pisa",
					"101_Rome",
					"84_Naples",
					"63_Bari",
					"71_Thessalonika",
					"40_Sofia",
					"80_Veliko_Turnovo"
				],
				"lat1": 4724.000000,
				"nbSeg1": 1
			},
			"pathsExist": false,
			"runtime": 510893731,
			"nomLat1": 1903.000000,
			"nomLat2": 4398.000000,
			"maxNomLat": 4398.000000,
			"mincut": 3
		},
		{
			"s1": "88_Bilbao",
			"s2": "66_Szolnok",
			"t1": "65_Warsaw",
			"t2": "94_None",
			"suurballeNbPaths": 2,
			"suurballeTime": 859737283,
			"suurballePaths": {
				"path0": [
					"88_Bilbao",
					"76_Madrid",
					"87_Seville",
					"94_None"
				],
				"lat0": 1551.000000,
				"nbSeg0": 0,
				"path1": [
					"66_Szolnok",
					"32_Budapest",
					"74_Bratislava",
					"45_Brno",
					"67_Krakow",
					"65_Warsaw"
				],
				"lat1": 1498.000000,
				"nbSeg1": 1
			},
			"pathsExist": false,
			"runtime": 547594990,
			"nomLat1": 4160.000000,
			"nomLat2": 5140.000000,
			"maxNomLat": 5140.000000,
			"mincut": 4
		},
		{
			"s1": "30_None",
			"s2": "29_Lausanne",
			"t1": "59_Gotenburg",
			"t2": "109_None",
			"suurballeNbPaths": 2,
			"suurballeTime": 1469627414,
			"suurballePaths": {
				"path0": [
					"30_None",
					"84_Naples",
					"63_Bari",
					"71_Thessalonika",
					"41_Edirne",
					"68_Ruse",
					"42_Bucharest",
					"109_None"
				],
				"lat0": 2759.000000,
				"nbSeg0": 1,
				"path1": [
					"29_Lausanne",
					"28_Berne",
					"25_Basle",
					"52_Zurich",
					"12_Stuttgart",
					"26_Karlsruhe",
					"18_Frankfurt",
					"47_Bonn",
					"46_Cologne",
					"34_Dusseldorf",
					"102_Essen",
					"103_Dortmund",
					"0_Bremen",
					"35_Hamburg",
					"53_Copenhagen",
					"59_Gotenburg"
				],
				"lat1": 2792.000000,
				"nbSeg1": 5
			},
			"pathsExist": false,
			"runtime": 80740571,
			"nomLat1": 5205.000000,
			"nomLat2": 2481.000000,
			"maxNomLat": 5205.000000,
			"mincut": 4
		},
		{
			"s1": "2_Pisa",
			"s2": "77_Geneva",
			"t1": "84_Naples",
			"t2": "94_None",
			"suurballeNbPaths": 2,
			"suurballeTime": 920913198,
			"suurballePaths": {
				"path0": [
					"2_Pisa",
					"101_Rome",
					"84_Naples"
				],
				"lat0": 764.000000,
				"nbSeg0": 0,
				"path1": [
					"77_Geneva",
					"56_Lyon",
					"57_Marseille",
					"50_Narborne",
					"95_Barcelona",
					"86_Valencia",
					"94_None"
				],
				"lat1": 2199.000000,
				"nbSeg1": 2
			},
			"pathsExist": false,
			"runtime": 497489604,
			"nomLat1": 764.000000,
			"nomLat2": 2199.000000,
			"maxNomLat": 2199.000000,
			"mincut": 5
		},
		{
			"s1": "7_Nuremberg",
			"s2": "50_Narborne",
			"t1": "41_Edirne",
			"t2": "49_Bologna",
			"suurballeNbPaths": 2,
			"suurballeTime": 895318770,
			"suurballePaths": {
				"path0": [
					"50_Narborne",
					"57_Marseille",
					"92_Nice",
					"55_Genoa",
					"2_Pisa",
					"3_Florence",
					"49_Bologna"
				],
				"lat0": 1353.000000,
				"nbSeg0": 1,
				"path1": [
					"7_Nuremberg",
					"64_Prague",
					"45_Brno",
					"74_Bratislava",
					"32_Budapest",
					"66_Szolnok",
					"109_None",
					"42_Bucharest",
					"68_Ruse",
					"41_Edirne"
				],
				"lat1": 2552.000000,
				"nbSeg1": 2
			},
			"pathsExist": false,
			"runtime": 531101182,
			"nomLat1": 3116.000000,
			"nomLat2": 1618.000000,
			"maxNomLat": 3116.000000,
			"mincut": 5
		},
		{
			"s1": "19_Munich",
			"s2": "84_Naples",
			"t1": "2_Pisa",
			"t2": "88_Bilbao",
			"suurballeNbPaths": 2,
			"suurballeTime": 1394674511,
			"suurballePaths": {
				"path0": [
					"84_Naples",
					"101_Rome",
					"2_Pisa"
				],
				"lat0": 764.000000,
				"nbSeg0": 0,
				"path1": [
					"19_Munich",
					"12_Stuttgart",
					"27_Strasbourg",
					"16_Paris",
					"89_Poltiers",
					"51_Bordeaux",
					"88_Bilbao"
				],
				"lat1": 2446.000000,
				"nbSeg1": 2
			},
			"pathsExist": false,
			"runtime": 157238907,
			"nomLat1": 1626.000000,
			"nomLat2": 2859.000000,
			"maxNomLat": 2859.000000,
			"mincut": 5
		},
		{
			"s1": "104_Utrecht",
			"s2": "47_Bonn",
			"t1": "0_Bremen",
			"t2": "91_Olbia",
			"suurballeNbPaths": 2,
			"suurballeTime": 838252597,
			"suurballePaths": {
				"path0": [
					"104_Utrecht",
					"34_Dusseldorf",
					"102_Essen",
					"103_Dortmund",
					"0_Bremen"
				],
				"lat0": 697.000000,
				"nbSeg0": 0,
				"path1": [
					"47_Bonn",
					"18_Frankfurt",
					"26_Karlsruhe",
					"12_Stuttgart",
					"52_Zurich",
					"38_Milan",
					"49_Bologna",
					"3_Florence",
					"101_Rome",
					"91_Olbia"
				],
				"lat1": 2515.000000,
				"nbSeg1": 3
			},
			"pathsExist": false,
			"runtime": 571072770,
			"nomLat1": 697.000000,
			"nomLat2": 2686.000000,
			"maxNomLat": 2686.000000,
			"mincut": 4
		},
		{
			"s1": "9_Dresden",
			"s2": "68_Ruse",
			"t1": "52_Zurich",
			"t2": "25_Basle",
			"suurballeNbPaths": 2,
			"suurballeTime": 1275288755,
			"suurballePaths": {
				"path0": [
					"9_Dresden",
					"8_Leipzig",
					"7_Nuremberg",
					"19_Munich",
					"12_Stuttgart",
					"52_Zurich"
				],
				"lat0": 1414.000000,
				"nbSeg0": 2,
				"path1": [
					"68_Ruse",
					"42_Bucharest",
					"109_None",
					"66_Szolnok",
					"32_Budapest",
					"33_Vienna",
					"5_Graz",
					"4_Udine",
					"48_Venice",
					"38_Milan",
					"52_Zurich"
				],
				"lat1": 2876.000000,
				"nbSeg1": 3
			},
			"pathsExist": false,
			"runtime": 279264863,
			"nomLat1": 1414.000000,
			"nomLat2": 3495.000000,
			"maxNomLat": 3495.000000,
			"mincut": 3
		},
		{
			"s1": "64_Prague",
			"s2": "0_Bremen",
			"t1": "19_Munich",
			"t2": "93_Toulouse",
			"suurballeNbPaths": 2,
			"suurballeTime": 1472368001,
			"suurballePaths": {
				"path0": [
					"64_Prague",
					"7_Nuremberg",
					"19_Munich"
				],
				"lat0": 678.000000,
				"nbSeg0": 0,
				"path1": [
					"0_Bremen",
					"103_Dortmund",
					"102_Essen",
					"34_Dusseldorf",
					"46_Cologne",
					"21_Liege",
					"11_Brussels",
					"72_Lille",
					"16_Paris",
					"89_Poltiers",
					"51_Bordeaux",
					"93_Toulouse"
				],
				"lat1": 2536.000000,
				"nbSeg1": 4
			},
			"pathsExist": false,
			"runtime": 84401250,
			"nomLat1": 678.000000,
			"nomLat2": 2947.000000,
			"maxNomLat": 2947.000000,
			"mincut": 5
		},
		{
			"s1": "29_Lausanne",
			"s2": "3_Florence",
			"t1": "102_Essen",
			"t2": "39_Berlin",
			"suurballeNbPaths": 2,
			"suurballeTime": 1419270508,
			"suurballePaths": {
				"path0": [
					"29_Lausanne",
					"28_Berne",
					"25_Basle",
					"52_Zurich",
					"12_Stuttgart",
					"26_Karlsruhe",
					"18_Frankfurt",
					"47_Bonn",
					"46_Cologne",
					"34_Dusseldorf",
					"102_Essen"
				],
				"lat0": 1370.000000,
				"nbSeg0": 5,
				"path1": [
					"3_Florence",
					"49_Bologna",
					"48_Venice",
					"4_Udine",
					"5_Graz",
					"33_Vienna",
					"45_Brno",
					"64_Prague",
					"8_Leipzig",
					"9_Dresden",
					"39_Berlin"
				],
				"lat1": 2413.000000,
				"nbSeg1": 2
			},
			"pathsExist": false,
			"runtime": 147541417,
			"nomLat1": 2301.000000,
			"nomLat2": 2538.000000,
			"maxNomLat": 2538.000000,
			"mincut": 3
		},
		{
			"s1": "35_Hamburg",
			"s2": "88_Bilbao",
			"t1": "86_Valencia",
			"t2": "15_Helsinki",
			"suurballeNbPaths": 2,
			"suurballeTime": 775237523,
			"suurballePaths": {
				"path0": [
					"35_Hamburg",
					"53_Copenhagen",
					"44_Stockholm",
					"15_Helsinki"
				],
				"lat0": 2023.000000,
				"nbSeg0": 0,
				"path1": [
					"88_Bilbao",
					"51_Bordeaux",
					"50_Narborne",
					"95_Barcelona",
					"86_Valencia"
				],
				"lat1": 1866.000000,
				"nbSeg1": 1
			},
			"pathsExist": false,
			"runtime": 650615573,
			"nomLat1": 5635.000000,
			"nomLat2": 5649.000000,
			"maxNomLat": 5649.000000,
			"mincut": 4
		},
		{
			"s1": "22_Dublin",
			"s2": "39_Berlin",
			"t1": "94_None",
			"t2": "61_Zandvort",
			"suurballeNbPaths": 2,
			"suurballeTime": 995559639,
			"suurballePaths": {
				"path0": [
					"22_Dublin",
					"10_London",
					"37_None",
					"61_Zandvort"
				],
				"lat0": 1482.000000,
				"nbSeg0": 2,
				"path1": [
					"39_Berlin",
					"9_Dresden",
					"8_Leipzig",
					"7_Nuremberg",
					"19_Munich",
					"12_Stuttgart",
					"52_Zurich",
					"25_Basle",
					"28_Berne",
					"29_Lausanne",
					"77_Geneva",
					"56_Lyon",
					"57_Marseille",
					"50_Narborne",
					"95_Barcelona",
					"86_Valencia",
					"94_None"
				],
				"lat1": 4368.000000,
				"nbSeg1": 5
			},
			"pathsExist": false,
			"runtime": 448978969,
			"nomLat1": 4812.000000,
			"nomLat2": 2159.000000,
			"maxNomLat": 4812.000000,
			"mincut": 4
		},
		{
			"s1": "102_Essen",
			"s2": "2_Pisa",
			"t1": "76_Madrid",
			"t2": "87_Seville",
			"suurballeNbPaths": 2,
			"suurballeTime": 1087079378,
			"suurballePaths": {
				"path0": [
					"2_Pisa",
					"55_Genoa",
					"92_Nice",
					"57_Marseille",
					"50_Narborne",
					"95_Barcelona",
					"86_Valencia",
					"94_None",
					"87_Seville"
				],
				"lat0": 2665.000000,
				"nbSeg0": 1,
				"path1": [
					"102_Essen",
					"34_Dusseldorf",
					"46_Cologne",
					"21_Liege",
					"11_Brussels",
					"72_Lille",
					"16_Paris",
					"89_Poltiers",
					"51_Bordeaux",
					"88_Bilbao",
					"76_Madrid"
				],
				"lat1": 2767.000000,
				"nbSeg1": 4
			},
			"pathsExist": false,
			"runtime": 411616698,
			"nomLat1": 3178.000000,
			"nomLat2": 3293.000000,
			"maxNomLat": 3293.000000,
			"mincut": 2
		},
		{
			"s1": "77_Geneva",
			"s2": "95_Barcelona",
			"t1": "18_Frankfurt",
			"t2": "79_Haskovo",
			"suurballeNbPaths": 2,
			"suurballeTime": 921772127,
			"suurballePaths": {
				"path0": [
					"77_Geneva",
					"29_Lausanne",
					"28_Berne",
					"25_Basle",
					"52_Zurich",
					"12_Stuttgart",
					"26_Karlsruhe",
					"18_Frankfurt"
				],
				"lat0": 1075.000000,
				"nbSeg0": 2,
				"path1": [
					"95_Barcelona",
					"50_Narborne",
					"57_Marseille",
					"92_Nice",
					"55_Genoa",
					"2_Pisa",
					"3_Florence",
					"49_Bologna",
					"48_Venice",
					"4_Udine",
					"5_Graz",
					"33_Vienna",
					"32_Budapest",
					"66_Szolnok",
					"109_None",
					"42_Bucharest",
					"79_Haskovo"
				],
				"lat1": 4388.000000,
				"nbSeg1": 3
			},
			"pathsExist": false,
			"runtime": 510482456,
			"nomLat1": 1826.000000,
			"nomLat2": 5306.000000,
			"maxNomLat": 5306.000000,
			"mincut": 4
		},
		{
			"s1": "77_Geneva",
			"s2": "65_Warsaw",
			"t1": "74_Bratislava",
			"t2": "17_Dubai",
			"suurballeNbPaths": 2,
			"suurballeTime": 1487739017,
			"suurballePaths": {
				"path0": [
					"65_Warsaw",
					"67_Krakow",
					"45_Brno",
					"74_Bratislava"
				],
				"lat0": 1064.000000,
				"nbSeg0": 0,
				"path1": [
					"77_Geneva",
					"56_Lyon",
					"16_Paris",
					"72_Lille",
					"20_Calais",
					"31_None",
					"10_London",
					"17_Dubai"
				],
				"lat1": 2413.000000,
				"nbSeg1": 1
			},
			"pathsExist": false,
			"runtime": 83584550,
			"nomLat1": 3087.000000,
			"nomLat2": 4448.000000,
			"maxNomLat": 4448.000000,
			"mincut": 4
		},
		{
			"s1": "11_Brussels",
			"s2": "18_Frankfurt",
			"t1": "30_None",
			"t2": "86_Valencia",
			"suurballeNbPaths": 2,
			"suurballeTime": 1492055274,
			"suurballePaths": {
				"path0": [
					"11_Brussels",
					"72_Lille",
					"16_Paris",
					"89_Poltiers",
					"51_Bordeaux",
					"50_Narborne",
					"95_Barcelona",
					"86_Valencia"
				],
				"lat0": 2782.000000,
				"nbSeg0": 3,
				"path1": [
					"18_Frankfurt",
					"26_Karlsruhe",
					"12_Stuttgart",
					"52_Zurich",
					"38_Milan",
					"49_Bologna",
					"3_Florence",
					"101_Rome",
					"84_Naples",
					"30_None"
				],
				"lat1": 2506.000000,
				"nbSeg1": 2
			},
			"pathsExist": false,
			"runtime": 77537135,
			"nomLat1": 3513.000000,
			"nomLat2": 3290.000000,
			"maxNomLat": 3513.000000,
			"mincut": 4
		},
		{
			"s1": "0_Bremen",
			"s2": "30_None",
			"t1": "17_Dubai",
			"t2": "20_Calais",
			"suurballeNbPaths": 2,
			"suurballeTime": 1501038551,
			"suurballePaths": {
				"path0": [
					"0_Bremen",
					"103_Dortmund",
					"102_Essen",
					"34_Dusseldorf",
					"104_Utrecht",
					"13_Amsterdam",
					"61_Zandvort",
					"37_None",
					"10_London",
					"17_Dubai"
				],
				"lat0": 1864.000000,
				"nbSeg0": 0,
				"path1": [
					"30_None",
					"84_Naples",
					"101_Rome",
					"3_Florence",
					"49_Bologna",
					"38_Milan",
					"52_Zurich",
					"12_Stuttgart",
					"26_Karlsruhe",
					"18_Frankfurt",
					"47_Bonn",
					"46_Cologne",
					"21_Liege",
					"11_Brussels",
					"72_Lille",
					"20_Calais"
				],
				"lat1": 3421.000000,
				"nbSeg1": 7
			},
			"pathsExist": false,
			"runtime": 101415098,
			"nomLat1": 1864.000000,
			"nomLat2": 3512.000000,
			"maxNomLat": 3512.000000,
			"mincut": 2
		},
		{
			"s1": "0_Bremen",
			"s2": "86_Valencia",
			"t1": "80_Veliko_Turnovo",
			"t2": "85_Mazara_del_Vallo",
			"suurballeNbPaths": 2,
			"suurballeTime": 805856281,
			"suurballePaths": {
				"path0": [
					"86_Valencia",
					"95_Barcelona",
					"50_Narborne",
					"57_Marseille",
					"92_Nice",
					"55_Genoa",
					"2_Pisa",
					"101_Rome",
					"84_Naples",
					"30_None",
					"85_Mazara_del_Vallo"
				],
				"lat0": 3429.000000,
				"nbSeg0": 1,
				"path1": [
					"0_Bremen",
					"103_Dortmund",
					"102_Essen",
					"34_Dusseldorf",
					"46_Cologne",
					"47_Bonn",
					"18_Frankfurt",
					"7_Nuremberg",
					"64_Prague",
					"45_Brno",
					"74_Bratislava",
					"32_Budapest",
					"66_Szolnok",
					"109_None",
					"42_Bucharest",
					"68_Ruse",
					"40_Sofia",
					"80_Veliko_Turnovo"
				],
				"lat1": 4033.000000,
				"nbSeg1": 7
			},
			"pathsExist": false,
			"runtime": 638033964,
			"nomLat1": 5381.000000,
			"nomLat2": 3769.000000,
			"maxNomLat": 5381.000000,
			"mincut": 4
		},
		{
			"s1": "89_Poltiers",
			"s2": "51_Bordeaux",
			"t1": "37_None",
			"t2": "63_Bari",
			"suurballeNbPaths": 2,
			"suurballeTime": 823923836,
			"suurballePaths": {
				"path0": [
					"89_Poltiers",
					"16_Paris",
					"72_Lille",
					"11_Brussels",
					"106_Antwerp",
					"107_Ghent",
					"58_Bruges",
					"37_None"
				],
				"lat0": 1586.000000,
				"nbSeg0": 2,
				"path1": [
					"51_Bordeaux",
					"50_Narborne",
					"57_Marseille",
					"92_Nice",
					"55_Genoa",
					"2_Pisa",
					"101_Rome",
					"84_Naples",
					"63_Bari"
				],
				"lat1": 2799.000000,
				"nbSeg1": 0
			},
			"pathsExist": false,
			"runtime": 620663198,
			"nomLat1": 2057.000000,
			"nomLat2": 2799.000000,
			"maxNomLat": 2799.000000,
			"mincut": 2
		},
		{
			"s1": "34_Dusseldorf",
			"s2": "85_Mazara_del_Vallo",
			"t1": "23_Slough",
			"t2": "66_Szolnok",
			"suurballeNbPaths": 2,
			"suurballeTime": 1421368836,
			"suurballePaths": {
				"path0": [
					"34_Dusseldorf",
					"46_Cologne",
					"21_Liege",
					"11_Brussels",
					"72_Lille",
					"20_Calais",
					"31_None",
					"23_Slough"
				],
				"lat0": 1415.000000,
				"nbSeg0": 4,
				"path1": [
					"85_Mazara_del_Vallo",
					"30_None",
					"84_Naples",
					"101_Rome",
					"3_Florence",
					"49_Bologna",
					"48_Venice",
					"4_Udine",
					"5_Graz",
					"33_Vienna",
					"32_Budapest",
					"66_Szolnok"
				],
				"lat1": 3056.000000,
				"nbSeg1": 2
			},
			"pathsExist": false,
			"runtime": 159251525,
			"nomLat1": 1774.000000,
			"nomLat2": 3965.000000,
			"maxNomLat": 3965.000000,
			"mincut": 4
		},
		{
			"s1": "39_Berlin",
			"s2": "0_Bremen",
			"t1": "51_Bordeaux",
			"t2": "94_None",
			"suurballeNbPaths": 2,
			"suurballeTime": 1311914750,
			"suurballePaths": {
				"path0": [
					"0_Bremen",
					"103_Dortmund",
					"102_Essen",
					"34_Dusseldorf",
					"46_Cologne",
					"21_Liege",
					"11_Brussels",
					"72_Lille",
					"16_Paris",
					"89_Poltiers",
					"51_Bordeaux"
				],
				"lat0": 2181.000000,
				"nbSeg0": 4,
				"path1": [
					"39_Berlin",
					"9_Dresden",
					"8_Leipzig",
					"7_Nuremberg",
					"19_Munich",
					"12_Stuttgart",
					"52_Zurich",
					"25_Basle",
					"28_Berne",
					"29_Lausanne",
					"77_Geneva",
					"56_Lyon",
					"57_Marseille",
					"50_Narborne",
					"95_Barcelona",
					"86_Valencia",
					"94_None"
				],
				"lat1": 4368.000000,
				"nbSeg1": 5
			},
			"pathsExist": false,
			"runtime": 275323870,
			"nomLat1": 2973.000000,
			"nomLat2": 4575.000000,
			"maxNomLat": 4575.000000,
			"mincut": 2
		},
		{
			"s1": "29_Lausanne",
			"s2": "94_None",
			"t1": "32_Budapest",
			"t2": "65_Warsaw",
			"suurballeNbPaths": 2,
			"suurballeTime": 1373760033,
			"suurballePaths": {
				"path0": [
					"29_Lausanne",
					"28_Berne",
					"25_Basle",
					"52_Zurich",
					"12_Stuttgart",
					"19_Munich",
					"6_Salzburg",
					"33_Vienna",
					"32_Budapest"
				],
				"lat0": 1967.000000,
				"nbSeg0": 2,
				"path1": [
					"94_None",
					"86_Valencia",
					"95_Barcelona",
					"50_Narborne",
					"57_Marseille",
					"92_Nice",
					"55_Genoa",
					"2_Pisa",
					"3_Florence",
					"49_Bologna",
					"48_Venice",
					"4_Udine",
					"5_Graz",
					"33_Vienna",
					"45_Brno",
					"67_Krakow",
					"65_Warsaw"
				],
				"lat1": 4595.000000,
				"nbSeg1": 1
			},
			"pathsExist": false,
			"runtime": 206417785,
			"nomLat1": 1967.000000,
			"nomLat2": 5711.000000,
			"maxNomLat": 5711.000000,
			"mincut": 4
		},
		{
			"s1": "3_Florence",
			"s2": "87_Seville",
			"t1": "49_Bologna",
			"t2": "95_Barcelona",
			"suurballeNbPaths": 2,
			"suurballeTime": 900420176,
			"suurballePaths": {
				"path0": [
					"3_Florence",
					"49_Bologna"
				],
				"lat0": 140.000000,
				"nbSeg0": 0,
				"path1": [
					"87_Seville",
					"94_None",
					"86_Valencia",
					"95_Barcelona"
				],
				"lat1": 1215.000000,
				"nbSeg1": 0
			},
			"pathsExist": false,
			"runtime": 592537449,
			"nomLat1": 140.000000,
			"nomLat2": 1215.000000,
			"maxNomLat": 1215.000000,
			"mincut": 5
		},
		{
			"s1": "105_Rotterdam",
			"s2": "34_Dusseldorf",
			"t1": "28_Berne",
			"t2": "94_None",
			"suurballeNbPaths": 2,
			"suurballeTime": 826068862,
			"suurballePaths": {
				"path0": [
					"34_Dusseldorf",
					"46_Cologne",
					"47_Bonn",
					"18_Frankfurt",
					"26_Karlsruhe",
					"12_Stuttgart",
					"52_Zurich",
					"25_Basle",
					"28_Berne"
				],
				"lat0": 1180.000000,
				"nbSeg0": 5,
				"path1": [
					"105_Rotterdam",
					"106_Antwerp",
					"11_Brussels",
					"72_Lille",
					"16_Paris",
					"89_Poltiers",
					"51_Bordeaux",
					"50_Narborne",
					"95_Barcelona",
					"86_Valencia",
					"94_None"
				],
				"lat1": 3343.000000,
				"nbSeg1": 4
			},
			"pathsExist": false,
			"runtime": 615235400,
			"nomLat1": 1788.000000,
			"nomLat2": 4132.000000,
			"maxNomLat": 4132.000000,
			"mincut": 4
		},
		{
			"s1": "33_Vienna",
			"s2": "72_Lille",
			"t1": "81_Plovdiv",
			"t2": "85_Mazara_del_Vallo",
			"suurballeNbPaths": 2,
			"suurballeTime": 1511312811,
			"suurballePaths": {
				"path0": [
					"33_Vienna",
					"32_Budapest",
					"43_Timisoara",
					"81_Plovdiv"
				],
				"lat0": 1612.000000,
				"nbSeg0": 0,
				"path1": [
					"72_Lille",
					"11_Brussels",
					"21_Liege",
					"46_Cologne",
					"47_Bonn",
					"18_Frankfurt",
					"26_Karlsruhe",
					"12_Stuttgart",
					"52_Zurich",
					"38_Milan",
					"49_Bologna",
					"3_Florence",
					"101_Rome",
					"84_Naples",
					"30_None",
					"85_Mazara_del_Vallo"
				],
				"lat1": 3615.000000,
				"nbSeg1": 8
			},
			"pathsExist": false,
			"runtime": 90236218,
			"nomLat1": 1612.000000,
			"nomLat2": 4046.000000,
			"maxNomLat": 4046.000000,
			"mincut": 4
		},
		{
			"s1": "56_Lyon",
			"s2": "12_Stuttgart",
			"t1": "2_Pisa",
			"t2": "4_Udine",
			"suurballeNbPaths": 2,
			"suurballeTime": 845135399,
			"suurballePaths": {
				"path0": [
					"56_Lyon",
					"57_Marseille",
					"92_Nice",
					"55_Genoa",
					"2_Pisa"
				],
				"lat0": 1232.000000,
				"nbSeg0": 2,
				"path1": [
					"12_Stuttgart",
					"52_Zurich",
					"38_Milan",
					"48_Venice",
					"4_Udine"
				],
				"lat1": 1226.000000,
				"nbSeg1": 2
			},
			"pathsExist": false,
			"runtime": 590745688,
			"nomLat1": 1232.000000,
			"nomLat2": 1226.000000,
			"maxNomLat": 1232.000000,
			"mincut": 4
		},
		{
			"s1": "39_Berlin",
			"s2": "93_Toulouse",
			"t1": "50_Narborne",
			"t2": "103_Dortmund",
			"suurballeNbPaths": 2,
			"suurballeTime": 1409637730,
			"suurballePaths": {
				"path0": [
					"93_Toulouse",
					"50_Narborne"
				],
				"lat0": 228.000000,
				"nbSeg0": 0,
				"path1": [
					"39_Berlin",
					"36_None",
					"75_Hannover",
					"35_Hamburg",
					"0_Bremen",
					"103_Dortmund"
				],
				"lat1": 1426.000000,
				"nbSeg1": 1
			},
			"pathsExist": false,
			"runtime": 171459014,
			"nomLat1": 3579.000000,
			"nomLat2": 2615.000000,
			"maxNomLat": 3579.000000,
			"mincut": 5
		},
		{
			"s1": "45_Brno",
			"s2": "63_Bari",
			"t1": "68_Ruse",
			"t2": "91_Olbia",
			"suurballeNbPaths": 2,
			"suurballeTime": 1391235122,
			"suurballePaths": {
				"path0": [
					"63_Bari",
					"84_Naples",
					"101_Rome",
					"91_Olbia"
				],
				"lat0": 1149.000000,
				"nbSeg0": 0,
				"path1": [
					"45_Brno",
					"74_Bratislava",
					"32_Budapest",
					"66_Szolnok",
					"109_None",
					"42_Bucharest",
					"68_Ruse"
				],
				"lat1": 1461.000000,
				"nbSeg1": 2
			},
			"pathsExist": false,
			"runtime": 189197791,
			"nomLat1": 1781.000000,
			"nomLat2": 1149.000000,
			"maxNomLat": 1781.000000,
			"mincut": 5
		},
		{
			"s1": "47_Bonn",
			"s2": "8_Leipzig",
			"t1": "71_Thessalonika",
			"t2": "86_Valencia",
			"suurballeNbPaths": 2,
			"suurballeTime": 914165411,
			"suurballePaths": {
				"path0": [
					"8_Leipzig",
					"64_Prague",
					"45_Brno",
					"74_Bratislava",
					"32_Budapest",
					"66_Szolnok",
					"109_None",
					"42_Bucharest",
					"68_Ruse",
					"41_Edirne",
					"71_Thessalonika"
				],
				"lat0": 2820.000000,
				"nbSeg0": 3,
				"path1": [
					"47_Bonn",
					"18_Frankfurt",
					"26_Karlsruhe",
					"12_Stuttgart",
					"52_Zurich",
					"25_Basle",
					"28_Berne",
					"29_Lausanne",
					"77_Geneva",
					"56_Lyon",
					"57_Marseille",
					"50_Narborne",
					"95_Barcelona",
					"86_Valencia"
				],
				"lat1": 3144.000000,
				"nbSeg1": 6
			},
			"pathsExist": false,
			"runtime": 534267631,
			"nomLat1": 3550.000000,
			"nomLat2": 3992.000000,
			"maxNomLat": 3992.000000,
			"mincut": 5
		},
		{
			"s1": "85_Mazara_del_Vallo",
			"s2": "7_Nuremberg",
			"t1": "53_Copenhagen",
			"t2": "36_None",
			"suurballeNbPaths": 2,
			"suurballeTime": 813484168,
			"suurballePaths": {
				"path0": [
					"7_Nuremberg",
					"8_Leipzig",
					"9_Dresden",
					"39_Berlin",
					"36_None"
				],
				"lat0": 1192.000000,
				"nbSeg0": 0,
				"path1": [
					"85_Mazara_del_Vallo",
					"30_None",
					"84_Naples",
					"101_Rome",
					"3_Florence",
					"49_Bologna",
					"38_Milan",
					"52_Zurich",
					"12_Stuttgart",
					"26_Karlsruhe",
					"18_Frankfurt",
					"47_Bonn",
					"46_Cologne",
					"34_Dusseldorf",
					"102_Essen",
					"103_Dortmund",
					"0_Bremen",
					"35_Hamburg",
					"53_Copenhagen"
				],
				"lat1": 4280.000000,
				"nbSeg1": 7
			},
			"pathsExist": false,
			"runtime": 649598255,
			"nomLat1": 5172.000000,
			"nomLat2": 1192.000000,
			"maxNomLat": 5172.000000,
			"mincut": 2
		},
		{
			"s1": "3_Florence",
			"s2": "66_Szolnok",
			"t1": "14_Moscow",
			"t2": "59_Gotenburg",
			"suurballeNbPaths": 2,
			"suurballeTime": 1365735095,
			"suurballePaths": {
				"path0": [
					"66_Szolnok",
					"32_Budapest",
					"74_Bratislava",
					"45_Brno",
					"64_Prague",
					"8_Leipzig",
					"9_Dresden",
					"39_Berlin",
					"36_None",
					"53_Copenhagen",
					"59_Gotenburg"
				],
				"lat0": 2839.000000,
				"nbSeg0": 2,
				"path1": [
					"3_Florence",
					"49_Bologna",
					"38_Milan",
					"52_Zurich",
					"12_Stuttgart",
					"26_Karlsruhe",
					"18_Frankfurt",
					"47_Bonn",
					"46_Cologne",
					"34_Dusseldorf",
					"102_Essen",
					"103_Dortmund",
					"0_Bremen",
					"35_Hamburg",
					"53_Copenhagen",
					"44_Stockholm",
					"14_Moscow"
				],
				"lat1": 5788.000000,
				"nbSeg1": 5
			},
			"pathsExist": false,
			"runtime": 207930042,
			"nomLat1": 6167.000000,
			"nomLat2": 3529.000000,
			"maxNomLat": 6167.000000,
			"mincut": 2
		},
		{
			"s1": "21_Liege",
			"s2": "19_Munich",
			"t1": "6_Salzburg",
			"t2": "53_Copenhagen",
			"suurballeNbPaths": 2,
			"suurballeTime": 1031742919,
			"suurballePaths": {
				"path0": [
					"19_Munich",
					"6_Salzburg"
				],
				"lat0": 197.000000,
				"nbSeg0": 0,
				"path1": [
					"21_Liege",
					"46_Cologne",
					"34_Dusseldorf",
					"102_Essen",
					"103_Dortmund",
					"0_Bremen",
					"35_Hamburg",
					"53_Copenhagen"
				],
				"lat1": 1328.000000,
				"nbSeg1": 2
			},
			"pathsExist": false,
			"runtime": 439969671,
			"nomLat1": 1210.000000,
			"nomLat2": 1800.000000,
			"maxNomLat": 1800.000000,
			"mincut": 4
		}
	],
	"demandsWithSol": 0
}
