Basnet.graph                7	12
Nordu1989.graph             7	12
Padi.graph                  7	12
Sanren.graph                7	14
Getnet.graph                7	16
Netrail.graph               7	20
Heanet.graph                7	26
Gblnet.graph                8	14
HiberniaIreland.graph       8	16
Arpanet19706.graph          9	20
Nordu2005.graph             9	20
Nsfcnet.graph               9	20
Gridnet.graph               9	40
Globalcenter.graph          9	72
Ai3.graph                   10	18
Cesnet1993.graph            10	18
JanetExternal.graph         10	18
Itnet.graph                 11	20
Singaren.graph              11	20
Abilene.graph               11	28
Sprint.graph                11	36
TLex.graph                  12	32
Cesnet1997.graph            13	24
Cesnet1999.graph            13	24
Kreonet.graph               13	24
HiberniaCanada.graph        13	28
Nsfnet.graph                13	30
Eenet.graph                 13	32
Navigata.graph              13	34
Uninet.graph                13	50
Nordu1997.graph             14	26
Ilan.graph                  14	30
Compuserve.graph            14	34
Eunetworks.graph            14	38
HiberniaUk.graph            15	30
Nordu2010.graph             15	30
Spiralight.graph            15	32
Claranet.graph              15	36
Grena.graph                 16	30
KentmanJul2005.graph        16	34
Garr199901.graph            16	36
Marwan.graph                16	36
Rhnet.graph                 16	36
Peer1.graph                 16	40
HostwayInternational.graph  16	42
Airtel.graph                16	74
Nextgen.graph               17	40
Fatman.graph                17	42
Goodnet.graph               17	62
Jgn2Plus.graph              18	34
Sago.graph                  18	34
Arpanet19719.graph          18	44
HiberniaNireland.graph      18	44
BsonetEurope.graph          18	48
Ibm.graph                   18	48
Ans.graph                   18	50
Pacificwave.graph           18	54
Highwinds.graph             18	106
Savvis.graph                19	40
Restena.graph               19	42
Aarnet.graph                19	48
Noel.graph                  19	50
Easynet.graph               19	58
Rediris.graph               19	64
Internetmci.graph           19	90
Twaren.graph                20	40
Oxford.graph                20	52
Marnet.graph                20	54
EliBackbone.graph           20	60
BtAsiaPac.graph             20	62
Quest.graph                 20	62
Janetlense.graph            20	80
Atmnet.graph                21	44
GtsRomania.graph            21	48
Harnet.graph                21	50
Packetexchange.graph        21	54
Bandcon.graph               21	56
Belnet2007.graph            21	62
Belnet2008.graph            21	62
Belnet2009.graph            21	62
Garr200109.graph            22	48
Garr200404.graph            22	48
KentmanApr2007.graph        22	48
Azrena.graph                22	50
HiberniaUs.graph            22	58
Belnet2010.graph            22	64
Cesnet2001.graph            23	46
Istar.graph                 23	46
York.graph                  23	48
Garr199904.graph            23	50
Garr199905.graph            23	50
Fccn.graph                  23	54
Abvt.graph                  23	62
Aconet.graph                23	62
Belnet2003.graph            23	86
Belnet2004.graph            23	86
Belnet2005.graph            23	88
Belnet2006.graph            23	88
Renater1999.graph           24	46
VisionNet.graph             24	46
Uran.graph                  24	48
Psinet.graph                24	50
Garr200112.graph            24	52
Renater2001.graph           24	54
Xeex.graph                  24	68
BtEurope.graph              24	74
HurricaneElectric.graph     24	74
Amres.graph                 25	48
Vinaren.graph               25	52
Arpanet19723.graph          25	56
UniC.graph                  25	58
Agis.graph                  25	60
Karen.graph                 25	60
AttMpls.graph               25	114
KentmanFeb2008.graph        26	56
Funet.graph                 26	62
Sunet.graph                 26	98
Bbnplanet.graph             27	56
Garr200212.graph            27	58
KentmanAug2005.graph        27	58
Integra.graph               27	72
Geant2001.graph             27	76
Gambia.graph                28	56
Darkstrand.graph            28	62
Shentel.graph               28	70
Arpanet19728.graph          29	64
Biznet.graph                29	66
Cesnet200304.graph          29	66
Janetbackbone.graph         29	90
Arn.graph                   30	58
Cynet.graph                 30	58
GtsHungary.graph            30	62
Ernet.graph                 30	64
WideJpn.graph               30	66
Renater2004.graph           30	72
DeutscheTelekom.graph       30	110
Rnp.graph                   31	68
Iinet.graph                 31	70
Digex.graph                 31	76
GtsCzechRepublic.graph      32	66
Canerie.graph               32	82
Ntt.graph                   32	432
GtsPoland.graph             33	74
CrlNetworkServices.graph    33	76
IowaStatewideFiberMap.graph 33	82
Renater2006.graph           33	86
Renater2008.graph           33	86
Bics.graph                  33	96
Arnes.graph                 34	94
Xspedius.graph              34	98
Geant2009.graph             34	104
Zamren.graph                35	68
GtsSlovakia.graph           35	74
NetworkUsa.graph            35	78
Cwix.graph                  36	82
Niif.graph                  36	82
PionierL1.graph             36	82
BtNorthAmerica.graph        36	152
Reuna.graph                 37	72
Bren.graph                  37	76
Myren.graph                 37	80
Evolink.graph               37	90
Grnet.graph                 37	94
Geant2010.graph             37	116
Iij.graph                   37	132
KentmanJan2011.graph        38	78
PionierL3.graph             38	104
Cesnet200511.graph          39	88
Cesnet200603.graph          39	88
Intranetwork.graph          39	106
Geant2012.graph             40	122
Cernet.graph                41	118
LambdaNet.graph             42	92
Roedunet.graph              42	100
SwitchL3.graph              42	126
Chinanet.graph              42	132
Litnet.graph                43	86
Sanet.graph                 43	90
Renater2010.graph           43	112
Carnet.graph                44	86
Cesnet200706.graph          44	102
BtLatinAmerica.graph        45	100
Palmetto.graph              45	140
Ntelos.graph                47	122
RoedunetFibre.graph         48	104
Bellcanada.graph            48	130
Uunet.graph                 49	168
Surfnet.graph               50	146
Cudi.graph                  51	104
Iris.graph                  51	128
Bellsouth.graph             51	132
Cesnet201006.graph          52	126
BeyondTheNetwork.graph      53	130
Tinet.graph                 53	178
Garr200908.graph            54	136
Garr200912.graph            54	136
Garr201001.graph            54	136
Garr200902.graph            54	142
Garr201003.graph            54	142
Garr201004.graph            54	142
Garr200909.graph            55	138
Garr201005.graph            55	144
Garr201007.graph            55	148
Garr201008.graph            55	148
HiberniaGlobal.graph        55	162
Garr201010.graph            56	150
Garr201012.graph            56	150
Garr201101.graph            56	152
Garr201102.graph            57	154
Garr201103.graph            58	162
Dfn.graph                   58	174
Garr201104.graph            59	166
Garr201105.graph            59	168
Garr201107.graph            59	170
Garr201108.graph            59	170
Garr201109.graph            59	172
Garr201110.graph            59	174
Garr201111.graph            60	174
UsSignal.graph              61	158
Garr201112.graph            61	178
Garr201201.graph            61	178
Forthnet.graph              62	124
AsnetAm.graph               65	158
Internode.graph             66	156
Missouri.graph              67	166
Globenet.graph              67	226
Esnet.graph                 68	184
Latnet.graph                69	148
Uninett2011.graph           69	196
Columbus.graph              70	170
Telcove.graph               71	140
Tw.graph                    71	236
Intellifiber.graph          73	194
Syringa.graph               74	148
Sinet.graph                 74	152
Switch.graph                74	184
Uninett2010.graph           74	202
Ulaknet.graph               82	164
Oteglobe.graph              83	204
RedBestel.graph             84	202
VtlWavenet2008.graph        88	184
VtlWavenet2011.graph        92	192
Interoute.graph             110	316
Deltacom.graph              113	366
Ion.graph                   125	300
Pern.graph                  127	258
DialtelecomCz.graph         138	302
TataNld.graph               145	388
GtsCe.graph                 149	386
Colt.graph                  153	382
UsCarrier.graph             158	378
Cogentco.graph              197	490
