{
	"nbDemands": 100,
	"demands": [
		{
			"s1": "Perth,+Australia4166",
			"s2": "Perth,+Australia4161",
			"t1": "Brisbane,+Australia1769",
			"t2": "Perth,+Australia4156",
			"suurballeNbPaths": 2,
			"suurballeTime": 125177182,
			"suurballePaths": {
				"path0": [
					"Perth,+Australia4166",
					"Perth,+Australia4156"
				],
				"lat0": 1.000000,
				"nbSeg0": 0,
				"path1": [
					"Perth,+Australia4161",
					"Perth,+Australia4162",
					"Adelaide,+Australia1729",
					"Melbourne,+Australia751",
					"Sydney,+Australia4210",
					"Brisbane,+Australia1770",
					"Brisbane,+Australia1769"
				],
				"lat1": 29.000000,
				"nbSeg1": 0
			},
			"pathsExist": true,
			"path1": [
				"Perth,+Australia4166",
				"Brisbane,+Australia1769"
			],
			"lat1": 29.000000,
			"path2": [
				"Perth,+Australia4161",
				"Perth,+Australia4156"
			],
			"lat2": 1.000000,
			"maxlat": 29.000000,
			"runtime": 7205042,
			"nomLat1": 29.000000,
			"nomLat2": 1.000000,
			"maxNomLat": 29.000000,
			"mincut": 4
		},
		{
			"s1": "Mackay,+Australia3851",
			"s2": "Hobart,+Australia1853",
			"t1": "Melbourne,+Australia751",
			"t2": "Adelaide,+Australia1729",
			"suurballeNbPaths": 2,
			"suurballeTime": 342781167,
			"suurballePaths": {
				"path0": [
					"Hobart,+Australia1853",
					"Melbourne,+Australia3867",
					"Melbourne,+Australia3868",
					"Melbourne,+Australia751"
				],
				"lat0": 6.000000,
				"nbSeg0": 0,
				"path1": [
					"Mackay,+Australia3851",
					"Brisbane,+Australia1769",
					"Brisbane,+Australia1770",
					"Sydney,+Australia4210",
					"Melbourne,+Australia751"
				],
				"lat1": 16.000000,
				"nbSeg1": 0
			},
			"pathsExist": true,
			"path1": [
				"Mackay,+Australia3851",
				"Melbourne,+Australia751"
			],
			"lat1": 16.000000,
			"path2": [
				"Hobart,+Australia1853",
				"Adelaide,+Australia1729"
			],
			"lat2": 11.000000,
			"maxlat": 16.000000,
			"runtime": 17229582,
			"nomLat1": 16.000000,
			"nomLat2": 11.000000,
			"maxNomLat": 16.000000,
			"mincut": 4
		},
		{
			"s1": "Brisbane,+Australia1770",
			"s2": "Melbourne,+Australia3875",
			"t1": "Sydney,+Australia4241",
			"t2": "Perth,+Australia284",
			"suurballeNbPaths": 2,
			"suurballeTime": 25825671,
			"suurballePaths": {
				"path0": [
					"Brisbane,+Australia1770",
					"Brisbane,+Australia1799",
					"Sydney,+Australia4241"
				],
				"lat0": 6.000000,
				"nbSeg0": 1,
				"path1": [
					"Melbourne,+Australia3875",
					"Melbourne,+Australia3868",
					"Adelaide,+Australia1722",
					"Perth,+Australia4156",
					"Perth,+Australia284"
				],
				"lat1": 19.000000,
				"nbSeg1": 0
			},
			"pathsExist": true,
			"path1": [
				"Brisbane,+Australia1770",
				"Sydney,+Australia4241"
			],
			"lat1": 6.000000,
			"path2": [
				"Melbourne,+Australia3875",
				"Perth,+Australia284"
			],
			"lat2": 19.000000,
			"maxlat": 19.000000,
			"runtime": 2663380657,
			"nomLat1": 6.000000,
			"nomLat2": 19.000000,
			"maxNomLat": 19.000000,
			"mincut": 6
		},
		{
			"s1": "Melbourne,+Australia734",
			"s2": "Sydney,+Australia4210",
			"t1": "Melbourne,+Australia3868",
			"t2": "Brisbane,+Australia1769",
			"suurballeNbPaths": 2,
			"suurballeTime": 4431699,
			"suurballePaths": {
				"path0": [
					"Melbourne,+Australia734",
					"Melbourne,+Australia3868"
				],
				"lat0": 1.000000,
				"nbSeg0": 0,
				"path1": [
					"Sydney,+Australia4210",
					"Brisbane,+Australia1770",
					"Brisbane,+Australia1769"
				],
				"lat1": 6.000000,
				"nbSeg1": 0
			},
			"pathsExist": true,
			"path1": [
				"Melbourne,+Australia734",
				"Melbourne,+Australia3868"
			],
			"lat1": 1.000000,
			"path2": [
				"Sydney,+Australia4210",
				"Brisbane,+Australia1769"
			],
			"lat2": 6.000000,
			"maxlat": 6.000000,
			"runtime": 2454013823,
			"nomLat1": 1.000000,
			"nomLat2": 6.000000,
			"maxNomLat": 6.000000,
			"mincut": 11
		},
		{
			"s1": "Canberra,+Australia1821",
			"s2": "Perth,+Australia4162",
			"t1": "Brisbane,+Australia1802",
			"t2": "Melbourne,+Australia3866",
			"suurballeNbPaths": 2,
			"suurballeTime": 10368071,
			"suurballePaths": {
				"path0": [
					"Canberra,+Australia1821",
					"Canberra,+Australia1829",
					"Sydney,+Australia4241",
					"Brisbane,+Australia1799",
					"Brisbane,+Australia1802"
				],
				"lat0": 10.000000,
				"nbSeg0": 0,
				"path1": [
					"Perth,+Australia4162",
					"Adelaide,+Australia1729",
					"Adelaide,+Australia1722",
					"Melbourne,+Australia3868",
					"Melbourne,+Australia3866"
				],
				"lat1": 19.000000,
				"nbSeg1": 2
			},
			"pathsExist": true,
			"path1": [
				"Canberra,+Australia1821",
				"Brisbane,+Australia1802"
			],
			"lat1": 10.000000,
			"path2": [
				"Perth,+Australia4162",
				"Melbourne,+Australia3866"
			],
			"lat2": 19.000000,
			"maxlat": 19.000000,
			"runtime": 1210967236,
			"nomLat1": 10.000000,
			"nomLat2": 19.000000,
			"maxNomLat": 19.000000,
			"mincut": 5
		},
		{
			"s1": "Maryborough,+Australia3859",
			"s2": "Perth,+Australia4161",
			"t1": "Brisbane,+Australia1770",
			"t2": "Adelaide,+Australia1729",
			"suurballeNbPaths": 2,
			"suurballeTime": 23432730,
			"suurballePaths": {
				"path0": [
					"Maryborough,+Australia3859",
					"Brisbane,+Australia1769",
					"Brisbane,+Australia1770"
				],
				"lat0": 4.000000,
				"nbSeg0": 0,
				"path1": [
					"Perth,+Australia4161",
					"Perth,+Australia4162",
					"Adelaide,+Australia1729"
				],
				"lat1": 13.000000,
				"nbSeg1": 0
			},
			"pathsExist": true,
			"path1": [
				"Maryborough,+Australia3859",
				"Brisbane,+Australia1770"
			],
			"lat1": 4.000000,
			"path2": [
				"Perth,+Australia4161",
				"Adelaide,+Australia1729"
			],
			"lat2": 13.000000,
			"maxlat": 13.000000,
			"runtime": 2101135216,
			"nomLat1": 4.000000,
			"nomLat2": 13.000000,
			"maxNomLat": 13.000000,
			"mincut": 4
		},
		{
			"s1": "Canberra,+Australia1832",
			"s2": "Melbourne,+Australia3870",
			"t1": "Melbourne,+Australia3868",
			"t2": "Melbourne,+Australia3867",
			"suurballeNbPaths": 2,
			"suurballeTime": 39017390,
			"suurballePaths": {
				"path0": [
					"Melbourne,+Australia3870",
					"Melbourne,+Australia3868"
				],
				"lat0": 1.000000,
				"nbSeg0": 0,
				"path1": [
					"Canberra,+Australia1832",
					"Canberra,+Australia1813",
					"Melbourne,+Australia3868"
				],
				"lat1": 5.000000,
				"nbSeg1": 0
			},
			"pathsExist": true,
			"path1": [
				"Canberra,+Australia1832",
				"Melbourne,+Australia3868"
			],
			"lat1": 5.000000,
			"path2": [
				"Melbourne,+Australia3870",
				"Melbourne,+Australia3867"
			],
			"lat2": 2.000000,
			"maxlat": 5.000000,
			"runtime": 2721877683,
			"nomLat1": 5.000000,
			"nomLat2": 2.000000,
			"maxNomLat": 5.000000,
			"mincut": 6
		},
		{
			"s1": "Hobart,+Australia1852",
			"s2": "Adelaide,+Australia1729",
			"t1": "Melbourne,+Australia3866",
			"t2": "Melbourne,+Australia3882",
			"suurballeNbPaths": 2,
			"suurballeTime": 5101207,
			"suurballePaths": {
				"path0": [
					"Hobart,+Australia1852",
					"Melbourne,+Australia3866"
				],
				"lat0": 4.000000,
				"nbSeg0": 0,
				"path1": [
					"Adelaide,+Australia1729",
					"Adelaide,+Australia1722",
					"Melbourne,+Australia3868",
					"Melbourne,+Australia3882"
				],
				"lat1": 7.000000,
				"nbSeg1": 1
			},
			"pathsExist": true,
			"path1": [
				"Hobart,+Australia1852",
				"Melbourne,+Australia3866"
			],
			"lat1": 4.000000,
			"path2": [
				"Adelaide,+Australia1729",
				"Melbourne,+Australia3882"
			],
			"lat2": 7.000000,
			"maxlat": 7.000000,
			"runtime": 2942758811,
			"nomLat1": 4.000000,
			"nomLat2": 7.000000,
			"maxNomLat": 7.000000,
			"mincut": 4
		},
		{
			"s1": "Melbourne,+Australia751",
			"s2": "Townsville,+Australia4282",
			"t1": "Perth,+Australia4167",
			"t2": "Melbourne,+Australia3866",
			"suurballeNbPaths": 2,
			"suurballeTime": 302834781,
			"suurballePaths": {
				"path0": [
					"Melbourne,+Australia751",
					"Melbourne,+Australia3868",
					"Melbourne,+Australia3866"
				],
				"lat0": 2.000000,
				"nbSeg0": 0,
				"path1": [
					"Townsville,+Australia4282",
					"Brisbane,+Australia1769",
					"Brisbane,+Australia1770",
					"Sydney,+Australia4210",
					"Melbourne,+Australia751",
					"Adelaide,+Australia1729",
					"Perth,+Australia4162",
					"Perth,+Australia4167"
				],
				"lat1": 36.000000,
				"nbSeg1": 0
			},
			"pathsExist": true,
			"path1": [
				"Melbourne,+Australia751",
				"Perth,+Australia4167"
			],
			"lat1": 18.000000,
			"path2": [
				"Townsville,+Australia4282",
				"Melbourne,+Australia3866"
			],
			"lat2": 20.000000,
			"maxlat": 20.000000,
			"runtime": 2492647896,
			"nomLat1": 18.000000,
			"nomLat2": 20.000000,
			"maxNomLat": 20.000000,
			"mincut": 5
		},
		{
			"s1": "Adelaide,+Australia1733",
			"s2": "Darwin,+Australia1837",
			"t1": "Sydney,+Australia3546",
			"t2": "Adelaide,+Australia1727",
			"suurballeNbPaths": 2,
			"suurballeTime": 68022841,
			"suurballePaths": {
				"path0": [
					"Darwin,+Australia1837",
					"Adelaide,+Australia1727"
				],
				"lat0": 15.000000,
				"nbSeg0": 0,
				"path1": [
					"Adelaide,+Australia1733",
					"Adelaide,+Australia1729",
					"Melbourne,+Australia751",
					"Sydney,+Australia4210",
					"Sydney,+Australia3546"
				],
				"lat1": 12.000000,
				"nbSeg1": 0
			},
			"pathsExist": true,
			"path1": [
				"Adelaide,+Australia1733",
				"Sydney,+Australia3546"
			],
			"lat1": 12.000000,
			"path2": [
				"Darwin,+Australia1837",
				"Adelaide,+Australia1727"
			],
			"lat2": 15.000000,
			"maxlat": 15.000000,
			"runtime": 3336516984,
			"nomLat1": 12.000000,
			"nomLat2": 15.000000,
			"maxNomLat": 15.000000,
			"mincut": 4
		},
		{
			"s1": "Brisbane,+Australia1770",
			"s2": "Townsville,+Australia4282",
			"t1": "Perth,+Australia284",
			"t2": "Brisbane,+Australia1769",
			"suurballeNbPaths": 2,
			"suurballeTime": 783526402,
			"suurballePaths": {
				"path0": [
					"Townsville,+Australia4282",
					"Brisbane,+Australia1769"
				],
				"lat0": 7.000000,
				"nbSeg0": 0,
				"path1": [
					"Brisbane,+Australia1770",
					"Sydney,+Australia4210",
					"Melbourne,+Australia751",
					"Adelaide,+Australia1729",
					"Perth,+Australia4162",
					"Perth,+Australia284"
				],
				"lat1": 28.000000,
				"nbSeg1": 0
			},
			"pathsExist": true,
			"path1": [
				"Brisbane,+Australia1770",
				"Perth,+Australia284"
			],
			"lat1": 28.000000,
			"path2": [
				"Townsville,+Australia4282",
				"Brisbane,+Australia1769"
			],
			"lat2": 7.000000,
			"maxlat": 28.000000,
			"runtime": 2401803184,
			"nomLat1": 28.000000,
			"nomLat2": 7.000000,
			"maxNomLat": 28.000000,
			"mincut": 6
		},
		{
			"s1": "Adelaide,+Australia1733",
			"s2": "Hobart,+Australia1852",
			"t1": "Canberra,+Australia1824",
			"t2": "Mackay,+Australia3851",
			"suurballeNbPaths": 2,
			"suurballeTime": 36485785,
			"suurballePaths": {
				"path0": [
					"Hobart,+Australia1852",
					"Hobart,+Australia1853",
					"Canberra,+Australia1821",
					"Canberra,+Australia1813",
					"Canberra,+Australia1824"
				],
				"lat0": 9.000000,
				"nbSeg0": 0,
				"path1": [
					"Adelaide,+Australia1733",
					"Adelaide,+Australia1729",
					"Melbourne,+Australia751",
					"Sydney,+Australia4210",
					"Brisbane,+Australia1770",
					"Brisbane,+Australia1769",
					"Mackay,+Australia3851"
				],
				"lat1": 22.000000,
				"nbSeg1": 0
			},
			"pathsExist": true,
			"path1": [
				"Adelaide,+Australia1733",
				"Canberra,+Australia1824"
			],
			"lat1": 11.000000,
			"path2": [
				"Hobart,+Australia1852",
				"Melbourne,+Australia3866",
				"Melbourne,+Australia734",
				"Mackay,+Australia3851"
			],
			"lat2": 22.000000,
			"maxlat": 22.000000,
			"runtime": 3163658460,
			"nomLat1": 11.000000,
			"nomLat2": 22.000000,
			"maxNomLat": 22.000000,
			"mincut": 4
		},
		{
			"s1": "Maryborough,+Australia3859",
			"s2": "Brisbane,+Australia1774",
			"t1": "Mackay,+Australia3851",
			"t2": "Canberra,+Australia565",
			"suurballeNbPaths": 2,
			"suurballeTime": 9352567,
			"suurballePaths": {
				"path0": [
					"Maryborough,+Australia3859",
					"Brisbane,+Australia1800",
					"Mackay,+Australia3851"
				],
				"lat0": 8.000000,
				"nbSeg0": 1,
				"path1": [
					"Brisbane,+Australia1774",
					"Brisbane,+Australia1799",
					"Sydney,+Australia4241",
					"Canberra,+Australia1829",
					"Canberra,+Australia565"
				],
				"lat1": 10.000000,
				"nbSeg1": 2
			},
			"pathsExist": true,
			"path1": [
				"Maryborough,+Australia3859",
				"Mackay,+Australia3851"
			],
			"lat1": 8.000000,
			"path2": [
				"Brisbane,+Australia1774",
				"Canberra,+Australia565"
			],
			"lat2": 11.000000,
			"maxlat": 11.000000,
			"runtime": 3180128124,
			"nomLat1": 8.000000,
			"nomLat2": 11.000000,
			"maxNomLat": 11.000000,
			"mincut": 4
		},
		{
			"s1": "Canberra,+Australia1814",
			"s2": "Melbourne,+Australia3866",
			"t1": "Melbourne,+Australia3868",
			"t2": "Melbourne,+Australia3882",
			"suurballeNbPaths": 2,
			"suurballeTime": 70396488,
			"suurballePaths": {
				"path0": [
					"Melbourne,+Australia3866",
					"Melbourne,+Australia3882"
				],
				"lat0": 1.000000,
				"nbSeg0": 0,
				"path1": [
					"Canberra,+Australia1814",
					"Canberra,+Australia565",
					"Canberra,+Australia1813",
					"Melbourne,+Australia3868"
				],
				"lat1": 6.000000,
				"nbSeg1": 1
			},
			"pathsExist": true,
			"path1": [
				"Canberra,+Australia1814",
				"Melbourne,+Australia3868"
			],
			"lat1": 6.000000,
			"path2": [
				"Melbourne,+Australia3866",
				"Melbourne,+Australia3882"
			],
			"lat2": 1.000000,
			"maxlat": 6.000000,
			"runtime": 3536859433,
			"nomLat1": 6.000000,
			"nomLat2": 1.000000,
			"maxNomLat": 6.000000,
			"mincut": 6
		},
		{
			"s1": "Canberra,+Australia565",
			"s2": "Adelaide,+Australia1737",
			"t1": "Melbourne,+Australia3881",
			"t2": "Toowoomba,+Australia4277",
			"suurballeNbPaths": 2,
			"suurballeTime": 4204767,
			"suurballePaths": {
				"path0": [
					"Adelaide,+Australia1737",
					"Adelaide,+Australia1722",
					"Melbourne,+Australia3868",
					"Melbourne,+Australia3881"
				],
				"lat0": 7.000000,
				"nbSeg0": 0,
				"path1": [
					"Canberra,+Australia565",
					"Canberra,+Australia1829",
					"Sydney,+Australia4241",
					"Brisbane,+Australia1799",
					"Brisbane,+Australia1800",
					"Toowoomba,+Australia4277"
				],
				"lat1": 12.000000,
				"nbSeg1": 2
			},
			"pathsExist": true,
			"path1": [
				"Canberra,+Australia565",
				"Melbourne,+Australia3881"
			],
			"lat1": 6.000000,
			"path2": [
				"Adelaide,+Australia1737",
				"Toowoomba,+Australia4277"
			],
			"lat2": 19.000000,
			"maxlat": 19.000000,
			"runtime": 4620748886,
			"nomLat1": 6.000000,
			"nomLat2": 19.000000,
			"maxNomLat": 19.000000,
			"mincut": 5
		},
		{
			"s1": "Sydney,+Australia4208",
			"s2": "Adelaide,+Australia1737",
			"t1": "Maroochydore,+Australia3857",
			"t2": "Sydney,+Australia4210",
			"suurballeNbPaths": 2,
			"suurballeTime": 3893126,
			"suurballePaths": {
				"path0": [
					"Adelaide,+Australia1737",
					"Adelaide,+Australia1729",
					"Melbourne,+Australia751",
					"Sydney,+Australia4210"
				],
				"lat0": 11.000000,
				"nbSeg0": 0,
				"path1": [
					"Sydney,+Australia4208",
					"Sydney,+Australia4241",
					"Brisbane,+Australia1799",
					"Brisbane,+Australia1800",
					"Maroochydore,+Australia3857"
				],
				"lat1": 9.000000,
				"nbSeg1": 0
			},
			"pathsExist": true,
			"path1": [
				"Sydney,+Australia4208",
				"Maroochydore,+Australia3857"
			],
			"lat1": 9.000000,
			"path2": [
				"Adelaide,+Australia1737",
				"Sydney,+Australia4210"
			],
			"lat2": 11.000000,
			"maxlat": 11.000000,
			"runtime": 4022732818,
			"nomLat1": 9.000000,
			"nomLat2": 11.000000,
			"maxNomLat": 11.000000,
			"mincut": 4
		},
		{
			"s1": "Mackay,+Australia3851",
			"s2": "Melbourne,+Australia751",
			"t1": "Canberra,+Australia1832",
			"t2": "Perth,+Australia4166",
			"suurballeNbPaths": 2,
			"suurballeTime": 95548760,
			"suurballePaths": {
				"path0": [
					"Melbourne,+Australia751",
					"Adelaide,+Australia1729",
					"Perth,+Australia4162",
					"Perth,+Australia4166"
				],
				"lat0": 18.000000,
				"nbSeg0": 0,
				"path1": [
					"Mackay,+Australia3851",
					"Brisbane,+Australia1800",
					"Brisbane,+Australia1799",
					"Sydney,+Australia4241",
					"Canberra,+Australia1829",
					"Canberra,+Australia1832"
				],
				"lat1": 15.000000,
				"nbSeg1": 0
			},
			"pathsExist": true,
			"path1": [
				"Mackay,+Australia3851",
				"Canberra,+Australia1832"
			],
			"lat1": 15.000000,
			"path2": [
				"Melbourne,+Australia751",
				"Perth,+Australia4166"
			],
			"lat2": 18.000000,
			"maxlat": 18.000000,
			"runtime": 3386601834,
			"nomLat1": 15.000000,
			"nomLat2": 18.000000,
			"maxNomLat": 18.000000,
			"mincut": 4
		},
		{
			"s1": "Brisbane,+Australia1774",
			"s2": "Adelaide,+Australia1729",
			"t1": "Sydney,+Australia3546",
			"t2": "Perth,+Australia284",
			"suurballeNbPaths": 2,
			"suurballeTime": 478913567,
			"suurballePaths": {
				"path0": [
					"Adelaide,+Australia1729",
					"Perth,+Australia4162",
					"Perth,+Australia284"
				],
				"lat0": 13.000000,
				"nbSeg0": 0,
				"path1": [
					"Brisbane,+Australia1774",
					"Brisbane,+Australia1770",
					"Sydney,+Australia4210",
					"Sydney,+Australia3546"
				],
				"lat1": 7.000000,
				"nbSeg1": 0
			},
			"pathsExist": true,
			"path1": [
				"Brisbane,+Australia1774",
				"Sydney,+Australia3546"
			],
			"lat1": 7.000000,
			"path2": [
				"Adelaide,+Australia1729",
				"Perth,+Australia284"
			],
			"lat2": 13.000000,
			"maxlat": 13.000000,
			"runtime": 4143764622,
			"nomLat1": 7.000000,
			"nomLat2": 13.000000,
			"maxNomLat": 13.000000,
			"mincut": 4
		},
		{
			"s1": "Canberra,+Australia1832",
			"s2": "Canberra,+Australia1813",
			"t1": "Hobart,+Australia1853",
			"t2": "Brisbane,+Australia1769",
			"suurballeNbPaths": 2,
			"suurballeTime": 405829029,
			"suurballePaths": {
				"path0": [
					"Canberra,+Australia1813",
					"Canberra,+Australia1821",
					"Hobart,+Australia1853"
				],
				"lat0": 7.000000,
				"nbSeg0": 0,
				"path1": [
					"Canberra,+Australia1832",
					"Canberra,+Australia1829",
					"Sydney,+Australia4241",
					"Brisbane,+Australia1799",
					"Brisbane,+Australia1770",
					"Brisbane,+Australia1769"
				],
				"lat1": 11.000000,
				"nbSeg1": 1
			},
			"pathsExist": true,
			"path1": [
				"Canberra,+Australia1832",
				"Hobart,+Australia1853"
			],
			"lat1": 8.000000,
			"path2": [
				"Canberra,+Australia1813",
				"Brisbane,+Australia1769"
			],
			"lat2": 11.000000,
			"maxlat": 11.000000,
			"runtime": 3757963149,
			"nomLat1": 8.000000,
			"nomLat2": 11.000000,
			"maxNomLat": 11.000000,
			"mincut": 3
		},
		{
			"s1": "Adelaide,+Australia1737",
			"s2": "Canberra,+Australia565",
			"t1": "Perth,+Australia4166",
			"t2": "Brisbane,+Australia1800",
			"suurballeNbPaths": 2,
			"suurballeTime": 473077581,
			"suurballePaths": {
				"path0": [
					"Adelaide,+Australia1737",
					"Adelaide,+Australia1722",
					"Perth,+Australia4156",
					"Perth,+Australia4166"
				],
				"lat0": 14.000000,
				"nbSeg0": 1,
				"path1": [
					"Canberra,+Australia565",
					"Canberra,+Australia1829",
					"Sydney,+Australia4241",
					"Brisbane,+Australia1799",
					"Brisbane,+Australia1800"
				],
				"lat1": 10.000000,
				"nbSeg1": 2
			},
			"pathsExist": true,
			"path1": [
				"Adelaide,+Australia1737",
				"Perth,+Australia4166"
			],
			"lat1": 14.000000,
			"path2": [
				"Canberra,+Australia565",
				"Brisbane,+Australia1800"
			],
			"lat2": 11.000000,
			"maxlat": 14.000000,
			"runtime": 3451648460,
			"nomLat1": 14.000000,
			"nomLat2": 11.000000,
			"maxNomLat": 14.000000,
			"mincut": 4
		},
		{
			"s1": "Canberra,+Australia1832",
			"s2": "Melbourne,+Australia3870",
			"t1": "Hobart,+Australia1852",
			"t2": "Toowoomba,+Australia4277",
			"suurballeNbPaths": 2,
			"suurballeTime": 14654351,
			"suurballePaths": {
				"path0": [
					"Melbourne,+Australia3870",
					"Melbourne,+Australia3868",
					"Melbourne,+Australia3866",
					"Hobart,+Australia1852"
				],
				"lat0": 6.000000,
				"nbSeg0": 2,
				"path1": [
					"Canberra,+Australia1832",
					"Canberra,+Australia1829",
					"Sydney,+Australia4241",
					"Brisbane,+Australia1799",
					"Brisbane,+Australia1800",
					"Toowoomba,+Australia4277"
				],
				"lat1": 12.000000,
				"nbSeg1": 0
			},
			"pathsExist": true,
			"path1": [
				"Canberra,+Australia1832",
				"Hobart,+Australia1852"
			],
			"lat1": 9.000000,
			"path2": [
				"Melbourne,+Australia3870",
				"Toowoomba,+Australia4277"
			],
			"lat2": 14.000000,
			"maxlat": 14.000000,
			"runtime": 3985649580,
			"nomLat1": 9.000000,
			"nomLat2": 14.000000,
			"maxNomLat": 14.000000,
			"mincut": 4
		},
		{
			"s1": "Adelaide,+Australia1729",
			"s2": "Melbourne,+Australia3870",
			"t1": "Sydney,+Australia4210",
			"t2": "Melbourne,+Australia3869",
			"suurballeNbPaths": 2,
			"suurballeTime": 17830799,
			"suurballePaths": {
				"path0": [
					"Adelaide,+Australia1729",
					"Melbourne,+Australia751",
					"Sydney,+Australia4210"
				],
				"lat0": 10.000000,
				"nbSeg0": 0,
				"path1": [
					"Melbourne,+Australia3870",
					"Melbourne,+Australia3868",
					"Melbourne,+Australia3869"
				],
				"lat1": 2.000000,
				"nbSeg1": 1
			},
			"pathsExist": true,
			"path1": [
				"Adelaide,+Australia1729",
				"Sydney,+Australia4210"
			],
			"lat1": 10.000000,
			"path2": [
				"Melbourne,+Australia3870",
				"Melbourne,+Australia3869"
			],
			"lat2": 2.000000,
			"maxlat": 10.000000,
			"runtime": 4405089728,
			"nomLat1": 10.000000,
			"nomLat2": 2.000000,
			"maxNomLat": 10.000000,
			"mincut": 6
		},
		{
			"s1": "Melbourne,+Australia3868",
			"s2": "Perth,+Australia284",
			"t1": "Brisbane,+Australia1800",
			"t2": "Melbourne,+Australia751",
			"suurballeNbPaths": 2,
			"suurballeTime": 10330745,
			"suurballePaths": {
				"path0": [
					"Perth,+Australia284",
					"Perth,+Australia4162",
					"Adelaide,+Australia1729",
					"Melbourne,+Australia751"
				],
				"lat0": 18.000000,
				"nbSeg0": 0,
				"path1": [
					"Melbourne,+Australia3868",
					"Melbourne,+Australia734",
					"Sydney,+Australia4241",
					"Brisbane,+Australia1799",
					"Brisbane,+Australia1800"
				],
				"lat1": 12.000000,
				"nbSeg1": 0
			},
			"pathsExist": true,
			"path1": [
				"Melbourne,+Australia3868",
				"Brisbane,+Australia1800"
			],
			"lat1": 12.000000,
			"path2": [
				"Perth,+Australia284",
				"Melbourne,+Australia751"
			],
			"lat2": 18.000000,
			"maxlat": 18.000000,
			"runtime": 3380170608,
			"nomLat1": 12.000000,
			"nomLat2": 18.000000,
			"maxNomLat": 18.000000,
			"mincut": 5
		},
		{
			"s1": "Melbourne,+Australia3868",
			"s2": "Brisbane,+Australia1800",
			"t1": "Canberra,+Australia1821",
			"t2": "Melbourne,+Australia751",
			"suurballeNbPaths": 2,
			"suurballeTime": 12116868,
			"suurballePaths": {
				"path0": [
					"Melbourne,+Australia3868",
					"Melbourne,+Australia751"
				],
				"lat0": 1.000000,
				"nbSeg0": 0,
				"path1": [
					"Brisbane,+Australia1800",
					"Brisbane,+Australia1799",
					"Sydney,+Australia4241",
					"Canberra,+Australia1829",
					"Canberra,+Australia1821"
				],
				"lat1": 10.000000,
				"nbSeg1": 0
			},
			"pathsExist": true,
			"path1": [
				"Melbourne,+Australia3868",
				"Canberra,+Australia1821"
			],
			"lat1": 5.000000,
			"path2": [
				"Brisbane,+Australia1800",
				"Melbourne,+Australia751"
			],
			"lat2": 12.000000,
			"maxlat": 12.000000,
			"runtime": 3843191738,
			"nomLat1": 5.000000,
			"nomLat2": 12.000000,
			"maxNomLat": 12.000000,
			"mincut": 7
		},
		{
			"s1": "Sydney,+Australia4237",
			"s2": "Toowoomba,+Australia4277",
			"t1": "Rockhampton,+Australia4195",
			"t2": "Townsville,+Australia4282",
			"suurballeNbPaths": 2,
			"suurballeTime": 4980538,
			"suurballePaths": {
				"path0": [
					"Toowoomba,+Australia4277",
					"Brisbane,+Australia1769",
					"Rockhampton,+Australia4195"
				],
				"lat0": 6.000000,
				"nbSeg0": 1,
				"path1": [
					"Sydney,+Australia4237",
					"Sydney,+Australia4241",
					"Brisbane,+Australia1799",
					"Brisbane,+Australia1800",
					"Townsville,+Australia4282"
				],
				"lat1": 14.000000,
				"nbSeg1": 2
			},
			"pathsExist": true,
			"path1": [
				"Sydney,+Australia4237",
				"Rockhampton,+Australia4195"
			],
			"lat1": 11.000000,
			"path2": [
				"Toowoomba,+Australia4277",
				"Townsville,+Australia4282"
			],
			"lat2": 9.000000,
			"maxlat": 11.000000,
			"runtime": 4688707724,
			"nomLat1": 11.000000,
			"nomLat2": 9.000000,
			"maxNomLat": 11.000000,
			"mincut": 4
		},
		{
			"s1": "Brisbane,+Australia1769",
			"s2": "Canberra,+Australia1832",
			"t1": "Adelaide,+Australia1722",
			"t2": "Melbourne,+Australia3866",
			"suurballeNbPaths": 2,
			"suurballeTime": 4325890,
			"suurballePaths": {
				"path0": [
					"Canberra,+Australia1832",
					"Canberra,+Australia1813",
					"Melbourne,+Australia3868",
					"Melbourne,+Australia3866"
				],
				"lat0": 6.000000,
				"nbSeg0": 0,
				"path1": [
					"Brisbane,+Australia1769",
					"Brisbane,+Australia1770",
					"Sydney,+Australia4210",
					"Melbourne,+Australia751",
					"Adelaide,+Australia1729",
					"Adelaide,+Australia1722"
				],
				"lat1": 17.000000,
				"nbSeg1": 0
			},
			"pathsExist": true,
			"path1": [
				"Brisbane,+Australia1769",
				"Adelaide,+Australia1722"
			],
			"lat1": 17.000000,
			"path2": [
				"Canberra,+Australia1832",
				"Melbourne,+Australia3866"
			],
			"lat2": 6.000000,
			"maxlat": 17.000000,
			"runtime": 4162723861,
			"nomLat1": 17.000000,
			"nomLat2": 6.000000,
			"maxNomLat": 17.000000,
			"mincut": 4
		},
		{
			"s1": "Melbourne,+Australia3875",
			"s2": "Adelaide,+Australia1737",
			"t1": "Melbourne,+Australia3881",
			"t2": "Sydney,+Australia4208",
			"suurballeNbPaths": 2,
			"suurballeTime": 26249010,
			"suurballePaths": {
				"path0": [
					"Melbourne,+Australia3875",
					"Melbourne,+Australia3881"
				],
				"lat0": 1.000000,
				"nbSeg0": 0,
				"path1": [
					"Adelaide,+Australia1737",
					"Adelaide,+Australia1729",
					"Melbourne,+Australia751",
					"Sydney,+Australia4210",
					"Sydney,+Australia4208"
				],
				"lat1": 12.000000,
				"nbSeg1": 2
			},
			"pathsExist": true,
			"path1": [
				"Melbourne,+Australia3875",
				"Melbourne,+Australia3881"
			],
			"lat1": 1.000000,
			"path2": [
				"Adelaide,+Australia1737",
				"Sydney,+Australia4208"
			],
			"lat2": 13.000000,
			"maxlat": 13.000000,
			"runtime": 4663462098,
			"nomLat1": 1.000000,
			"nomLat2": 13.000000,
			"maxNomLat": 13.000000,
			"mincut": 6
		},
		{
			"s1": "Perth,+Australia4166",
			"s2": "Sydney,+Australia4208",
			"t1": "Perth,+Australia4160",
			"t2": "Hobart,+Australia1852",
			"suurballeNbPaths": 2,
			"suurballeTime": 69028945,
			"suurballePaths": {
				"path0": [
					"Perth,+Australia4166",
					"Perth,+Australia4162",
					"Perth,+Australia4160"
				],
				"lat0": 2.000000,
				"nbSeg0": 0,
				"path1": [
					"Sydney,+Australia4208",
					"Sydney,+Australia4241",
					"Canberra,+Australia1829",
					"Canberra,+Australia1821",
					"Hobart,+Australia1853",
					"Hobart,+Australia1852"
				],
				"lat1": 12.000000,
				"nbSeg1": 0
			},
			"pathsExist": true,
			"path1": [
				"Perth,+Australia4166",
				"Perth,+Australia4160"
			],
			"lat1": 2.000000,
			"path2": [
				"Sydney,+Australia4208",
				"Hobart,+Australia1852"
			],
			"lat2": 12.000000,
			"maxlat": 12.000000,
			"runtime": 3301713445,
			"nomLat1": 2.000000,
			"nomLat2": 12.000000,
			"maxNomLat": 12.000000,
			"mincut": 4
		},
		{
			"s1": "Brisbane,+Australia1769",
			"s2": "Melbourne,+Australia3867",
			"t1": "Canberra,+Australia1813",
			"t2": "Melbourne,+Australia3875",
			"suurballeNbPaths": 2,
			"suurballeTime": 258496063,
			"suurballePaths": {
				"path0": [
					"Melbourne,+Australia3867",
					"Melbourne,+Australia3881",
					"Melbourne,+Australia3875"
				],
				"lat0": 2.000000,
				"nbSeg0": 2,
				"path1": [
					"Brisbane,+Australia1769",
					"Brisbane,+Australia1770",
					"Brisbane,+Australia1799",
					"Sydney,+Australia4241",
					"Canberra,+Australia1829",
					"Canberra,+Australia1813"
				],
				"lat1": 11.000000,
				"nbSeg1": 1
			},
			"pathsExist": true,
			"path1": [
				"Brisbane,+Australia1769",
				"Canberra,+Australia1813"
			],
			"lat1": 11.000000,
			"path2": [
				"Melbourne,+Australia3867",
				"Melbourne,+Australia3875"
			],
			"lat2": 2.000000,
			"maxlat": 11.000000,
			"runtime": 3891118159,
			"nomLat1": 11.000000,
			"nomLat2": 2.000000,
			"maxNomLat": 11.000000,
			"mincut": 6
		},
		{
			"s1": "Perth,+Australia4156",
			"s2": "Brisbane,+Australia1774",
			"t1": "Canberra,+Australia1832",
			"t2": "Melbourne,+Australia734",
			"suurballeNbPaths": 2,
			"suurballeTime": 295823147,
			"suurballePaths": {
				"path0": [
					"Perth,+Australia4156",
					"Adelaide,+Australia1722",
					"Melbourne,+Australia3868",
					"Melbourne,+Australia734"
				],
				"lat0": 18.000000,
				"nbSeg0": 0,
				"path1": [
					"Brisbane,+Australia1774",
					"Brisbane,+Australia1799",
					"Sydney,+Australia4241",
					"Canberra,+Australia1829",
					"Canberra,+Australia1832"
				],
				"lat1": 10.000000,
				"nbSeg1": 0
			},
			"pathsExist": true,
			"path1": [
				"Perth,+Australia4156",
				"Canberra,+Australia1832"
			],
			"lat1": 22.000000,
			"path2": [
				"Brisbane,+Australia1774",
				"Melbourne,+Australia734"
			],
			"lat2": 11.000000,
			"maxlat": 22.000000,
			"runtime": 4138275275,
			"nomLat1": 22.000000,
			"nomLat2": 11.000000,
			"maxNomLat": 22.000000,
			"mincut": 4
		},
		{
			"s1": "Canberra,+Australia565",
			"s2": "Adelaide,+Australia1722",
			"t1": "Melbourne,+Australia3881",
			"t2": "Adelaide,+Australia1727",
			"suurballeNbPaths": 2,
			"suurballeTime": 4883120,
			"suurballePaths": {
				"path0": [
					"Adelaide,+Australia1722",
					"Adelaide,+Australia1729",
					"Adelaide,+Australia1727"
				],
				"lat0": 2.000000,
				"nbSeg0": 0,
				"path1": [
					"Canberra,+Australia565",
					"Canberra,+Australia1813",
					"Melbourne,+Australia3868",
					"Melbourne,+Australia3881"
				],
				"lat1": 6.000000,
				"nbSeg1": 0
			},
			"pathsExist": true,
			"path1": [
				"Canberra,+Australia565",
				"Melbourne,+Australia3881"
			],
			"lat1": 6.000000,
			"path2": [
				"Adelaide,+Australia1722",
				"Adelaide,+Australia1727"
			],
			"lat2": 2.000000,
			"maxlat": 6.000000,
			"runtime": 4442060446,
			"nomLat1": 6.000000,
			"nomLat2": 2.000000,
			"maxNomLat": 6.000000,
			"mincut": 7
		},
		{
			"s1": "Perth,+Australia284",
			"s2": "Canberra,+Australia1829",
			"t1": "Rockhampton,+Australia4195",
			"t2": "Melbourne,+Australia3867",
			"suurballeNbPaths": 2,
			"suurballeTime": 14490506,
			"suurballePaths": {
				"path0": [
					"Perth,+Australia284",
					"Perth,+Australia4156",
					"Adelaide,+Australia1722",
					"Melbourne,+Australia3868",
					"Melbourne,+Australia3867"
				],
				"lat0": 19.000000,
				"nbSeg0": 0,
				"path1": [
					"Canberra,+Australia1829",
					"Sydney,+Australia4241",
					"Brisbane,+Australia1799",
					"Brisbane,+Australia1800",
					"Rockhampton,+Australia4195"
				],
				"lat1": 13.000000,
				"nbSeg1": 0
			},
			"pathsExist": true,
			"path1": [
				"Perth,+Australia284",
				"Rockhampton,+Australia4195"
			],
			"lat1": 33.000000,
			"path2": [
				"Canberra,+Australia1829",
				"Melbourne,+Australia3867"
			],
			"lat2": 6.000000,
			"maxlat": 33.000000,
			"runtime": 4506795556,
			"nomLat1": 33.000000,
			"nomLat2": 6.000000,
			"maxNomLat": 33.000000,
			"mincut": 5
		},
		{
			"s1": "Canberra,+Australia1832",
			"s2": "Brisbane,+Australia1769",
			"t1": "Canberra,+Australia1821",
			"t2": "Adelaide,+Australia1722",
			"suurballeNbPaths": 2,
			"suurballeTime": 14480811,
			"suurballePaths": {
				"path0": [
					"Canberra,+Australia1832",
					"Canberra,+Australia1829",
					"Canberra,+Australia1821"
				],
				"lat0": 2.000000,
				"nbSeg0": 1,
				"path1": [
					"Brisbane,+Australia1769",
					"Brisbane,+Australia1770",
					"Sydney,+Australia4210",
					"Melbourne,+Australia751",
					"Adelaide,+Australia1729",
					"Adelaide,+Australia1722"
				],
				"lat1": 17.000000,
				"nbSeg1": 0
			},
			"pathsExist": true,
			"path1": [
				"Canberra,+Australia1832",
				"Canberra,+Australia1821"
			],
			"lat1": 2.000000,
			"path2": [
				"Brisbane,+Australia1769",
				"Adelaide,+Australia1722"
			],
			"lat2": 17.000000,
			"maxlat": 17.000000,
			"runtime": 3870560875,
			"nomLat1": 2.000000,
			"nomLat2": 17.000000,
			"maxNomLat": 17.000000,
			"mincut": 4
		},
		{
			"s1": "Canberra,+Australia565",
			"s2": "Adelaide,+Australia1722",
			"t1": "Sydney,+Australia4210",
			"t2": "Melbourne,+Australia3869",
			"suurballeNbPaths": 2,
			"suurballeTime": 26004459,
			"suurballePaths": {
				"path0": [
					"Adelaide,+Australia1722",
					"Melbourne,+Australia3868",
					"Melbourne,+Australia3869"
				],
				"lat0": 6.000000,
				"nbSeg0": 0,
				"path1": [
					"Canberra,+Australia565",
					"Canberra,+Australia1829",
					"Sydney,+Australia4241",
					"Sydney,+Australia4210"
				],
				"lat1": 5.000000,
				"nbSeg1": 2
			},
			"pathsExist": true,
			"path1": [
				"Canberra,+Australia565",
				"Sydney,+Australia4210"
			],
			"lat1": 6.000000,
			"path2": [
				"Adelaide,+Australia1722",
				"Melbourne,+Australia3869"
			],
			"lat2": 6.000000,
			"maxlat": 6.000000,
			"runtime": 3896915588,
			"nomLat1": 6.000000,
			"nomLat2": 6.000000,
			"maxNomLat": 6.000000,
			"mincut": 5
		},
		{
			"s1": "Adelaide,+Australia1733",
			"s2": "Mackay,+Australia3851",
			"t1": "Perth,+Australia4156",
			"t2": "Brisbane,+Australia1774",
			"suurballeNbPaths": 2,
			"suurballeTime": 14972375,
			"suurballePaths": {
				"path0": [
					"Adelaide,+Australia1733",
					"Adelaide,+Australia1722",
					"Perth,+Australia4156"
				],
				"lat0": 13.000000,
				"nbSeg0": 0,
				"path1": [
					"Mackay,+Australia3851",
					"Brisbane,+Australia1769",
					"Brisbane,+Australia1770",
					"Brisbane,+Australia1774"
				],
				"lat1": 7.000000,
				"nbSeg1": 0
			},
			"pathsExist": true,
			"path1": [
				"Adelaide,+Australia1733",
				"Perth,+Australia4156"
			],
			"lat1": 13.000000,
			"path2": [
				"Mackay,+Australia3851",
				"Brisbane,+Australia1774"
			],
			"lat2": 7.000000,
			"maxlat": 13.000000,
			"runtime": 4467154939,
			"nomLat1": 13.000000,
			"nomLat2": 7.000000,
			"maxNomLat": 13.000000,
			"mincut": 4
		},
		{
			"s1": "Melbourne,+Australia3868",
			"s2": "Perth,+Australia4166",
			"t1": "Adelaide,+Australia1733",
			"t2": "Perth,+Australia4161",
			"suurballeNbPaths": 2,
			"suurballeTime": 29286283,
			"suurballePaths": {
				"path0": [
					"Melbourne,+Australia3868",
					"Adelaide,+Australia1722",
					"Adelaide,+Australia1733"
				],
				"lat0": 6.000000,
				"nbSeg0": 0,
				"path1": [
					"Perth,+Australia4166",
					"Perth,+Australia4156",
					"Perth,+Australia4161"
				],
				"lat1": 2.000000,
				"nbSeg1": 1
			},
			"pathsExist": true,
			"path1": [
				"Melbourne,+Australia3868",
				"Adelaide,+Australia1733"
			],
			"lat1": 6.000000,
			"path2": [
				"Perth,+Australia4166",
				"Perth,+Australia4161"
			],
			"lat2": 2.000000,
			"maxlat": 6.000000,
			"runtime": 4200901164,
			"nomLat1": 6.000000,
			"nomLat2": 2.000000,
			"maxNomLat": 6.000000,
			"mincut": 4
		},
		{
			"s1": "Perth,+Australia4167",
			"s2": "Maryborough,+Australia3859",
			"t1": "Sydney,+Australia3546",
			"t2": "Brisbane,+Australia1802",
			"suurballeNbPaths": 2,
			"suurballeTime": 14971518,
			"suurballePaths": {
				"path0": [
					"Maryborough,+Australia3859",
					"Brisbane,+Australia1769",
					"Brisbane,+Australia1770",
					"Brisbane,+Australia1802"
				],
				"lat0": 5.000000,
				"nbSeg0": 2,
				"path1": [
					"Perth,+Australia4167",
					"Perth,+Australia4162",
					"Adelaide,+Australia1729",
					"Melbourne,+Australia751",
					"Sydney,+Australia4210",
					"Sydney,+Australia3546"
				],
				"lat1": 24.000000,
				"nbSeg1": 0
			},
			"pathsExist": true,
			"path1": [
				"Perth,+Australia4167",
				"Sydney,+Australia3546"
			],
			"lat1": 24.000000,
			"path2": [
				"Maryborough,+Australia3859",
				"Brisbane,+Australia1800",
				"Brisbane,+Australia1802"
			],
			"lat2": 5.000000,
			"maxlat": 24.000000,
			"runtime": 5096802495,
			"nomLat1": 24.000000,
			"nomLat2": 6.000000,
			"maxNomLat": 24.000000,
			"mincut": 4
		},
		{
			"s1": "Melbourne,+Australia3875",
			"s2": "Perth,+Australia4160",
			"t1": "Canberra,+Australia1813",
			"t2": "Brisbane,+Australia1802",
			"suurballeNbPaths": 2,
			"suurballeTime": 15075026,
			"suurballePaths": {
				"path0": [
					"Melbourne,+Australia3875",
					"Melbourne,+Australia3868",
					"Canberra,+Australia1813"
				],
				"lat0": 5.000000,
				"nbSeg0": 0,
				"path1": [
					"Perth,+Australia4160",
					"Perth,+Australia4162",
					"Adelaide,+Australia1729",
					"Melbourne,+Australia751",
					"Sydney,+Australia4210",
					"Brisbane,+Australia1770",
					"Brisbane,+Australia1802"
				],
				"lat1": 29.000000,
				"nbSeg1": 2
			},
			"pathsExist": true,
			"path1": [
				"Melbourne,+Australia3875",
				"Canberra,+Australia1813"
			],
			"lat1": 5.000000,
			"path2": [
				"Perth,+Australia4160",
				"Brisbane,+Australia1802"
			],
			"lat2": 30.000000,
			"maxlat": 30.000000,
			"runtime": 4634703522,
			"nomLat1": 5.000000,
			"nomLat2": 30.000000,
			"maxNomLat": 30.000000,
			"mincut": 4
		},
		{
			"s1": "Adelaide,+Australia1733",
			"s2": "Melbourne,+Australia3866",
			"t1": "Adelaide,+Australia1729",
			"t2": "Melbourne,+Australia3867",
			"suurballeNbPaths": 2,
			"suurballeTime": 4129932,
			"suurballePaths": {
				"path0": [
					"Adelaide,+Australia1733",
					"Adelaide,+Australia1729"
				],
				"lat0": 1.000000,
				"nbSeg0": 0,
				"path1": [
					"Melbourne,+Australia3866",
					"Melbourne,+Australia3868",
					"Melbourne,+Australia3867"
				],
				"lat1": 2.000000,
				"nbSeg1": 0
			},
			"pathsExist": true,
			"path1": [
				"Adelaide,+Australia1733",
				"Adelaide,+Australia1729"
			],
			"lat1": 1.000000,
			"path2": [
				"Melbourne,+Australia3866",
				"Melbourne,+Australia3867"
			],
			"lat2": 2.000000,
			"maxlat": 2.000000,
			"runtime": 3570620876,
			"nomLat1": 1.000000,
			"nomLat2": 2.000000,
			"maxNomLat": 2.000000,
			"mincut": 6
		},
		{
			"s1": "Melbourne,+Australia734",
			"s2": "Perth,+Australia4166",
			"t1": "Brisbane,+Australia1774",
			"t2": "Melbourne,+Australia751",
			"suurballeNbPaths": 2,
			"suurballeTime": 5022716,
			"suurballePaths": {
				"path0": [
					"Melbourne,+Australia734",
					"Sydney,+Australia4241",
					"Brisbane,+Australia1799",
					"Brisbane,+Australia1774"
				],
				"lat0": 11.000000,
				"nbSeg0": 0,
				"path1": [
					"Perth,+Australia4166",
					"Perth,+Australia4162",
					"Adelaide,+Australia1729",
					"Melbourne,+Australia751"
				],
				"lat1": 18.000000,
				"nbSeg1": 0
			},
			"pathsExist": true,
			"path1": [
				"Melbourne,+Australia734",
				"Brisbane,+Australia1774"
			],
			"lat1": 11.000000,
			"path2": [
				"Perth,+Australia4166",
				"Melbourne,+Australia751"
			],
			"lat2": 18.000000,
			"maxlat": 18.000000,
			"runtime": 4359908765,
			"nomLat1": 11.000000,
			"nomLat2": 18.000000,
			"maxNomLat": 18.000000,
			"mincut": 5
		},
		{
			"s1": "Canberra,+Australia1824",
			"s2": "Brisbane,+Australia1802",
			"t1": "Canberra,+Australia1814",
			"t2": "Perth,+Australia4162",
			"suurballeNbPaths": 2,
			"suurballeTime": 14187198,
			"suurballePaths": {
				"path0": [
					"Canberra,+Australia1824",
					"Canberra,+Australia1829",
					"Canberra,+Australia1814"
				],
				"lat0": 2.000000,
				"nbSeg0": 0,
				"path1": [
					"Brisbane,+Australia1802",
					"Brisbane,+Australia1770",
					"Sydney,+Australia4210",
					"Melbourne,+Australia751",
					"Adelaide,+Australia1729",
					"Perth,+Australia4162"
				],
				"lat1": 28.000000,
				"nbSeg1": 2
			},
			"pathsExist": true,
			"path1": [
				"Canberra,+Australia1824",
				"Canberra,+Australia1814"
			],
			"lat1": 2.000000,
			"path2": [
				"Brisbane,+Australia1802",
				"Perth,+Australia4162"
			],
			"lat2": 29.000000,
			"maxlat": 29.000000,
			"runtime": 3706720905,
			"nomLat1": 2.000000,
			"nomLat2": 29.000000,
			"maxNomLat": 29.000000,
			"mincut": 4
		},
		{
			"s1": "Toowoomba,+Australia4277",
			"s2": "Adelaide,+Australia1733",
			"t1": "Maryborough,+Australia3859",
			"t2": "Sydney,+Australia4210",
			"suurballeNbPaths": 2,
			"suurballeTime": 4902965,
			"suurballePaths": {
				"path0": [
					"Toowoomba,+Australia4277",
					"Brisbane,+Australia1769",
					"Maryborough,+Australia3859"
				],
				"lat0": 5.000000,
				"nbSeg0": 1,
				"path1": [
					"Adelaide,+Australia1733",
					"Adelaide,+Australia1729",
					"Melbourne,+Australia751",
					"Sydney,+Australia4210"
				],
				"lat1": 11.000000,
				"nbSeg1": 0
			},
			"pathsExist": true,
			"path1": [
				"Toowoomba,+Australia4277",
				"Maryborough,+Australia3859"
			],
			"lat1": 5.000000,
			"path2": [
				"Adelaide,+Australia1733",
				"Sydney,+Australia4210"
			],
			"lat2": 11.000000,
			"maxlat": 11.000000,
			"runtime": 3619194312,
			"nomLat1": 5.000000,
			"nomLat2": 11.000000,
			"maxNomLat": 11.000000,
			"mincut": 4
		},
		{
			"s1": "Melbourne,+Australia751",
			"s2": "Canberra,+Australia1824",
			"t1": "Hobart,+Australia1852",
			"t2": "Canberra,+Australia1829",
			"suurballeNbPaths": 2,
			"suurballeTime": 9817234,
			"suurballePaths": {
				"path0": [
					"Canberra,+Australia1824",
					"Canberra,+Australia1829"
				],
				"lat0": 1.000000,
				"nbSeg0": 0,
				"path1": [
					"Melbourne,+Australia751",
					"Melbourne,+Australia3868",
					"Melbourne,+Australia3866",
					"Hobart,+Australia1852"
				],
				"lat1": 6.000000,
				"nbSeg1": 1
			},
			"pathsExist": true,
			"path1": [
				"Melbourne,+Australia751",
				"Melbourne,+Australia3866",
				"Hobart,+Australia1852"
			],
			"lat1": 6.000000,
			"path2": [
				"Canberra,+Australia1824",
				"Canberra,+Australia1829"
			],
			"lat2": 1.000000,
			"maxlat": 6.000000,
			"runtime": 4569768339,
			"nomLat1": 7.000000,
			"nomLat2": 1.000000,
			"maxNomLat": 7.000000,
			"mincut": 6
		},
		{
			"s1": "Sydney,+Australia4210",
			"s2": "Rockhampton,+Australia4195",
			"t1": "Sydney,+Australia4237",
			"t2": "Brisbane,+Australia1770",
			"suurballeNbPaths": 2,
			"suurballeTime": 18831528,
			"suurballePaths": {
				"path0": [
					"Sydney,+Australia4210",
					"Sydney,+Australia4237"
				],
				"lat0": 1.000000,
				"nbSeg0": 0,
				"path1": [
					"Rockhampton,+Australia4195",
					"Brisbane,+Australia1769",
					"Brisbane,+Australia1770"
				],
				"lat1": 5.000000,
				"nbSeg1": 0
			},
			"pathsExist": true,
			"path1": [
				"Sydney,+Australia4210",
				"Sydney,+Australia4237"
			],
			"lat1": 1.000000,
			"path2": [
				"Rockhampton,+Australia4195",
				"Brisbane,+Australia1770"
			],
			"lat2": 5.000000,
			"maxlat": 5.000000,
			"runtime": 3659712826,
			"nomLat1": 1.000000,
			"nomLat2": 5.000000,
			"maxNomLat": 5.000000,
			"mincut": 6
		},
		{
			"s1": "Rockhampton,+Australia4195",
			"s2": "Perth,+Australia4156",
			"t1": "Melbourne,+Australia3867",
			"t2": "Perth,+Australia4167",
			"suurballeNbPaths": 2,
			"suurballeTime": 3838199,
			"suurballePaths": {
				"path0": [
					"Perth,+Australia4156",
					"Perth,+Australia4167"
				],
				"lat0": 1.000000,
				"nbSeg0": 0,
				"path1": [
					"Rockhampton,+Australia4195",
					"Brisbane,+Australia1769",
					"Brisbane,+Australia1770",
					"Sydney,+Australia4210",
					"Melbourne,+Australia751",
					"Melbourne,+Australia3868",
					"Melbourne,+Australia3867"
				],
				"lat1": 17.000000,
				"nbSeg1": 1
			},
			"pathsExist": true,
			"path1": [
				"Rockhampton,+Australia4195",
				"Melbourne,+Australia3867"
			],
			"lat1": 17.000000,
			"path2": [
				"Perth,+Australia4156",
				"Perth,+Australia4167"
			],
			"lat2": 1.000000,
			"maxlat": 17.000000,
			"runtime": 4912187207,
			"nomLat1": 17.000000,
			"nomLat2": 1.000000,
			"maxNomLat": 17.000000,
			"mincut": 6
		},
		{
			"s1": "Canberra,+Australia1813",
			"s2": "Adelaide,+Australia1727",
			"t1": "Sydney,+Australia4241",
			"t2": "Melbourne,+Australia3869",
			"suurballeNbPaths": 2,
			"suurballeTime": 4825948,
			"suurballePaths": {
				"path0": [
					"Canberra,+Australia1813",
					"Canberra,+Australia1829",
					"Sydney,+Australia4241"
				],
				"lat0": 4.000000,
				"nbSeg0": 0,
				"path1": [
					"Adelaide,+Australia1727",
					"Adelaide,+Australia1729",
					"Adelaide,+Australia1722",
					"Melbourne,+Australia3868",
					"Melbourne,+Australia3869"
				],
				"lat1": 8.000000,
				"nbSeg1": 1
			},
			"pathsExist": true,
			"path1": [
				"Canberra,+Australia1813",
				"Sydney,+Australia4241"
			],
			"lat1": 4.000000,
			"path2": [
				"Adelaide,+Australia1727",
				"Melbourne,+Australia3869"
			],
			"lat2": 8.000000,
			"maxlat": 8.000000,
			"runtime": 4188702841,
			"nomLat1": 4.000000,
			"nomLat2": 8.000000,
			"maxNomLat": 8.000000,
			"mincut": 5
		},
		{
			"s1": "Melbourne,+Australia3882",
			"s2": "Canberra,+Australia1814",
			"t1": "Melbourne,+Australia751",
			"t2": "Perth,+Australia4167",
			"suurballeNbPaths": 2,
			"suurballeTime": 38416778,
			"suurballePaths": {
				"path0": [
					"Melbourne,+Australia3882",
					"Melbourne,+Australia734",
					"Melbourne,+Australia751"
				],
				"lat0": 2.000000,
				"nbSeg0": 2,
				"path1": [
					"Canberra,+Australia1814",
					"Canberra,+Australia565",
					"Canberra,+Australia1813",
					"Melbourne,+Australia3868",
					"Adelaide,+Australia1722",
					"Perth,+Australia4156",
					"Perth,+Australia4167"
				],
				"lat1": 24.000000,
				"nbSeg1": 2
			},
			"pathsExist": true,
			"path1": [
				"Melbourne,+Australia3882",
				"Melbourne,+Australia751"
			],
			"lat1": 2.000000,
			"path2": [
				"Canberra,+Australia1814",
				"Perth,+Australia4156",
				"Perth,+Australia4167"
			],
			"lat2": 24.000000,
			"maxlat": 24.000000,
			"runtime": 4938801169,
			"nomLat1": 2.000000,
			"nomLat2": 28.000000,
			"maxNomLat": 28.000000,
			"mincut": 4
		},
		{
			"s1": "Perth,+Australia284",
			"s2": "Canberra,+Australia1821",
			"t1": "Townsville,+Australia4282",
			"t2": "Melbourne,+Australia734",
			"suurballeNbPaths": 2,
			"suurballeTime": 8480079,
			"suurballePaths": {
				"path0": [
					"Perth,+Australia284",
					"Perth,+Australia4156",
					"Adelaide,+Australia1722",
					"Melbourne,+Australia3868",
					"Melbourne,+Australia734"
				],
				"lat0": 19.000000,
				"nbSeg0": 1,
				"path1": [
					"Canberra,+Australia1821",
					"Canberra,+Australia1829",
					"Sydney,+Australia4241",
					"Brisbane,+Australia1799",
					"Brisbane,+Australia1800",
					"Townsville,+Australia4282"
				],
				"lat1": 17.000000,
				"nbSeg1": 0
			},
			"pathsExist": true,
			"path1": [
				"Perth,+Australia284",
				"Townsville,+Australia4282"
			],
			"lat1": 36.000000,
			"path2": [
				"Canberra,+Australia1821",
				"Melbourne,+Australia3869",
				"Melbourne,+Australia734"
			],
			"lat2": 7.000000,
			"maxlat": 36.000000,
			"runtime": 4350460128,
			"nomLat1": 36.000000,
			"nomLat2": 6.000000,
			"maxNomLat": 36.000000,
			"mincut": 5
		},
		{
			"s1": "Hobart,+Australia1853",
			"s2": "Sydney,+Australia4208",
			"t1": "Adelaide,+Australia1722",
			"t2": "Brisbane,+Australia1800",
			"suurballeNbPaths": 2,
			"suurballeTime": 13445895,
			"suurballePaths": {
				"path0": [
					"Hobart,+Australia1853",
					"Melbourne,+Australia3867",
					"Melbourne,+Australia3868",
					"Adelaide,+Australia1722"
				],
				"lat0": 10.000000,
				"nbSeg0": 0,
				"path1": [
					"Sydney,+Australia4208",
					"Sydney,+Australia4241",
					"Brisbane,+Australia1799",
					"Brisbane,+Australia1800"
				],
				"lat1": 7.000000,
				"nbSeg1": 0
			},
			"pathsExist": true,
			"path1": [
				"Hobart,+Australia1853",
				"Adelaide,+Australia1722"
			],
			"lat1": 10.000000,
			"path2": [
				"Sydney,+Australia4208",
				"Brisbane,+Australia1800"
			],
			"lat2": 7.000000,
			"maxlat": 10.000000,
			"runtime": 4408797045,
			"nomLat1": 10.000000,
			"nomLat2": 7.000000,
			"maxNomLat": 10.000000,
			"mincut": 4
		},
		{
			"s1": "Hobart,+Australia1853",
			"s2": "Canberra,+Australia1832",
			"t1": "Perth,+Australia284",
			"t2": "Mackay,+Australia3851",
			"suurballeNbPaths": 2,
			"suurballeTime": 15413005,
			"suurballePaths": {
				"path0": [
					"Hobart,+Australia1853",
					"Melbourne,+Australia3867",
					"Melbourne,+Australia3868",
					"Adelaide,+Australia1722",
					"Perth,+Australia4156",
					"Perth,+Australia284"
				],
				"lat0": 23.000000,
				"nbSeg0": 0,
				"path1": [
					"Canberra,+Australia1832",
					"Canberra,+Australia1829",
					"Sydney,+Australia4241",
					"Brisbane,+Australia1799",
					"Brisbane,+Australia1800",
					"Mackay,+Australia3851"
				],
				"lat1": 15.000000,
				"nbSeg1": 0
			},
			"pathsExist": true,
			"path1": [
				"Hobart,+Australia1853",
				"Perth,+Australia284"
			],
			"lat1": 23.000000,
			"path2": [
				"Canberra,+Australia1832",
				"Mackay,+Australia3851"
			],
			"lat2": 15.000000,
			"maxlat": 23.000000,
			"runtime": 4207898723,
			"nomLat1": 23.000000,
			"nomLat2": 15.000000,
			"maxNomLat": 23.000000,
			"mincut": 4
		},
		{
			"s1": "Canberra,+Australia1821",
			"s2": "Maryborough,+Australia3859",
			"t1": "Brisbane,+Australia1799",
			"t2": "Brisbane,+Australia1769",
			"suurballeNbPaths": 2,
			"suurballeTime": 4917481,
			"suurballePaths": {
				"path0": [
					"Maryborough,+Australia3859",
					"Brisbane,+Australia1769"
				],
				"lat0": 3.000000,
				"nbSeg0": 0,
				"path1": [
					"Canberra,+Australia1821",
					"Canberra,+Australia1829",
					"Sydney,+Australia4241",
					"Brisbane,+Australia1799"
				],
				"lat1": 9.000000,
				"nbSeg1": 0
			},
			"pathsExist": true,
			"path1": [
				"Canberra,+Australia1821",
				"Brisbane,+Australia1799"
			],
			"lat1": 9.000000,
			"path2": [
				"Maryborough,+Australia3859",
				"Brisbane,+Australia1769"
			],
			"lat2": 3.000000,
			"maxlat": 9.000000,
			"runtime": 4542634686,
			"nomLat1": 9.000000,
			"nomLat2": 3.000000,
			"maxNomLat": 9.000000,
			"mincut": 4
		},
		{
			"s1": "Canberra,+Australia1829",
			"s2": "Maryborough,+Australia3859",
			"t1": "Hobart,+Australia1853",
			"t2": "Perth,+Australia4166",
			"suurballeNbPaths": 2,
			"suurballeTime": 4823425,
			"suurballePaths": {
				"path0": [
					"Canberra,+Australia1829",
					"Canberra,+Australia1821",
					"Hobart,+Australia1853"
				],
				"lat0": 7.000000,
				"nbSeg0": 0,
				"path1": [
					"Maryborough,+Australia3859",
					"Brisbane,+Australia1769",
					"Brisbane,+Australia1770",
					"Sydney,+Australia4210",
					"Melbourne,+Australia751",
					"Adelaide,+Australia1729",
					"Perth,+Australia4162",
					"Perth,+Australia4166"
				],
				"lat1": 32.000000,
				"nbSeg1": 0
			},
			"pathsExist": true,
			"path1": [
				"Canberra,+Australia1829",
				"Hobart,+Australia1853"
			],
			"lat1": 7.000000,
			"path2": [
				"Maryborough,+Australia3859",
				"Perth,+Australia4166"
			],
			"lat2": 32.000000,
			"maxlat": 32.000000,
			"runtime": 4131190237,
			"nomLat1": 7.000000,
			"nomLat2": 32.000000,
			"maxNomLat": 32.000000,
			"mincut": 4
		},
		{
			"s1": "Adelaide,+Australia1727",
			"s2": "Melbourne,+Australia3875",
			"t1": "Melbourne,+Australia751",
			"t2": "Townsville,+Australia4282",
			"suurballeNbPaths": 2,
			"suurballeTime": 4753475,
			"suurballePaths": {
				"path0": [
					"Adelaide,+Australia1727",
					"Adelaide,+Australia1729",
					"Melbourne,+Australia751"
				],
				"lat0": 6.000000,
				"nbSeg0": 0,
				"path1": [
					"Melbourne,+Australia3875",
					"Melbourne,+Australia734",
					"Sydney,+Australia4241",
					"Brisbane,+Australia1799",
					"Brisbane,+Australia1800",
					"Townsville,+Australia4282"
				],
				"lat1": 19.000000,
				"nbSeg1": 0
			},
			"pathsExist": true,
			"path1": [
				"Adelaide,+Australia1727",
				"Melbourne,+Australia751"
			],
			"lat1": 6.000000,
			"path2": [
				"Melbourne,+Australia3875",
				"Townsville,+Australia4282"
			],
			"lat2": 19.000000,
			"maxlat": 19.000000,
			"runtime": 4104355366,
			"nomLat1": 6.000000,
			"nomLat2": 19.000000,
			"maxNomLat": 19.000000,
			"mincut": 5
		},
		{
			"s1": "Mackay,+Australia3851",
			"s2": "Hobart,+Australia1852",
			"t1": "Adelaide,+Australia1737",
			"t2": "Canberra,+Australia1814",
			"suurballeNbPaths": 2,
			"suurballeTime": 3278216,
			"suurballePaths": {
				"path0": [
					"Hobart,+Australia1852",
					"Melbourne,+Australia3866",
					"Melbourne,+Australia3868",
					"Adelaide,+Australia1722",
					"Adelaide,+Australia1737"
				],
				"lat0": 11.000000,
				"nbSeg0": 1,
				"path1": [
					"Mackay,+Australia3851",
					"Brisbane,+Australia1800",
					"Brisbane,+Australia1799",
					"Sydney,+Australia4241",
					"Canberra,+Australia1829",
					"Canberra,+Australia1814"
				],
				"lat1": 15.000000,
				"nbSeg1": 0
			},
			"pathsExist": true,
			"path1": [
				"Mackay,+Australia3851",
				"Adelaide,+Australia1737"
			],
			"lat1": 22.000000,
			"path2": [
				"Hobart,+Australia1852",
				"Canberra,+Australia1814"
			],
			"lat2": 9.000000,
			"maxlat": 22.000000,
			"runtime": 3440260117,
			"nomLat1": 22.000000,
			"nomLat2": 9.000000,
			"maxNomLat": 22.000000,
			"mincut": 4
		},
		{
			"s1": "Melbourne,+Australia3868",
			"s2": "Brisbane,+Australia1769",
			"t1": "Melbourne,+Australia3881",
			"t2": "Maryborough,+Australia3859",
			"suurballeNbPaths": 2,
			"suurballeTime": 24305470,
			"suurballePaths": {
				"path0": [
					"Melbourne,+Australia3868",
					"Melbourne,+Australia3881"
				],
				"lat0": 1.000000,
				"nbSeg0": 0,
				"path1": [
					"Brisbane,+Australia1769",
					"Maryborough,+Australia3859"
				],
				"lat1": 3.000000,
				"nbSeg1": 0
			},
			"pathsExist": true,
			"path1": [
				"Melbourne,+Australia3868",
				"Melbourne,+Australia3881"
			],
			"lat1": 1.000000,
			"path2": [
				"Brisbane,+Australia1769",
				"Maryborough,+Australia3859"
			],
			"lat2": 3.000000,
			"maxlat": 3.000000,
			"runtime": 4494425684,
			"nomLat1": 1.000000,
			"nomLat2": 3.000000,
			"maxNomLat": 3.000000,
			"mincut": 10
		},
		{
			"s1": "Townsville,+Australia4282",
			"s2": "Perth,+Australia284",
			"t1": "Maryborough,+Australia3859",
			"t2": "Hobart,+Australia1853",
			"suurballeNbPaths": 2,
			"suurballeTime": 22630199,
			"suurballePaths": {
				"path0": [
					"Townsville,+Australia4282",
					"Brisbane,+Australia1800",
					"Maryborough,+Australia3859"
				],
				"lat0": 10.000000,
				"nbSeg0": 1,
				"path1": [
					"Perth,+Australia284",
					"Perth,+Australia4156",
					"Adelaide,+Australia1722",
					"Melbourne,+Australia3868",
					"Melbourne,+Australia3867",
					"Hobart,+Australia1853"
				],
				"lat1": 23.000000,
				"nbSeg1": 0
			},
			"pathsExist": true,
			"path1": [
				"Townsville,+Australia4282",
				"Maryborough,+Australia3859"
			],
			"lat1": 10.000000,
			"path2": [
				"Perth,+Australia284",
				"Hobart,+Australia1853"
			],
			"lat2": 23.000000,
			"maxlat": 23.000000,
			"runtime": 3762726582,
			"nomLat1": 10.000000,
			"nomLat2": 23.000000,
			"maxNomLat": 23.000000,
			"mincut": 4
		},
		{
			"s1": "Adelaide,+Australia1733",
			"s2": "Melbourne,+Australia3875",
			"t1": "Darwin,+Australia1837",
			"t2": "Melbourne,+Australia3866",
			"suurballeNbPaths": 2,
			"suurballeTime": 19633345,
			"suurballePaths": {
				"path0": [
					"Melbourne,+Australia3875",
					"Melbourne,+Australia3868",
					"Melbourne,+Australia3866"
				],
				"lat0": 2.000000,
				"nbSeg0": 1,
				"path1": [
					"Adelaide,+Australia1733",
					"Adelaide,+Australia1729",
					"Adelaide,+Australia1727",
					"Darwin,+Australia1837"
				],
				"lat1": 17.000000,
				"nbSeg1": 0
			},
			"pathsExist": true,
			"path1": [
				"Adelaide,+Australia1733",
				"Darwin,+Australia1837"
			],
			"lat1": 17.000000,
			"path2": [
				"Melbourne,+Australia3875",
				"Melbourne,+Australia3866"
			],
			"lat2": 2.000000,
			"maxlat": 17.000000,
			"runtime": 3961164751,
			"nomLat1": 17.000000,
			"nomLat2": 2.000000,
			"maxNomLat": 17.000000,
			"mincut": 6
		},
		{
			"s1": "Brisbane,+Australia1770",
			"s2": "Maroochydore,+Australia3857",
			"t1": "Melbourne,+Australia751",
			"t2": "Townsville,+Australia4282",
			"suurballeNbPaths": 2,
			"suurballeTime": 19546985,
			"suurballePaths": {
				"path0": [
					"Brisbane,+Australia1770",
					"Sydney,+Australia4210",
					"Melbourne,+Australia751"
				],
				"lat0": 10.000000,
				"nbSeg0": 0,
				"path1": [
					"Maroochydore,+Australia3857",
					"Brisbane,+Australia1769",
					"Townsville,+Australia4282"
				],
				"lat1": 9.000000,
				"nbSeg1": 1
			},
			"pathsExist": true,
			"path1": [
				"Brisbane,+Australia1770",
				"Melbourne,+Australia751"
			],
			"lat1": 10.000000,
			"path2": [
				"Maroochydore,+Australia3857",
				"Townsville,+Australia4282"
			],
			"lat2": 9.000000,
			"maxlat": 10.000000,
			"runtime": 4749463158,
			"nomLat1": 10.000000,
			"nomLat2": 9.000000,
			"maxNomLat": 10.000000,
			"mincut": 4
		},
		{
			"s1": "Darwin,+Australia1837",
			"s2": "Perth,+Australia284",
			"t1": "Toowoomba,+Australia4277",
			"t2": "Adelaide,+Australia1729",
			"suurballeNbPaths": 2,
			"suurballeTime": 19984354,
			"suurballePaths": {
				"path0": [
					"Darwin,+Australia1837",
					"Adelaide,+Australia1727",
					"Adelaide,+Australia1729"
				],
				"lat0": 16.000000,
				"nbSeg0": 0,
				"path1": [
					"Perth,+Australia284",
					"Perth,+Australia4162",
					"Adelaide,+Australia1729"
				],
				"lat1": 13.000000,
				"nbSeg1": 0
			},
			"pathsExist": true,
			"path1": [
				"Darwin,+Australia1837",
				"Toowoomba,+Australia4277"
			],
			"lat1": 34.000000,
			"path2": [
				"Perth,+Australia284",
				"Perth,+Australia4156",
				"Adelaide,+Australia1733",
				"Adelaide,+Australia1729"
			],
			"lat2": 15.000000,
			"maxlat": 34.000000,
			"runtime": 4583767279,
			"nomLat1": 34.000000,
			"nomLat2": 13.000000,
			"maxNomLat": 34.000000,
			"mincut": 3
		},
		{
			"s1": "Sydney,+Australia4210",
			"s2": "Adelaide,+Australia1729",
			"t1": "Brisbane,+Australia1774",
			"t2": "Adelaide,+Australia1727",
			"suurballeNbPaths": 2,
			"suurballeTime": 4902170,
			"suurballePaths": {
				"path0": [
					"Adelaide,+Australia1729",
					"Adelaide,+Australia1727"
				],
				"lat0": 1.000000,
				"nbSeg0": 0,
				"path1": [
					"Sydney,+Australia4210",
					"Brisbane,+Australia1770",
					"Brisbane,+Australia1774"
				],
				"lat1": 6.000000,
				"nbSeg1": 0
			},
			"pathsExist": true,
			"path1": [
				"Sydney,+Australia4210",
				"Brisbane,+Australia1774"
			],
			"lat1": 6.000000,
			"path2": [
				"Adelaide,+Australia1729",
				"Adelaide,+Australia1727"
			],
			"lat2": 1.000000,
			"maxlat": 6.000000,
			"runtime": 4542989189,
			"nomLat1": 6.000000,
			"nomLat2": 1.000000,
			"maxNomLat": 6.000000,
			"mincut": 4
		},
		{
			"s1": "Melbourne,+Australia3882",
			"s2": "Canberra,+Australia1824",
			"t1": "Melbourne,+Australia3875",
			"t2": "Adelaide,+Australia1733",
			"suurballeNbPaths": 2,
			"suurballeTime": 16706177,
			"suurballePaths": {
				"path0": [
					"Melbourne,+Australia3882",
					"Melbourne,+Australia3875"
				],
				"lat0": 1.000000,
				"nbSeg0": 0,
				"path1": [
					"Canberra,+Australia1824",
					"Canberra,+Australia1813",
					"Melbourne,+Australia3868",
					"Adelaide,+Australia1722",
					"Adelaide,+Australia1733"
				],
				"lat1": 11.000000,
				"nbSeg1": 0
			},
			"pathsExist": true,
			"path1": [
				"Melbourne,+Australia3882",
				"Melbourne,+Australia3875"
			],
			"lat1": 1.000000,
			"path2": [
				"Canberra,+Australia1824",
				"Adelaide,+Australia1733"
			],
			"lat2": 11.000000,
			"maxlat": 11.000000,
			"runtime": 4622518662,
			"nomLat1": 1.000000,
			"nomLat2": 11.000000,
			"maxNomLat": 11.000000,
			"mincut": 6
		},
		{
			"s1": "Melbourne,+Australia3869",
			"s2": "Perth,+Australia4167",
			"t1": "Toowoomba,+Australia4277",
			"t2": "Melbourne,+Australia3867",
			"suurballeNbPaths": 2,
			"suurballeTime": 4965914,
			"suurballePaths": {
				"path0": [
					"Perth,+Australia4167",
					"Perth,+Australia4156",
					"Adelaide,+Australia1722",
					"Melbourne,+Australia3868",
					"Melbourne,+Australia3867"
				],
				"lat0": 19.000000,
				"nbSeg0": 1,
				"path1": [
					"Melbourne,+Australia3869",
					"Melbourne,+Australia734",
					"Sydney,+Australia4241",
					"Brisbane,+Australia1799",
					"Brisbane,+Australia1800",
					"Toowoomba,+Australia4277"
				],
				"lat1": 14.000000,
				"nbSeg1": 0
			},
			"pathsExist": true,
			"path1": [
				"Melbourne,+Australia3869",
				"Toowoomba,+Australia4277"
			],
			"lat1": 14.000000,
			"path2": [
				"Perth,+Australia4167",
				"Perth,+Australia4156",
				"Melbourne,+Australia3867"
			],
			"lat2": 19.000000,
			"maxlat": 19.000000,
			"runtime": 4662311485,
			"nomLat1": 14.000000,
			"nomLat2": 20.000000,
			"maxNomLat": 20.000000,
			"mincut": 6
		},
		{
			"s1": "Brisbane,+Australia1802",
			"s2": "Canberra,+Australia1814",
			"t1": "Sydney,+Australia4210",
			"t2": "Perth,+Australia4160",
			"suurballeNbPaths": 2,
			"suurballeTime": 4920855,
			"suurballePaths": {
				"path0": [
					"Brisbane,+Australia1802",
					"Brisbane,+Australia1770",
					"Sydney,+Australia4210"
				],
				"lat0": 6.000000,
				"nbSeg0": 2,
				"path1": [
					"Canberra,+Australia1814",
					"Canberra,+Australia1829",
					"Canberra,+Australia1813",
					"Melbourne,+Australia3868",
					"Melbourne,+Australia751",
					"Adelaide,+Australia1729",
					"Perth,+Australia4162",
					"Perth,+Australia4160"
				],
				"lat1": 25.000000,
				"nbSeg1": 2
			},
			"pathsExist": true,
			"path1": [
				"Brisbane,+Australia1802",
				"Sydney,+Australia4210"
			],
			"lat1": 7.000000,
			"path2": [
				"Canberra,+Australia1814",
				"Melbourne,+Australia3868",
				"Perth,+Australia4160"
			],
			"lat2": 25.000000,
			"maxlat": 25.000000,
			"runtime": 4500556840,
			"nomLat1": 7.000000,
			"nomLat2": 28.000000,
			"maxNomLat": 28.000000,
			"mincut": 4
		},
		{
			"s1": "Cairns,+Australia1809",
			"s2": "Melbourne,+Australia3882",
			"t1": "Sydney,+Australia4210",
			"t2": "Hobart,+Australia1852",
			"suurballeNbPaths": 2,
			"suurballeTime": 4889158,
			"suurballePaths": {
				"path0": [
					"Melbourne,+Australia3882",
					"Melbourne,+Australia3866",
					"Hobart,+Australia1852"
				],
				"lat0": 5.000000,
				"nbSeg0": 1,
				"path1": [
					"Cairns,+Australia1809",
					"Brisbane,+Australia1769",
					"Brisbane,+Australia1770",
					"Sydney,+Australia4210"
				],
				"lat1": 14.000000,
				"nbSeg1": 1
			},
			"pathsExist": true,
			"path1": [
				"Cairns,+Australia1809",
				"Brisbane,+Australia1769",
				"Sydney,+Australia4210"
			],
			"lat1": 14.000000,
			"path2": [
				"Melbourne,+Australia3882",
				"Melbourne,+Australia3866",
				"Hobart,+Australia1852"
			],
			"lat2": 5.000000,
			"maxlat": 14.000000,
			"runtime": 4569852279,
			"nomLat1": 15.000000,
			"nomLat2": 7.000000,
			"maxNomLat": 15.000000,
			"mincut": 7
		},
		{
			"s1": "Canberra,+Australia1813",
			"s2": "Adelaide,+Australia1737",
			"t1": "Canberra,+Australia1821",
			"t2": "Canberra,+Australia1814",
			"suurballeNbPaths": 2,
			"suurballeTime": 4833270,
			"suurballePaths": {
				"path0": [
					"Canberra,+Australia1813",
					"Canberra,+Australia1821"
				],
				"lat0": 1.000000,
				"nbSeg0": 0,
				"path1": [
					"Adelaide,+Australia1737",
					"Adelaide,+Australia1722",
					"Melbourne,+Australia3868",
					"Canberra,+Australia1813",
					"Canberra,+Australia565",
					"Canberra,+Australia1814"
				],
				"lat1": 12.000000,
				"nbSeg1": 1
			},
			"pathsExist": true,
			"path1": [
				"Canberra,+Australia1813",
				"Canberra,+Australia1821"
			],
			"lat1": 1.000000,
			"path2": [
				"Adelaide,+Australia1737",
				"Canberra,+Australia565",
				"Canberra,+Australia1814"
			],
			"lat2": 12.000000,
			"maxlat": 12.000000,
			"runtime": 4123163053,
			"nomLat1": 1.000000,
			"nomLat2": 16.000000,
			"maxNomLat": 16.000000,
			"mincut": 5
		},
		{
			"s1": "Melbourne,+Australia3868",
			"s2": "Hobart,+Australia1853",
			"t1": "Melbourne,+Australia3875",
			"t2": "Maryborough,+Australia3859",
			"suurballeNbPaths": 2,
			"suurballeTime": 4815068,
			"suurballePaths": {
				"path0": [
					"Melbourne,+Australia3868",
					"Melbourne,+Australia3875"
				],
				"lat0": 1.000000,
				"nbSeg0": 0,
				"path1": [
					"Hobart,+Australia1853",
					"Canberra,+Australia1821",
					"Canberra,+Australia1829",
					"Sydney,+Australia4241",
					"Brisbane,+Australia1799",
					"Brisbane,+Australia1800",
					"Maryborough,+Australia3859"
				],
				"lat1": 19.000000,
				"nbSeg1": 1
			},
			"pathsExist": true,
			"path1": [
				"Melbourne,+Australia3868",
				"Melbourne,+Australia3875"
			],
			"lat1": 1.000000,
			"path2": [
				"Hobart,+Australia1853",
				"Brisbane,+Australia1800",
				"Maryborough,+Australia3859"
			],
			"lat2": 19.000000,
			"maxlat": 19.000000,
			"runtime": 4467562409,
			"nomLat1": 1.000000,
			"nomLat2": 20.000000,
			"maxNomLat": 20.000000,
			"mincut": 6
		},
		{
			"s1": "Brisbane,+Australia1802",
			"s2": "Melbourne,+Australia3868",
			"t1": "Perth,+Australia4167",
			"t2": "Melbourne,+Australia3866",
			"suurballeNbPaths": 2,
			"suurballeTime": 20501191,
			"suurballePaths": {
				"path0": [
					"Melbourne,+Australia3868",
					"Melbourne,+Australia3866"
				],
				"lat0": 1.000000,
				"nbSeg0": 0,
				"path1": [
					"Brisbane,+Australia1802",
					"Brisbane,+Australia1770",
					"Sydney,+Australia4210",
					"Melbourne,+Australia751",
					"Adelaide,+Australia1729",
					"Perth,+Australia4162",
					"Perth,+Australia4167"
				],
				"lat1": 29.000000,
				"nbSeg1": 2
			},
			"pathsExist": true,
			"path1": [
				"Brisbane,+Australia1802",
				"Perth,+Australia4167"
			],
			"lat1": 30.000000,
			"path2": [
				"Melbourne,+Australia3868",
				"Melbourne,+Australia3866"
			],
			"lat2": 1.000000,
			"maxlat": 30.000000,
			"runtime": 4584805390,
			"nomLat1": 30.000000,
			"nomLat2": 1.000000,
			"maxNomLat": 30.000000,
			"mincut": 6
		},
		{
			"s1": "Canberra,+Australia1821",
			"s2": "Brisbane,+Australia1770",
			"t1": "Melbourne,+Australia751",
			"t2": "Sydney,+Australia4210",
			"suurballeNbPaths": 2,
			"suurballeTime": 19738890,
			"suurballePaths": {
				"path0": [
					"Brisbane,+Australia1770",
					"Sydney,+Australia4210"
				],
				"lat0": 5.000000,
				"nbSeg0": 0,
				"path1": [
					"Canberra,+Australia1821",
					"Canberra,+Australia1813",
					"Melbourne,+Australia3868",
					"Melbourne,+Australia751"
				],
				"lat1": 6.000000,
				"nbSeg1": 0
			},
			"pathsExist": true,
			"path1": [
				"Canberra,+Australia1821",
				"Melbourne,+Australia751"
			],
			"lat1": 6.000000,
			"path2": [
				"Brisbane,+Australia1770",
				"Sydney,+Australia4210"
			],
			"lat2": 5.000000,
			"maxlat": 6.000000,
			"runtime": 4582968865,
			"nomLat1": 6.000000,
			"nomLat2": 5.000000,
			"maxNomLat": 6.000000,
			"mincut": 5
		},
		{
			"s1": "Melbourne,+Australia3869",
			"s2": "Townsville,+Australia4282",
			"t1": "Perth,+Australia4167",
			"t2": "Sydney,+Australia4208",
			"suurballeNbPaths": 2,
			"suurballeTime": 4877115,
			"suurballePaths": {
				"path0": [
					"Melbourne,+Australia3869",
					"Melbourne,+Australia3868",
					"Adelaide,+Australia1722",
					"Perth,+Australia4156",
					"Perth,+Australia4167"
				],
				"lat0": 19.000000,
				"nbSeg0": 1,
				"path1": [
					"Townsville,+Australia4282",
					"Brisbane,+Australia1800",
					"Brisbane,+Australia1799",
					"Sydney,+Australia4241",
					"Sydney,+Australia4208"
				],
				"lat1": 14.000000,
				"nbSeg1": 0
			},
			"pathsExist": true,
			"path1": [
				"Melbourne,+Australia3869",
				"Perth,+Australia4156",
				"Perth,+Australia4167"
			],
			"lat1": 19.000000,
			"path2": [
				"Townsville,+Australia4282",
				"Sydney,+Australia4208"
			],
			"lat2": 14.000000,
			"maxlat": 19.000000,
			"runtime": 4213062031,
			"nomLat1": 20.000000,
			"nomLat2": 14.000000,
			"maxNomLat": 20.000000,
			"mincut": 4
		},
		{
			"s1": "Brisbane,+Australia1774",
			"s2": "Melbourne,+Australia3875",
			"t1": "Melbourne,+Australia3868",
			"t2": "Melbourne,+Australia751",
			"suurballeNbPaths": 2,
			"suurballeTime": 19522788,
			"suurballePaths": {
				"path0": [
					"Melbourne,+Australia3875",
					"Melbourne,+Australia3868"
				],
				"lat0": 1.000000,
				"nbSeg0": 0,
				"path1": [
					"Brisbane,+Australia1774",
					"Brisbane,+Australia1770",
					"Sydney,+Australia4210",
					"Melbourne,+Australia751"
				],
				"lat1": 11.000000,
				"nbSeg1": 0
			},
			"pathsExist": true,
			"path1": [
				"Brisbane,+Australia1774",
				"Melbourne,+Australia3868"
			],
			"lat1": 12.000000,
			"path2": [
				"Melbourne,+Australia3875",
				"Adelaide,+Australia1722",
				"Melbourne,+Australia751"
			],
			"lat2": 12.000000,
			"maxlat": 12.000000,
			"runtime": 3829822757,
			"nomLat1": 12.000000,
			"nomLat2": 2.000000,
			"maxNomLat": 12.000000,
			"mincut": 6
		},
		{
			"s1": "Brisbane,+Australia1799",
			"s2": "Sydney,+Australia4210",
			"t1": "Hobart,+Australia1853",
			"t2": "Adelaide,+Australia1727",
			"suurballeNbPaths": 2,
			"suurballeTime": 3775720,
			"suurballePaths": {
				"path0": [
					"Sydney,+Australia4210",
					"Melbourne,+Australia751",
					"Adelaide,+Australia1729",
					"Adelaide,+Australia1727"
				],
				"lat0": 11.000000,
				"nbSeg0": 0,
				"path1": [
					"Brisbane,+Australia1799",
					"Sydney,+Australia4241",
					"Canberra,+Australia1829",
					"Canberra,+Australia1821",
					"Hobart,+Australia1853"
				],
				"lat1": 15.000000,
				"nbSeg1": 0
			},
			"pathsExist": true,
			"path1": [
				"Brisbane,+Australia1799",
				"Hobart,+Australia1853"
			],
			"lat1": 15.000000,
			"path2": [
				"Sydney,+Australia4210",
				"Adelaide,+Australia1727"
			],
			"lat2": 11.000000,
			"maxlat": 15.000000,
			"runtime": 4519177454,
			"nomLat1": 15.000000,
			"nomLat2": 11.000000,
			"maxNomLat": 15.000000,
			"mincut": 3
		},
		{
			"s1": "Adelaide,+Australia1733",
			"s2": "Brisbane,+Australia1769",
			"t1": "Melbourne,+Australia3867",
			"t2": "Sydney,+Australia4208",
			"suurballeNbPaths": 2,
			"suurballeTime": 3717043,
			"suurballePaths": {
				"path0": [
					"Adelaide,+Australia1733",
					"Adelaide,+Australia1722",
					"Melbourne,+Australia3868",
					"Melbourne,+Australia3867"
				],
				"lat0": 7.000000,
				"nbSeg0": 0,
				"path1": [
					"Brisbane,+Australia1769",
					"Brisbane,+Australia1770",
					"Sydney,+Australia4210",
					"Sydney,+Australia4208"
				],
				"lat1": 7.000000,
				"nbSeg1": 2
			},
			"pathsExist": true,
			"path1": [
				"Adelaide,+Australia1733",
				"Melbourne,+Australia3867"
			],
			"lat1": 7.000000,
			"path2": [
				"Brisbane,+Australia1769",
				"Sydney,+Australia4208"
			],
			"lat2": 8.000000,
			"maxlat": 8.000000,
			"runtime": 4099605376,
			"nomLat1": 7.000000,
			"nomLat2": 8.000000,
			"maxNomLat": 8.000000,
			"mincut": 4
		},
		{
			"s1": "Melbourne,+Australia3868",
			"s2": "Maryborough,+Australia3859",
			"t1": "Sydney,+Australia4208",
			"t2": "Brisbane,+Australia1769",
			"suurballeNbPaths": 2,
			"suurballeTime": 3236154,
			"suurballePaths": {
				"path0": [
					"Maryborough,+Australia3859",
					"Brisbane,+Australia1769"
				],
				"lat0": 3.000000,
				"nbSeg0": 0,
				"path1": [
					"Melbourne,+Australia3868",
					"Melbourne,+Australia751",
					"Sydney,+Australia4210",
					"Sydney,+Australia4208"
				],
				"lat1": 7.000000,
				"nbSeg1": 3
			},
			"pathsExist": true,
			"path1": [
				"Melbourne,+Australia3868",
				"Sydney,+Australia4208"
			],
			"lat1": 7.000000,
			"path2": [
				"Maryborough,+Australia3859",
				"Brisbane,+Australia1769"
			],
			"lat2": 3.000000,
			"maxlat": 7.000000,
			"runtime": 4306779986,
			"nomLat1": 7.000000,
			"nomLat2": 3.000000,
			"maxNomLat": 7.000000,
			"mincut": 5
		},
		{
			"s1": "Brisbane,+Australia1799",
			"s2": "Melbourne,+Australia3867",
			"t1": "Maroochydore,+Australia3857",
			"t2": "Brisbane,+Australia1802",
			"suurballeNbPaths": 2,
			"suurballeTime": 3869156,
			"suurballePaths": {
				"path0": [
					"Brisbane,+Australia1799",
					"Brisbane,+Australia1802"
				],
				"lat0": 1.000000,
				"nbSeg0": 0,
				"path1": [
					"Melbourne,+Australia3867",
					"Melbourne,+Australia3881",
					"Melbourne,+Australia734",
					"Sydney,+Australia4241",
					"Brisbane,+Australia1799",
					"Brisbane,+Australia1800",
					"Maroochydore,+Australia3857"
				],
				"lat1": 15.000000,
				"nbSeg1": 4
			},
			"pathsExist": true,
			"path1": [
				"Brisbane,+Australia1799",
				"Maroochydore,+Australia3857"
			],
			"lat1": 3.000000,
			"path2": [
				"Melbourne,+Australia3867",
				"Brisbane,+Australia1802"
			],
			"lat2": 13.000000,
			"maxlat": 13.000000,
			"runtime": 5171786058,
			"nomLat1": 3.000000,
			"nomLat2": 13.000000,
			"maxNomLat": 13.000000,
			"mincut": 4
		},
		{
			"s1": "Canberra,+Australia1832",
			"s2": "Brisbane,+Australia1799",
			"t1": "Canberra,+Australia1821",
			"t2": "Perth,+Australia4162",
			"suurballeNbPaths": 2,
			"suurballeTime": 4101926,
			"suurballePaths": {
				"path0": [
					"Canberra,+Australia1832",
					"Canberra,+Australia1829",
					"Canberra,+Australia1821"
				],
				"lat0": 2.000000,
				"nbSeg0": 1,
				"path1": [
					"Brisbane,+Australia1799",
					"Sydney,+Australia4241",
					"Melbourne,+Australia734",
					"Melbourne,+Australia751",
					"Adelaide,+Australia1729",
					"Perth,+Australia4162"
				],
				"lat1": 28.000000,
				"nbSeg1": 1
			},
			"pathsExist": true,
			"path1": [
				"Canberra,+Australia1832",
				"Canberra,+Australia1821"
			],
			"lat1": 2.000000,
			"path2": [
				"Brisbane,+Australia1799",
				"Perth,+Australia4162"
			],
			"lat2": 28.000000,
			"maxlat": 28.000000,
			"runtime": 4037098668,
			"nomLat1": 2.000000,
			"nomLat2": 28.000000,
			"maxNomLat": 28.000000,
			"mincut": 4
		},
		{
			"s1": "Adelaide,+Australia1737",
			"s2": "Melbourne,+Australia734",
			"t1": "Melbourne,+Australia3882",
			"t2": "Canberra,+Australia1832",
			"suurballeNbPaths": 2,
			"suurballeTime": 3887343,
			"suurballePaths": {
				"path0": [
					"Melbourne,+Australia734",
					"Melbourne,+Australia3882"
				],
				"lat0": 1.000000,
				"nbSeg0": 2,
				"path1": [
					"Adelaide,+Australia1737",
					"Adelaide,+Australia1722",
					"Melbourne,+Australia3868",
					"Canberra,+Australia1813",
					"Canberra,+Australia1832"
				],
				"lat1": 11.000000,
				"nbSeg1": 1
			},
			"pathsExist": true,
			"path1": [
				"Adelaide,+Australia1737",
				"Melbourne,+Australia3882"
			],
			"lat1": 7.000000,
			"path2": [
				"Melbourne,+Australia734",
				"Canberra,+Australia1813",
				"Canberra,+Australia1832"
			],
			"lat2": 6.000000,
			"maxlat": 7.000000,
			"runtime": 4822386250,
			"nomLat1": 7.000000,
			"nomLat2": 9.000000,
			"maxNomLat": 9.000000,
			"mincut": 9
		},
		{
			"s1": "Melbourne,+Australia3882",
			"s2": "Sydney,+Australia4237",
			"t1": "Melbourne,+Australia751",
			"t2": "Maroochydore,+Australia3857",
			"suurballeNbPaths": 2,
			"suurballeTime": 4071809,
			"suurballePaths": {
				"path0": [
					"Melbourne,+Australia3882",
					"Melbourne,+Australia734",
					"Melbourne,+Australia751"
				],
				"lat0": 2.000000,
				"nbSeg0": 2,
				"path1": [
					"Sydney,+Australia4237",
					"Sydney,+Australia4241",
					"Brisbane,+Australia1799",
					"Brisbane,+Australia1800",
					"Maroochydore,+Australia3857"
				],
				"lat1": 9.000000,
				"nbSeg1": 2
			},
			"pathsExist": true,
			"path1": [
				"Melbourne,+Australia3882",
				"Melbourne,+Australia751"
			],
			"lat1": 2.000000,
			"path2": [
				"Sydney,+Australia4237",
				"Maroochydore,+Australia3857"
			],
			"lat2": 9.000000,
			"maxlat": 9.000000,
			"runtime": 4188049364,
			"nomLat1": 2.000000,
			"nomLat2": 9.000000,
			"maxNomLat": 9.000000,
			"mincut": 6
		},
		{
			"s1": "Melbourne,+Australia3868",
			"s2": "Hobart,+Australia1852",
			"t1": "Brisbane,+Australia1802",
			"t2": "Canberra,+Australia1813",
			"suurballeNbPaths": 2,
			"suurballeTime": 47725006,
			"suurballePaths": {
				"path0": [
					"Hobart,+Australia1852",
					"Hobart,+Australia1853",
					"Canberra,+Australia1821",
					"Canberra,+Australia1813"
				],
				"lat0": 8.000000,
				"nbSeg0": 0,
				"path1": [
					"Melbourne,+Australia3868",
					"Melbourne,+Australia751",
					"Sydney,+Australia4210",
					"Brisbane,+Australia1770",
					"Brisbane,+Australia1802"
				],
				"lat1": 12.000000,
				"nbSeg1": 3
			},
			"pathsExist": true,
			"path1": [
				"Melbourne,+Australia3868",
				"Brisbane,+Australia1802"
			],
			"lat1": 12.000000,
			"path2": [
				"Hobart,+Australia1852",
				"Canberra,+Australia1813"
			],
			"lat2": 8.000000,
			"maxlat": 12.000000,
			"runtime": 4893320860,
			"nomLat1": 12.000000,
			"nomLat2": 8.000000,
			"maxNomLat": 12.000000,
			"mincut": 4
		},
		{
			"s1": "Melbourne,+Australia3875",
			"s2": "Melbourne,+Australia3882",
			"t1": "Perth,+Australia4162",
			"t2": "Canberra,+Australia565",
			"suurballeNbPaths": 2,
			"suurballeTime": 42291029,
			"suurballePaths": {
				"path0": [
					"Melbourne,+Australia3875",
					"Melbourne,+Australia3868",
					"Canberra,+Australia1813",
					"Canberra,+Australia565"
				],
				"lat0": 6.000000,
				"nbSeg0": 0,
				"path1": [
					"Melbourne,+Australia3882",
					"Melbourne,+Australia734",
					"Melbourne,+Australia751",
					"Adelaide,+Australia1729",
					"Perth,+Australia4162"
				],
				"lat1": 19.000000,
				"nbSeg1": 2
			},
			"pathsExist": true,
			"path1": [
				"Melbourne,+Australia3875",
				"Perth,+Australia4162"
			],
			"lat1": 19.000000,
			"path2": [
				"Melbourne,+Australia3882",
				"Melbourne,+Australia3869",
				"Canberra,+Australia565"
			],
			"lat2": 7.000000,
			"maxlat": 19.000000,
			"runtime": 4087014713,
			"nomLat1": 19.000000,
			"nomLat2": 6.000000,
			"maxNomLat": 19.000000,
			"mincut": 5
		},
		{
			"s1": "Perth,+Australia4156",
			"s2": "Melbourne,+Australia3882",
			"t1": "Rockhampton,+Australia4195",
			"t2": "Melbourne,+Australia734",
			"suurballeNbPaths": 2,
			"suurballeTime": 66790165,
			"suurballePaths": {
				"path0": [
					"Melbourne,+Australia3882",
					"Melbourne,+Australia734"
				],
				"lat0": 1.000000,
				"nbSeg0": 2,
				"path1": [
					"Perth,+Australia4156",
					"Adelaide,+Australia1722",
					"Melbourne,+Australia3868",
					"Melbourne,+Australia751",
					"Sydney,+Australia4210",
					"Brisbane,+Australia1770",
					"Brisbane,+Australia1769",
					"Rockhampton,+Australia4195"
				],
				"lat1": 33.000000,
				"nbSeg1": 2
			},
			"pathsExist": true,
			"path1": [
				"Perth,+Australia4156",
				"Rockhampton,+Australia4195"
			],
			"lat1": 33.000000,
			"path2": [
				"Melbourne,+Australia3882",
				"Melbourne,+Australia3869",
				"Melbourne,+Australia734"
			],
			"lat2": 2.000000,
			"maxlat": 33.000000,
			"runtime": 4018315272,
			"nomLat1": 33.000000,
			"nomLat2": 2.000000,
			"maxNomLat": 33.000000,
			"mincut": 9
		},
		{
			"s1": "Sydney,+Australia4208",
			"s2": "Perth,+Australia284",
			"t1": "Perth,+Australia4160",
			"t2": "Perth,+Australia4167",
			"suurballeNbPaths": 2,
			"suurballeTime": 67289685,
			"suurballePaths": {
				"path0": [
					"Perth,+Australia284",
					"Perth,+Australia4156",
					"Perth,+Australia4167"
				],
				"lat0": 2.000000,
				"nbSeg0": 1,
				"path1": [
					"Sydney,+Australia4208",
					"Sydney,+Australia4210",
					"Melbourne,+Australia751",
					"Adelaide,+Australia1729",
					"Perth,+Australia4162",
					"Perth,+Australia4160"
				],
				"lat1": 24.000000,
				"nbSeg1": 2
			},
			"pathsExist": true,
			"path1": [
				"Sydney,+Australia4208",
				"Perth,+Australia4160"
			],
			"lat1": 25.000000,
			"path2": [
				"Perth,+Australia284",
				"Perth,+Australia4167"
			],
			"lat2": 2.000000,
			"maxlat": 25.000000,
			"runtime": 4822245102,
			"nomLat1": 25.000000,
			"nomLat2": 2.000000,
			"maxNomLat": 25.000000,
			"mincut": 4
		},
		{
			"s1": "Melbourne,+Australia3869",
			"s2": "Melbourne,+Australia3866",
			"t1": "Brisbane,+Australia1774",
			"t2": "Melbourne,+Australia3870",
			"suurballeNbPaths": 2,
			"suurballeTime": 13842780,
			"suurballePaths": {
				"path0": [
					"Melbourne,+Australia3866",
					"Melbourne,+Australia3868",
					"Melbourne,+Australia3870"
				],
				"lat0": 2.000000,
				"nbSeg0": 1,
				"path1": [
					"Melbourne,+Australia3869",
					"Melbourne,+Australia734",
					"Sydney,+Australia4241",
					"Brisbane,+Australia1799",
					"Brisbane,+Australia1774"
				],
				"lat1": 12.000000,
				"nbSeg1": 0
			},
			"pathsExist": true,
			"path1": [
				"Melbourne,+Australia3869",
				"Brisbane,+Australia1774"
			],
			"lat1": 12.000000,
			"path2": [
				"Melbourne,+Australia3866",
				"Melbourne,+Australia3870"
			],
			"lat2": 2.000000,
			"maxlat": 12.000000,
			"runtime": 3996224467,
			"nomLat1": 12.000000,
			"nomLat2": 2.000000,
			"maxNomLat": 12.000000,
			"mincut": 6
		},
		{
			"s1": "Canberra,+Australia1829",
			"s2": "Melbourne,+Australia3866",
			"t1": "Melbourne,+Australia3867",
			"t2": "Rockhampton,+Australia4195",
			"suurballeNbPaths": 2,
			"suurballeTime": 3678265,
			"suurballePaths": {
				"path0": [
					"Melbourne,+Australia3866",
					"Melbourne,+Australia3868",
					"Melbourne,+Australia3867"
				],
				"lat0": 2.000000,
				"nbSeg0": 0,
				"path1": [
					"Canberra,+Australia1829",
					"Sydney,+Australia4241",
					"Brisbane,+Australia1799",
					"Brisbane,+Australia1800",
					"Rockhampton,+Australia4195"
				],
				"lat1": 13.000000,
				"nbSeg1": 0
			},
			"pathsExist": true,
			"path1": [
				"Canberra,+Australia1829",
				"Melbourne,+Australia3867"
			],
			"lat1": 6.000000,
			"path2": [
				"Melbourne,+Australia3866",
				"Melbourne,+Australia734",
				"Rockhampton,+Australia4195"
			],
			"lat2": 17.000000,
			"maxlat": 17.000000,
			"runtime": 4385126064,
			"nomLat1": 6.000000,
			"nomLat2": 17.000000,
			"maxNomLat": 17.000000,
			"mincut": 6
		},
		{
			"s1": "Adelaide,+Australia1729",
			"s2": "Perth,+Australia4161",
			"t1": "Canberra,+Australia1832",
			"t2": "Adelaide,+Australia1733",
			"suurballeNbPaths": 2,
			"suurballeTime": 3750766,
			"suurballePaths": {
				"path0": [
					"Adelaide,+Australia1729",
					"Adelaide,+Australia1733"
				],
				"lat0": 1.000000,
				"nbSeg0": 0,
				"path1": [
					"Perth,+Australia4161",
					"Perth,+Australia4156",
					"Adelaide,+Australia1722",
					"Melbourne,+Australia3868",
					"Canberra,+Australia1813",
					"Canberra,+Australia1832"
				],
				"lat1": 23.000000,
				"nbSeg1": 1
			},
			"pathsExist": true,
			"path1": [
				"Adelaide,+Australia1729",
				"Melbourne,+Australia3867",
				"Canberra,+Australia1832"
			],
			"lat1": 13.000000,
			"path2": [
				"Perth,+Australia4161",
				"Adelaide,+Australia1733"
			],
			"lat2": 14.000000,
			"maxlat": 14.000000,
			"runtime": 4826241052,
			"nomLat1": 15.000000,
			"nomLat2": 14.000000,
			"maxNomLat": 15.000000,
			"mincut": 4
		},
		{
			"s1": "Brisbane,+Australia1770",
			"s2": "Hobart,+Australia1853",
			"t1": "Brisbane,+Australia1774",
			"t2": "Perth,+Australia284",
			"suurballeNbPaths": 2,
			"suurballeTime": 4026647,
			"suurballePaths": {
				"path0": [
					"Brisbane,+Australia1770",
					"Brisbane,+Australia1774"
				],
				"lat0": 1.000000,
				"nbSeg0": 0,
				"path1": [
					"Hobart,+Australia1853",
					"Melbourne,+Australia3867",
					"Melbourne,+Australia3868",
					"Adelaide,+Australia1722",
					"Perth,+Australia4156",
					"Perth,+Australia284"
				],
				"lat1": 23.000000,
				"nbSeg1": 0
			},
			"pathsExist": true,
			"path1": [
				"Brisbane,+Australia1770",
				"Brisbane,+Australia1774"
			],
			"lat1": 1.000000,
			"path2": [
				"Hobart,+Australia1853",
				"Perth,+Australia284"
			],
			"lat2": 23.000000,
			"maxlat": 23.000000,
			"runtime": 4159363683,
			"nomLat1": 1.000000,
			"nomLat2": 23.000000,
			"maxNomLat": 23.000000,
			"mincut": 4
		},
		{
			"s1": "Canberra,+Australia565",
			"s2": "Townsville,+Australia4282",
			"t1": "Canberra,+Australia1813",
			"t2": "Canberra,+Australia1821",
			"suurballeNbPaths": 2,
			"suurballeTime": 20059573,
			"suurballePaths": {
				"path0": [
					"Canberra,+Australia565",
					"Canberra,+Australia1813"
				],
				"lat0": 1.000000,
				"nbSeg0": 0,
				"path1": [
					"Townsville,+Australia4282",
					"Brisbane,+Australia1800",
					"Brisbane,+Australia1799",
					"Sydney,+Australia4241",
					"Canberra,+Australia1829",
					"Canberra,+Australia1821"
				],
				"lat1": 17.000000,
				"nbSeg1": 0
			},
			"pathsExist": true,
			"path1": [
				"Canberra,+Australia565",
				"Canberra,+Australia1813"
			],
			"lat1": 1.000000,
			"path2": [
				"Townsville,+Australia4282",
				"Canberra,+Australia1821"
			],
			"lat2": 17.000000,
			"maxlat": 17.000000,
			"runtime": 4117352893,
			"nomLat1": 1.000000,
			"nomLat2": 17.000000,
			"maxNomLat": 17.000000,
			"mincut": 5
		},
		{
			"s1": "Melbourne,+Australia3867",
			"s2": "Canberra,+Australia1829",
			"t1": "Melbourne,+Australia3869",
			"t2": "Mackay,+Australia3851",
			"suurballeNbPaths": 2,
			"suurballeTime": 35888340,
			"suurballePaths": {
				"path0": [
					"Melbourne,+Australia3867",
					"Melbourne,+Australia3881",
					"Melbourne,+Australia3869"
				],
				"lat0": 2.000000,
				"nbSeg0": 2,
				"path1": [
					"Canberra,+Australia1829",
					"Sydney,+Australia4241",
					"Brisbane,+Australia1799",
					"Brisbane,+Australia1800",
					"Mackay,+Australia3851"
				],
				"lat1": 14.000000,
				"nbSeg1": 0
			},
			"pathsExist": true,
			"path1": [
				"Melbourne,+Australia3867",
				"Melbourne,+Australia3869"
			],
			"lat1": 2.000000,
			"path2": [
				"Canberra,+Australia1829",
				"Mackay,+Australia3851"
			],
			"lat2": 14.000000,
			"maxlat": 14.000000,
			"runtime": 4404643010,
			"nomLat1": 2.000000,
			"nomLat2": 14.000000,
			"maxNomLat": 14.000000,
			"mincut": 6
		},
		{
			"s1": "Melbourne,+Australia3875",
			"s2": "Adelaide,+Australia1727",
			"t1": "Adelaide,+Australia1737",
			"t2": "Perth,+Australia4161",
			"suurballeNbPaths": 2,
			"suurballeTime": 3425376,
			"suurballePaths": {
				"path0": [
					"Adelaide,+Australia1727",
					"Adelaide,+Australia1729",
					"Adelaide,+Australia1737"
				],
				"lat0": 2.000000,
				"nbSeg0": 0,
				"path1": [
					"Melbourne,+Australia3875",
					"Melbourne,+Australia3868",
					"Adelaide,+Australia1722",
					"Perth,+Australia4156",
					"Perth,+Australia4161"
				],
				"lat1": 19.000000,
				"nbSeg1": 0
			},
			"pathsExist": true,
			"path1": [
				"Melbourne,+Australia3875",
				"Adelaide,+Australia1737"
			],
			"lat1": 7.000000,
			"path2": [
				"Adelaide,+Australia1727",
				"Perth,+Australia4161"
			],
			"lat2": 14.000000,
			"maxlat": 14.000000,
			"runtime": 4198827711,
			"nomLat1": 7.000000,
			"nomLat2": 14.000000,
			"maxNomLat": 14.000000,
			"mincut": 4
		},
		{
			"s1": "Canberra,+Australia1814",
			"s2": "Darwin,+Australia1837",
			"t1": "Melbourne,+Australia3881",
			"t2": "Perth,+Australia4167",
			"suurballeNbPaths": 2,
			"suurballeTime": 3232405,
			"suurballePaths": {
				"path0": [
					"Darwin,+Australia1837",
					"Perth,+Australia4160",
					"Perth,+Australia4162",
					"Perth,+Australia4167"
				],
				"lat0": 17.000000,
				"nbSeg0": 0,
				"path1": [
					"Canberra,+Australia1814",
					"Canberra,+Australia565",
					"Canberra,+Australia1813",
					"Melbourne,+Australia3868",
					"Melbourne,+Australia3881"
				],
				"lat1": 7.000000,
				"nbSeg1": 1
			},
			"pathsExist": true,
			"path1": [
				"Canberra,+Australia1814",
				"Melbourne,+Australia3881"
			],
			"lat1": 7.000000,
			"path2": [
				"Darwin,+Australia1837",
				"Perth,+Australia4167"
			],
			"lat2": 17.000000,
			"maxlat": 17.000000,
			"runtime": 5006673874,
			"nomLat1": 7.000000,
			"nomLat2": 17.000000,
			"maxNomLat": 17.000000,
			"mincut": 4
		},
		{
			"s1": "Sydney,+Australia4237",
			"s2": "Canberra,+Australia1821",
			"t1": "Melbourne,+Australia3866",
			"t2": "Melbourne,+Australia734",
			"suurballeNbPaths": 2,
			"suurballeTime": 15349481,
			"suurballePaths": {
				"path0": [
					"Sydney,+Australia4237",
					"Sydney,+Australia4241",
					"Melbourne,+Australia734"
				],
				"lat0": 6.000000,
				"nbSeg0": 2,
				"path1": [
					"Canberra,+Australia1821",
					"Canberra,+Australia1813",
					"Melbourne,+Australia3868",
					"Melbourne,+Australia3866"
				],
				"lat1": 6.000000,
				"nbSeg1": 0
			},
			"pathsExist": true,
			"path1": [
				"Sydney,+Australia4237",
				"Melbourne,+Australia751",
				"Melbourne,+Australia3866"
			],
			"lat1": 8.000000,
			"path2": [
				"Canberra,+Australia1821",
				"Melbourne,+Australia3869",
				"Melbourne,+Australia734"
			],
			"lat2": 7.000000,
			"maxlat": 8.000000,
			"runtime": 5219038341,
			"nomLat1": 9.000000,
			"nomLat2": 6.000000,
			"maxNomLat": 9.000000,
			"mincut": 4
		},
		{
			"s1": "Canberra,+Australia1814",
			"s2": "Sydney,+Australia4237",
			"t1": "Canberra,+Australia1813",
			"t2": "Cairns,+Australia1809",
			"suurballeNbPaths": 2,
			"suurballeTime": 44603945,
			"suurballePaths": {
				"path0": [
					"Canberra,+Australia1814",
					"Canberra,+Australia565",
					"Canberra,+Australia1813"
				],
				"lat0": 2.000000,
				"nbSeg0": 1,
				"path1": [
					"Sydney,+Australia4237",
					"Sydney,+Australia4241",
					"Brisbane,+Australia1799",
					"Brisbane,+Australia1800",
					"Cairns,+Australia1809"
				],
				"lat1": 15.000000,
				"nbSeg1": 2
			},
			"pathsExist": true,
			"path1": [
				"Canberra,+Australia1814",
				"Canberra,+Australia1813"
			],
			"lat1": 2.000000,
			"path2": [
				"Sydney,+Australia4237",
				"Brisbane,+Australia1769",
				"Cairns,+Australia1809"
			],
			"lat2": 15.000000,
			"maxlat": 15.000000,
			"runtime": 4059109520,
			"nomLat1": 2.000000,
			"nomLat2": 16.000000,
			"maxNomLat": 16.000000,
			"mincut": 4
		},
		{
			"s1": "Brisbane,+Australia1774",
			"s2": "Sydney,+Australia3546",
			"t1": "Brisbane,+Australia1799",
			"t2": "Canberra,+Australia1829",
			"suurballeNbPaths": 2,
			"suurballeTime": 3157133,
			"suurballePaths": {
				"path0": [
					"Brisbane,+Australia1774",
					"Brisbane,+Australia1799"
				],
				"lat0": 1.000000,
				"nbSeg0": 0,
				"path1": [
					"Sydney,+Australia3546",
					"Sydney,+Australia4241",
					"Canberra,+Australia1829"
				],
				"lat1": 4.000000,
				"nbSeg1": 2
			},
			"pathsExist": true,
			"path1": [
				"Brisbane,+Australia1774",
				"Brisbane,+Australia1799"
			],
			"lat1": 1.000000,
			"path2": [
				"Sydney,+Australia3546",
				"Canberra,+Australia1829"
			],
			"lat2": 5.000000,
			"maxlat": 5.000000,
			"runtime": 4407738489,
			"nomLat1": 1.000000,
			"nomLat2": 5.000000,
			"maxNomLat": 5.000000,
			"mincut": 4
		},
		{
			"s1": "Hobart,+Australia1852",
			"s2": "Townsville,+Australia4282",
			"t1": "Brisbane,+Australia1770",
			"t2": "Brisbane,+Australia1774",
			"suurballeNbPaths": 2,
			"suurballeTime": 3243351,
			"suurballePaths": {
				"path0": [
					"Townsville,+Australia4282",
					"Brisbane,+Australia1769",
					"Brisbane,+Australia1770"
				],
				"lat0": 8.000000,
				"nbSeg0": 0,
				"path1": [
					"Hobart,+Australia1852",
					"Melbourne,+Australia3866",
					"Melbourne,+Australia3868",
					"Melbourne,+Australia751",
					"Sydney,+Australia4210",
					"Brisbane,+Australia1770"
				],
				"lat1": 16.000000,
				"nbSeg1": 2
			},
			"pathsExist": true,
			"path1": [
				"Hobart,+Australia1852",
				"Melbourne,+Australia3866",
				"Melbourne,+Australia751",
				"Brisbane,+Australia1770"
			],
			"lat1": 16.000000,
			"path2": [
				"Townsville,+Australia4282",
				"Brisbane,+Australia1774"
			],
			"lat2": 9.000000,
			"maxlat": 16.000000,
			"runtime": 4830510390,
			"nomLat1": 17.000000,
			"nomLat2": 9.000000,
			"maxNomLat": 17.000000,
			"mincut": 4
		},
		{
			"s1": "Perth,+Australia4166",
			"s2": "Melbourne,+Australia3867",
			"t1": "Melbourne,+Australia3869",
			"t2": "Sydney,+Australia4208",
			"suurballeNbPaths": 2,
			"suurballeTime": 3364963,
			"suurballePaths": {
				"path0": [
					"Melbourne,+Australia3867",
					"Melbourne,+Australia3881",
					"Melbourne,+Australia3869"
				],
				"lat0": 2.000000,
				"nbSeg0": 2,
				"path1": [
					"Perth,+Australia4166",
					"Perth,+Australia4162",
					"Adelaide,+Australia1729",
					"Melbourne,+Australia751",
					"Sydney,+Australia4210",
					"Sydney,+Australia4208"
				],
				"lat1": 24.000000,
				"nbSeg1": 2
			},
			"pathsExist": true,
			"path1": [
				"Perth,+Australia4166",
				"Perth,+Australia4156",
				"Melbourne,+Australia3869"
			],
			"lat1": 19.000000,
			"path2": [
				"Melbourne,+Australia3867",
				"Sydney,+Australia4208"
			],
			"lat2": 8.000000,
			"maxlat": 19.000000,
			"runtime": 3660004725,
			"nomLat1": 20.000000,
			"nomLat2": 8.000000,
			"maxNomLat": 20.000000,
			"mincut": 6
		},
		{
			"s1": "Rockhampton,+Australia4195",
			"s2": "Adelaide,+Australia1729",
			"t1": "Melbourne,+Australia3867",
			"t2": "Canberra,+Australia1813",
			"suurballeNbPaths": 2,
			"suurballeTime": 3254397,
			"suurballePaths": {
				"path0": [
					"Adelaide,+Australia1729",
					"Adelaide,+Australia1722",
					"Melbourne,+Australia3868",
					"Melbourne,+Australia3867"
				],
				"lat0": 7.000000,
				"nbSeg0": 1,
				"path1": [
					"Rockhampton,+Australia4195",
					"Brisbane,+Australia1800",
					"Brisbane,+Australia1799",
					"Sydney,+Australia4241",
					"Canberra,+Australia1829",
					"Canberra,+Australia1813"
				],
				"lat1": 14.000000,
				"nbSeg1": 0
			},
			"pathsExist": true,
			"path1": [
				"Rockhampton,+Australia4195",
				"Melbourne,+Australia734",
				"Melbourne,+Australia3867"
			],
			"lat1": 17.000000,
			"path2": [
				"Adelaide,+Australia1729",
				"Canberra,+Australia1813"
			],
			"lat2": 10.000000,
			"maxlat": 17.000000,
			"runtime": 4387728642,
			"nomLat1": 17.000000,
			"nomLat2": 10.000000,
			"maxNomLat": 17.000000,
			"mincut": 4
		},
		{
			"s1": "Melbourne,+Australia3866",
			"s2": "Townsville,+Australia4282",
			"t1": "Canberra,+Australia1829",
			"t2": "Melbourne,+Australia3882",
			"suurballeNbPaths": 2,
			"suurballeTime": 3220310,
			"suurballePaths": {
				"path0": [
					"Melbourne,+Australia3866",
					"Melbourne,+Australia3882"
				],
				"lat0": 1.000000,
				"nbSeg0": 0,
				"path1": [
					"Townsville,+Australia4282",
					"Brisbane,+Australia1800",
					"Brisbane,+Australia1799",
					"Sydney,+Australia4241",
					"Canberra,+Australia1829"
				],
				"lat1": 16.000000,
				"nbSeg1": 0
			},
			"pathsExist": true,
			"path1": [
				"Melbourne,+Australia3866",
				"Melbourne,+Australia3867",
				"Canberra,+Australia1829"
			],
			"lat1": 8.000000,
			"path2": [
				"Townsville,+Australia4282",
				"Melbourne,+Australia734",
				"Melbourne,+Australia3869",
				"Melbourne,+Australia3882"
			],
			"lat2": 20.000000,
			"maxlat": 20.000000,
			"runtime": 4736501287,
			"nomLat1": 6.000000,
			"nomLat2": 20.000000,
			"maxNomLat": 20.000000,
			"mincut": 6
		},
		{
			"s1": "Sydney,+Australia4237",
			"s2": "Canberra,+Australia1813",
			"t1": "Melbourne,+Australia3869",
			"t2": "Sydney,+Australia4208",
			"suurballeNbPaths": 2,
			"suurballeTime": 3159902,
			"suurballePaths": {
				"path0": [
					"Sydney,+Australia4237",
					"Sydney,+Australia4241",
					"Sydney,+Australia4208"
				],
				"lat0": 2.000000,
				"nbSeg0": 2,
				"path1": [
					"Canberra,+Australia1813",
					"Melbourne,+Australia3868",
					"Melbourne,+Australia3869"
				],
				"lat1": 5.000000,
				"nbSeg1": 0
			},
			"pathsExist": true,
			"path1": [
				"Sydney,+Australia4237",
				"Melbourne,+Australia751",
				"Melbourne,+Australia3869"
			],
			"lat1": 8.000000,
			"path2": [
				"Canberra,+Australia1813",
				"Sydney,+Australia4208"
			],
			"lat2": 5.000000,
			"maxlat": 8.000000,
			"runtime": 4613356869,
			"nomLat1": 8.000000,
			"nomLat2": 5.000000,
			"maxNomLat": 8.000000,
			"mincut": 5
		},
		{
			"s1": "Sydney,+Australia4208",
			"s2": "Canberra,+Australia1813",
			"t1": "Melbourne,+Australia3866",
			"t2": "Melbourne,+Australia734",
			"suurballeNbPaths": 2,
			"suurballeTime": 3159780,
			"suurballePaths": {
				"path0": [
					"Sydney,+Australia4208",
					"Sydney,+Australia4241",
					"Melbourne,+Australia734"
				],
				"lat0": 6.000000,
				"nbSeg0": 0,
				"path1": [
					"Canberra,+Australia1813",
					"Melbourne,+Australia3868",
					"Melbourne,+Australia3866"
				],
				"lat1": 5.000000,
				"nbSeg1": 0
			},
			"pathsExist": true,
			"path1": [
				"Sydney,+Australia4208",
				"Melbourne,+Australia751",
				"Melbourne,+Australia3866"
			],
			"lat1": 9.000000,
			"path2": [
				"Canberra,+Australia1813",
				"Melbourne,+Australia3869",
				"Melbourne,+Australia734"
			],
			"lat2": 6.000000,
			"maxlat": 9.000000,
			"runtime": 4366296568,
			"nomLat1": 8.000000,
			"nomLat2": 5.000000,
			"maxNomLat": 8.000000,
			"mincut": 4
		},
		{
			"s1": "Melbourne,+Australia3882",
			"s2": "Adelaide,+Australia1727",
			"t1": "Toowoomba,+Australia4277",
			"t2": "Melbourne,+Australia3875",
			"suurballeNbPaths": 2,
			"suurballeTime": 3647939,
			"suurballePaths": {
				"path0": [
					"Melbourne,+Australia3882",
					"Melbourne,+Australia3875"
				],
				"lat0": 1.000000,
				"nbSeg0": 0,
				"path1": [
					"Adelaide,+Australia1727",
					"Adelaide,+Australia1729",
					"Melbourne,+Australia751",
					"Sydney,+Australia4210",
					"Brisbane,+Australia1770",
					"Brisbane,+Australia1769",
					"Toowoomba,+Australia4277"
				],
				"lat1": 19.000000,
				"nbSeg1": 0
			},
			"pathsExist": true,
			"path1": [
				"Melbourne,+Australia3882",
				"Melbourne,+Australia3869",
				"Toowoomba,+Australia4277"
			],
			"lat1": 15.000000,
			"path2": [
				"Adelaide,+Australia1727",
				"Adelaide,+Australia1722",
				"Melbourne,+Australia3875"
			],
			"lat2": 8.000000,
			"maxlat": 15.000000,
			"runtime": 4320436757,
			"nomLat1": 15.000000,
			"nomLat2": 8.000000,
			"maxNomLat": 15.000000,
			"mincut": 6
		},
		{
			"s1": "Melbourne,+Australia751",
			"s2": "Sydney,+Australia4237",
			"t1": "Melbourne,+Australia3867",
			"t2": "Melbourne,+Australia3868",
			"suurballeNbPaths": 2,
			"suurballeTime": 3211519,
			"suurballePaths": {
				"path0": [
					"Melbourne,+Australia751",
					"Melbourne,+Australia3868"
				],
				"lat0": 1.000000,
				"nbSeg0": 0,
				"path1": [
					"Sydney,+Australia4237",
					"Sydney,+Australia4241",
					"Melbourne,+Australia734",
					"Melbourne,+Australia3868"
				],
				"lat1": 7.000000,
				"nbSeg1": 2
			},
			"pathsExist": true,
			"path1": [
				"Melbourne,+Australia751",
				"Melbourne,+Australia3869",
				"Melbourne,+Australia3867"
			],
			"lat1": 4.000000,
			"path2": [
				"Sydney,+Australia4237",
				"Sydney,+Australia4241",
				"Melbourne,+Australia3868"
			],
			"lat2": 8.000000,
			"maxlat": 8.000000,
			"runtime": 4570950856,
			"nomLat1": 2.000000,
			"nomLat2": 8.000000,
			"maxNomLat": 8.000000,
			"mincut": 5
		}
	],
	"demandsWithSol": 100
}
