{
	"nbDemands": 100,
	"demands": [
		{
			"s1": "Washington,+DC6543",
			"s2": "Chicago,+IL6468",
			"t1": "Chicago,+IL6611",
			"t2": "Boston5509",
			"suurballeNbPaths": 2,
			"suurballeTime": 964163721,
			"suurballePaths": {
				"path0": [
					"Chicago,+IL6468",
					"Chicago,+IL4037",
					"Chicago,+IL6611"
				],
				"lat0": 2.000000,
				"nbSeg0": 1,
				"path1": [
					"Washington,+DC6543",
					"Washington,+DC4139",
					"Relay,+MD4054",
					"Relay,+MD4118",
					"Pennsauken,+NJ4091",
					"Springfield,+MA4023",
					"Boston5509"
				],
				"lat1": 11.000000,
				"nbSeg1": 2
			},
			"pathsExist": false,
			"runtime": 2265668412,
			"nomLat1": 16.000000,
			"nomLat2": 11.000000,
			"maxNomLat": 16.000000,
			"mincut": 8
		},
		{
			"s1": "Cheyenne,+WY2439",
			"s2": "Kansas+City,+MO4106",
			"t1": "Chicago,+IL4037",
			"t2": "Relay,+MD4029",
			"suurballeNbPaths": 2,
			"suurballeTime": 839019088,
			"suurballePaths": {
				"path0": [
					"Cheyenne,+WY2439",
					"Cheyenne,+WY4034",
					"Chicago,+IL4037"
				],
				"lat0": 10.000000,
				"nbSeg0": 0,
				"path1": [
					"Kansas+City,+MO4106",
					"Pennsauken,+NJ4117",
					"Pennsauken,+NJ4091",
					"Relay,+MD4118",
					"Relay,+MD4054",
					"Relay,+MD4029"
				],
				"lat1": 15.000000,
				"nbSeg1": 3
			},
			"pathsExist": false,
			"runtime": 2395053032,
			"nomLat1": 10.000000,
			"nomLat2": 20.000000,
			"maxNomLat": 20.000000,
			"mincut": 14
		},
		{
			"s1": "Chicago,+IL6654",
			"s2": "Rancho+Cordova,+CA5514",
			"t1": "Paris4051",
			"t2": "Seattle,+WA4019",
			"suurballeNbPaths": 2,
			"suurballeTime": 417151968,
			"suurballePaths": {
				"path0": [
					"Rancho+Cordova,+CA5514",
					"Stockton,+CA4096",
					"San+Jose,+CA4112",
					"San+Jose,+CA4062",
					"Tacoma,+WA3251",
					"Seattle,+WA4059",
					"Seattle,+WA4019"
				],
				"lat0": 15.000000,
				"nbSeg0": 2,
				"path1": [
					"Chicago,+IL6654",
					"Chicago,+IL1484",
					"New+York,+NY4088",
					"New+York,+NY4048",
					"New+York,+NY4017",
					"London4045",
					"London4044",
					"Paris4090",
					"Paris4051"
				],
				"lat1": 44.000000,
				"nbSeg1": 3
			},
			"pathsExist": false,
			"runtime": 2959962451,
			"nomLat1": 46.000000,
			"nomLat2": 15.000000,
			"maxNomLat": 46.000000,
			"mincut": 4
		},
		{
			"s1": "Orlando,+FL4050",
			"s2": "Relay,+MD4127",
			"t1": "Seattle,+WA4060",
			"t2": "Stockton,+CA4113",
			"suurballeNbPaths": 2,
			"suurballeTime": 114179804,
			"suurballePaths": {
				"path0": [
					"Orlando,+FL4050",
					"Dallas,+TX4015",
					"Kansas+City,+MO4043",
					"Seattle,+WA4060"
				],
				"lat0": 28.000000,
				"nbSeg0": 2,
				"path1": [
					"Relay,+MD4127",
					"Relay,+MD4118",
					"Pennsauken,+NJ4091",
					"Stockton,+CA4113"
				],
				"lat1": 24.000000,
				"nbSeg1": 0
			},
			"pathsExist": true,
			"path1": [
				"Orlando,+FL4050",
				"Seattle,+WA4060"
			],
			"lat1": 28.000000,
			"path2": [
				"Relay,+MD4127",
				"Stockton,+CA4113"
			],
			"lat2": 24.000000,
			"maxlat": 28.000000,
			"runtime": 3578927945,
			"nomLat1": 28.000000,
			"nomLat2": 24.000000,
			"maxNomLat": 28.000000,
			"mincut": 15
		},
		{
			"s1": "Roachdale,+IN6402",
			"s2": "Dallas,+TX6645",
			"t1": "Cheyenne,+WY6542",
			"t2": "Atlanta,+GA6540",
			"suurballeNbPaths": 2,
			"suurballeTime": 66513707,
			"suurballePaths": {
				"path0": [
					"Dallas,+TX6645",
					"Dallas,+TX4080",
					"Cheyenne,+WY4076",
					"Cheyenne,+WY6542"
				],
				"lat0": 9.000000,
				"nbSeg0": 1,
				"path1": [
					"Roachdale,+IN6402",
					"Roachdale,+IN4056",
					"Chicago,+IL4037",
					"Atlanta,+GA4032",
					"Atlanta,+GA6540"
				],
				"lat1": 11.000000,
				"nbSeg1": 0
			},
			"pathsExist": false,
			"runtime": 3920332327,
			"nomLat1": 14.000000,
			"nomLat2": 9.000000,
			"maxNomLat": 14.000000,
			"mincut": 5
		},
		{
			"s1": "Boston5509",
			"s2": "Milan,+Italy4046",
			"t1": "Pennsauken,+NJ6728",
			"t2": "Pennsauken,+NJ6517",
			"suurballeNbPaths": 2,
			"suurballeTime": 283615727,
			"suurballePaths": {
				"path0": [
					"Boston5509",
					"Springfield,+MA4023",
					"Pennsauken,+NJ4091",
					"Pennsauken,+NJ6728"
				],
				"lat0": 6.000000,
				"nbSeg0": 0,
				"path1": [
					"Milan,+Italy4046",
					"Paris4090",
					"London4044",
					"London4045",
					"New+York,+NY4017",
					"New+York,+NY4048",
					"Pennsauken,+NJ4052",
					"Pennsauken,+NJ6517"
				],
				"lat1": 42.000000,
				"nbSeg1": 2
			},
			"pathsExist": false,
			"runtime": 3975885341,
			"nomLat1": 6.000000,
			"nomLat2": 44.000000,
			"maxNomLat": 44.000000,
			"mincut": 4
		},
		{
			"s1": "New+York,+NY6752",
			"s2": "Chicago,+IL6586",
			"t1": "Boston5499",
			"t2": "London4045",
			"suurballeNbPaths": 2,
			"suurballeTime": 301229571,
			"suurballePaths": {
				"path0": [
					"New+York,+NY6752",
					"New+York,+NY4048",
					"New+York,+NY4017",
					"London4045"
				],
				"lat0": 31.000000,
				"nbSeg0": 2,
				"path1": [
					"Chicago,+IL6586",
					"Chicago,+IL4036",
					"Springfield,+MA4020",
					"Boston5499"
				],
				"lat1": 11.000000,
				"nbSeg1": 0
			},
			"pathsExist": false,
			"runtime": 3918201827,
			"nomLat1": 6.000000,
			"nomLat2": 42.000000,
			"maxNomLat": 42.000000,
			"mincut": 4
		},
		{
			"s1": "Atlanta,+GA6540",
			"s2": "Stockholm,+Sweden4097",
			"t1": "Washington,+DC6443",
			"t2": "Relay,+MD6449",
			"suurballeNbPaths": 2,
			"suurballeTime": 534988143,
			"suurballePaths": {
				"path0": [
					"Atlanta,+GA6540",
					"Atlanta,+GA4074",
					"Relay,+MD4110",
					"Relay,+MD6449"
				],
				"lat0": 8.000000,
				"nbSeg0": 1,
				"path1": [
					"Stockholm,+Sweden4097",
					"Stockholm,+Sweden4066",
					"Copenhagen4038",
					"Manasquan,+NJ4086",
					"Relay,+MD4110",
					"Washington,+DC6443"
				],
				"lat1": 43.000000,
				"nbSeg1": 1
			},
			"pathsExist": true,
			"path1": [
				"Atlanta,+GA6540",
				"Washington,+DC6443"
			],
			"lat1": 9.000000,
			"path2": [
				"Stockholm,+Sweden4097",
				"Relay,+MD6449"
			],
			"lat2": 42.000000,
			"maxlat": 42.000000,
			"runtime": 3980414442,
			"nomLat1": 9.000000,
			"nomLat2": 42.000000,
			"maxNomLat": 42.000000,
			"mincut": 5
		},
		{
			"s1": "Chicago,+IL1484",
			"s2": "Stockton,+CA6452",
			"t1": "Chicago,+IL6531",
			"t2": "San+Jose,+CA6405",
			"suurballeNbPaths": 2,
			"suurballeTime": 545523922,
			"suurballePaths": {
				"path0": [
					"Chicago,+IL1484",
					"Chicago,+IL6531"
				],
				"lat0": 1.000000,
				"nbSeg0": 0,
				"path1": [
					"Stockton,+CA6452",
					"Stockton,+CA4065",
					"San+Jose,+CA4095",
					"San+Jose,+CA6405"
				],
				"lat1": 4.000000,
				"nbSeg1": 0
			},
			"pathsExist": true,
			"path1": [
				"Chicago,+IL1484",
				"Chicago,+IL6531"
			],
			"lat1": 1.000000,
			"path2": [
				"Stockton,+CA6452",
				"San+Jose,+CA6405"
			],
			"lat2": 4.000000,
			"maxlat": 4.000000,
			"runtime": 3980001428,
			"nomLat1": 1.000000,
			"nomLat2": 4.000000,
			"maxNomLat": 4.000000,
			"mincut": 7
		},
		{
			"s1": "Dallas,+TX2635",
			"s2": "Sydney,+Australia4068",
			"t1": "Dallas,+TX6683",
			"t2": "Atlanta,+GA3957",
			"suurballeNbPaths": 2,
			"suurballeTime": 212583605,
			"suurballePaths": {
				"path0": [
					"Dallas,+TX2635",
					"Dallas,+TX6683"
				],
				"lat0": 1.000000,
				"nbSeg0": 0,
				"path1": [
					"Sydney,+Australia4068",
					"Stockton,+CA4064",
					"San+Jose,+CA4119",
					"Dallas,+TX4080",
					"Dallas,+TX6641",
					"Atlanta,+GA3957"
				],
				"lat1": 85.000000,
				"nbSeg1": 2
			},
			"pathsExist": true,
			"path1": [
				"Dallas,+TX2635",
				"Dallas,+TX6683"
			],
			"lat1": 1.000000,
			"path2": [
				"Sydney,+Australia4068",
				"Chicago,+IL4037",
				"Atlanta,+GA3957"
			],
			"lat2": 87.000000,
			"maxlat": 87.000000,
			"runtime": 4059841948,
			"nomLat1": 1.000000,
			"nomLat2": 92.000000,
			"maxNomLat": 92.000000,
			"mincut": 6
		},
		{
			"s1": "Relay,+MD6696",
			"s2": "Stockton,+CA6758",
			"t1": "Hong+Kong6421",
			"t2": "Roachdale,+IN6697",
			"suurballeNbPaths": 2,
			"suurballeTime": 219840726,
			"suurballePaths": {
				"path0": [
					"Stockton,+CA6758",
					"Stockton,+CA4096",
					"Hong+Kong6421"
				],
				"lat0": 58.000000,
				"nbSeg0": 0,
				"path1": [
					"Relay,+MD6696",
					"Relay,+MD4093",
					"Pennsauken,+NJ4135",
					"Pennsauken,+NJ4117",
					"Roachdale,+IN4111",
					"Roachdale,+IN6697"
				],
				"lat1": 12.000000,
				"nbSeg1": 3
			},
			"pathsExist": true,
			"path1": [
				"Relay,+MD6696",
				"Hong+Kong6421"
			],
			"lat1": 81.000000,
			"path2": [
				"Stockton,+CA6758",
				"Chicago,+IL6724",
				"Chicago,+IL4104",
				"Roachdale,+IN6697"
			],
			"lat2": 23.000000,
			"maxlat": 81.000000,
			"runtime": 4099428549,
			"nomLat1": 81.000000,
			"nomLat2": 31.000000,
			"maxNomLat": 81.000000,
			"mincut": 4
		},
		{
			"s1": "New+York,+NY4124",
			"s2": "Stockton,+CA6758",
			"t1": "Relay,+MD4054",
			"t2": "Dallas,+TX6663",
			"suurballeNbPaths": 2,
			"suurballeTime": 78731902,
			"suurballePaths": {
				"path0": [
					"New+York,+NY4124",
					"New+York,+NY4129",
					"Relay,+MD4054"
				],
				"lat0": 4.000000,
				"nbSeg0": 0,
				"path1": [
					"Stockton,+CA6758",
					"Stockton,+CA4064",
					"San+Jose,+CA4119",
					"Dallas,+TX4080",
					"Dallas,+TX6663"
				],
				"lat1": 17.000000,
				"nbSeg1": 1
			},
			"pathsExist": true,
			"path1": [
				"New+York,+NY4124",
				"Relay,+MD4054"
			],
			"lat1": 4.000000,
			"path2": [
				"Stockton,+CA6758",
				"Dallas,+TX6663"
			],
			"lat2": 19.000000,
			"maxlat": 19.000000,
			"runtime": 4462424783,
			"nomLat1": 4.000000,
			"nomLat2": 19.000000,
			"maxNomLat": 19.000000,
			"mincut": 13
		},
		{
			"s1": "Seattle,+WA4060",
			"s2": "Cheyenne,+WY2439",
			"t1": "Tacoma,+WA6555",
			"t2": "New+York,+NY6752",
			"suurballeNbPaths": 2,
			"suurballeTime": 595773114,
			"suurballePaths": {
				"path0": [
					"Seattle,+WA4060",
					"Tacoma,+WA3251",
					"Tacoma,+WA6555"
				],
				"lat0": 3.000000,
				"nbSeg0": 0,
				"path1": [
					"Cheyenne,+WY2439",
					"Cheyenne,+WY4034",
					"Chicago,+IL4104",
					"New+York,+NY4048",
					"New+York,+NY6752"
				],
				"lat1": 18.000000,
				"nbSeg1": 0
			},
			"pathsExist": false,
			"runtime": 3969632238,
			"nomLat1": 3.000000,
			"nomLat2": 18.000000,
			"maxNomLat": 18.000000,
			"mincut": 5
		},
		{
			"s1": "Anaheim,+CA6744",
			"s2": "Kansas+City,+MO4082",
			"t1": "Dallas,+TX6587",
			"t2": "Orlando,+FL4050",
			"suurballeNbPaths": 2,
			"suurballeTime": 573604014,
			"suurballePaths": {
				"path0": [
					"Kansas+City,+MO4082",
					"Dallas,+TX4080",
					"Dallas,+TX6587"
				],
				"lat0": 6.000000,
				"nbSeg0": 0,
				"path1": [
					"Anaheim,+CA6744",
					"Anaheim,+CA4073",
					"Dallas,+TX4015",
					"Orlando,+FL4050"
				],
				"lat1": 21.000000,
				"nbSeg1": 1
			},
			"pathsExist": true,
			"path1": [
				"Anaheim,+CA6744",
				"Dallas,+TX6587"
			],
			"lat1": 13.000000,
			"path2": [
				"Kansas+City,+MO4082",
				"Orlando,+FL4089",
				"Orlando,+FL4050"
			],
			"lat2": 16.000000,
			"maxlat": 16.000000,
			"runtime": 3980271445,
			"nomLat1": 13.000000,
			"nomLat2": 18.000000,
			"maxNomLat": 18.000000,
			"mincut": 14
		},
		{
			"s1": "Roachdale,+IN6636",
			"s2": "Stockton,+CA3402",
			"t1": "Pennsauken,+NJ6516",
			"t2": "Chicago,+IL6414",
			"suurballeNbPaths": 2,
			"suurballeTime": 572074086,
			"suurballePaths": {
				"path0": [
					"Roachdale,+IN6636",
					"Roachdale,+IN4111",
					"Chicago,+IL4036",
					"Chicago,+IL6414"
				],
				"lat0": 5.000000,
				"nbSeg0": 2,
				"path1": [
					"Stockton,+CA3402",
					"Stockton,+CA4064",
					"Pennsauken,+NJ4052",
					"Pennsauken,+NJ6516"
				],
				"lat1": 23.000000,
				"nbSeg1": 1
			},
			"pathsExist": true,
			"path1": [
				"Roachdale,+IN6636",
				"Pennsauken,+NJ6516"
			],
			"lat1": 10.000000,
			"path2": [
				"Stockton,+CA3402",
				"Chicago,+IL6414"
			],
			"lat2": 18.000000,
			"maxlat": 18.000000,
			"runtime": 3985998459,
			"nomLat1": 10.000000,
			"nomLat2": 18.000000,
			"maxNomLat": 18.000000,
			"mincut": 7
		},
		{
			"s1": "Reston,+VA5497",
			"s2": "New+York,+NY6752",
			"t1": "Chicago,+IL6593",
			"t2": "San+Jose,+CA4112",
			"suurballeNbPaths": 2,
			"suurballeTime": 68273937,
			"suurballePaths": {
				"path0": [
					"Reston,+VA5497",
					"Relay,+MD4093",
					"San+Jose,+CA4112"
				],
				"lat0": 23.000000,
				"nbSeg0": 0,
				"path1": [
					"New+York,+NY6752",
					"New+York,+NY4048",
					"Chicago,+IL4104",
					"Chicago,+IL6593"
				],
				"lat1": 9.000000,
				"nbSeg1": 0
			},
			"pathsExist": false,
			"runtime": 4505042685,
			"nomLat1": 15.000000,
			"nomLat2": 26.000000,
			"maxNomLat": 26.000000,
			"mincut": 4
		},
		{
			"s1": "Kansas+City,+MO6422",
			"s2": "Orlando,+FL4049",
			"t1": "Chicago,+IL6611",
			"t2": "New+York,+NY6605",
			"suurballeNbPaths": 2,
			"suurballeTime": 122771206,
			"suurballePaths": {
				"path0": [
					"Kansas+City,+MO6422",
					"Kansas+City,+MO4105",
					"Kansas+City,+MO4043",
					"Chicago,+IL4037",
					"Chicago,+IL6611"
				],
				"lat0": 8.000000,
				"nbSeg0": 2,
				"path1": [
					"Orlando,+FL4049",
					"Atlanta,+GA4074",
					"New+York,+NY4088",
					"New+York,+NY4124",
					"New+York,+NY6605"
				],
				"lat1": 15.000000,
				"nbSeg1": 1
			},
			"pathsExist": true,
			"path1": [
				"Kansas+City,+MO6422",
				"Chicago,+IL6611"
			],
			"lat1": 8.000000,
			"path2": [
				"Orlando,+FL4049",
				"Relay,+MD4110",
				"New+York,+NY6605"
			],
			"lat2": 15.000000,
			"maxlat": 15.000000,
			"runtime": 4460814181,
			"nomLat1": 8.000000,
			"nomLat2": 15.000000,
			"maxNomLat": 15.000000,
			"mincut": 9
		},
		{
			"s1": "New+York,+NY6751",
			"s2": "Washington,+DC6456",
			"t1": "New+York,+NY6559",
			"t2": "Stockton,+CA6619",
			"suurballeNbPaths": 2,
			"suurballeTime": 106641226,
			"suurballePaths": {
				"path0": [
					"New+York,+NY6751",
					"New+York,+NY4048",
					"New+York,+NY6559"
				],
				"lat0": 2.000000,
				"nbSeg0": 0,
				"path1": [
					"Washington,+DC6456",
					"Relay,+MD4093",
					"San+Jose,+CA4112",
					"Stockton,+CA4096",
					"Stockton,+CA6619"
				],
				"lat1": 26.000000,
				"nbSeg1": 0
			},
			"pathsExist": true,
			"path1": [
				"New+York,+NY6751",
				"New+York,+NY6559"
			],
			"lat1": 2.000000,
			"path2": [
				"Washington,+DC6456",
				"Stockton,+CA6619"
			],
			"lat2": 26.000000,
			"maxlat": 26.000000,
			"runtime": 4388705724,
			"nomLat1": 2.000000,
			"nomLat2": 26.000000,
			"maxNomLat": 26.000000,
			"mincut": 7
		},
		{
			"s1": "Atlanta,+GA2347",
			"s2": "Dallas,+TX6587",
			"t1": "Atlanta,+GA4032",
			"t2": "Pennsauken,+NJ6624",
			"suurballeNbPaths": 2,
			"suurballeTime": 485124261,
			"suurballePaths": {
				"path0": [
					"Atlanta,+GA2347",
					"Atlanta,+GA4032"
				],
				"lat0": 1.000000,
				"nbSeg0": 0,
				"path1": [
					"Dallas,+TX6587",
					"Dallas,+TX4015",
					"Pennsauken,+NJ4109",
					"Pennsauken,+NJ6624"
				],
				"lat1": 14.000000,
				"nbSeg1": 0
			},
			"pathsExist": true,
			"path1": [
				"Atlanta,+GA2347",
				"Atlanta,+GA4032"
			],
			"lat1": 1.000000,
			"path2": [
				"Dallas,+TX6587",
				"Pennsauken,+NJ6624"
			],
			"lat2": 14.000000,
			"maxlat": 14.000000,
			"runtime": 4316482788,
			"nomLat1": 1.000000,
			"nomLat2": 14.000000,
			"maxNomLat": 14.000000,
			"mincut": 10
		},
		{
			"s1": "Roachdale,+IN6697",
			"s2": "Atlanta,+GA2347",
			"t1": "Dallas,+TX6587",
			"t2": "New+York,+NY4088",
			"suurballeNbPaths": 2,
			"suurballeTime": 495563664,
			"suurballePaths": {
				"path0": [
					"Atlanta,+GA2347",
					"Atlanta,+GA4074",
					"Dallas,+TX4015",
					"Dallas,+TX6587"
				],
				"lat0": 9.000000,
				"nbSeg0": 1,
				"path1": [
					"Roachdale,+IN6697",
					"Roachdale,+IN4056",
					"Chicago,+IL4037",
					"Chicago,+IL1484",
					"New+York,+NY4088"
				],
				"lat1": 12.000000,
				"nbSeg1": 2
			},
			"pathsExist": true,
			"path1": [
				"Roachdale,+IN6697",
				"Dallas,+TX6587"
			],
			"lat1": 13.000000,
			"path2": [
				"Atlanta,+GA2347",
				"New+York,+NY4088"
			],
			"lat2": 9.000000,
			"maxlat": 13.000000,
			"runtime": 4309449229,
			"nomLat1": 13.000000,
			"nomLat2": 9.000000,
			"maxNomLat": 13.000000,
			"mincut": 6
		},
		{
			"s1": "Atlanta,+GA4074",
			"s2": "New+York,+NY4024",
			"t1": "Orlando,+FL4050",
			"t2": "New+York,+NY6532",
			"suurballeNbPaths": 2,
			"suurballeTime": 345703463,
			"suurballePaths": {
				"path0": [
					"Atlanta,+GA4074",
					"Orlando,+FL4050"
				],
				"lat0": 5.000000,
				"nbSeg0": 0,
				"path1": [
					"New+York,+NY4024",
					"New+York,+NY4048",
					"New+York,+NY6532"
				],
				"lat1": 2.000000,
				"nbSeg1": 0
			},
			"pathsExist": true,
			"path1": [
				"Atlanta,+GA4074",
				"Orlando,+FL4050"
			],
			"lat1": 5.000000,
			"path2": [
				"New+York,+NY4024",
				"New+York,+NY6532"
			],
			"lat2": 2.000000,
			"maxlat": 5.000000,
			"runtime": 4461906905,
			"nomLat1": 5.000000,
			"nomLat2": 2.000000,
			"maxNomLat": 5.000000,
			"mincut": 12
		},
		{
			"s1": "Anaheim,+CA4073",
			"s2": "Washington,+DC4140",
			"t1": "Stockton,+CA4113",
			"t2": "New+York,+NY4022",
			"suurballeNbPaths": 2,
			"suurballeTime": 814276897,
			"suurballePaths": {
				"path0": [
					"Anaheim,+CA4073",
					"Anaheim,+CA6512",
					"Stockton,+CA3402",
					"Stockton,+CA4113"
				],
				"lat0": 6.000000,
				"nbSeg0": 1,
				"path1": [
					"Washington,+DC4140",
					"Relay,+MD4110",
					"New+York,+NY4048",
					"New+York,+NY4022"
				],
				"lat1": 6.000000,
				"nbSeg1": 0
			},
			"pathsExist": true,
			"path1": [
				"Anaheim,+CA4073",
				"Stockton,+CA4113"
			],
			"lat1": 6.000000,
			"path2": [
				"Washington,+DC4140",
				"New+York,+NY4022"
			],
			"lat2": 6.000000,
			"maxlat": 6.000000,
			"runtime": 3990389743,
			"nomLat1": 6.000000,
			"nomLat2": 6.000000,
			"maxNomLat": 6.000000,
			"mincut": 22
		},
		{
			"s1": "Anaheim,+CA4099",
			"s2": "Rancho+Cordova,+CA5514",
			"t1": "New+York,+NY4024",
			"t2": "Dallas,+TX6658",
			"suurballeNbPaths": 2,
			"suurballeTime": 316418086,
			"suurballePaths": {
				"path0": [
					"Anaheim,+CA4099",
					"Dallas,+TX4080",
					"Dallas,+TX6658"
				],
				"lat0": 12.000000,
				"nbSeg0": 2,
				"path1": [
					"Rancho+Cordova,+CA5514",
					"Stockton,+CA4096",
					"Pennsauken,+NJ4109",
					"New+York,+NY4107",
					"New+York,+NY4134",
					"New+York,+NY4024"
				],
				"lat1": 27.000000,
				"nbSeg1": 1
			},
			"pathsExist": false,
			"runtime": 4499986129,
			"nomLat1": 29.000000,
			"nomLat2": 21.000000,
			"maxNomLat": 29.000000,
			"mincut": 5
		},
		{
			"s1": "Orlando,+FL4108",
			"s2": "Relay,+MD4136",
			"t1": "Chicago,+IL4122",
			"t2": "London4044",
			"suurballeNbPaths": 2,
			"suurballeTime": 277320241,
			"suurballePaths": {
				"path0": [
					"Orlando,+FL4108",
					"Atlanta,+GA4032",
					"Chicago,+IL4037",
					"Chicago,+IL4122"
				],
				"lat0": 12.000000,
				"nbSeg0": 0,
				"path1": [
					"Relay,+MD4136",
					"Relay,+MD4110",
					"New+York,+NY4048",
					"New+York,+NY4017",
					"London4045",
					"London4044"
				],
				"lat1": 35.000000,
				"nbSeg1": 3
			},
			"pathsExist": true,
			"path1": [
				"Orlando,+FL4108",
				"Chicago,+IL4122"
			],
			"lat1": 12.000000,
			"path2": [
				"Relay,+MD4136",
				"London4044"
			],
			"lat2": 35.000000,
			"maxlat": 35.000000,
			"runtime": 4255797441,
			"nomLat1": 12.000000,
			"nomLat2": 35.000000,
			"maxNomLat": 35.000000,
			"mincut": 12
		},
		{
			"s1": "Dallas,+TX6558",
			"s2": "Seattle,+WA6432",
			"t1": "Chicago,+IL6586",
			"t2": "Kansas+City,+MO6707",
			"suurballeNbPaths": 2,
			"suurballeTime": 360634162,
			"suurballePaths": {
				"path0": [
					"Dallas,+TX6558",
					"Dallas,+TX4080",
					"Kansas+City,+MO4082",
					"Kansas+City,+MO6707"
				],
				"lat0": 7.000000,
				"nbSeg0": 1,
				"path1": [
					"Seattle,+WA6432",
					"Seattle,+WA4059",
					"Chicago,+IL4104",
					"Chicago,+IL6586"
				],
				"lat1": 17.000000,
				"nbSeg1": 0
			},
			"pathsExist": true,
			"path1": [
				"Dallas,+TX6558",
				"Chicago,+IL6586"
			],
			"lat1": 10.000000,
			"path2": [
				"Seattle,+WA6432",
				"Kansas+City,+MO6707"
			],
			"lat2": 16.000000,
			"maxlat": 16.000000,
			"runtime": 4265374592,
			"nomLat1": 10.000000,
			"nomLat2": 16.000000,
			"maxNomLat": 16.000000,
			"mincut": 5
		},
		{
			"s1": "Dallas,+TX6658",
			"s2": "Cheyenne,+WY6723",
			"t1": "Kansas+City,+MO4082",
			"t2": "Atlanta,+GA2344",
			"suurballeNbPaths": 2,
			"suurballeTime": 266244163,
			"suurballePaths": {
				"path0": [
					"Dallas,+TX6658",
					"Dallas,+TX4015",
					"Atlanta,+GA4074",
					"Atlanta,+GA2344"
				],
				"lat0": 9.000000,
				"nbSeg0": 0,
				"path1": [
					"Cheyenne,+WY6723",
					"Cheyenne,+WY4076",
					"Dallas,+TX4080",
					"Kansas+City,+MO4082"
				],
				"lat1": 13.000000,
				"nbSeg1": 2
			},
			"pathsExist": true,
			"path1": [
				"Dallas,+TX6658",
				"Kansas+City,+MO4082"
			],
			"lat1": 6.000000,
			"path2": [
				"Cheyenne,+WY6723",
				"Chicago,+IL4037",
				"Atlanta,+GA2344"
			],
			"lat2": 17.000000,
			"maxlat": 17.000000,
			"runtime": 4326455614,
			"nomLat1": 6.000000,
			"nomLat2": 17.000000,
			"maxNomLat": 17.000000,
			"mincut": 4
		},
		{
			"s1": "Tacoma,+WA3251",
			"s2": "Sydney,+Australia4068",
			"t1": "Tacoma,+WA6701",
			"t2": "Atlanta,+GA3957",
			"suurballeNbPaths": 2,
			"suurballeTime": 268252628,
			"suurballePaths": {
				"path0": [
					"Tacoma,+WA3251",
					"Tacoma,+WA6701"
				],
				"lat0": 1.000000,
				"nbSeg0": 0,
				"path1": [
					"Sydney,+Australia4068",
					"Stockton,+CA4064",
					"San+Jose,+CA4119",
					"Dallas,+TX4080",
					"Dallas,+TX6641",
					"Atlanta,+GA3957"
				],
				"lat1": 85.000000,
				"nbSeg1": 2
			},
			"pathsExist": true,
			"path1": [
				"Tacoma,+WA3251",
				"Tacoma,+WA6701"
			],
			"lat1": 1.000000,
			"path2": [
				"Sydney,+Australia4068",
				"Dallas,+TX6641",
				"Atlanta,+GA3957"
			],
			"lat2": 87.000000,
			"maxlat": 87.000000,
			"runtime": 4443834614,
			"nomLat1": 1.000000,
			"nomLat2": 92.000000,
			"maxNomLat": 92.000000,
			"mincut": 6
		},
		{
			"s1": "Orlando,+FL4049",
			"s2": "Manasquan,+NJ4086",
			"t1": "New+York,+NY6524",
			"t2": "Dallas,+TX6663",
			"suurballeNbPaths": 2,
			"suurballeTime": 521928516,
			"suurballePaths": {
				"path0": [
					"Manasquan,+NJ4086",
					"New+York,+NY4088",
					"New+York,+NY6524"
				],
				"lat0": 3.000000,
				"nbSeg0": 0,
				"path1": [
					"Orlando,+FL4049",
					"Dallas,+TX4015",
					"Dallas,+TX4080",
					"Dallas,+TX6663"
				],
				"lat1": 11.000000,
				"nbSeg1": 1
			},
			"pathsExist": true,
			"path1": [
				"Orlando,+FL4049",
				"New+York,+NY6524"
			],
			"lat1": 14.000000,
			"path2": [
				"Manasquan,+NJ4086",
				"Relay,+MD4093",
				"Dallas,+TX6663"
			],
			"lat2": 18.000000,
			"maxlat": 18.000000,
			"runtime": 4570370164,
			"nomLat1": 14.000000,
			"nomLat2": 18.000000,
			"maxNomLat": 18.000000,
			"mincut": 4
		},
		{
			"s1": "Chicago,+IL4036",
			"s2": "Tacoma,+WA4114",
			"t1": "Relay,+MD6551",
			"t2": "Dallas,+TX4133",
			"suurballeNbPaths": 2,
			"suurballeTime": 344396485,
			"suurballePaths": {
				"path0": [
					"Chicago,+IL4036",
					"Chicago,+IL4104",
					"New+York,+NY4048",
					"Relay,+MD4110",
					"Relay,+MD6551"
				],
				"lat0": 12.000000,
				"nbSeg0": 1,
				"path1": [
					"Tacoma,+WA4114",
					"Cheyenne,+WY4076",
					"Dallas,+TX4080",
					"Dallas,+TX2635",
					"Dallas,+TX4133"
				],
				"lat1": 18.000000,
				"nbSeg1": 3
			},
			"pathsExist": true,
			"path1": [
				"Chicago,+IL4036",
				"Relay,+MD6551"
			],
			"lat1": 14.000000,
			"path2": [
				"Tacoma,+WA4114",
				"Dallas,+TX4133"
			],
			"lat2": 23.000000,
			"maxlat": 23.000000,
			"runtime": 4813902631,
			"nomLat1": 14.000000,
			"nomLat2": 23.000000,
			"maxNomLat": 23.000000,
			"mincut": 6
		},
		{
			"s1": "Chicago,+IL6593",
			"s2": "Seattle,+WA6432",
			"t1": "Chicago,+IL6572",
			"t2": "Roachdale,+IN6729",
			"suurballeNbPaths": 2,
			"suurballeTime": 302255998,
			"suurballePaths": {
				"path0": [
					"Chicago,+IL6593",
					"Chicago,+IL1484",
					"Chicago,+IL6572"
				],
				"lat0": 2.000000,
				"nbSeg0": 1,
				"path1": [
					"Seattle,+WA6432",
					"Seattle,+WA4059",
					"Chicago,+IL4104",
					"Roachdale,+IN4111",
					"Roachdale,+IN6729"
				],
				"lat1": 20.000000,
				"nbSeg1": 0
			},
			"pathsExist": true,
			"path1": [
				"Chicago,+IL6593",
				"Chicago,+IL6572"
			],
			"lat1": 2.000000,
			"path2": [
				"Seattle,+WA6432",
				"Roachdale,+IN6729"
			],
			"lat2": 20.000000,
			"maxlat": 20.000000,
			"runtime": 4849597237,
			"nomLat1": 2.000000,
			"nomLat2": 20.000000,
			"maxNomLat": 20.000000,
			"mincut": 4
		},
		{
			"s1": "Anaheim,+CA6627",
			"s2": "Atlanta,+GA4102",
			"t1": "Orlando,+FL6459",
			"t2": "Chicago,+IL6654",
			"suurballeNbPaths": 2,
			"suurballeTime": 303992693,
			"suurballePaths": {
				"path0": [
					"Atlanta,+GA4102",
					"Orlando,+FL4050",
					"Orlando,+FL6459"
				],
				"lat0": 6.000000,
				"nbSeg0": 1,
				"path1": [
					"Anaheim,+CA6627",
					"Anaheim,+CA4099",
					"Dallas,+TX4080",
					"Chicago,+IL1484",
					"Chicago,+IL6654"
				],
				"lat1": 21.000000,
				"nbSeg1": 1
			},
			"pathsExist": true,
			"path1": [
				"Anaheim,+CA6627",
				"Orlando,+FL6459"
			],
			"lat1": 22.000000,
			"path2": [
				"Atlanta,+GA4102",
				"Chicago,+IL1484",
				"Chicago,+IL6654"
			],
			"lat2": 8.000000,
			"maxlat": 22.000000,
			"runtime": 4849163896,
			"nomLat1": 22.000000,
			"nomLat2": 8.000000,
			"maxNomLat": 22.000000,
			"mincut": 4
		},
		{
			"s1": "Washington,+DC6456",
			"s2": "Dallas,+TX6483",
			"t1": "Stockton,+CA6452",
			"t2": "Chicago,+IL6648",
			"suurballeNbPaths": 2,
			"suurballeTime": 308246394,
			"suurballePaths": {
				"path0": [
					"Dallas,+TX6483",
					"Dallas,+TX4080",
					"San+Jose,+CA4119",
					"Stockton,+CA4064",
					"Stockton,+CA6452"
				],
				"lat0": 17.000000,
				"nbSeg0": 1,
				"path1": [
					"Washington,+DC6456",
					"Relay,+MD4110",
					"New+York,+NY4048",
					"New+York,+NY4088",
					"Chicago,+IL1484",
					"Chicago,+IL6648"
				],
				"lat1": 14.000000,
				"nbSeg1": 2
			},
			"pathsExist": true,
			"path1": [
				"Washington,+DC6456",
				"Stockton,+CA6452"
			],
			"lat1": 26.000000,
			"path2": [
				"Dallas,+TX6483",
				"Chicago,+IL6648"
			],
			"lat2": 10.000000,
			"maxlat": 26.000000,
			"runtime": 4843119426,
			"nomLat1": 26.000000,
			"nomLat2": 10.000000,
			"maxNomLat": 26.000000,
			"mincut": 6
		},
		{
			"s1": "Pennsauken,+NJ4109",
			"s2": "Reston,+VA5497",
			"t1": "Pennsauken,+NJ6448",
			"t2": "Dallas,+TX6573",
			"suurballeNbPaths": 2,
			"suurballeTime": 314495138,
			"suurballePaths": {
				"path0": [
					"Pennsauken,+NJ4109",
					"Pennsauken,+NJ6448"
				],
				"lat0": 1.000000,
				"nbSeg0": 0,
				"path1": [
					"Reston,+VA5497",
					"Relay,+MD4093",
					"Relay,+MD4110",
					"Relay,+MD5801",
					"Dallas,+TX6573"
				],
				"lat1": 15.000000,
				"nbSeg1": 1
			},
			"pathsExist": true,
			"path1": [
				"Pennsauken,+NJ4109",
				"Pennsauken,+NJ6448"
			],
			"lat1": 1.000000,
			"path2": [
				"Reston,+VA5497",
				"Dallas,+TX6573"
			],
			"lat2": 16.000000,
			"maxlat": 16.000000,
			"runtime": 4669930188,
			"nomLat1": 1.000000,
			"nomLat2": 16.000000,
			"maxNomLat": 16.000000,
			"mincut": 10
		},
		{
			"s1": "Cheyenne,+WY6455",
			"s2": "Relay,+MD6696",
			"t1": "New+York,+NY6532",
			"t2": "Dallas,+TX6419",
			"suurballeNbPaths": 2,
			"suurballeTime": 349859976,
			"suurballePaths": {
				"path0": [
					"Cheyenne,+WY6455",
					"Cheyenne,+WY4076",
					"Dallas,+TX4080",
					"Dallas,+TX6419"
				],
				"lat0": 9.000000,
				"nbSeg0": 1,
				"path1": [
					"Relay,+MD6696",
					"Relay,+MD4110",
					"New+York,+NY4048",
					"New+York,+NY6532"
				],
				"lat1": 5.000000,
				"nbSeg1": 0
			},
			"pathsExist": true,
			"path1": [
				"Cheyenne,+WY6455",
				"New+York,+NY6532"
			],
			"lat1": 18.000000,
			"path2": [
				"Relay,+MD6696",
				"Dallas,+TX4015",
				"Dallas,+TX6419"
			],
			"lat2": 15.000000,
			"maxlat": 18.000000,
			"runtime": 4825008292,
			"nomLat1": 18.000000,
			"nomLat2": 15.000000,
			"maxNomLat": 18.000000,
			"mincut": 5
		},
		{
			"s1": "Washington,+DC4140",
			"s2": "Chicago,+IL6492",
			"t1": "Atlanta,+GA2338",
			"t2": "Chicago,+IL6468",
			"suurballeNbPaths": 2,
			"suurballeTime": 295832649,
			"suurballePaths": {
				"path0": [
					"Chicago,+IL6492",
					"Chicago,+IL4037",
					"Chicago,+IL6468"
				],
				"lat0": 2.000000,
				"nbSeg0": 1,
				"path1": [
					"Washington,+DC4140",
					"Relay,+MD4093",
					"Atlanta,+GA4032",
					"Atlanta,+GA2338"
				],
				"lat1": 9.000000,
				"nbSeg1": 1
			},
			"pathsExist": true,
			"path1": [
				"Washington,+DC4140",
				"Atlanta,+GA2338"
			],
			"lat1": 9.000000,
			"path2": [
				"Chicago,+IL6492",
				"Chicago,+IL6468"
			],
			"lat2": 2.000000,
			"maxlat": 9.000000,
			"runtime": 4824482494,
			"nomLat1": 9.000000,
			"nomLat2": 2.000000,
			"maxNomLat": 9.000000,
			"mincut": 8
		},
		{
			"s1": "Chicago,+IL6531",
			"s2": "Stockton,+CA4096",
			"t1": "Manasquan,+NJ4047",
			"t2": "Reston,+VA5496",
			"suurballeNbPaths": 2,
			"suurballeTime": 790518723,
			"suurballePaths": {
				"path0": [
					"Chicago,+IL6531",
					"Chicago,+IL4104",
					"New+York,+NY4048",
					"Manasquan,+NJ4047"
				],
				"lat0": 10.000000,
				"nbSeg0": 0,
				"path1": [
					"Stockton,+CA4096",
					"San+Jose,+CA4112",
					"Relay,+MD4093",
					"Reston,+VA5497",
					"Reston,+VA5496"
				],
				"lat1": 26.000000,
				"nbSeg1": 1
			},
			"pathsExist": true,
			"path1": [
				"Chicago,+IL6531",
				"Manasquan,+NJ4047"
			],
			"lat1": 10.000000,
			"path2": [
				"Stockton,+CA4096",
				"Relay,+MD4093",
				"Reston,+VA5496"
			],
			"lat2": 26.000000,
			"maxlat": 26.000000,
			"runtime": 4314098903,
			"nomLat1": 10.000000,
			"nomLat2": 27.000000,
			"maxNomLat": 27.000000,
			"mincut": 7
		},
		{
			"s1": "Anaheim,+CA6564",
			"s2": "Dallas,+TX6558",
			"t1": "Atlanta,+GA6628",
			"t2": "New+York,+NY4107",
			"suurballeNbPaths": 2,
			"suurballeTime": 71449690,
			"suurballePaths": {
				"path0": [
					"Dallas,+TX6558",
					"Dallas,+TX4015",
					"Atlanta,+GA4074",
					"Atlanta,+GA6628"
				],
				"lat0": 9.000000,
				"nbSeg0": 0,
				"path1": [
					"Anaheim,+CA6564",
					"Anaheim,+CA4073",
					"Dallas,+TX4015",
					"Pennsauken,+NJ4109",
					"New+York,+NY4107"
				],
				"lat1": 26.000000,
				"nbSeg1": 2
			},
			"pathsExist": true,
			"path1": [
				"Anaheim,+CA6564",
				"Atlanta,+GA6628"
			],
			"lat1": 20.000000,
			"path2": [
				"Dallas,+TX6558",
				"Pennsauken,+NJ4109",
				"New+York,+NY4107"
			],
			"lat2": 15.000000,
			"maxlat": 20.000000,
			"runtime": 5117876408,
			"nomLat1": 20.000000,
			"nomLat2": 17.000000,
			"maxNomLat": 20.000000,
			"mincut": 9
		},
		{
			"s1": "San+Jose,+CA4112",
			"s2": "Relay,+MD4118",
			"t1": "San+Jose,+CA4095",
			"t2": "Relay,+MD4054",
			"suurballeNbPaths": 2,
			"suurballeTime": 295605582,
			"suurballePaths": {
				"path0": [
					"San+Jose,+CA4112",
					"San+Jose,+CA4095"
				],
				"lat0": 1.000000,
				"nbSeg0": 0,
				"path1": [
					"Relay,+MD4118",
					"Relay,+MD4054"
				],
				"lat1": 1.000000,
				"nbSeg1": 0
			},
			"pathsExist": true,
			"path1": [
				"San+Jose,+CA4112",
				"San+Jose,+CA4095"
			],
			"lat1": 1.000000,
			"path2": [
				"Relay,+MD4118",
				"Relay,+MD4054"
			],
			"lat2": 1.000000,
			"maxlat": 1.000000,
			"runtime": 4842676471,
			"nomLat1": 1.000000,
			"nomLat2": 1.000000,
			"maxNomLat": 1.000000,
			"mincut": 12
		},
		{
			"s1": "New+York,+NY4134",
			"s2": "Roachdale,+IN4056",
			"t1": "Atlanta,+GA6565",
			"t2": "Anaheim,+CA6721",
			"suurballeNbPaths": 2,
			"suurballeTime": 543465640,
			"suurballePaths": {
				"path0": [
					"New+York,+NY4134",
					"New+York,+NY4048",
					"Atlanta,+GA4032",
					"Atlanta,+GA6565"
				],
				"lat0": 10.000000,
				"nbSeg0": 0,
				"path1": [
					"Roachdale,+IN4056",
					"Chicago,+IL4037",
					"Dallas,+TX4080",
					"Anaheim,+CA6502",
					"Anaheim,+CA6721"
				],
				"lat1": 23.000000,
				"nbSeg1": 4
			},
			"pathsExist": true,
			"path1": [
				"New+York,+NY4134",
				"Atlanta,+GA6565"
			],
			"lat1": 10.000000,
			"path2": [
				"Roachdale,+IN4056",
				"Anaheim,+CA6721"
			],
			"lat2": 24.000000,
			"maxlat": 24.000000,
			"runtime": 4571108733,
			"nomLat1": 10.000000,
			"nomLat2": 24.000000,
			"maxNomLat": 24.000000,
			"mincut": 16
		},
		{
			"s1": "Chicago,+IL6492",
			"s2": "San+Jose,+CA4132",
			"t1": "Orlando,+FL4108",
			"t2": "Dallas,+TX6706",
			"suurballeNbPaths": 2,
			"suurballeTime": 69276733,
			"suurballePaths": {
				"path0": [
					"Chicago,+IL6492",
					"Chicago,+IL4037",
					"Atlanta,+GA4032",
					"Orlando,+FL4108"
				],
				"lat0": 12.000000,
				"nbSeg0": 0,
				"path1": [
					"San+Jose,+CA4132",
					"San+Jose,+CA4119",
					"Dallas,+TX4080",
					"Dallas,+TX6706"
				],
				"lat1": 15.000000,
				"nbSeg1": 1
			},
			"pathsExist": true,
			"path1": [
				"Chicago,+IL6492",
				"Orlando,+FL4108"
			],
			"lat1": 12.000000,
			"path2": [
				"San+Jose,+CA4132",
				"Dallas,+TX4115",
				"Dallas,+TX6706"
			],
			"lat2": 17.000000,
			"maxlat": 17.000000,
			"runtime": 5114637166,
			"nomLat1": 12.000000,
			"nomLat2": 17.000000,
			"maxNomLat": 17.000000,
			"mincut": 11
		},
		{
			"s1": "San+Jose,+CA4112",
			"s2": "Stockton,+CA4064",
			"t1": "San+Jose,+CA6405",
			"t2": "Chicago,+IL1391",
			"suurballeNbPaths": 2,
			"suurballeTime": 63416384,
			"suurballePaths": {
				"path0": [
					"San+Jose,+CA4112",
					"San+Jose,+CA4095",
					"San+Jose,+CA6405"
				],
				"lat0": 2.000000,
				"nbSeg0": 1,
				"path1": [
					"Stockton,+CA4064",
					"Stockton,+CA6479",
					"Stockton,+CA4065",
					"Chicago,+IL4036",
					"Chicago,+IL1391"
				],
				"lat1": 19.000000,
				"nbSeg1": 1
			},
			"pathsExist": true,
			"path1": [
				"San+Jose,+CA4112",
				"San+Jose,+CA6405"
			],
			"lat1": 2.000000,
			"path2": [
				"Stockton,+CA4064",
				"Stockton,+CA6758",
				"Chicago,+IL1391"
			],
			"lat2": 19.000000,
			"maxlat": 19.000000,
			"runtime": 4820076715,
			"nomLat1": 2.000000,
			"nomLat2": 19.000000,
			"maxNomLat": 19.000000,
			"mincut": 23
		},
		{
			"s1": "New+York,+NY4116",
			"s2": "Pennsauken,+NJ6525",
			"t1": "Sydney,+Australia6437",
			"t2": "Tacoma,+WA6555",
			"suurballeNbPaths": 2,
			"suurballeTime": 349626805,
			"suurballePaths": {
				"path0": [
					"New+York,+NY4116",
					"Chicago,+IL4104",
					"Seattle,+WA4059",
					"Tacoma,+WA3251",
					"Tacoma,+WA6555"
				],
				"lat0": 25.000000,
				"nbSeg0": 2,
				"path1": [
					"Pennsauken,+NJ6525",
					"Pennsauken,+NJ4109",
					"Stockton,+CA4096",
					"Sydney,+Australia4068",
					"Sydney,+Australia6437"
				],
				"lat1": 85.000000,
				"nbSeg1": 1
			},
			"pathsExist": true,
			"path1": [
				"New+York,+NY4116",
				"Sydney,+Australia6437"
			],
			"lat1": 86.000000,
			"path2": [
				"Pennsauken,+NJ6525",
				"Roachdale,+IN6552",
				"Tacoma,+WA6701",
				"Tacoma,+WA6555"
			],
			"lat2": 28.000000,
			"maxlat": 86.000000,
			"runtime": 4593091155,
			"nomLat1": 86.000000,
			"nomLat2": 31.000000,
			"maxNomLat": 86.000000,
			"mincut": 5
		},
		{
			"s1": "Washington,+DC9643",
			"s2": "Pennsauken,+NJ6486",
			"t1": "Stockton,+CA4064",
			"t2": "Chicago,+IL6441",
			"suurballeNbPaths": 2,
			"suurballeTime": 333210158,
			"suurballePaths": {
				"path0": [
					"Pennsauken,+NJ6486",
					"Pennsauken,+NJ4052",
					"Stockton,+CA4064"
				],
				"lat0": 22.000000,
				"nbSeg0": 0,
				"path1": [
					"Washington,+DC9643",
					"Relay,+MD4110",
					"New+York,+NY4048",
					"Chicago,+IL4104",
					"Chicago,+IL6441"
				],
				"lat1": 13.000000,
				"nbSeg1": 1
			},
			"pathsExist": true,
			"path1": [
				"Washington,+DC9643",
				"Stockton,+CA4064"
			],
			"lat1": 26.000000,
			"path2": [
				"Pennsauken,+NJ6486",
				"New+York,+NY4048",
				"Chicago,+IL6441"
			],
			"lat2": 11.000000,
			"maxlat": 26.000000,
			"runtime": 4855527370,
			"nomLat1": 26.000000,
			"nomLat2": 13.000000,
			"maxNomLat": 26.000000,
			"mincut": 9
		},
		{
			"s1": "Anaheim,+CA4101",
			"s2": "Dallas,+TX6689",
			"t1": "Pennsauken,+NJ4126",
			"t2": "New+York,+NY4088",
			"suurballeNbPaths": 2,
			"suurballeTime": 299652750,
			"suurballePaths": {
				"path0": [
					"Anaheim,+CA4101",
					"Dallas,+TX4080",
					"Chicago,+IL1484",
					"New+York,+NY4088"
				],
				"lat0": 26.000000,
				"nbSeg0": 2,
				"path1": [
					"Dallas,+TX6689",
					"Dallas,+TX4115",
					"Pennsauken,+NJ4135",
					"Pennsauken,+NJ4126"
				],
				"lat1": 14.000000,
				"nbSeg1": 0
			},
			"pathsExist": true,
			"path1": [
				"Anaheim,+CA4101",
				"Pennsauken,+NJ4126"
			],
			"lat1": 25.000000,
			"path2": [
				"Dallas,+TX6689",
				"Chicago,+IL1484",
				"New+York,+NY4088"
			],
			"lat2": 16.000000,
			"maxlat": 25.000000,
			"runtime": 4737247394,
			"nomLat1": 25.000000,
			"nomLat2": 16.000000,
			"maxNomLat": 25.000000,
			"mincut": 20
		},
		{
			"s1": "Pennsauken,+NJ6516",
			"s2": "Anaheim,+CA6520",
			"t1": "Kansas+City,+MO4082",
			"t2": "Dallas,+TX3549",
			"suurballeNbPaths": 2,
			"suurballeTime": 306624157,
			"suurballePaths": {
				"path0": [
					"Pennsauken,+NJ6516",
					"Pennsauken,+NJ4052",
					"Kansas+City,+MO4082"
				],
				"lat0": 11.000000,
				"nbSeg0": 0,
				"path1": [
					"Anaheim,+CA6520",
					"Anaheim,+CA4101",
					"Dallas,+TX2635",
					"Dallas,+TX3549"
				],
				"lat1": 13.000000,
				"nbSeg1": 1
			},
			"pathsExist": true,
			"path1": [
				"Pennsauken,+NJ6516",
				"Kansas+City,+MO4082"
			],
			"lat1": 11.000000,
			"path2": [
				"Anaheim,+CA6520",
				"Dallas,+TX3549"
			],
			"lat2": 13.000000,
			"maxlat": 13.000000,
			"runtime": 4843471919,
			"nomLat1": 11.000000,
			"nomLat2": 13.000000,
			"maxNomLat": 13.000000,
			"mincut": 9
		},
		{
			"s1": "Anaheim,+CA6512",
			"s2": "Rancho+Cordova,+CA5514",
			"t1": "Chicago,+IL6644",
			"t2": "Relay,+MD6461",
			"suurballeNbPaths": 2,
			"suurballeTime": 419753978,
			"suurballePaths": {
				"path0": [
					"Anaheim,+CA6512",
					"Anaheim,+CA4101",
					"Dallas,+TX4080",
					"Chicago,+IL4037",
					"Chicago,+IL6644"
				],
				"lat0": 21.000000,
				"nbSeg0": 3,
				"path1": [
					"Rancho+Cordova,+CA5514",
					"Stockton,+CA4096",
					"San+Jose,+CA4112",
					"Relay,+MD4093",
					"Relay,+MD6461"
				],
				"lat1": 26.000000,
				"nbSeg1": 0
			},
			"pathsExist": false,
			"runtime": 4809723222,
			"nomLat1": 22.000000,
			"nomLat2": 26.000000,
			"maxNomLat": 26.000000,
			"mincut": 5
		},
		{
			"s1": "Stockton,+CA4064",
			"s2": "San+Jose,+CA4132",
			"t1": "New+York,+NY4137",
			"t2": "Dallas,+TX2635",
			"suurballeNbPaths": 2,
			"suurballeTime": 629166741,
			"suurballePaths": {
				"path0": [
					"Stockton,+CA4064",
					"Pennsauken,+NJ4052",
					"New+York,+NY4048",
					"New+York,+NY4137"
				],
				"lat0": 24.000000,
				"nbSeg0": 0,
				"path1": [
					"San+Jose,+CA4132",
					"San+Jose,+CA4119",
					"Dallas,+TX4080",
					"Dallas,+TX2635"
				],
				"lat1": 15.000000,
				"nbSeg1": 2
			},
			"pathsExist": true,
			"path1": [
				"Stockton,+CA4064",
				"New+York,+NY4137"
			],
			"lat1": 24.000000,
			"path2": [
				"San+Jose,+CA4132",
				"Dallas,+TX2635"
			],
			"lat2": 16.000000,
			"maxlat": 24.000000,
			"runtime": 4446061855,
			"nomLat1": 24.000000,
			"nomLat2": 16.000000,
			"maxNomLat": 24.000000,
			"mincut": 22
		},
		{
			"s1": "Atlanta,+GA2347",
			"s2": "Anaheim,+CA6721",
			"t1": "Dallas,+TX4133",
			"t2": "Cheyenne,+WY4034",
			"suurballeNbPaths": 2,
			"suurballeTime": 338592435,
			"suurballePaths": {
				"path0": [
					"Anaheim,+CA6721",
					"Anaheim,+CA4100",
					"Dallas,+TX4133"
				],
				"lat0": 12.000000,
				"nbSeg0": 0,
				"path1": [
					"Atlanta,+GA2347",
					"Atlanta,+GA4032",
					"Chicago,+IL4037",
					"Cheyenne,+WY4034"
				],
				"lat1": 16.000000,
				"nbSeg1": 0
			},
			"pathsExist": true,
			"path1": [
				"Atlanta,+GA2347",
				"Dallas,+TX4133"
			],
			"lat1": 9.000000,
			"path2": [
				"Anaheim,+CA6721",
				"Cheyenne,+WY4034"
			],
			"lat2": 21.000000,
			"maxlat": 21.000000,
			"runtime": 4846272167,
			"nomLat1": 9.000000,
			"nomLat2": 21.000000,
			"maxNomLat": 21.000000,
			"mincut": 11
		},
		{
			"s1": "Relay,+MD6449",
			"s2": "New+York,+NY6397",
			"t1": "Frankfurt4040",
			"t2": "Anaheim,+CA4073",
			"suurballeNbPaths": 2,
			"suurballeTime": 114651471,
			"suurballePaths": {
				"path0": [
					"Relay,+MD6449",
					"Relay,+MD4110",
					"Atlanta,+GA4074",
					"Dallas,+TX4015",
					"Anaheim,+CA4073"
				],
				"lat0": 25.000000,
				"nbSeg0": 1,
				"path1": [
					"New+York,+NY6397",
					"New+York,+NY4048",
					"New+York,+NY4017",
					"London4045",
					"London4044",
					"Paris4090",
					"Paris4051",
					"Frankfurt4079",
					"Frankfurt4040"
				],
				"lat1": 41.000000,
				"nbSeg1": 2
			},
			"pathsExist": true,
			"path1": [
				"Relay,+MD6449",
				"Frankfurt4040"
			],
			"lat1": 44.000000,
			"path2": [
				"New+York,+NY6397",
				"Dallas,+TX2635",
				"Anaheim,+CA4099",
				"Anaheim,+CA4073"
			],
			"lat2": 28.000000,
			"maxlat": 44.000000,
			"runtime": 5124984247,
			"nomLat1": 44.000000,
			"nomLat2": 27.000000,
			"maxNomLat": 44.000000,
			"mincut": 8
		},
		{
			"s1": "Seattle,+WA4060",
			"s2": "Pearl+Harbor,+HI6550",
			"t1": "Dallas,+TX6683",
			"t2": "Relay,+MD4136",
			"suurballeNbPaths": 2,
			"suurballeTime": 117415800,
			"suurballePaths": {
				"path0": [
					"Pearl+Harbor,+HI6550",
					"Pearl+Harbor,+HI4053",
					"Anaheim,+CA4101",
					"Dallas,+TX4080",
					"Dallas,+TX6683"
				],
				"lat0": 35.000000,
				"nbSeg0": 1,
				"path1": [
					"Seattle,+WA4060",
					"Seattle,+WA4059",
					"Chicago,+IL4104",
					"New+York,+NY4048",
					"Relay,+MD4110",
					"Relay,+MD4136"
				],
				"lat1": 27.000000,
				"nbSeg1": 1
			},
			"pathsExist": true,
			"path1": [
				"Seattle,+WA4060",
				"Dallas,+TX6683"
			],
			"lat1": 25.000000,
			"path2": [
				"Pearl+Harbor,+HI6550",
				"Relay,+MD4136"
			],
			"lat2": 47.000000,
			"maxlat": 47.000000,
			"runtime": 4858589242,
			"nomLat1": 25.000000,
			"nomLat2": 47.000000,
			"maxNomLat": 47.000000,
			"mincut": 6
		},
		{
			"s1": "San+Jose,+CA4132",
			"s2": "Stockton,+CA4096",
			"t1": "Dallas,+TX4115",
			"t2": "Chicago,+IL6639",
			"suurballeNbPaths": 2,
			"suurballeTime": 123402412,
			"suurballePaths": {
				"path0": [
					"San+Jose,+CA4132",
					"San+Jose,+CA4119",
					"Dallas,+TX4080",
					"Dallas,+TX4115"
				],
				"lat0": 15.000000,
				"nbSeg0": 2,
				"path1": [
					"Stockton,+CA4096",
					"Stockton,+CA4065",
					"Chicago,+IL4036",
					"Chicago,+IL6639"
				],
				"lat1": 18.000000,
				"nbSeg1": 0
			},
			"pathsExist": true,
			"path1": [
				"San+Jose,+CA4132",
				"Dallas,+TX4115"
			],
			"lat1": 16.000000,
			"path2": [
				"Stockton,+CA4096",
				"Chicago,+IL6639"
			],
			"lat2": 18.000000,
			"maxlat": 18.000000,
			"runtime": 4995359577,
			"nomLat1": 16.000000,
			"nomLat2": 18.000000,
			"maxNomLat": 18.000000,
			"mincut": 22
		},
		{
			"s1": "Atlanta,+GA2347",
			"s2": "Dallas,+TX6598",
			"t1": "Anaheim,+CA4101",
			"t2": "Stockton,+CA6569",
			"suurballeNbPaths": 2,
			"suurballeTime": 113099837,
			"suurballePaths": {
				"path0": [
					"Atlanta,+GA2347",
					"Atlanta,+GA4032",
					"Dallas,+TX2635",
					"Anaheim,+CA4101"
				],
				"lat0": 19.000000,
				"nbSeg0": 0,
				"path1": [
					"Dallas,+TX6598",
					"Dallas,+TX4080",
					"San+Jose,+CA4119",
					"Stockton,+CA4064",
					"Stockton,+CA6569"
				],
				"lat1": 17.000000,
				"nbSeg1": 1
			},
			"pathsExist": true,
			"path1": [
				"Atlanta,+GA2347",
				"Anaheim,+CA4101"
			],
			"lat1": 19.000000,
			"path2": [
				"Dallas,+TX6598",
				"Dallas,+TX4115",
				"Stockton,+CA6569"
			],
			"lat2": 19.000000,
			"maxlat": 19.000000,
			"runtime": 4945813821,
			"nomLat1": 19.000000,
			"nomLat2": 19.000000,
			"maxNomLat": 19.000000,
			"mincut": 12
		},
		{
			"s1": "Atlanta,+GA6481",
			"s2": "Anaheim,+CA4031",
			"t1": "New+York,+NY4129",
			"t2": "Anaheim,+CA6702",
			"suurballeNbPaths": 2,
			"suurballeTime": 140093171,
			"suurballePaths": {
				"path0": [
					"Anaheim,+CA4031",
					"Anaheim,+CA6702"
				],
				"lat0": 1.000000,
				"nbSeg0": 0,
				"path1": [
					"Atlanta,+GA6481",
					"Atlanta,+GA4032",
					"New+York,+NY4048",
					"New+York,+NY4134",
					"New+York,+NY4129"
				],
				"lat1": 11.000000,
				"nbSeg1": 1
			},
			"pathsExist": true,
			"path1": [
				"Atlanta,+GA6481",
				"New+York,+NY4129"
			],
			"lat1": 11.000000,
			"path2": [
				"Anaheim,+CA4031",
				"Anaheim,+CA6702"
			],
			"lat2": 1.000000,
			"maxlat": 11.000000,
			"runtime": 4984323742,
			"nomLat1": 11.000000,
			"nomLat2": 1.000000,
			"maxNomLat": 11.000000,
			"mincut": 11
		},
		{
			"s1": "Pearl+Harbor,+HI4053",
			"s2": "London4044",
			"t1": "Atlanta,+GA6481",
			"t2": "Relay,+MD4127",
			"suurballeNbPaths": 2,
			"suurballeTime": 127554802,
			"suurballePaths": {
				"path0": [
					"Pearl+Harbor,+HI4053",
					"Anaheim,+CA4101",
					"Dallas,+TX2635",
					"Atlanta,+GA4032",
					"Atlanta,+GA6481"
				],
				"lat0": 41.000000,
				"nbSeg0": 0,
				"path1": [
					"London4044",
					"London4083",
					"Manasquan,+NJ4047",
					"Relay,+MD4054",
					"Relay,+MD4127"
				],
				"lat1": 35.000000,
				"nbSeg1": 0
			},
			"pathsExist": true,
			"path1": [
				"Pearl+Harbor,+HI4053",
				"Atlanta,+GA6481"
			],
			"lat1": 41.000000,
			"path2": [
				"London4044",
				"Relay,+MD4127"
			],
			"lat2": 35.000000,
			"maxlat": 41.000000,
			"runtime": 5152949860,
			"nomLat1": 41.000000,
			"nomLat2": 35.000000,
			"maxNomLat": 41.000000,
			"mincut": 10
		},
		{
			"s1": "Pennsauken,+NJ6516",
			"s2": "Roachdale,+IN6729",
			"t1": "Chicago,+IL1484",
			"t2": "Anaheim,+CA4100",
			"suurballeNbPaths": 2,
			"suurballeTime": 129702834,
			"suurballePaths": {
				"path0": [
					"Roachdale,+IN6729",
					"Roachdale,+IN4056",
					"Chicago,+IL4037",
					"Chicago,+IL1484"
				],
				"lat0": 5.000000,
				"nbSeg0": 1,
				"path1": [
					"Pennsauken,+NJ6516",
					"Pennsauken,+NJ4109",
					"Dallas,+TX4015",
					"Dallas,+TX6587",
					"Anaheim,+CA4100"
				],
				"lat1": 25.000000,
				"nbSeg1": 1
			},
			"pathsExist": true,
			"path1": [
				"Pennsauken,+NJ6516",
				"Chicago,+IL1484"
			],
			"lat1": 12.000000,
			"path2": [
				"Roachdale,+IN6729",
				"Anaheim,+CA4101",
				"Anaheim,+CA4100"
			],
			"lat2": 24.000000,
			"maxlat": 24.000000,
			"runtime": 5142989916,
			"nomLat1": 12.000000,
			"nomLat2": 24.000000,
			"maxNomLat": 24.000000,
			"mincut": 5
		},
		{
			"s1": "Kansas+City,+MO6750",
			"s2": "Orlando,+FL4050",
			"t1": "Orlando,+FL6429",
			"t2": "Relay,+MD6461",
			"suurballeNbPaths": 2,
			"suurballeTime": 130056785,
			"suurballePaths": {
				"path0": [
					"Orlando,+FL4050",
					"Orlando,+FL6429"
				],
				"lat0": 1.000000,
				"nbSeg0": 0,
				"path1": [
					"Kansas+City,+MO6750",
					"Kansas+City,+MO4082",
					"Kansas+City,+MO4106",
					"Pennsauken,+NJ4117",
					"Pennsauken,+NJ4135",
					"Relay,+MD4093",
					"Relay,+MD6461"
				],
				"lat1": 16.000000,
				"nbSeg1": 4
			},
			"pathsExist": true,
			"path1": [
				"Kansas+City,+MO6750",
				"Orlando,+FL6429"
			],
			"lat1": 16.000000,
			"path2": [
				"Orlando,+FL4050",
				"Relay,+MD4054",
				"Relay,+MD6461"
			],
			"lat2": 13.000000,
			"maxlat": 16.000000,
			"runtime": 5141838188,
			"nomLat1": 16.000000,
			"nomLat2": 12.000000,
			"maxNomLat": 16.000000,
			"mincut": 7
		},
		{
			"s1": "Manasquan,+NJ4086",
			"s2": "Tacoma,+WA6555",
			"t1": "New+York,+NY4024",
			"t2": "Atlanta,+GA2338",
			"suurballeNbPaths": 2,
			"suurballeTime": 119872920,
			"suurballePaths": {
				"path0": [
					"Manasquan,+NJ4086",
					"Manasquan,+NJ4047",
					"New+York,+NY4048",
					"New+York,+NY4024"
				],
				"lat0": 4.000000,
				"nbSeg0": 1,
				"path1": [
					"Tacoma,+WA6555",
					"Tacoma,+WA3251",
					"Cheyenne,+WY4076",
					"Chicago,+IL1484",
					"Atlanta,+GA4074",
					"Atlanta,+GA2338"
				],
				"lat1": 26.000000,
				"nbSeg1": 2
			},
			"pathsExist": true,
			"path1": [
				"Manasquan,+NJ4086",
				"New+York,+NY4024"
			],
			"lat1": 4.000000,
			"path2": [
				"Tacoma,+WA6555",
				"Tacoma,+WA4114",
				"Cheyenne,+WY4076",
				"Atlanta,+GA2338"
			],
			"lat2": 26.000000,
			"maxlat": 26.000000,
			"runtime": 5144677948,
			"nomLat1": 4.000000,
			"nomLat2": 34.000000,
			"maxNomLat": 34.000000,
			"mincut": 6
		},
		{
			"s1": "Dallas,+TX3549",
			"s2": "Washington,+DC4142",
			"t1": "Pearl+Harbor,+HI6400",
			"t2": "Tacoma,+WA3251",
			"suurballeNbPaths": 2,
			"suurballeTime": 139844866,
			"suurballePaths": {
				"path0": [
					"Dallas,+TX3549",
					"Dallas,+TX4080",
					"Cheyenne,+WY4076",
					"Tacoma,+WA3251"
				],
				"lat0": 17.000000,
				"nbSeg0": 2,
				"path1": [
					"Washington,+DC4142",
					"Relay,+MD4093",
					"San+Jose,+CA4112",
					"Stockton,+CA4096",
					"Pearl+Harbor,+HI4092",
					"Pearl+Harbor,+HI6400"
				],
				"lat1": 47.000000,
				"nbSeg1": 0
			},
			"pathsExist": true,
			"path1": [
				"Dallas,+TX3549",
				"Pearl+Harbor,+HI6400"
			],
			"lat1": 35.000000,
			"path2": [
				"Washington,+DC4142",
				"Tacoma,+WA3251"
			],
			"lat2": 31.000000,
			"maxlat": 35.000000,
			"runtime": 4790091905,
			"nomLat1": 35.000000,
			"nomLat2": 31.000000,
			"maxNomLat": 35.000000,
			"mincut": 10
		},
		{
			"s1": "Stockton,+CA4096",
			"s2": "Kansas+City,+MO6707",
			"t1": "Dallas,+TX4115",
			"t2": "Anaheim,+CA6438",
			"suurballeNbPaths": 2,
			"suurballeTime": 138485808,
			"suurballePaths": {
				"path0": [
					"Kansas+City,+MO6707",
					"Kansas+City,+MO4105",
					"Dallas,+TX4115"
				],
				"lat0": 6.000000,
				"nbSeg0": 0,
				"path1": [
					"Stockton,+CA4096",
					"San+Jose,+CA4112",
					"Anaheim,+CA4031",
					"Anaheim,+CA6438"
				],
				"lat1": 7.000000,
				"nbSeg1": 0
			},
			"pathsExist": true,
			"path1": [
				"Stockton,+CA4096",
				"Dallas,+TX4115"
			],
			"lat1": 17.000000,
			"path2": [
				"Kansas+City,+MO6707",
				"Dallas,+TX2635",
				"Anaheim,+CA4099",
				"Anaheim,+CA6438"
			],
			"lat2": 18.000000,
			"maxlat": 18.000000,
			"runtime": 5108208740,
			"nomLat1": 17.000000,
			"nomLat2": 18.000000,
			"maxNomLat": 18.000000,
			"mincut": 23
		},
		{
			"s1": "Anaheim,+CA6570",
			"s2": "Relay,+MD6449",
			"t1": "San+Jose,+CA4062",
			"t2": "New+York,+NY4028",
			"suurballeNbPaths": 2,
			"suurballeTime": 178483299,
			"suurballePaths": {
				"path0": [
					"Anaheim,+CA6570",
					"Anaheim,+CA4031",
					"Anaheim,+CA4099",
					"San+Jose,+CA4062"
				],
				"lat0": 6.000000,
				"nbSeg0": 1,
				"path1": [
					"Relay,+MD6449",
					"Relay,+MD4093",
					"Pennsauken,+NJ4135",
					"New+York,+NY4028"
				],
				"lat1": 5.000000,
				"nbSeg1": 2
			},
			"pathsExist": true,
			"path1": [
				"Anaheim,+CA6570",
				"San+Jose,+CA4062"
			],
			"lat1": 6.000000,
			"path2": [
				"Relay,+MD6449",
				"Relay,+MD4093",
				"Pennsauken,+NJ4091",
				"New+York,+NY4028"
			],
			"lat2": 7.000000,
			"maxlat": 7.000000,
			"runtime": 5140813811,
			"nomLat1": 6.000000,
			"nomLat2": 28.000000,
			"maxNomLat": 28.000000,
			"mincut": 5
		},
		{
			"s1": "Sydney,+Australia6437",
			"s2": "Hamburg,+Germany4081",
			"t1": "New+York,+NY4137",
			"t2": "Chicago,+IL6468",
			"suurballeNbPaths": 2,
			"suurballeTime": 54146398,
			"suurballePaths": {
				"path0": [
					"Sydney,+Australia6437",
					"Sydney,+Australia4068",
					"Stockton,+CA4096",
					"Stockton,+CA4065",
					"Chicago,+IL4036",
					"Chicago,+IL6468"
				],
				"lat0": 81.000000,
				"nbSeg0": 1,
				"path1": [
					"Hamburg,+Germany4081",
					"Copenhagen4077",
					"Copenhagen4038",
					"Manasquan,+NJ4086",
					"New+York,+NY4088",
					"New+York,+NY4124",
					"New+York,+NY4137"
				],
				"lat1": 41.000000,
				"nbSeg1": 2
			},
			"pathsExist": true,
			"path1": [
				"Sydney,+Australia6437",
				"New+York,+NY4137"
			],
			"lat1": 87.000000,
			"path2": [
				"Hamburg,+Germany4081",
				"Chicago,+IL1484",
				"Chicago,+IL4037",
				"Chicago,+IL6468"
			],
			"lat2": 48.000000,
			"maxlat": 87.000000,
			"runtime": 5273279156,
			"nomLat1": 87.000000,
			"nomLat2": 47.000000,
			"maxNomLat": 87.000000,
			"mincut": 5
		},
		{
			"s1": "Relay,+MD4118",
			"s2": "Dallas,+TX6622",
			"t1": "Manasquan,+NJ4047",
			"t2": "Anaheim,+CA6721",
			"suurballeNbPaths": 2,
			"suurballeTime": 53120258,
			"suurballePaths": {
				"path0": [
					"Relay,+MD4118",
					"Relay,+MD4054",
					"Manasquan,+NJ4047"
				],
				"lat0": 4.000000,
				"nbSeg0": 0,
				"path1": [
					"Dallas,+TX6622",
					"Dallas,+TX4115",
					"Anaheim,+CA4031",
					"Anaheim,+CA6721"
				],
				"lat1": 13.000000,
				"nbSeg1": 0
			},
			"pathsExist": true,
			"path1": [
				"Relay,+MD4118",
				"Manasquan,+NJ4047"
			],
			"lat1": 4.000000,
			"path2": [
				"Dallas,+TX6622",
				"Anaheim,+CA6721"
			],
			"lat2": 13.000000,
			"maxlat": 13.000000,
			"runtime": 5324255012,
			"nomLat1": 4.000000,
			"nomLat2": 13.000000,
			"maxNomLat": 13.000000,
			"mincut": 10
		},
		{
			"s1": "Anaheim,+CA4101",
			"s2": "Stockton,+CA6602",
			"t1": "Anaheim,+CA6627",
			"t2": "Orlando,+FL6693",
			"suurballeNbPaths": 2,
			"suurballeTime": 58796006,
			"suurballePaths": {
				"path0": [
					"Anaheim,+CA4101",
					"Anaheim,+CA6627"
				],
				"lat0": 1.000000,
				"nbSeg0": 0,
				"path1": [
					"Stockton,+CA6602",
					"Stockton,+CA4064",
					"San+Jose,+CA4119",
					"Dallas,+TX4080",
					"Dallas,+TX4015",
					"Orlando,+FL4050",
					"Orlando,+FL6693"
				],
				"lat1": 27.000000,
				"nbSeg1": 4
			},
			"pathsExist": true,
			"path1": [
				"Anaheim,+CA4101",
				"Anaheim,+CA6627"
			],
			"lat1": 1.000000,
			"path2": [
				"Stockton,+CA6602",
				"Orlando,+FL6693"
			],
			"lat2": 28.000000,
			"maxlat": 28.000000,
			"runtime": 5332847222,
			"nomLat1": 1.000000,
			"nomLat2": 28.000000,
			"maxNomLat": 28.000000,
			"mincut": 11
		},
		{
			"s1": "Kansas+City,+MO6544",
			"s2": "Sydney,+Australia4067",
			"t1": "New+York,+NY6496",
			"t2": "Sydney,+Australia4068",
			"suurballeNbPaths": 2,
			"suurballeTime": 55379500,
			"suurballePaths": {
				"path0": [
					"Sydney,+Australia4067",
					"Sydney,+Australia6437",
					"Sydney,+Australia4068"
				],
				"lat0": 2.000000,
				"nbSeg0": 0,
				"path1": [
					"Kansas+City,+MO6544",
					"Kansas+City,+MO4043",
					"Chicago,+IL4104",
					"New+York,+NY4048",
					"New+York,+NY6496"
				],
				"lat1": 14.000000,
				"nbSeg1": 0
			},
			"pathsExist": true,
			"path1": [
				"Kansas+City,+MO6544",
				"New+York,+NY6496"
			],
			"lat1": 14.000000,
			"path2": [
				"Sydney,+Australia4067",
				"Sydney,+Australia4068"
			],
			"lat2": 2.000000,
			"maxlat": 14.000000,
			"runtime": 5350171461,
			"nomLat1": 14.000000,
			"nomLat2": 2.000000,
			"maxNomLat": 14.000000,
			"mincut": 6
		},
		{
			"s1": "Pennsauken,+NJ6728",
			"s2": "Relay,+MD4093",
			"t1": "Dallas,+TX6683",
			"t2": "Atlanta,+GA6565",
			"suurballeNbPaths": 2,
			"suurballeTime": 75067489,
			"suurballePaths": {
				"path0": [
					"Relay,+MD4093",
					"Atlanta,+GA4032",
					"Atlanta,+GA6565"
				],
				"lat0": 7.000000,
				"nbSeg0": 0,
				"path1": [
					"Pennsauken,+NJ6728",
					"Pennsauken,+NJ4109",
					"Dallas,+TX4015",
					"Dallas,+TX4080",
					"Dallas,+TX6683"
				],
				"lat1": 15.000000,
				"nbSeg1": 1
			},
			"pathsExist": true,
			"path1": [
				"Pennsauken,+NJ6728",
				"Dallas,+TX6683"
			],
			"lat1": 15.000000,
			"path2": [
				"Relay,+MD4093",
				"Atlanta,+GA6565"
			],
			"lat2": 7.000000,
			"maxlat": 15.000000,
			"runtime": 5336585456,
			"nomLat1": 15.000000,
			"nomLat2": 7.000000,
			"maxNomLat": 15.000000,
			"mincut": 4
		},
		{
			"s1": "Relay,+MD4127",
			"s2": "Dallas,+TX6444",
			"t1": "Atlanta,+GA6465",
			"t2": "Boston5499",
			"suurballeNbPaths": 2,
			"suurballeTime": 70808431,
			"suurballePaths": {
				"path0": [
					"Dallas,+TX6444",
					"Dallas,+TX2635",
					"Atlanta,+GA4032",
					"Atlanta,+GA6465"
				],
				"lat0": 9.000000,
				"nbSeg0": 1,
				"path1": [
					"Relay,+MD4127",
					"Relay,+MD4118",
					"Pennsauken,+NJ4091",
					"Pennsauken,+NJ4126",
					"Springfield,+MA4020",
					"Boston5499"
				],
				"lat1": 9.000000,
				"nbSeg1": 2
			},
			"pathsExist": true,
			"path1": [
				"Relay,+MD4127",
				"Atlanta,+GA6465"
			],
			"lat1": 8.000000,
			"path2": [
				"Dallas,+TX6444",
				"Boston5499"
			],
			"lat2": 19.000000,
			"maxlat": 19.000000,
			"runtime": 5347709984,
			"nomLat1": 8.000000,
			"nomLat2": 19.000000,
			"maxNomLat": 19.000000,
			"mincut": 5
		},
		{
			"s1": "Chicago,+IL4104",
			"s2": "Stockton,+CA6407",
			"t1": "Washington,+DC6543",
			"t2": "Stockton,+CA6609",
			"suurballeNbPaths": 2,
			"suurballeTime": 56096574,
			"suurballePaths": {
				"path0": [
					"Stockton,+CA6407",
					"Stockton,+CA4065",
					"Stockton,+CA6609"
				],
				"lat0": 2.000000,
				"nbSeg0": 1,
				"path1": [
					"Chicago,+IL4104",
					"New+York,+NY4048",
					"Relay,+MD4110",
					"Washington,+DC4140",
					"Washington,+DC6543"
				],
				"lat1": 13.000000,
				"nbSeg1": 1
			},
			"pathsExist": true,
			"path1": [
				"Chicago,+IL4104",
				"Washington,+DC6543"
			],
			"lat1": 13.000000,
			"path2": [
				"Stockton,+CA6407",
				"Stockton,+CA4065",
				"Stockton,+CA6609"
			],
			"lat2": 2.000000,
			"maxlat": 13.000000,
			"runtime": 5395309981,
			"nomLat1": 13.000000,
			"nomLat2": 2.000000,
			"maxNomLat": 13.000000,
			"mincut": 9
		},
		{
			"s1": "Anaheim,+CA6556",
			"s2": "Atlanta,+GA4102",
			"t1": "Dallas,+TX6566",
			"t2": "Pennsauken,+NJ6448",
			"suurballeNbPaths": 2,
			"suurballeTime": 51764274,
			"suurballePaths": {
				"path0": [
					"Anaheim,+CA6556",
					"Anaheim,+CA4101",
					"Dallas,+TX2635",
					"Dallas,+TX6566"
				],
				"lat0": 13.000000,
				"nbSeg0": 1,
				"path1": [
					"Atlanta,+GA4102",
					"Atlanta,+GA4032",
					"Relay,+MD4093",
					"Relay,+MD4118",
					"Pennsauken,+NJ4091",
					"Pennsauken,+NJ6448"
				],
				"lat1": 11.000000,
				"nbSeg1": 1
			},
			"pathsExist": true,
			"path1": [
				"Anaheim,+CA6556",
				"Dallas,+TX6566"
			],
			"lat1": 13.000000,
			"path2": [
				"Atlanta,+GA4102",
				"Pennsauken,+NJ6448"
			],
			"lat2": 11.000000,
			"maxlat": 13.000000,
			"runtime": 5400498609,
			"nomLat1": 13.000000,
			"nomLat2": 11.000000,
			"maxNomLat": 13.000000,
			"mincut": 8
		},
		{
			"s1": "Sydney,+Australia6437",
			"s2": "Cheyenne,+WY2439",
			"t1": "Cheyenne,+WY6455",
			"t2": "Anaheim,+CA6627",
			"suurballeNbPaths": 2,
			"suurballeTime": 75344732,
			"suurballePaths": {
				"path0": [
					"Cheyenne,+WY2439",
					"Cheyenne,+WY4076",
					"Cheyenne,+WY6455"
				],
				"lat0": 2.000000,
				"nbSeg0": 1,
				"path1": [
					"Sydney,+Australia6437",
					"Sydney,+Australia4068",
					"Stockton,+CA4096",
					"San+Jose,+CA4112",
					"Anaheim,+CA4031",
					"Anaheim,+CA6627"
				],
				"lat1": 70.000000,
				"nbSeg1": 1
			},
			"pathsExist": true,
			"path1": [
				"Sydney,+Australia6437",
				"Cheyenne,+WY6455"
			],
			"lat1": 75.000000,
			"path2": [
				"Cheyenne,+WY2439",
				"Chicago,+IL4037",
				"Chicago,+IL6654",
				"Anaheim,+CA6627"
			],
			"lat2": 32.000000,
			"maxlat": 75.000000,
			"runtime": 5408124578,
			"nomLat1": 75.000000,
			"nomLat2": 22.000000,
			"maxNomLat": 75.000000,
			"mincut": 4
		},
		{
			"s1": "Pennsauken,+NJ6624",
			"s2": "Atlanta,+GA6481",
			"t1": "Springfield,+MA4025",
			"t2": "Cheyenne,+WY4076",
			"suurballeNbPaths": 2,
			"suurballeTime": 123227177,
			"suurballePaths": {
				"path0": [
					"Pennsauken,+NJ6624",
					"Pennsauken,+NJ4091",
					"Springfield,+MA4023",
					"Springfield,+MA4025"
				],
				"lat0": 5.000000,
				"nbSeg0": 0,
				"path1": [
					"Atlanta,+GA6481",
					"Atlanta,+GA4032",
					"Dallas,+TX2635",
					"Dallas,+TX4080",
					"Cheyenne,+WY4076"
				],
				"lat1": 16.000000,
				"nbSeg1": 2
			},
			"pathsExist": true,
			"path1": [
				"Pennsauken,+NJ6624",
				"Springfield,+MA4025"
			],
			"lat1": 5.000000,
			"path2": [
				"Atlanta,+GA6481",
				"Cheyenne,+WY4076"
			],
			"lat2": 16.000000,
			"maxlat": 16.000000,
			"runtime": 5379314366,
			"nomLat1": 5.000000,
			"nomLat2": 16.000000,
			"maxNomLat": 16.000000,
			"mincut": 6
		},
		{
			"s1": "Stockholm,+Sweden4066",
			"s2": "Dallas,+TX4133",
			"t1": "Dallas,+TX6580",
			"t2": "Dallas,+TX6645",
			"suurballeNbPaths": 2,
			"suurballeTime": 54607739,
			"suurballePaths": {
				"path0": [
					"Dallas,+TX4133",
					"Dallas,+TX2635",
					"Dallas,+TX6645"
				],
				"lat0": 2.000000,
				"nbSeg0": 0,
				"path1": [
					"Stockholm,+Sweden4066",
					"Copenhagen4038",
					"Manasquan,+NJ4086",
					"Relay,+MD4110",
					"Atlanta,+GA4074",
					"Dallas,+TX4015",
					"Dallas,+TX6580"
				],
				"lat1": 54.000000,
				"nbSeg1": 0
			},
			"pathsExist": true,
			"path1": [
				"Stockholm,+Sweden4066",
				"Dallas,+TX6580"
			],
			"lat1": 54.000000,
			"path2": [
				"Dallas,+TX4133",
				"Dallas,+TX4115",
				"Dallas,+TX6645"
			],
			"lat2": 3.000000,
			"maxlat": 54.000000,
			"runtime": 5274006143,
			"nomLat1": 54.000000,
			"nomLat2": 2.000000,
			"maxNomLat": 54.000000,
			"mincut": 5
		},
		{
			"s1": "Anaheim,+CA6438",
			"s2": "Springfield,+MA4023",
			"t1": "Roachdale,+IN4111",
			"t2": "Reston,+VA5497",
			"suurballeNbPaths": 2,
			"suurballeTime": 48280637,
			"suurballePaths": {
				"path0": [
					"Anaheim,+CA6438",
					"Anaheim,+CA4101",
					"Dallas,+TX2635",
					"Chicago,+IL4104",
					"Roachdale,+IN4111"
				],
				"lat0": 23.000000,
				"nbSeg0": 0,
				"path1": [
					"Springfield,+MA4023",
					"Pennsauken,+NJ4091",
					"Pennsauken,+NJ4135",
					"Relay,+MD4093",
					"Reston,+VA5497"
				],
				"lat1": 8.000000,
				"nbSeg1": 1
			},
			"pathsExist": true,
			"path1": [
				"Anaheim,+CA6438",
				"Roachdale,+IN4111"
			],
			"lat1": 23.000000,
			"path2": [
				"Springfield,+MA4023",
				"New+York,+NY4116",
				"Reston,+VA5497"
			],
			"lat2": 10.000000,
			"maxlat": 23.000000,
			"runtime": 5266150130,
			"nomLat1": 23.000000,
			"nomLat2": 8.000000,
			"maxNomLat": 23.000000,
			"mincut": 9
		},
		{
			"s1": "Lees+Summit,+MO5512",
			"s2": "New+York,+NY4137",
			"t1": "Anaheim,+CA6570",
			"t2": "Sydney,+Australia4068",
			"suurballeNbPaths": 2,
			"suurballeTime": 50393663,
			"suurballePaths": {
				"path0": [
					"Lees+Summit,+MO5512",
					"Kansas+City,+MO4105",
					"Dallas,+TX4115",
					"Anaheim,+CA4031",
					"Anaheim,+CA6570"
				],
				"lat0": 19.000000,
				"nbSeg0": 0,
				"path1": [
					"New+York,+NY4137",
					"New+York,+NY4048",
					"Pennsauken,+NJ4052",
					"Stockton,+CA4064",
					"Sydney,+Australia4068"
				],
				"lat1": 86.000000,
				"nbSeg1": 1
			},
			"pathsExist": true,
			"path1": [
				"Lees+Summit,+MO5512",
				"Anaheim,+CA6570"
			],
			"lat1": 19.000000,
			"path2": [
				"New+York,+NY4137",
				"Sydney,+Australia4068"
			],
			"lat2": 86.000000,
			"maxlat": 86.000000,
			"runtime": 5519208658,
			"nomLat1": 19.000000,
			"nomLat2": 86.000000,
			"maxNomLat": 86.000000,
			"mincut": 5
		},
		{
			"s1": "San+Jose,+CA6405",
			"s2": "Dallas,+TX6612",
			"t1": "Chicago,+IL6747",
			"t2": "New+York,+NY4129",
			"suurballeNbPaths": 2,
			"suurballeTime": 51800965,
			"suurballePaths": {
				"path0": [
					"Dallas,+TX6612",
					"Dallas,+TX2635",
					"Chicago,+IL4104",
					"Chicago,+IL6747"
				],
				"lat0": 10.000000,
				"nbSeg0": 1,
				"path1": [
					"San+Jose,+CA6405",
					"San+Jose,+CA4062",
					"Chicago,+IL4037",
					"New+York,+NY4124",
					"New+York,+NY4129"
				],
				"lat1": 25.000000,
				"nbSeg1": 1
			},
			"pathsExist": true,
			"path1": [
				"San+Jose,+CA6405",
				"Chicago,+IL6747"
			],
			"lat1": 18.000000,
			"path2": [
				"Dallas,+TX6612",
				"Pennsauken,+NJ4135",
				"New+York,+NY4129"
			],
			"lat2": 17.000000,
			"maxlat": 18.000000,
			"runtime": 5540616816,
			"nomLat1": 18.000000,
			"nomLat2": 18.000000,
			"maxNomLat": 18.000000,
			"mincut": 7
		},
		{
			"s1": "Pennsauken,+NJ6624",
			"s2": "Dallas,+TX6419",
			"t1": "Relay,+MD6675",
			"t2": "Dallas,+TX6444",
			"suurballeNbPaths": 2,
			"suurballeTime": 53651052,
			"suurballePaths": {
				"path0": [
					"Dallas,+TX6419",
					"Dallas,+TX2635",
					"Dallas,+TX6444"
				],
				"lat0": 2.000000,
				"nbSeg0": 1,
				"path1": [
					"Pennsauken,+NJ6624",
					"Pennsauken,+NJ4091",
					"Pennsauken,+NJ4135",
					"Relay,+MD4093",
					"Relay,+MD6675"
				],
				"lat1": 5.000000,
				"nbSeg1": 2
			},
			"pathsExist": true,
			"path1": [
				"Pennsauken,+NJ6624",
				"Relay,+MD6675"
			],
			"lat1": 5.000000,
			"path2": [
				"Dallas,+TX6419",
				"Dallas,+TX4015",
				"Dallas,+TX6444"
			],
			"lat2": 2.000000,
			"maxlat": 5.000000,
			"runtime": 5256371404,
			"nomLat1": 5.000000,
			"nomLat2": 2.000000,
			"maxNomLat": 5.000000,
			"mincut": 8
		},
		{
			"s1": "Washington,+DC6469",
			"s2": "Relay,+MD6696",
			"t1": "Dallas,+TX1742",
			"t2": "Cheyenne,+WY4076",
			"suurballeNbPaths": 2,
			"suurballeTime": 53494458,
			"suurballePaths": {
				"path0": [
					"Relay,+MD6696",
					"Relay,+MD4093",
					"Atlanta,+GA4032",
					"Dallas,+TX2635",
					"Dallas,+TX1742"
				],
				"lat0": 15.000000,
				"nbSeg0": 1,
				"path1": [
					"Washington,+DC6469",
					"Relay,+MD4110",
					"Relay,+MD5801",
					"Dallas,+TX6573",
					"Dallas,+TX4080",
					"Cheyenne,+WY4076"
				],
				"lat1": 22.000000,
				"nbSeg1": 2
			},
			"pathsExist": true,
			"path1": [
				"Washington,+DC6469",
				"Dallas,+TX1742"
			],
			"lat1": 16.000000,
			"path2": [
				"Relay,+MD6696",
				"New+York,+NY4048",
				"Chicago,+IL4104",
				"Cheyenne,+WY4076"
			],
			"lat2": 21.000000,
			"maxlat": 21.000000,
			"runtime": 5539256133,
			"nomLat1": 16.000000,
			"nomLat2": 22.000000,
			"maxNomLat": 22.000000,
			"mincut": 8
		},
		{
			"s1": "San+Jose,+CA4119",
			"s2": "Dallas,+TX6587",
			"t1": "Pennsauken,+NJ4135",
			"t2": "Stockton,+CA4113",
			"suurballeNbPaths": 2,
			"suurballeTime": 45625745,
			"suurballePaths": {
				"path0": [
					"San+Jose,+CA4119",
					"San+Jose,+CA4095",
					"Stockton,+CA4113"
				],
				"lat0": 3.000000,
				"nbSeg0": 0,
				"path1": [
					"Dallas,+TX6587",
					"Dallas,+TX4115",
					"Pennsauken,+NJ4135"
				],
				"lat1": 13.000000,
				"nbSeg1": 0
			},
			"pathsExist": true,
			"path1": [
				"San+Jose,+CA4119",
				"Pennsauken,+NJ4135"
			],
			"lat1": 25.000000,
			"path2": [
				"Dallas,+TX6587",
				"Stockton,+CA4113"
			],
			"lat2": 18.000000,
			"maxlat": 25.000000,
			"runtime": 5603698499,
			"nomLat1": 25.000000,
			"nomLat2": 18.000000,
			"maxNomLat": 25.000000,
			"mincut": 12
		},
		{
			"s1": "Dallas,+TX6580",
			"s2": "Stockton,+CA6583",
			"t1": "Dallas,+TX6645",
			"t2": "Dallas,+TX6598",
			"suurballeNbPaths": 2,
			"suurballeTime": 45705920,
			"suurballePaths": {
				"path0": [
					"Dallas,+TX6580",
					"Dallas,+TX2635",
					"Dallas,+TX6645"
				],
				"lat0": 2.000000,
				"nbSeg0": 1,
				"path1": [
					"Stockton,+CA6583",
					"Stockton,+CA4064",
					"San+Jose,+CA4119",
					"Dallas,+TX4080",
					"Dallas,+TX6598"
				],
				"lat1": 17.000000,
				"nbSeg1": 1
			},
			"pathsExist": true,
			"path1": [
				"Dallas,+TX6580",
				"Dallas,+TX6645"
			],
			"lat1": 2.000000,
			"path2": [
				"Stockton,+CA6583",
				"Dallas,+TX4115",
				"Dallas,+TX6598"
			],
			"lat2": 19.000000,
			"maxlat": 19.000000,
			"runtime": 5300053777,
			"nomLat1": 2.000000,
			"nomLat2": 19.000000,
			"maxNomLat": 19.000000,
			"mincut": 9
		},
		{
			"s1": "Pennsauken,+NJ6517",
			"s2": "Chicago,+IL6595",
			"t1": "Pennsauken,+NJ4135",
			"t2": "Dallas,+TX6645",
			"suurballeNbPaths": 2,
			"suurballeTime": 48558620,
			"suurballePaths": {
				"path0": [
					"Pennsauken,+NJ6517",
					"Pennsauken,+NJ4109",
					"Pennsauken,+NJ4135"
				],
				"lat0": 2.000000,
				"nbSeg0": 0,
				"path1": [
					"Chicago,+IL6595",
					"Chicago,+IL4037",
					"Dallas,+TX4080",
					"Dallas,+TX6645"
				],
				"lat1": 10.000000,
				"nbSeg1": 1
			},
			"pathsExist": true,
			"path1": [
				"Pennsauken,+NJ6517",
				"Pennsauken,+NJ4135"
			],
			"lat1": 2.000000,
			"path2": [
				"Chicago,+IL6595",
				"Dallas,+TX2635",
				"Dallas,+TX6645"
			],
			"lat2": 10.000000,
			"maxlat": 10.000000,
			"runtime": 5359745023,
			"nomLat1": 2.000000,
			"nomLat2": 10.000000,
			"maxNomLat": 10.000000,
			"mincut": 7
		},
		{
			"s1": "Roachdale,+IN4111",
			"s2": "Stockton,+CA4096",
			"t1": "Dallas,+TX2635",
			"t2": "Dallas,+TX6587",
			"suurballeNbPaths": 2,
			"suurballeTime": 47228553,
			"suurballePaths": {
				"path0": [
					"Roachdale,+IN4111",
					"Chicago,+IL4104",
					"Dallas,+TX2635"
				],
				"lat0": 11.000000,
				"nbSeg0": 0,
				"path1": [
					"Stockton,+CA4096",
					"San+Jose,+CA4112",
					"Anaheim,+CA4100",
					"Dallas,+TX6587"
				],
				"lat1": 17.000000,
				"nbSeg1": 2
			},
			"pathsExist": true,
			"path1": [
				"Roachdale,+IN4111",
				"Dallas,+TX2635"
			],
			"lat1": 11.000000,
			"path2": [
				"Stockton,+CA4096",
				"Stockton,+CA3402",
				"Anaheim,+CA4101",
				"Dallas,+TX6587"
			],
			"lat2": 18.000000,
			"maxlat": 18.000000,
			"runtime": 5388498811,
			"nomLat1": 11.000000,
			"nomLat2": 18.000000,
			"maxNomLat": 18.000000,
			"mincut": 26
		},
		{
			"s1": "Pennsauken,+NJ6525",
			"s2": "Anaheim,+CA6702",
			"t1": "Anaheim,+CA6570",
			"t2": "Anaheim,+CA6721",
			"suurballeNbPaths": 2,
			"suurballeTime": 52969267,
			"suurballePaths": {
				"path0": [
					"Anaheim,+CA6702",
					"Anaheim,+CA6721"
				],
				"lat0": 1.000000,
				"nbSeg0": 0,
				"path1": [
					"Pennsauken,+NJ6525",
					"Pennsauken,+NJ4091",
					"Pennsauken,+NJ4135",
					"Dallas,+TX4115",
					"Anaheim,+CA4031",
					"Anaheim,+CA6570"
				],
				"lat1": 26.000000,
				"nbSeg1": 2
			},
			"pathsExist": true,
			"path1": [
				"Pennsauken,+NJ6525",
				"Dallas,+TX4115",
				"Anaheim,+CA6570"
			],
			"lat1": 26.000000,
			"path2": [
				"Anaheim,+CA6702",
				"Anaheim,+CA6721"
			],
			"lat2": 1.000000,
			"maxlat": 26.000000,
			"runtime": 7210215570,
			"nomLat1": 29.000000,
			"nomLat2": 1.000000,
			"maxNomLat": 29.000000,
			"mincut": 9
		},
		{
			"s1": "Orlando,+FL6693",
			"s2": "Seattle,+WA4059",
			"t1": "Anaheim,+CA4101",
			"t2": "Chicago,+IL1484",
			"suurballeNbPaths": 2,
			"suurballeTime": 52391627,
			"suurballePaths": {
				"path0": [
					"Orlando,+FL6693",
					"Atlanta,+GA2347",
					"Atlanta,+GA4074",
					"Chicago,+IL1484"
				],
				"lat0": 12.000000,
				"nbSeg0": 1,
				"path1": [
					"Seattle,+WA4059",
					"Tacoma,+WA3251",
					"San+Jose,+CA4062",
					"Anaheim,+CA4101"
				],
				"lat1": 13.000000,
				"nbSeg1": 0
			},
			"pathsExist": true,
			"path1": [
				"Orlando,+FL6693",
				"Dallas,+TX4115",
				"Anaheim,+CA4101"
			],
			"lat1": 22.000000,
			"path2": [
				"Seattle,+WA4059",
				"Chicago,+IL1484"
			],
			"lat2": 16.000000,
			"maxlat": 22.000000,
			"runtime": 17007289370,
			"nomLat1": 24.000000,
			"nomLat2": 16.000000,
			"maxNomLat": 24.000000,
			"mincut": 9
		},
		{
			"s1": "Manasquan,+NJ4086",
			"s2": "Atlanta,+GA2344",
			"t1": "Tokyo4071",
			"t2": "Cheyenne,+WY2439",
			"suurballeNbPaths": 2,
			"suurballeTime": 57743545,
			"suurballePaths": {
				"path0": [
					"Manasquan,+NJ4086",
					"New+York,+NY4088",
					"Chicago,+IL1484",
					"Cheyenne,+WY4034",
					"Cheyenne,+WY2439"
				],
				"lat0": 19.000000,
				"nbSeg0": 1,
				"path1": [
					"Atlanta,+GA2344",
					"Atlanta,+GA4032",
					"Chicago,+IL4037",
					"Cheyenne,+WY4034",
					"Tacoma,+WA3251",
					"Tokyo4070",
					"Tokyo4071"
				],
				"lat1": 66.000000,
				"nbSeg1": 3
			},
			"pathsExist": true,
			"path1": [
				"Manasquan,+NJ4086",
				"Cheyenne,+WY4076",
				"Tokyo4071"
			],
			"lat1": 68.000000,
			"path2": [
				"Atlanta,+GA2344",
				"Dallas,+TX2635",
				"Cheyenne,+WY4034",
				"Cheyenne,+WY2439"
			],
			"lat2": 26.000000,
			"maxlat": 68.000000,
			"runtime": 19693712427,
			"nomLat1": 72.000000,
			"nomLat2": 17.000000,
			"maxNomLat": 72.000000,
			"mincut": 5
		},
		{
			"s1": "Relay,+MD4110",
			"s2": "Dallas,+TX6622",
			"t1": "Cheyenne,+WY2439",
			"t2": "Roachdale,+IN6729",
			"suurballeNbPaths": 2,
			"suurballeTime": 45418733,
			"suurballePaths": {
				"path0": [
					"Dallas,+TX6622",
					"Dallas,+TX4080",
					"Cheyenne,+WY4076",
					"Cheyenne,+WY2439"
				],
				"lat0": 9.000000,
				"nbSeg0": 1,
				"path1": [
					"Relay,+MD4110",
					"Relay,+MD4118",
					"Pennsauken,+NJ4091",
					"Pennsauken,+NJ4126",
					"Roachdale,+IN4056",
					"Roachdale,+IN6729"
				],
				"lat1": 12.000000,
				"nbSeg1": 2
			},
			"pathsExist": true,
			"path1": [
				"Relay,+MD4110",
				"Chicago,+IL4104",
				"Cheyenne,+WY2439"
			],
			"lat1": 20.000000,
			"path2": [
				"Dallas,+TX6622",
				"Roachdale,+IN6729"
			],
			"lat2": 13.000000,
			"maxlat": 20.000000,
			"runtime": 19812717618,
			"nomLat1": 22.000000,
			"nomLat2": 13.000000,
			"maxNomLat": 22.000000,
			"mincut": 4
		},
		{
			"s1": "Dallas,+TX6483",
			"s2": "Relay,+MD4110",
			"t1": "New+York,+NY6532",
			"t2": "Springfield,+MA6406",
			"suurballeNbPaths": 2,
			"suurballeTime": 45660927,
			"suurballePaths": {
				"path0": [
					"Relay,+MD4110",
					"New+York,+NY4048",
					"New+York,+NY6532"
				],
				"lat0": 4.000000,
				"nbSeg0": 0,
				"path1": [
					"Dallas,+TX6483",
					"Dallas,+TX4080",
					"Chicago,+IL1484",
					"Springfield,+MA4023",
					"Springfield,+MA6406"
				],
				"lat1": 18.000000,
				"nbSeg1": 0
			},
			"pathsExist": true,
			"path1": [
				"Dallas,+TX6483",
				"Pennsauken,+NJ4109",
				"New+York,+NY6532"
			],
			"lat1": 16.000000,
			"path2": [
				"Relay,+MD4110",
				"New+York,+NY6446",
				"Pennsauken,+NJ4126",
				"Springfield,+MA6406"
			],
			"lat2": 12.000000,
			"maxlat": 16.000000,
			"runtime": 20876311119,
			"nomLat1": 17.000000,
			"nomLat2": 7.000000,
			"maxNomLat": 17.000000,
			"mincut": 6
		},
		{
			"s1": "London4045",
			"s2": "Pearl+Harbor,+HI6550",
			"t1": "Tacoma,+WA6408",
			"t2": "Atlanta,+GA3957",
			"suurballeNbPaths": 2,
			"suurballeTime": 45162918,
			"suurballePaths": {
				"path0": [
					"London4045",
					"New+York,+NY4017",
					"New+York,+NY4048",
					"Atlanta,+GA4032",
					"Atlanta,+GA3957"
				],
				"lat0": 39.000000,
				"nbSeg0": 1,
				"path1": [
					"Pearl+Harbor,+HI6550",
					"Pearl+Harbor,+HI4053",
					"Stockton,+CA4065",
					"San+Jose,+CA4095",
					"Tacoma,+WA4114",
					"Tacoma,+WA6408"
				],
				"lat1": 32.000000,
				"nbSeg1": 2
			},
			"pathsExist": true,
			"path1": [
				"London4045",
				"New+York,+NY4017",
				"Tacoma,+WA6408"
			],
			"lat1": 55.000000,
			"path2": [
				"Pearl+Harbor,+HI6550",
				"Atlanta,+GA3957"
			],
			"lat2": 42.000000,
			"maxlat": 55.000000,
			"runtime": 22499510127,
			"nomLat1": 59.000000,
			"nomLat2": 42.000000,
			"maxNomLat": 59.000000,
			"mincut": 4
		},
		{
			"s1": "Cheyenne,+WY4034",
			"s2": "Chicago,+IL6648",
			"t1": "Relay,+MD6449",
			"t2": "Kansas+City,+MO4043",
			"suurballeNbPaths": 2,
			"suurballeTime": 46168337,
			"suurballePaths": {
				"path0": [
					"Chicago,+IL6648",
					"Chicago,+IL4037",
					"Kansas+City,+MO4043"
				],
				"lat0": 6.000000,
				"nbSeg0": 0,
				"path1": [
					"Cheyenne,+WY4034",
					"Chicago,+IL4104",
					"New+York,+NY4048",
					"Relay,+MD4110",
					"Relay,+MD6449"
				],
				"lat1": 20.000000,
				"nbSeg1": 1
			},
			"pathsExist": true,
			"path1": [
				"Cheyenne,+WY4034",
				"Relay,+MD4110",
				"Relay,+MD6449"
			],
			"lat1": 20.000000,
			"path2": [
				"Chicago,+IL6648",
				"Kansas+City,+MO4043"
			],
			"lat2": 6.000000,
			"maxlat": 20.000000,
			"runtime": 22948782954,
			"nomLat1": 22.000000,
			"nomLat2": 6.000000,
			"maxNomLat": 22.000000,
			"mincut": 10
		},
		{
			"s1": "Cheyenne,+WY4076",
			"s2": "Relay,+MD4118",
			"t1": "Kansas+City,+MO6707",
			"t2": "Anaheim,+CA6464",
			"suurballeNbPaths": 2,
			"suurballeTime": 45300423,
			"suurballePaths": {
				"path0": [
					"Cheyenne,+WY4076",
					"Dallas,+TX4080",
					"Anaheim,+CA4101",
					"Anaheim,+CA6464"
				],
				"lat0": 19.000000,
				"nbSeg0": 2,
				"path1": [
					"Relay,+MD4118",
					"Pennsauken,+NJ4091",
					"Pennsauken,+NJ4052",
					"Kansas+City,+MO4082",
					"Kansas+City,+MO6707"
				],
				"lat1": 14.000000,
				"nbSeg1": 1
			},
			"pathsExist": true,
			"path1": [
				"Cheyenne,+WY4076",
				"Dallas,+TX1742",
				"Kansas+City,+MO6707"
			],
			"lat1": 25.000000,
			"path2": [
				"Relay,+MD4118",
				"Dallas,+TX2635",
				"Anaheim,+CA6464"
			],
			"lat2": 26.000000,
			"maxlat": 26.000000,
			"runtime": 23605107216,
			"nomLat1": 16.000000,
			"nomLat2": 27.000000,
			"maxNomLat": 27.000000,
			"mincut": 9
		},
		{
			"s1": "Cheyenne,+WY2439",
			"s2": "Manasquan,+NJ4086",
			"t1": "Dallas,+TX6645",
			"t2": "Anaheim,+CA4101",
			"suurballeNbPaths": 2,
			"suurballeTime": 46660690,
			"suurballePaths": {
				"path0": [
					"Cheyenne,+WY2439",
					"Cheyenne,+WY4076",
					"Dallas,+TX4080",
					"Anaheim,+CA4101"
				],
				"lat0": 19.000000,
				"nbSeg0": 2,
				"path1": [
					"Manasquan,+NJ4086",
					"Relay,+MD4110",
					"Relay,+MD5801",
					"Dallas,+TX6573",
					"Dallas,+TX4080",
					"Dallas,+TX6645"
				],
				"lat1": 17.000000,
				"nbSeg1": 2
			},
			"pathsExist": true,
			"path1": [
				"Cheyenne,+WY2439",
				"Dallas,+TX4115",
				"Dallas,+TX6645"
			],
			"lat1": 20.000000,
			"path2": [
				"Manasquan,+NJ4086",
				"Anaheim,+CA4101"
			],
			"lat2": 28.000000,
			"maxlat": 28.000000,
			"runtime": 23733228003,
			"nomLat1": 19.000000,
			"nomLat2": 28.000000,
			"maxNomLat": 28.000000,
			"mincut": 6
		},
		{
			"s1": "Seattle,+WA4019",
			"s2": "Stockton,+CA6719",
			"t1": "Relay,+MD6696",
			"t2": "Tacoma,+WA4114",
			"suurballeNbPaths": 2,
			"suurballeTime": 45035388,
			"suurballePaths": {
				"path0": [
					"Seattle,+WA4019",
					"Seattle,+WA4059",
					"Tacoma,+WA3251",
					"Tacoma,+WA4114"
				],
				"lat0": 4.000000,
				"nbSeg0": 1,
				"path1": [
					"Stockton,+CA6719",
					"Stockton,+CA4096",
					"San+Jose,+CA4112",
					"Relay,+MD4093",
					"Relay,+MD6696"
				],
				"lat1": 25.000000,
				"nbSeg1": 0
			},
			"pathsExist": true,
			"path1": [
				"Seattle,+WA4019",
				"Chicago,+IL4104",
				"Relay,+MD6696"
			],
			"lat1": 27.000000,
			"path2": [
				"Stockton,+CA6719",
				"Tacoma,+WA4114"
			],
			"lat2": 10.000000,
			"maxlat": 27.000000,
			"runtime": 24652452580,
			"nomLat1": 33.000000,
			"nomLat2": 10.000000,
			"maxNomLat": 33.000000,
			"mincut": 6
		},
		{
			"s1": "New+York,+NY6532",
			"s2": "Sydney,+Australia4067",
			"t1": "Anaheim,+CA6502",
			"t2": "New+York,+NY4017",
			"suurballeNbPaths": 2,
			"suurballeTime": 45855850,
			"suurballePaths": {
				"path0": [
					"New+York,+NY6532",
					"New+York,+NY4048",
					"New+York,+NY4017"
				],
				"lat0": 2.000000,
				"nbSeg0": 0,
				"path1": [
					"Sydney,+Australia4067",
					"Sydney,+Australia6437",
					"Sydney,+Australia4068",
					"Stockton,+CA4096",
					"San+Jose,+CA4112",
					"Anaheim,+CA4031",
					"Anaheim,+CA6502"
				],
				"lat1": 71.000000,
				"nbSeg1": 1
			},
			"pathsExist": true,
			"path1": [
				"New+York,+NY6532",
				"Relay,+MD6449",
				"Anaheim,+CA6502"
			],
			"lat1": 32.000000,
			"path2": [
				"Sydney,+Australia4067",
				"Stockton,+CA4064",
				"New+York,+NY4017"
			],
			"lat2": 88.000000,
			"maxlat": 88.000000,
			"runtime": 25827162979,
			"nomLat1": 31.000000,
			"nomLat2": 89.000000,
			"maxNomLat": 89.000000,
			"mincut": 6
		},
		{
			"s1": "Stockton,+CA6479",
			"s2": "Orlando,+FL4050",
			"t1": "Cheyenne,+WY4034",
			"t2": "Seattle,+WA6432",
			"suurballeNbPaths": 2,
			"suurballeTime": 42971840,
			"suurballePaths": {
				"path0": [
					"Orlando,+FL4050",
					"Dallas,+TX4015",
					"Dallas,+TX4080",
					"Cheyenne,+WY4076",
					"Cheyenne,+WY4034"
				],
				"lat0": 18.000000,
				"nbSeg0": 3,
				"path1": [
					"Stockton,+CA6479",
					"Stockton,+CA4065",
					"San+Jose,+CA4095",
					"San+Jose,+CA4062",
					"Tacoma,+WA3251",
					"Seattle,+WA4059",
					"Seattle,+WA6432"
				],
				"lat1": 14.000000,
				"nbSeg1": 3
			},
			"pathsExist": true,
			"path1": [
				"Stockton,+CA6479",
				"Tacoma,+WA6408",
				"Cheyenne,+WY4034"
			],
			"lat1": 21.000000,
			"path2": [
				"Orlando,+FL4050",
				"Seattle,+WA6432"
			],
			"lat2": 28.000000,
			"maxlat": 28.000000,
			"runtime": 27237089172,
			"nomLat1": 27.000000,
			"nomLat2": 28.000000,
			"maxNomLat": 28.000000,
			"mincut": 10
		},
		{
			"s1": "Atlanta,+GA6540",
			"s2": "New+York,+NY4048",
			"t1": "Stockton,+CA6563",
			"t2": "Atlanta,+GA6745",
			"suurballeNbPaths": 2,
			"suurballeTime": 42710511,
			"suurballePaths": {
				"path0": [
					"Atlanta,+GA6540",
					"Atlanta,+GA4102",
					"Atlanta,+GA6745"
				],
				"lat0": 2.000000,
				"nbSeg0": 1,
				"path1": [
					"New+York,+NY4048",
					"Pennsauken,+NJ4052",
					"Stockton,+CA4064",
					"Stockton,+CA6563"
				],
				"lat1": 24.000000,
				"nbSeg1": 0
			},
			"pathsExist": true,
			"path1": [
				"Atlanta,+GA6540",
				"Chicago,+IL4037",
				"Stockton,+CA6563"
			],
			"lat1": 25.000000,
			"path2": [
				"New+York,+NY4048",
				"Relay,+MD4110",
				"Atlanta,+GA6745"
			],
			"lat2": 10.000000,
			"maxlat": 25.000000,
			"runtime": 28358598269,
			"nomLat1": 31.000000,
			"nomLat2": 9.000000,
			"maxNomLat": 31.000000,
			"mincut": 7
		},
		{
			"s1": "Anaheim,+CA4101",
			"s2": "Dallas,+TX6663",
			"t1": "Pennsauken,+NJ6728",
			"t2": "New+York,+NY6446",
			"suurballeNbPaths": 2,
			"suurballeTime": 43704889,
			"suurballePaths": {
				"path0": [
					"Anaheim,+CA4101",
					"Dallas,+TX2635",
					"Dallas,+TX4015",
					"Pennsauken,+NJ4109",
					"Pennsauken,+NJ6728"
				],
				"lat0": 25.000000,
				"nbSeg0": 1,
				"path1": [
					"Dallas,+TX6663",
					"Dallas,+TX2635",
					"Chicago,+IL4104",
					"New+York,+NY4048",
					"New+York,+NY6446"
				],
				"lat1": 17.000000,
				"nbSeg1": 1
			},
			"pathsExist": true,
			"path1": [
				"Anaheim,+CA4101",
				"Dallas,+TX2635",
				"Pennsauken,+NJ6728"
			],
			"lat1": 25.000000,
			"path2": [
				"Dallas,+TX6663",
				"Chicago,+IL1484",
				"New+York,+NY6446"
			],
			"lat2": 17.000000,
			"maxlat": 25.000000,
			"runtime": 28403542615,
			"nomLat1": 29.000000,
			"nomLat2": 17.000000,
			"maxNomLat": 29.000000,
			"mincut": 8
		},
		{
			"s1": "Hong+Kong6421",
			"s2": "Chicago,+IL6468",
			"t1": "Copenhagen4077",
			"t2": "Tacoma,+WA6701",
			"suurballeNbPaths": 2,
			"suurballeTime": 48580816,
			"suurballePaths": {
				"path0": [
					"Hong+Kong6421",
					"Hong+Kong4042",
					"Tokyo4070",
					"Tacoma,+WA3251",
					"Tacoma,+WA6701"
				],
				"lat0": 58.000000,
				"nbSeg0": 3,
				"path1": [
					"Chicago,+IL6468",
					"Chicago,+IL1484",
					"New+York,+NY4088",
					"Manasquan,+NJ4086",
					"Copenhagen4038",
					"Copenhagen4077"
				],
				"lat1": 44.000000,
				"nbSeg1": 0
			},
			"pathsExist": true,
			"path1": [
				"Hong+Kong6421",
				"New+York,+NY4116",
				"Copenhagen4077"
			],
			"lat1": 117.000000,
			"path2": [
				"Chicago,+IL6468",
				"Cheyenne,+WY4076",
				"Tacoma,+WA6701"
			],
			"lat2": 20.000000,
			"maxlat": 117.000000,
			"runtime": 28512515523,
			"nomLat1": 118.000000,
			"nomLat2": 19.000000,
			"maxNomLat": 118.000000,
			"mincut": 6
		},
		{
			"s1": "Dallas,+TX6622",
			"s2": "Relay,+MD6675",
			"t1": "Pearl+Harbor,+HI6400",
			"t2": "Cheyenne,+WY6455",
			"suurballeNbPaths": 2,
			"suurballeTime": 41957114,
			"suurballePaths": {
				"path0": [
					"Dallas,+TX6622",
					"Dallas,+TX4080",
					"Cheyenne,+WY4076",
					"Cheyenne,+WY6455"
				],
				"lat0": 9.000000,
				"nbSeg0": 1,
				"path1": [
					"Relay,+MD6675",
					"Relay,+MD4093",
					"San+Jose,+CA4112",
					"Stockton,+CA4096",
					"Pearl+Harbor,+HI4092",
					"Pearl+Harbor,+HI6400"
				],
				"lat1": 46.000000,
				"nbSeg1": 0
			},
			"pathsExist": true,
			"path1": [
				"Dallas,+TX6622",
				"Anaheim,+CA4101",
				"Pearl+Harbor,+HI6400"
			],
			"lat1": 35.000000,
			"path2": [
				"Relay,+MD6675",
				"Relay,+MD4110",
				"New+York,+NY4116",
				"Cheyenne,+WY6455"
			],
			"lat2": 22.000000,
			"maxlat": 35.000000,
			"runtime": 30700860505,
			"nomLat1": 35.000000,
			"nomLat2": 23.000000,
			"maxNomLat": 35.000000,
			"mincut": 4
		},
		{
			"s1": "Atlanta,+GA6481",
			"s2": "Milan,+Italy4046",
			"t1": "Pearl+Harbor,+HI6400",
			"t2": "Stockton,+CA6452",
			"suurballeNbPaths": 2,
			"suurballeTime": 41321152,
			"suurballePaths": {
				"path0": [
					"Atlanta,+GA6481",
					"Atlanta,+GA4032",
					"Dallas,+TX2635",
					"Anaheim,+CA4099",
					"Pearl+Harbor,+HI4092",
					"Pearl+Harbor,+HI6400"
				],
				"lat0": 42.000000,
				"nbSeg0": 1,
				"path1": [
					"Milan,+Italy4046",
					"Paris4090",
					"London4044",
					"London4045",
					"New+York,+NY4017",
					"New+York,+NY4048",
					"Pennsauken,+NJ4052",
					"Stockton,+CA4064",
					"Stockton,+CA6452"
				],
				"lat1": 63.000000,
				"nbSeg1": 2
			},
			"pathsExist": true,
			"path1": [
				"Atlanta,+GA6481",
				"Chicago,+IL4037",
				"Pearl+Harbor,+HI6400"
			],
			"lat1": 47.000000,
			"path2": [
				"Milan,+Italy4046",
				"London4045",
				"New+York,+NY4017",
				"Stockton,+CA6452"
			],
			"lat2": 63.000000,
			"maxlat": 63.000000,
			"runtime": 31149132384,
			"nomLat1": 42.000000,
			"nomLat2": 67.000000,
			"maxNomLat": 67.000000,
			"mincut": 5
		},
		{
			"s1": "Relay,+MD4054",
			"s2": "Stockholm,+Sweden4066",
			"t1": "Dallas,+TX6645",
			"t2": "Springfield,+MA4023",
			"suurballeNbPaths": 2,
			"suurballeTime": 41092728,
			"suurballePaths": {
				"path0": [
					"Relay,+MD4054",
					"Relay,+MD4136",
					"Relay,+MD5801",
					"Dallas,+TX6573",
					"Dallas,+TX4015",
					"Dallas,+TX6645"
				],
				"lat0": 15.000000,
				"nbSeg0": 2,
				"path1": [
					"Stockholm,+Sweden4066",
					"Copenhagen4038",
					"Manasquan,+NJ4086",
					"New+York,+NY4088",
					"New+York,+NY4124",
					"New+York,+NY4137",
					"Springfield,+MA4020",
					"Springfield,+MA4023"
				],
				"lat1": 44.000000,
				"nbSeg1": 2
			},
			"pathsExist": true,
			"path1": [
				"Relay,+MD4054",
				"Chicago,+IL4104",
				"Dallas,+TX6645"
			],
			"lat1": 21.000000,
			"path2": [
				"Stockholm,+Sweden4066",
				"New+York,+NY4116",
				"Springfield,+MA4023"
			],
			"lat2": 44.000000,
			"maxlat": 44.000000,
			"runtime": 32824664689,
			"nomLat1": 18.000000,
			"nomLat2": 46.000000,
			"maxNomLat": 46.000000,
			"mincut": 11
		},
		{
			"s1": "Stockton,+CA6452",
			"s2": "Hong+Kong4042",
			"t1": "New+York,+NY6605",
			"t2": "Anaheim,+CA6438",
			"suurballeNbPaths": 2,
			"suurballeTime": 41581990,
			"suurballePaths": {
				"path0": [
					"Stockton,+CA6452",
					"Stockton,+CA4096",
					"San+Jose,+CA4112",
					"Anaheim,+CA4031",
					"Anaheim,+CA6438"
				],
				"lat0": 8.000000,
				"nbSeg0": 0,
				"path1": [
					"Hong+Kong4042",
					"Tokyo4070",
					"Tacoma,+WA3251",
					"Seattle,+WA4059",
					"Chicago,+IL4104",
					"New+York,+NY4116",
					"New+York,+NY6605"
				],
				"lat1": 81.000000,
				"nbSeg1": 4
			},
			"pathsExist": true,
			"path1": [
				"Stockton,+CA6452",
				"Stockton,+CA4113",
				"New+York,+NY6605"
			],
			"lat1": 25.000000,
			"path2": [
				"Hong+Kong4042",
				"Hong+Kong6421",
				"Anaheim,+CA6438"
			],
			"lat2": 65.000000,
			"maxlat": 65.000000,
			"runtime": 36695267699,
			"nomLat1": 25.000000,
			"nomLat2": 68.000000,
			"maxNomLat": 68.000000,
			"mincut": 7
		},
		{
			"s1": "Springfield,+MA4023",
			"s2": "Rancho+Cordova,+CA5507",
			"t1": "Stockton,+CA6758",
			"t2": "Tokyo4070",
			"suurballeNbPaths": 2,
			"suurballeTime": 41217945,
			"suurballePaths": {
				"path0": [
					"Rancho+Cordova,+CA5507",
					"Stockton,+CA4065",
					"Stockton,+CA6758"
				],
				"lat0": 3.000000,
				"nbSeg0": 0,
				"path1": [
					"Springfield,+MA4023",
					"Chicago,+IL1484",
					"Cheyenne,+WY4034",
					"Tacoma,+WA3251",
					"Tokyo4070"
				],
				"lat1": 66.000000,
				"nbSeg1": 3
			},
			"pathsExist": true,
			"path1": [
				"Springfield,+MA4023",
				"Tacoma,+WA6408",
				"Stockton,+CA6758"
			],
			"lat1": 38.000000,
			"path2": [
				"Rancho+Cordova,+CA5507",
				"Stockton,+CA6407",
				"Tokyo4070"
			],
			"lat2": 49.000000,
			"maxlat": 49.000000,
			"runtime": 45557050383,
			"nomLat1": 25.000000,
			"nomLat2": 49.000000,
			"maxNomLat": 49.000000,
			"mincut": 9
		}
	],
	"demandsWithSol": 90
}
