{
	"nbDemands": 100,
	"demands": [
		{
			"s1": "Jersey+City,+NJ245",
			"s2": "Tukwila,+WA509",
			"t1": "Herndon,+VA208",
			"t2": "New+York,+NY294",
			"suurballeNbPaths": 2,
			"suurballeTime": 97595003,
			"suurballePaths": {
				"path0": [
					"Jersey+City,+NJ245",
					"New+York,+NY294"
				],
				"lat0": 2.000000,
				"nbSeg0": 0,
				"path1": [
					"Tukwila,+WA509",
					"Chicago,+IL155",
					"Chicago,+IL156",
					"Oak+Brook,+IL300",
					"Weehawken,+NJ543",
					"New+York,+NY293",
					"Herndon,+VA208"
				],
				"lat1": 30.000000,
				"nbSeg1": 4
			},
			"pathsExist": false,
			"runtime": 313528425,
			"nomLat1": 8.000000,
			"nomLat2": 27.000000,
			"maxNomLat": 27.000000,
			"mincut": 6
		},
		{
			"s1": "Palo+Alto,+CA318",
			"s2": "Amsterdam119",
			"t1": "Oak+Brook,+IL301",
			"t2": "San+Jose,+CA459",
			"suurballeNbPaths": 2,
			"suurballeTime": 153274831,
			"suurballePaths": {
				"path0": [
					"Palo+Alto,+CA318",
					"Santa+Clara,+CA363",
					"Santa+Clara,+CA431",
					"Santa+Clara,+CA429",
					"San+Jose,+CA459"
				],
				"lat0": 6.000000,
				"nbSeg0": 1,
				"path1": [
					"Amsterdam119",
					"London275",
					"Weehawken,+NJ544",
					"Weehawken,+NJ552",
					"Oak+Brook,+IL300",
					"Oak+Brook,+IL301"
				],
				"lat1": 41.000000,
				"nbSeg1": 2
			},
			"pathsExist": false,
			"runtime": 307209660,
			"nomLat1": 22.000000,
			"nomLat2": 61.000000,
			"maxNomLat": 61.000000,
			"mincut": 5
		},
		{
			"s1": "Atlanta,+GA127",
			"s2": "Weehawken,+NJ552",
			"t1": "London274",
			"t2": "Tukwila,+WA509",
			"suurballeNbPaths": 2,
			"suurballeTime": 225006023,
			"suurballePaths": {
				"path0": [
					"Weehawken,+NJ552",
					"Weehawken,+NJ544",
					"London274"
				],
				"lat0": 30.000000,
				"nbSeg0": 2,
				"path1": [
					"Atlanta,+GA127",
					"Fort+Worth,+TX190",
					"Fort+Worth,+TX189",
					"Santa+Clara,+CA403",
					"Santa+Clara,+CA429",
					"Tukwila,+WA508",
					"Tukwila,+WA509"
				],
				"lat1": 31.000000,
				"nbSeg1": 1
			},
			"pathsExist": false,
			"runtime": 283619783,
			"nomLat1": 43.000000,
			"nomLat2": 25.000000,
			"maxNomLat": 43.000000,
			"mincut": 5
		},
		{
			"s1": "London275",
			"s2": "Santa+Clara,+CA389",
			"t1": "New+York,+NY293",
			"t2": "Amsterdam119",
			"suurballeNbPaths": 2,
			"suurballeTime": 279306110,
			"suurballePaths": {
				"path0": [
					"London275",
					"Amsterdam119"
				],
				"lat0": 3.000000,
				"nbSeg0": 0,
				"path1": [
					"Santa+Clara,+CA389",
					"Santa+Clara,+CA403",
					"Santa+Clara,+CA429",
					"Herndon,+VA496",
					"Herndon,+VA495",
					"Herndon,+VA208",
					"New+York,+NY293"
				],
				"lat1": 28.000000,
				"nbSeg1": 2
			},
			"pathsExist": false,
			"runtime": 310721952,
			"nomLat1": 33.000000,
			"nomLat2": 62.000000,
			"maxNomLat": 62.000000,
			"mincut": 7
		},
		{
			"s1": "Palo+Alto,+CA317",
			"s2": "Tukwila,+WA509",
			"t1": "Miami,+FL285",
			"t2": "Santa+Clara,+CA365",
			"suurballeNbPaths": 2,
			"suurballeTime": 283065439,
			"suurballePaths": {
				"path0": [
					"Palo+Alto,+CA317",
					"Palo+Alto,+CA104",
					"Santa+Clara,+CA365"
				],
				"lat0": 3.000000,
				"nbSeg0": 0,
				"path1": [
					"Tukwila,+WA509",
					"Chicago,+IL155",
					"Chicago,+IL156",
					"Oak+Brook,+IL300",
					"Weehawken,+NJ543",
					"New+York,+NY293",
					"Miami,+FL285"
				],
				"lat1": 37.000000,
				"nbSeg1": 2
			},
			"pathsExist": false,
			"runtime": 310325657,
			"nomLat1": 32.000000,
			"nomLat2": 13.000000,
			"maxNomLat": 32.000000,
			"mincut": 4
		},
		{
			"s1": "San+Jose,+CA460",
			"s2": "Amsterdam119",
			"t1": "Santa+Clara,+CA364",
			"t2": "Santa+Clara,+CA404",
			"suurballeNbPaths": 2,
			"suurballeTime": 234918533,
			"suurballePaths": {
				"path0": [
					"San+Jose,+CA460",
					"Santa+Clara,+CA443",
					"Santa+Clara,+CA404"
				],
				"lat0": 3.000000,
				"nbSeg0": 0,
				"path1": [
					"Amsterdam119",
					"London275",
					"Weehawken,+NJ544",
					"Herndon,+VA495",
					"Herndon,+VA496",
					"Santa+Clara,+CA429",
					"Santa+Clara,+CA431",
					"Santa+Clara,+CA364"
				],
				"lat1": 59.000000,
				"nbSeg1": 2
			},
			"pathsExist": false,
			"runtime": 349723461,
			"nomLat1": 4.000000,
			"nomLat2": 61.000000,
			"maxNomLat": 61.000000,
			"mincut": 6
		},
		{
			"s1": "Palo+Alto,+CA317",
			"s2": "Fort+Worth,+TX190",
			"t1": "San+Jose,+CA471",
			"t2": "Tukwila,+WA509",
			"suurballeNbPaths": 2,
			"suurballeTime": 288179115,
			"suurballePaths": {
				"path0": [
					"Palo+Alto,+CA317",
					"Palo+Alto,+CA104",
					"Santa+Clara,+CA444",
					"San+Jose,+CA471"
				],
				"lat0": 5.000000,
				"nbSeg0": 0,
				"path1": [
					"Fort+Worth,+TX190",
					"Fort+Worth,+TX189",
					"Santa+Clara,+CA403",
					"Santa+Clara,+CA429",
					"Tukwila,+WA508",
					"Tukwila,+WA509"
				],
				"lat1": 23.000000,
				"nbSeg1": 1
			},
			"pathsExist": false,
			"runtime": 288122989,
			"nomLat1": 5.000000,
			"nomLat2": 25.000000,
			"maxNomLat": 25.000000,
			"mincut": 6
		},
		{
			"s1": "Waltham,+MA568",
			"s2": "Amsterdam119",
			"t1": "Oak+Brook,+IL315",
			"t2": "Atlanta,+GA133",
			"suurballeNbPaths": 2,
			"suurballeTime": 130431175,
			"suurballePaths": {
				"path0": [
					"Waltham,+MA568",
					"Waltham,+MA555",
					"Oak+Brook,+IL300",
					"Oak+Brook,+IL315"
				],
				"lat0": 10.000000,
				"nbSeg0": 1,
				"path1": [
					"Amsterdam119",
					"London275",
					"Weehawken,+NJ544",
					"Weehawken,+NJ543",
					"Atlanta,+GA127",
					"Atlanta,+GA133"
				],
				"lat1": 41.000000,
				"nbSeg1": 2
			},
			"pathsExist": false,
			"runtime": 450202449,
			"nomLat1": 11.000000,
			"nomLat2": 46.000000,
			"maxNomLat": 46.000000,
			"mincut": 5
		},
		{
			"s1": "Santa+Clara,+CA405",
			"s2": "Weehawken,+NJ543",
			"t1": "Tukwila,+WA509",
			"t2": "Oak+Brook,+IL309",
			"suurballeNbPaths": 2,
			"suurballeTime": 298941610,
			"suurballePaths": {
				"path0": [
					"Weehawken,+NJ543",
					"Oak+Brook,+IL300",
					"Oak+Brook,+IL309"
				],
				"lat0": 8.000000,
				"nbSeg0": 0,
				"path1": [
					"Santa+Clara,+CA405",
					"Santa+Clara,+CA403",
					"Santa+Clara,+CA429",
					"Tukwila,+WA508",
					"Tukwila,+WA509"
				],
				"lat1": 10.000000,
				"nbSeg1": 0
			},
			"pathsExist": false,
			"runtime": 316156017,
			"nomLat1": 10.000000,
			"nomLat2": 8.000000,
			"maxNomLat": 10.000000,
			"mincut": 4
		},
		{
			"s1": "Herndon,+VA496",
			"s2": "Fort+Worth,+TX191",
			"t1": "Santa+Clara,+CA389",
			"t2": "El+Segundo,+CA163",
			"suurballeNbPaths": 2,
			"suurballeTime": 13900983,
			"suurballePaths": {
				"path0": [
					"Herndon,+VA496",
					"Santa+Clara,+CA429",
					"Santa+Clara,+CA403",
					"Santa+Clara,+CA389"
				],
				"lat0": 23.000000,
				"nbSeg0": 1,
				"path1": [
					"Fort+Worth,+TX191",
					"Fort+Worth,+TX189",
					"Austin,+TX137",
					"El+Segundo,+CA163"
				],
				"lat1": 15.000000,
				"nbSeg1": 1
			},
			"pathsExist": false,
			"runtime": 518715629,
			"nomLat1": 24.000000,
			"nomLat2": 16.000000,
			"maxNomLat": 24.000000,
			"mincut": 5
		},
		{
			"s1": "Santa+Clara,+CA336",
			"s2": "Oak+Brook,+IL300",
			"t1": "San+Jose,+CA472",
			"t2": "Oak+Brook,+IL309",
			"suurballeNbPaths": 2,
			"suurballeTime": 29006590,
			"suurballePaths": {
				"path0": [
					"Oak+Brook,+IL300",
					"Oak+Brook,+IL309"
				],
				"lat0": 1.000000,
				"nbSeg0": 0,
				"path1": [
					"Santa+Clara,+CA336",
					"Santa+Clara,+CA430",
					"San+Jose,+CA472"
				],
				"lat1": 3.000000,
				"nbSeg1": 0
			},
			"pathsExist": false,
			"runtime": 409535769,
			"nomLat1": 3.000000,
			"nomLat2": 1.000000,
			"maxNomLat": 3.000000,
			"mincut": 6
		},
		{
			"s1": "London274",
			"s2": "Oak+Brook,+IL307",
			"t1": "Austin,+TX137",
			"t2": "Amsterdam119",
			"suurballeNbPaths": 2,
			"suurballeTime": 24667755,
			"suurballePaths": {
				"path0": [
					"London274",
					"Amsterdam119"
				],
				"lat0": 3.000000,
				"nbSeg0": 0,
				"path1": [
					"Oak+Brook,+IL307",
					"Oak+Brook,+IL300",
					"Chicago,+IL156",
					"Fort+Worth,+TX189",
					"Austin,+TX137"
				],
				"lat1": 14.000000,
				"nbSeg1": 0
			},
			"pathsExist": false,
			"runtime": 446170572,
			"nomLat1": 55.000000,
			"nomLat2": 44.000000,
			"maxNomLat": 55.000000,
			"mincut": 4
		},
		{
			"s1": "Chicago,+IL155",
			"s2": "El+Segundo,+CA164",
			"t1": "Herndon,+VA206",
			"t2": "Oak+Brook,+IL309",
			"suurballeNbPaths": 2,
			"suurballeTime": 4618975,
			"suurballePaths": {
				"path0": [
					"Chicago,+IL155",
					"Oak+Brook,+IL301",
					"Oak+Brook,+IL309"
				],
				"lat0": 3.000000,
				"nbSeg0": 0,
				"path1": [
					"El+Segundo,+CA164",
					"Santa+Clara,+CA403",
					"Santa+Clara,+CA429",
					"Herndon,+VA496",
					"Herndon,+VA495",
					"Herndon,+VA208",
					"Herndon,+VA206"
				],
				"lat1": 29.000000,
				"nbSeg1": 2
			},
			"pathsExist": false,
			"runtime": 706187057,
			"nomLat1": 16.000000,
			"nomLat2": 24.000000,
			"maxNomLat": 24.000000,
			"mincut": 4
		},
		{
			"s1": "Amsterdam119",
			"s2": "Weehawken,+NJ544",
			"t1": "Herndon,+VA496",
			"t2": "Oak+Brook,+IL309",
			"suurballeNbPaths": 2,
			"suurballeTime": 16632157,
			"suurballePaths": {
				"path0": [
					"Weehawken,+NJ544",
					"Herndon,+VA495",
					"Herndon,+VA496"
				],
				"lat0": 4.000000,
				"nbSeg0": 0,
				"path1": [
					"Amsterdam119",
					"London275",
					"Weehawken,+NJ544",
					"Weehawken,+NJ552",
					"Oak+Brook,+IL300",
					"Oak+Brook,+IL309"
				],
				"lat1": 41.000000,
				"nbSeg1": 2
			},
			"pathsExist": false,
			"runtime": 60514190,
			"nomLat1": 38.000000,
			"nomLat2": 9.000000,
			"maxNomLat": 38.000000,
			"mincut": 5
		},
		{
			"s1": "Herndon,+VA193",
			"s2": "Santa+Clara,+CA364",
			"t1": "Palo+Alto,+CA317",
			"t2": "Santa+Clara,+CA431",
			"suurballeNbPaths": 2,
			"suurballeTime": 13579531,
			"suurballePaths": {
				"path0": [
					"Santa+Clara,+CA364",
					"Palo+Alto,+CA318",
					"Palo+Alto,+CA317"
				],
				"lat0": 3.000000,
				"nbSeg0": 0,
				"path1": [
					"Herndon,+VA193",
					"Herndon,+VA496",
					"Santa+Clara,+CA429",
					"Santa+Clara,+CA431"
				],
				"lat1": 23.000000,
				"nbSeg1": 0
			},
			"pathsExist": true,
			"path1": [
				"Herndon,+VA193",
				"Palo+Alto,+CA317"
			],
			"lat1": 26.000000,
			"path2": [
				"Santa+Clara,+CA364",
				"Santa+Clara,+CA431"
			],
			"lat2": 1.000000,
			"maxlat": 26.000000,
			"runtime": 861065966,
			"nomLat1": 26.000000,
			"nomLat2": 1.000000,
			"maxNomLat": 26.000000,
			"mincut": 6
		},
		{
			"s1": "Irvine,+CA237",
			"s2": "Santa+Clara,+CA431",
			"t1": "Irvine,+CA231",
			"t2": "Palo+Alto,+CA317",
			"suurballeNbPaths": 2,
			"suurballeTime": 15793557,
			"suurballePaths": {
				"path0": [
					"Irvine,+CA237",
					"Irvine,+CA231"
				],
				"lat0": 1.000000,
				"nbSeg0": 0,
				"path1": [
					"Santa+Clara,+CA431",
					"Santa+Clara,+CA364",
					"Palo+Alto,+CA318",
					"Palo+Alto,+CA317"
				],
				"lat1": 4.000000,
				"nbSeg1": 1
			},
			"pathsExist": false,
			"runtime": 734878926,
			"nomLat1": 1.000000,
			"nomLat2": 4.000000,
			"maxNomLat": 4.000000,
			"mincut": 7
		},
		{
			"s1": "Atlanta,+GA126",
			"s2": "New+York,+NY293",
			"t1": "Herndon,+VA193",
			"t2": "Weehawken,+NJ543",
			"suurballeNbPaths": 2,
			"suurballeTime": 16713612,
			"suurballePaths": {
				"path0": [
					"Atlanta,+GA126",
					"Herndon,+VA193"
				],
				"lat0": 6.000000,
				"nbSeg0": 0,
				"path1": [
					"New+York,+NY293",
					"Weehawken,+NJ543"
				],
				"lat1": 2.000000,
				"nbSeg1": 1
			},
			"pathsExist": true,
			"path1": [
				"Atlanta,+GA126",
				"Herndon,+VA193"
			],
			"lat1": 6.000000,
			"path2": [
				"New+York,+NY293",
				"New+York,+NY294",
				"Weehawken,+NJ543"
			],
			"lat2": 3.000000,
			"maxlat": 6.000000,
			"runtime": 937836744,
			"nomLat1": 6.000000,
			"nomLat2": 3.000000,
			"maxNomLat": 6.000000,
			"mincut": 8
		},
		{
			"s1": "Santa+Clara,+CA444",
			"s2": "Fort+Worth,+TX190",
			"t1": "Santa+Clara,+CA365",
			"t2": "Atlanta,+GA126",
			"suurballeNbPaths": 2,
			"suurballeTime": 16755324,
			"suurballePaths": {
				"path0": [
					"Fort+Worth,+TX190",
					"Atlanta,+GA127",
					"Atlanta,+GA126"
				],
				"lat0": 9.000000,
				"nbSeg0": 0,
				"path1": [
					"Santa+Clara,+CA444",
					"Santa+Clara,+CA443",
					"Santa+Clara,+CA431",
					"Santa+Clara,+CA365"
				],
				"lat1": 3.000000,
				"nbSeg1": 1
			},
			"pathsExist": true,
			"path1": [
				"Santa+Clara,+CA444",
				"Santa+Clara,+CA365"
			],
			"lat1": 4.000000,
			"path2": [
				"Fort+Worth,+TX190",
				"Atlanta,+GA126"
			],
			"lat2": 9.000000,
			"maxlat": 9.000000,
			"runtime": 525200973,
			"nomLat1": 4.000000,
			"nomLat2": 9.000000,
			"maxNomLat": 9.000000,
			"mincut": 5
		},
		{
			"s1": "Herndon,+VA206",
			"s2": "Fort+Worth,+TX189",
			"t1": "Weehawken,+NJ544",
			"t2": "Palo+Alto,+CA318",
			"suurballeNbPaths": 2,
			"suurballeTime": 9489776,
			"suurballePaths": {
				"path0": [
					"Herndon,+VA206",
					"New+York,+NY293",
					"Weehawken,+NJ544"
				],
				"lat0": 5.000000,
				"nbSeg0": 0,
				"path1": [
					"Fort+Worth,+TX189",
					"Santa+Clara,+CA403",
					"Palo+Alto,+CA104",
					"Palo+Alto,+CA317",
					"Palo+Alto,+CA318"
				],
				"lat1": 17.000000,
				"nbSeg1": 0
			},
			"pathsExist": true,
			"path1": [
				"Herndon,+VA206",
				"Weehawken,+NJ544"
			],
			"lat1": 5.000000,
			"path2": [
				"Fort+Worth,+TX189",
				"Palo+Alto,+CA318"
			],
			"lat2": 17.000000,
			"maxlat": 17.000000,
			"runtime": 982133478,
			"nomLat1": 5.000000,
			"nomLat2": 17.000000,
			"maxNomLat": 17.000000,
			"mincut": 8
		},
		{
			"s1": "Irvine,+CA237",
			"s2": "Weehawken,+NJ552",
			"t1": "San+Jose,+CA471",
			"t2": "Austin,+TX137",
			"suurballeNbPaths": 2,
			"suurballeTime": 15781324,
			"suurballePaths": {
				"path0": [
					"Weehawken,+NJ552",
					"Oak+Brook,+IL300",
					"Chicago,+IL156",
					"Fort+Worth,+TX189",
					"Austin,+TX137"
				],
				"lat0": 20.000000,
				"nbSeg0": 0,
				"path1": [
					"Irvine,+CA237",
					"Irvine,+CA228",
					"Irvine,+CA213",
					"Santa+Clara,+CA404",
					"Santa+Clara,+CA444",
					"San+Jose,+CA471"
				],
				"lat1": 9.000000,
				"nbSeg1": 2
			},
			"pathsExist": false,
			"runtime": 338991070,
			"nomLat1": 10.000000,
			"nomLat2": 20.000000,
			"maxNomLat": 20.000000,
			"mincut": 5
		},
		{
			"s1": "Irvine,+CA213",
			"s2": "Miami,+FL285",
			"t1": "Irvine,+CA230",
			"t2": "London276",
			"suurballeNbPaths": 2,
			"suurballeTime": 10183696,
			"suurballePaths": {
				"path0": [
					"Irvine,+CA213",
					"Irvine,+CA228",
					"Irvine,+CA230"
				],
				"lat0": 2.000000,
				"nbSeg0": 1,
				"path1": [
					"Miami,+FL285",
					"New+York,+NY293",
					"Weehawken,+NJ544",
					"London276"
				],
				"lat1": 41.000000,
				"nbSeg1": 2
			},
			"pathsExist": true,
			"path1": [
				"Irvine,+CA213",
				"Irvine,+CA230"
			],
			"lat1": 4.000000,
			"path2": [
				"Miami,+FL285",
				"New+York,+NY294",
				"London276"
			],
			"lat2": 42.000000,
			"maxlat": 42.000000,
			"runtime": 376148666,
			"nomLat1": 4.000000,
			"nomLat2": 43.000000,
			"maxNomLat": 43.000000,
			"mincut": 4
		},
		{
			"s1": "Oak+Brook,+IL309",
			"s2": "Jersey+City,+NJ245",
			"t1": "Atlanta,+GA126",
			"t2": "Santa+Clara,+CA405",
			"suurballeNbPaths": 2,
			"suurballeTime": 13785872,
			"suurballePaths": {
				"path0": [
					"Jersey+City,+NJ245",
					"Jersey+City,+NJ244",
					"Weehawken,+NJ543",
					"Atlanta,+GA127",
					"Atlanta,+GA126"
				],
				"lat0": 11.000000,
				"nbSeg0": 3,
				"path1": [
					"Oak+Brook,+IL309",
					"Oak+Brook,+IL301",
					"San+Jose,+CA471",
					"Santa+Clara,+CA444",
					"Santa+Clara,+CA403",
					"Santa+Clara,+CA405"
				],
				"lat1": 21.000000,
				"nbSeg1": 0
			},
			"pathsExist": false,
			"runtime": 979009437,
			"nomLat1": 21.000000,
			"nomLat2": 29.000000,
			"maxNomLat": 29.000000,
			"mincut": 5
		},
		{
			"s1": "Oak+Brook,+IL309",
			"s2": "Santa+Clara,+CA336",
			"t1": "Austin,+TX137",
			"t2": "Waltham,+MA569",
			"suurballeNbPaths": 2,
			"suurballeTime": 16188256,
			"suurballePaths": {
				"path0": [
					"Oak+Brook,+IL309",
					"Oak+Brook,+IL300",
					"Waltham,+MA556",
					"Waltham,+MA569"
				],
				"lat0": 10.000000,
				"nbSeg0": 1,
				"path1": [
					"Santa+Clara,+CA336",
					"Santa+Clara,+CA430",
					"Santa+Clara,+CA404",
					"El+Segundo,+CA163",
					"Austin,+TX137"
				],
				"lat1": 17.000000,
				"nbSeg1": 1
			},
			"pathsExist": false,
			"runtime": 350293509,
			"nomLat1": 14.000000,
			"nomLat2": 33.000000,
			"maxNomLat": 33.000000,
			"mincut": 5
		},
		{
			"s1": "Oak+Brook,+IL309",
			"s2": "Fort+Worth,+TX190",
			"t1": "New+York,+NY294",
			"t2": "San+Jose,+CA472",
			"suurballeNbPaths": 2,
			"suurballeTime": 9933543,
			"suurballePaths": {
				"path0": [
					"Oak+Brook,+IL309",
					"Oak+Brook,+IL300",
					"Weehawken,+NJ543",
					"New+York,+NY294"
				],
				"lat0": 10.000000,
				"nbSeg0": 0,
				"path1": [
					"Fort+Worth,+TX190",
					"Fort+Worth,+TX189",
					"Santa+Clara,+CA403",
					"Santa+Clara,+CA389",
					"San+Jose,+CA472"
				],
				"lat1": 17.000000,
				"nbSeg1": 0
			},
			"pathsExist": false,
			"runtime": 945088234,
			"nomLat1": 10.000000,
			"nomLat2": 17.000000,
			"maxNomLat": 17.000000,
			"mincut": 7
		},
		{
			"s1": "Irvine,+CA237",
			"s2": "San+Jose,+CA459",
			"t1": "Oak+Brook,+IL315",
			"t2": "San+Jose,+CA460",
			"suurballeNbPaths": 2,
			"suurballeTime": 2686170,
			"suurballePaths": {
				"path0": [
					"San+Jose,+CA459",
					"San+Jose,+CA460"
				],
				"lat0": 1.000000,
				"nbSeg0": 0,
				"path1": [
					"Irvine,+CA237",
					"Irvine,+CA228",
					"Fort+Worth,+TX189",
					"Chicago,+IL156",
					"Oak+Brook,+IL300",
					"Oak+Brook,+IL315"
				],
				"lat1": 23.000000,
				"nbSeg1": 1
			},
			"pathsExist": false,
			"runtime": 313022764,
			"nomLat1": 24.000000,
			"nomLat2": 1.000000,
			"maxNomLat": 24.000000,
			"mincut": 4
		},
		{
			"s1": "Santa+Clara,+CA429",
			"s2": "Tukwila,+WA509",
			"t1": "Santa+Clara,+CA403",
			"t2": "Weehawken,+NJ543",
			"suurballeNbPaths": 2,
			"suurballeTime": 2764852,
			"suurballePaths": {
				"path0": [
					"Santa+Clara,+CA429",
					"Santa+Clara,+CA403"
				],
				"lat0": 1.000000,
				"nbSeg0": 0,
				"path1": [
					"Tukwila,+WA509",
					"Chicago,+IL155",
					"Chicago,+IL156",
					"Oak+Brook,+IL300",
					"Weehawken,+NJ543"
				],
				"lat1": 25.000000,
				"nbSeg1": 1
			},
			"pathsExist": false,
			"runtime": 588072615,
			"nomLat1": 1.000000,
			"nomLat2": 25.000000,
			"maxNomLat": 25.000000,
			"mincut": 7
		},
		{
			"s1": "Waltham,+MA568",
			"s2": "Herndon,+VA496",
			"t1": "Santa+Clara,+CA431",
			"t2": "Tukwila,+WA509",
			"suurballeNbPaths": 2,
			"suurballeTime": 31240955,
			"suurballePaths": {
				"path0": [
					"Herndon,+VA496",
					"Santa+Clara,+CA429",
					"Santa+Clara,+CA431"
				],
				"lat0": 22.000000,
				"nbSeg0": 0,
				"path1": [
					"Waltham,+MA568",
					"Waltham,+MA555",
					"Oak+Brook,+IL300",
					"Oak+Brook,+IL301",
					"Chicago,+IL155",
					"Tukwila,+WA509"
				],
				"lat1": 27.000000,
				"nbSeg1": 2
			},
			"pathsExist": false,
			"runtime": 208061862,
			"nomLat1": 30.000000,
			"nomLat2": 41.000000,
			"maxNomLat": 41.000000,
			"mincut": 5
		},
		{
			"s1": "Santa+Clara,+CA364",
			"s2": "Tukwila,+WA508",
			"t1": "El+Segundo,+CA164",
			"t2": "Tokyo526",
			"suurballeNbPaths": 2,
			"suurballeTime": 15998988,
			"suurballePaths": {
				"path0": [
					"Santa+Clara,+CA364",
					"Santa+Clara,+CA430",
					"Santa+Clara,+CA336",
					"Tokyo526"
				],
				"lat0": 45.000000,
				"nbSeg0": 1,
				"path1": [
					"Tukwila,+WA508",
					"Santa+Clara,+CA429",
					"Santa+Clara,+CA403",
					"El+Segundo,+CA164"
				],
				"lat1": 12.000000,
				"nbSeg1": 1
			},
			"pathsExist": true,
			"path1": [
				"Santa+Clara,+CA364",
				"El+Segundo,+CA164"
			],
			"lat1": 6.000000,
			"path2": [
				"Tukwila,+WA508",
				"Tokyo526"
			],
			"lat2": 52.000000,
			"maxlat": 52.000000,
			"runtime": 1035050674,
			"nomLat1": 6.000000,
			"nomLat2": 52.000000,
			"maxNomLat": 52.000000,
			"mincut": 6
		},
		{
			"s1": "Tukwila,+WA509",
			"s2": "Irvine,+CA237",
			"t1": "Herndon,+VA206",
			"t2": "Santa+Clara,+CA404",
			"suurballeNbPaths": 2,
			"suurballeTime": 13055589,
			"suurballePaths": {
				"path0": [
					"Irvine,+CA237",
					"Irvine,+CA228",
					"Irvine,+CA213",
					"Santa+Clara,+CA404"
				],
				"lat0": 6.000000,
				"nbSeg0": 1,
				"path1": [
					"Tukwila,+WA509",
					"Chicago,+IL155",
					"Chicago,+IL156",
					"Oak+Brook,+IL300",
					"Weehawken,+NJ543",
					"New+York,+NY293",
					"Herndon,+VA206"
				],
				"lat1": 30.000000,
				"nbSeg1": 2
			},
			"pathsExist": false,
			"runtime": 357534724,
			"nomLat1": 31.000000,
			"nomLat2": 8.000000,
			"maxNomLat": 31.000000,
			"mincut": 4
		},
		{
			"s1": "Irvine,+CA237",
			"s2": "Jersey+City,+NJ261",
			"t1": "Oak+Brook,+IL309",
			"t2": "Santa+Clara,+CA431",
			"suurballeNbPaths": 2,
			"suurballeTime": 12929636,
			"suurballePaths": {
				"path0": [
					"Jersey+City,+NJ261",
					"Jersey+City,+NJ244",
					"Weehawken,+NJ543",
					"Oak+Brook,+IL300",
					"Oak+Brook,+IL309"
				],
				"lat0": 11.000000,
				"nbSeg0": 0,
				"path1": [
					"Irvine,+CA237",
					"Irvine,+CA228",
					"Irvine,+CA213",
					"Santa+Clara,+CA404",
					"Santa+Clara,+CA443",
					"Santa+Clara,+CA431"
				],
				"lat1": 8.000000,
				"nbSeg1": 2
			},
			"pathsExist": false,
			"runtime": 209994373,
			"nomLat1": 24.000000,
			"nomLat2": 29.000000,
			"maxNomLat": 29.000000,
			"mincut": 4
		},
		{
			"s1": "London276",
			"s2": "El+Segundo,+CA163",
			"t1": "San+Jose,+CA459",
			"t2": "Fort+Worth,+TX191",
			"suurballeNbPaths": 2,
			"suurballeTime": 4652838,
			"suurballePaths": {
				"path0": [
					"El+Segundo,+CA163",
					"El+Segundo,+CA164",
					"Santa+Clara,+CA403",
					"Santa+Clara,+CA429",
					"San+Jose,+CA459"
				],
				"lat0": 8.000000,
				"nbSeg0": 1,
				"path1": [
					"London276",
					"Weehawken,+NJ544",
					"Weehawken,+NJ543",
					"Atlanta,+GA127",
					"Fort+Worth,+TX190",
					"Fort+Worth,+TX191"
				],
				"lat1": 46.000000,
				"nbSeg1": 3
			},
			"pathsExist": false,
			"runtime": 275120895,
			"nomLat1": 58.000000,
			"nomLat2": 16.000000,
			"maxNomLat": 58.000000,
			"mincut": 4
		},
		{
			"s1": "Austin,+TX137",
			"s2": "Oak+Brook,+IL309",
			"t1": "Weehawken,+NJ543",
			"t2": "New+York,+NY294",
			"suurballeNbPaths": 2,
			"suurballeTime": 2871156,
			"suurballePaths": {
				"path0": [
					"Oak+Brook,+IL309",
					"Oak+Brook,+IL300",
					"Weehawken,+NJ543"
				],
				"lat0": 8.000000,
				"nbSeg0": 0,
				"path1": [
					"Austin,+TX137",
					"Fort+Worth,+TX189",
					"Fort+Worth,+TX190",
					"Atlanta,+GA127",
					"Weehawken,+NJ543"
				],
				"lat1": 19.000000,
				"nbSeg1": 1
			},
			"pathsExist": false,
			"runtime": 374132720,
			"nomLat1": 20.000000,
			"nomLat2": 10.000000,
			"maxNomLat": 20.000000,
			"mincut": 4
		},
		{
			"s1": "Santa+Clara,+CA404",
			"s2": "Chicago,+IL155",
			"t1": "Oak+Brook,+IL307",
			"t2": "Amsterdam119",
			"suurballeNbPaths": 2,
			"suurballeTime": 22923806,
			"suurballePaths": {
				"path0": [
					"Chicago,+IL155",
					"Oak+Brook,+IL301",
					"Oak+Brook,+IL307"
				],
				"lat0": 3.000000,
				"nbSeg0": 0,
				"path1": [
					"Santa+Clara,+CA404",
					"Santa+Clara,+CA403",
					"Santa+Clara,+CA429",
					"Herndon,+VA496",
					"Herndon,+VA495",
					"Weehawken,+NJ544",
					"London275",
					"Amsterdam119"
				],
				"lat1": 59.000000,
				"nbSeg1": 3
			},
			"pathsExist": false,
			"runtime": 832741707,
			"nomLat1": 21.000000,
			"nomLat2": 46.000000,
			"maxNomLat": 46.000000,
			"mincut": 5
		},
		{
			"s1": "Jersey+City,+NJ244",
			"s2": "Santa+Clara,+CA336",
			"t1": "Oak+Brook,+IL315",
			"t2": "Santa+Clara,+CA444",
			"suurballeNbPaths": 2,
			"suurballeTime": 13129951,
			"suurballePaths": {
				"path0": [
					"Jersey+City,+NJ244",
					"Weehawken,+NJ543",
					"Oak+Brook,+IL300",
					"Oak+Brook,+IL315"
				],
				"lat0": 10.000000,
				"nbSeg0": 0,
				"path1": [
					"Santa+Clara,+CA336",
					"Santa+Clara,+CA430",
					"Santa+Clara,+CA443",
					"Santa+Clara,+CA444"
				],
				"lat1": 3.000000,
				"nbSeg1": 1
			},
			"pathsExist": true,
			"path1": [
				"Jersey+City,+NJ244",
				"Oak+Brook,+IL315"
			],
			"lat1": 10.000000,
			"path2": [
				"Santa+Clara,+CA336",
				"Santa+Clara,+CA430",
				"Santa+Clara,+CA444"
			],
			"lat2": 3.000000,
			"maxlat": 10.000000,
			"runtime": 1047365076,
			"nomLat1": 10.000000,
			"nomLat2": 5.000000,
			"maxNomLat": 10.000000,
			"mincut": 8
		},
		{
			"s1": "Tukwila,+WA509",
			"s2": "Waltham,+MA555",
			"t1": "Jersey+City,+NJ244",
			"t2": "Jersey+City,+NJ261",
			"suurballeNbPaths": 2,
			"suurballeTime": 3062761,
			"suurballePaths": {
				"path0": [
					"Waltham,+MA555",
					"Waltham,+MA568",
					"Jersey+City,+NJ244"
				],
				"lat0": 4.000000,
				"nbSeg0": 1,
				"path1": [
					"Tukwila,+WA509",
					"Chicago,+IL155",
					"Chicago,+IL156",
					"Oak+Brook,+IL300",
					"Weehawken,+NJ543",
					"Jersey+City,+NJ244"
				],
				"lat1": 27.000000,
				"nbSeg1": 1
			},
			"pathsExist": false,
			"runtime": 765445889,
			"nomLat1": 27.000000,
			"nomLat2": 6.000000,
			"maxNomLat": 27.000000,
			"mincut": 5
		},
		{
			"s1": "Fort+Worth,+TX191",
			"s2": "Waltham,+MA569",
			"t1": "Santa+Clara,+CA389",
			"t2": "Palo+Alto,+CA104",
			"suurballeNbPaths": 2,
			"suurballeTime": 3061125,
			"suurballePaths": {
				"path0": [
					"Fort+Worth,+TX191",
					"Fort+Worth,+TX189",
					"Santa+Clara,+CA403",
					"Palo+Alto,+CA104"
				],
				"lat0": 16.000000,
				"nbSeg0": 0,
				"path1": [
					"Waltham,+MA569",
					"Waltham,+MA556",
					"Oak+Brook,+IL300",
					"Oak+Brook,+IL301",
					"San+Jose,+CA471",
					"Santa+Clara,+CA389"
				],
				"lat1": 28.000000,
				"nbSeg1": 2
			},
			"pathsExist": false,
			"runtime": 1181365022,
			"nomLat1": 15.000000,
			"nomLat2": 33.000000,
			"maxNomLat": 33.000000,
			"mincut": 5
		},
		{
			"s1": "San+Jose,+CA460",
			"s2": "Irvine,+CA213",
			"t1": "San+Jose,+CA459",
			"t2": "Waltham,+MA569",
			"suurballeNbPaths": 2,
			"suurballeTime": 9875524,
			"suurballePaths": {
				"path0": [
					"San+Jose,+CA460",
					"San+Jose,+CA459"
				],
				"lat0": 1.000000,
				"nbSeg0": 0,
				"path1": [
					"Irvine,+CA213",
					"Irvine,+CA228",
					"Fort+Worth,+TX189",
					"Chicago,+IL156",
					"Oak+Brook,+IL300",
					"Waltham,+MA556",
					"Waltham,+MA569"
				],
				"lat1": 31.000000,
				"nbSeg1": 2
			},
			"pathsExist": true,
			"path1": [
				"San+Jose,+CA460",
				"San+Jose,+CA459"
			],
			"lat1": 1.000000,
			"path2": [
				"Irvine,+CA213",
				"Waltham,+MA568",
				"Waltham,+MA569"
			],
			"lat2": 34.000000,
			"maxlat": 34.000000,
			"runtime": 369645227,
			"nomLat1": 1.000000,
			"nomLat2": 38.000000,
			"maxNomLat": 38.000000,
			"mincut": 5
		},
		{
			"s1": "Irvine,+CA230",
			"s2": "Palo+Alto,+CA104",
			"t1": "Santa+Clara,+CA389",
			"t2": "Palo+Alto,+CA317",
			"suurballeNbPaths": 2,
			"suurballeTime": 2889136,
			"suurballePaths": {
				"path0": [
					"Palo+Alto,+CA104",
					"Palo+Alto,+CA317"
				],
				"lat0": 1.000000,
				"nbSeg0": 0,
				"path1": [
					"Irvine,+CA230",
					"El+Segundo,+CA164",
					"Santa+Clara,+CA403",
					"Santa+Clara,+CA389"
				],
				"lat1": 7.000000,
				"nbSeg1": 2
			},
			"pathsExist": true,
			"path1": [
				"Irvine,+CA230",
				"Santa+Clara,+CA389"
			],
			"lat1": 7.000000,
			"path2": [
				"Palo+Alto,+CA104",
				"Palo+Alto,+CA317"
			],
			"lat2": 1.000000,
			"maxlat": 7.000000,
			"runtime": 404877660,
			"nomLat1": 7.000000,
			"nomLat2": 1.000000,
			"maxNomLat": 7.000000,
			"mincut": 6
		},
		{
			"s1": "Irvine,+CA237",
			"s2": "Austin,+TX137",
			"t1": "Atlanta,+GA127",
			"t2": "Palo+Alto,+CA104",
			"suurballeNbPaths": 2,
			"suurballeTime": 2911738,
			"suurballePaths": {
				"path0": [
					"Austin,+TX137",
					"Fort+Worth,+TX189",
					"Fort+Worth,+TX190",
					"Atlanta,+GA127"
				],
				"lat0": 12.000000,
				"nbSeg0": 0,
				"path1": [
					"Irvine,+CA237",
					"Irvine,+CA228",
					"Irvine,+CA213",
					"Santa+Clara,+CA404",
					"Santa+Clara,+CA444",
					"Palo+Alto,+CA104"
				],
				"lat1": 9.000000,
				"nbSeg1": 2
			},
			"pathsExist": false,
			"runtime": 618835318,
			"nomLat1": 20.000000,
			"nomLat2": 18.000000,
			"maxNomLat": 20.000000,
			"mincut": 4
		},
		{
			"s1": "Jersey+City,+NJ261",
			"s2": "Palo+Alto,+CA318",
			"t1": "New+York,+NY294",
			"t2": "Waltham,+MA556",
			"suurballeNbPaths": 2,
			"suurballeTime": 2896304,
			"suurballePaths": {
				"path0": [
					"Jersey+City,+NJ261",
					"Jersey+City,+NJ245",
					"New+York,+NY294"
				],
				"lat0": 3.000000,
				"nbSeg0": 0,
				"path1": [
					"Palo+Alto,+CA318",
					"Palo+Alto,+CA317",
					"Palo+Alto,+CA104",
					"Santa+Clara,+CA444",
					"San+Jose,+CA471",
					"Oak+Brook,+IL301",
					"Oak+Brook,+IL300",
					"Waltham,+MA556"
				],
				"lat1": 31.000000,
				"nbSeg1": 1
			},
			"pathsExist": false,
			"runtime": 1324542030,
			"nomLat1": 3.000000,
			"nomLat2": 31.000000,
			"maxNomLat": 31.000000,
			"mincut": 5
		},
		{
			"s1": "Miami,+FL286",
			"s2": "Santa+Clara,+CA443",
			"t1": "Atlanta,+GA127",
			"t2": "New+York,+NY294",
			"suurballeNbPaths": 2,
			"suurballeTime": 2916021,
			"suurballePaths": {
				"path0": [
					"Miami,+FL286",
					"Atlanta,+GA127"
				],
				"lat0": 6.000000,
				"nbSeg0": 0,
				"path1": [
					"Santa+Clara,+CA443",
					"Santa+Clara,+CA431",
					"Santa+Clara,+CA429",
					"Herndon,+VA496",
					"Herndon,+VA495",
					"Herndon,+VA208",
					"New+York,+NY293",
					"New+York,+NY294"
				],
				"lat1": 29.000000,
				"nbSeg1": 3
			},
			"pathsExist": true,
			"path1": [
				"Miami,+FL286",
				"Atlanta,+GA127"
			],
			"lat1": 6.000000,
			"path2": [
				"Santa+Clara,+CA443",
				"Santa+Clara,+CA389",
				"Oak+Brook,+IL315",
				"Jersey+City,+NJ261",
				"New+York,+NY294"
			],
			"lat2": 34.000000,
			"maxlat": 34.000000,
			"runtime": 1303273106,
			"nomLat1": 6.000000,
			"nomLat2": 29.000000,
			"maxNomLat": 29.000000,
			"mincut": 7
		},
		{
			"s1": "Santa+Clara,+CA388",
			"s2": "Palo+Alto,+CA317",
			"t1": "Tokyo525",
			"t2": "Oak+Brook,+IL300",
			"suurballeNbPaths": 2,
			"suurballeTime": 13091881,
			"suurballePaths": {
				"path0": [
					"Palo+Alto,+CA317",
					"Santa+Clara,+CA336",
					"Tokyo526",
					"Tokyo525"
				],
				"lat0": 46.000000,
				"nbSeg0": 0,
				"path1": [
					"Santa+Clara,+CA388",
					"Santa+Clara,+CA389",
					"San+Jose,+CA471",
					"Oak+Brook,+IL301",
					"Oak+Brook,+IL300"
				],
				"lat1": 20.000000,
				"nbSeg1": 0
			},
			"pathsExist": true,
			"path1": [
				"Santa+Clara,+CA388",
				"Santa+Clara,+CA404",
				"Tokyo525"
			],
			"lat1": 45.000000,
			"path2": [
				"Palo+Alto,+CA317",
				"Palo+Alto,+CA104",
				"Chicago,+IL155",
				"Oak+Brook,+IL301",
				"Oak+Brook,+IL300"
			],
			"lat2": 30.000000,
			"maxlat": 45.000000,
			"runtime": 596188243,
			"nomLat1": 47.000000,
			"nomLat2": 22.000000,
			"maxNomLat": 47.000000,
			"mincut": 6
		},
		{
			"s1": "Herndon,+VA206",
			"s2": "London274",
			"t1": "Irvine,+CA230",
			"t2": "Chicago,+IL156",
			"suurballeNbPaths": 2,
			"suurballeTime": 2927722,
			"suurballePaths": {
				"path0": [
					"London274",
					"Weehawken,+NJ544",
					"Weehawken,+NJ543",
					"Oak+Brook,+IL300",
					"Chicago,+IL156"
				],
				"lat0": 39.000000,
				"nbSeg0": 2,
				"path1": [
					"Herndon,+VA206",
					"Herndon,+VA208",
					"Herndon,+VA495",
					"Herndon,+VA496",
					"Herndon,+VA193",
					"Atlanta,+GA127",
					"Fort+Worth,+TX190",
					"Irvine,+CA228",
					"Irvine,+CA230"
				],
				"lat1": 30.000000,
				"nbSeg1": 1
			},
			"pathsExist": false,
			"runtime": 1430682944,
			"nomLat1": 40.000000,
			"nomLat2": 42.000000,
			"maxNomLat": 42.000000,
			"mincut": 5
		},
		{
			"s1": "Chicago,+IL156",
			"s2": "Irvine,+CA228",
			"t1": "Palo+Alto,+CA104",
			"t2": "New+York,+NY293",
			"suurballeNbPaths": 2,
			"suurballeTime": 3104095,
			"suurballePaths": {
				"path0": [
					"Chicago,+IL156",
					"Oak+Brook,+IL300",
					"Weehawken,+NJ543",
					"New+York,+NY293"
				],
				"lat0": 11.000000,
				"nbSeg0": 1,
				"path1": [
					"Irvine,+CA228",
					"Irvine,+CA213",
					"Santa+Clara,+CA404",
					"Santa+Clara,+CA444",
					"Palo+Alto,+CA104"
				],
				"lat1": 8.000000,
				"nbSeg1": 2
			},
			"pathsExist": false,
			"runtime": 1337188828,
			"nomLat1": 27.000000,
			"nomLat2": 36.000000,
			"maxNomLat": 36.000000,
			"mincut": 9
		},
		{
			"s1": "Fort+Worth,+TX190",
			"s2": "Waltham,+MA568",
			"t1": "Santa+Clara,+CA388",
			"t2": "Atlanta,+GA127",
			"suurballeNbPaths": 2,
			"suurballeTime": 3070472,
			"suurballePaths": {
				"path0": [
					"Waltham,+MA568",
					"Jersey+City,+NJ244",
					"Weehawken,+NJ543",
					"Atlanta,+GA127"
				],
				"lat0": 12.000000,
				"nbSeg0": 3,
				"path1": [
					"Fort+Worth,+TX190",
					"Fort+Worth,+TX189",
					"Santa+Clara,+CA403",
					"Santa+Clara,+CA389",
					"Santa+Clara,+CA388"
				],
				"lat1": 16.000000,
				"nbSeg1": 0
			},
			"pathsExist": false,
			"runtime": 949671441,
			"nomLat1": 16.000000,
			"nomLat2": 19.000000,
			"maxNomLat": 19.000000,
			"mincut": 8
		},
		{
			"s1": "Miami,+FL285",
			"s2": "Santa+Clara,+CA405",
			"t1": "Waltham,+MA556",
			"t2": "Tokyo526",
			"suurballeNbPaths": 2,
			"suurballeTime": 2978883,
			"suurballePaths": {
				"path0": [
					"Santa+Clara,+CA405",
					"Santa+Clara,+CA403",
					"Santa+Clara,+CA404",
					"Tokyo525",
					"Tokyo526"
				],
				"lat0": 46.000000,
				"nbSeg0": 0,
				"path1": [
					"Miami,+FL285",
					"New+York,+NY293",
					"Weehawken,+NJ543",
					"Jersey+City,+NJ244",
					"Waltham,+MA569",
					"Waltham,+MA556"
				],
				"lat1": 18.000000,
				"nbSeg1": 2
			},
			"pathsExist": false,
			"runtime": 1434645624,
			"nomLat1": 21.000000,
			"nomLat2": 46.000000,
			"maxNomLat": 46.000000,
			"mincut": 4
		},
		{
			"s1": "Herndon,+VA496",
			"s2": "San+Jose,+CA471",
			"t1": "Amsterdam119",
			"t2": "Herndon,+VA208",
			"suurballeNbPaths": 2,
			"suurballeTime": 2987078,
			"suurballePaths": {
				"path0": [
					"Herndon,+VA496",
					"Herndon,+VA495",
					"Herndon,+VA208"
				],
				"lat0": 2.000000,
				"nbSeg0": 0,
				"path1": [
					"San+Jose,+CA471",
					"Oak+Brook,+IL301",
					"Oak+Brook,+IL300",
					"Weehawken,+NJ552",
					"Weehawken,+NJ544",
					"London275",
					"Amsterdam119"
				],
				"lat1": 57.000000,
				"nbSeg1": 3
			},
			"pathsExist": false,
			"runtime": 702100381,
			"nomLat1": 38.000000,
			"nomLat2": 27.000000,
			"maxNomLat": 38.000000,
			"mincut": 5
		},
		{
			"s1": "Miami,+FL286",
			"s2": "Santa+Clara,+CA388",
			"t1": "Amsterdam119",
			"t2": "Miami,+FL285",
			"suurballeNbPaths": 2,
			"suurballeTime": 2946943,
			"suurballePaths": {
				"path0": [
					"Miami,+FL286",
					"Miami,+FL285"
				],
				"lat0": 1.000000,
				"nbSeg0": 0,
				"path1": [
					"Santa+Clara,+CA388",
					"Santa+Clara,+CA430",
					"Santa+Clara,+CA429",
					"Herndon,+VA496",
					"Herndon,+VA495",
					"Weehawken,+NJ544",
					"London275",
					"Amsterdam119"
				],
				"lat1": 59.000000,
				"nbSeg1": 2
			},
			"pathsExist": false,
			"runtime": 1524559275,
			"nomLat1": 52.000000,
			"nomLat2": 31.000000,
			"maxNomLat": 52.000000,
			"mincut": 4
		},
		{
			"s1": "Herndon,+VA206",
			"s2": "El+Segundo,+CA163",
			"t1": "Palo+Alto,+CA318",
			"t2": "New+York,+NY293",
			"suurballeNbPaths": 2,
			"suurballeTime": 4967367,
			"suurballePaths": {
				"path0": [
					"Herndon,+VA206",
					"New+York,+NY293"
				],
				"lat0": 3.000000,
				"nbSeg0": 0,
				"path1": [
					"El+Segundo,+CA163",
					"Santa+Clara,+CA404",
					"Santa+Clara,+CA430",
					"Santa+Clara,+CA364",
					"Palo+Alto,+CA318"
				],
				"lat1": 8.000000,
				"nbSeg1": 2
			},
			"pathsExist": false,
			"runtime": 1215067207,
			"nomLat1": 29.000000,
			"nomLat2": 40.000000,
			"maxNomLat": 40.000000,
			"mincut": 6
		},
		{
			"s1": "Fort+Worth,+TX190",
			"s2": "Atlanta,+GA133",
			"t1": "Atlanta,+GA126",
			"t2": "Santa+Clara,+CA444",
			"suurballeNbPaths": 2,
			"suurballeTime": 2860633,
			"suurballePaths": {
				"path0": [
					"Atlanta,+GA133",
					"Atlanta,+GA126"
				],
				"lat0": 1.000000,
				"nbSeg0": 0,
				"path1": [
					"Fort+Worth,+TX190",
					"Fort+Worth,+TX189",
					"Santa+Clara,+CA403",
					"Santa+Clara,+CA444"
				],
				"lat1": 15.000000,
				"nbSeg1": 0
			},
			"pathsExist": false,
			"runtime": 924853364,
			"nomLat1": 9.000000,
			"nomLat2": 24.000000,
			"maxNomLat": 24.000000,
			"mincut": 7
		},
		{
			"s1": "Herndon,+VA193",
			"s2": "Palo+Alto,+CA317",
			"t1": "Amsterdam119",
			"t2": "New+York,+NY293",
			"suurballeNbPaths": 2,
			"suurballeTime": 3060465,
			"suurballePaths": {
				"path0": [
					"Herndon,+VA193",
					"Herndon,+VA496",
					"Herndon,+VA495",
					"Herndon,+VA208",
					"New+York,+NY293"
				],
				"lat0": 6.000000,
				"nbSeg0": 2,
				"path1": [
					"Palo+Alto,+CA317",
					"Palo+Alto,+CA104",
					"Santa+Clara,+CA444",
					"San+Jose,+CA471",
					"Oak+Brook,+IL301",
					"Oak+Brook,+IL300",
					"Weehawken,+NJ552",
					"Weehawken,+NJ544",
					"London275",
					"Amsterdam119"
				],
				"lat1": 62.000000,
				"nbSeg1": 4
			},
			"pathsExist": false,
			"runtime": 800363612,
			"nomLat1": 39.000000,
			"nomLat2": 31.000000,
			"maxNomLat": 39.000000,
			"mincut": 6
		},
		{
			"s1": "Miami,+FL285",
			"s2": "San+Jose,+CA460",
			"t1": "Irvine,+CA237",
			"t2": "Jersey+City,+NJ244",
			"suurballeNbPaths": 2,
			"suurballeTime": 2890149,
			"suurballePaths": {
				"path0": [
					"Miami,+FL285",
					"New+York,+NY293",
					"Weehawken,+NJ543",
					"Jersey+City,+NJ244"
				],
				"lat0": 14.000000,
				"nbSeg0": 1,
				"path1": [
					"San+Jose,+CA460",
					"Santa+Clara,+CA443",
					"El+Segundo,+CA164",
					"Irvine,+CA231",
					"Irvine,+CA237"
				],
				"lat1": 9.000000,
				"nbSeg1": 0
			},
			"pathsExist": false,
			"runtime": 1477175326,
			"nomLat1": 27.000000,
			"nomLat2": 31.000000,
			"maxNomLat": 31.000000,
			"mincut": 6
		},
		{
			"s1": "Tokyo526",
			"s2": "Palo+Alto,+CA317",
			"t1": "Santa+Clara,+CA404",
			"t2": "Jersey+City,+NJ244",
			"suurballeNbPaths": 2,
			"suurballeTime": 3083442,
			"suurballePaths": {
				"path0": [
					"Tokyo526",
					"Tokyo525",
					"Santa+Clara,+CA404"
				],
				"lat0": 44.000000,
				"nbSeg0": 0,
				"path1": [
					"Palo+Alto,+CA317",
					"Palo+Alto,+CA104",
					"Santa+Clara,+CA444",
					"San+Jose,+CA471",
					"Oak+Brook,+IL301",
					"Oak+Brook,+IL300",
					"Weehawken,+NJ543",
					"Jersey+City,+NJ244"
				],
				"lat1": 31.000000,
				"nbSeg1": 1
			},
			"pathsExist": false,
			"runtime": 1353590701,
			"nomLat1": 44.000000,
			"nomLat2": 32.000000,
			"maxNomLat": 44.000000,
			"mincut": 6
		},
		{
			"s1": "New+York,+NY294",
			"s2": "Santa+Clara,+CA403",
			"t1": "Santa+Clara,+CA336",
			"t2": "Miami,+FL285",
			"suurballeNbPaths": 2,
			"suurballeTime": 2874890,
			"suurballePaths": {
				"path0": [
					"New+York,+NY294",
					"New+York,+NY293",
					"Miami,+FL285"
				],
				"lat0": 11.000000,
				"nbSeg0": 0,
				"path1": [
					"Santa+Clara,+CA403",
					"Santa+Clara,+CA429",
					"Santa+Clara,+CA430",
					"Santa+Clara,+CA336"
				],
				"lat1": 3.000000,
				"nbSeg1": 1
			},
			"pathsExist": false,
			"runtime": 1016463751,
			"nomLat1": 31.000000,
			"nomLat2": 29.000000,
			"maxNomLat": 31.000000,
			"mincut": 5
		},
		{
			"s1": "Santa+Clara,+CA336",
			"s2": "Atlanta,+GA133",
			"t1": "Irvine,+CA213",
			"t2": "Irvine,+CA228",
			"suurballeNbPaths": 2,
			"suurballeTime": 3158979,
			"suurballePaths": {
				"path0": [
					"Santa+Clara,+CA336",
					"Santa+Clara,+CA430",
					"Santa+Clara,+CA404",
					"Irvine,+CA213"
				],
				"lat0": 6.000000,
				"nbSeg0": 2,
				"path1": [
					"Atlanta,+GA133",
					"Atlanta,+GA127",
					"Fort+Worth,+TX190",
					"Irvine,+CA228"
				],
				"lat1": 20.000000,
				"nbSeg1": 0
			},
			"pathsExist": false,
			"runtime": 1465743580,
			"nomLat1": 8.000000,
			"nomLat2": 20.000000,
			"maxNomLat": 20.000000,
			"mincut": 5
		},
		{
			"s1": "Herndon,+VA206",
			"s2": "London275",
			"t1": "Fort+Worth,+TX191",
			"t2": "Santa+Clara,+CA429",
			"suurballeNbPaths": 2,
			"suurballeTime": 3121132,
			"suurballePaths": {
				"path0": [
					"Herndon,+VA206",
					"Herndon,+VA208",
					"Herndon,+VA495",
					"Herndon,+VA496",
					"Santa+Clara,+CA429"
				],
				"lat0": 24.000000,
				"nbSeg0": 0,
				"path1": [
					"London275",
					"Weehawken,+NJ544",
					"Weehawken,+NJ543",
					"Atlanta,+GA127",
					"Fort+Worth,+TX190",
					"Fort+Worth,+TX191"
				],
				"lat1": 46.000000,
				"nbSeg1": 3
			},
			"pathsExist": false,
			"runtime": 1522142349,
			"nomLat1": 29.000000,
			"nomLat2": 56.000000,
			"maxNomLat": 56.000000,
			"mincut": 5
		},
		{
			"s1": "Irvine,+CA229",
			"s2": "Waltham,+MA555",
			"t1": "Atlanta,+GA126",
			"t2": "London276",
			"suurballeNbPaths": 2,
			"suurballeTime": 2878214,
			"suurballePaths": {
				"path0": [
					"Irvine,+CA229",
					"Fort+Worth,+TX190",
					"Atlanta,+GA127",
					"Atlanta,+GA126"
				],
				"lat0": 20.000000,
				"nbSeg0": 2,
				"path1": [
					"Waltham,+MA555",
					"Waltham,+MA568",
					"Jersey+City,+NJ244",
					"Jersey+City,+NJ245",
					"London276"
				],
				"lat1": 34.000000,
				"nbSeg1": 1
			},
			"pathsExist": true,
			"path1": [
				"Irvine,+CA229",
				"Irvine,+CA228",
				"Atlanta,+GA126"
			],
			"lat1": 21.000000,
			"path2": [
				"Waltham,+MA555",
				"Oak+Brook,+IL300",
				"Weehawken,+NJ552",
				"Jersey+City,+NJ245",
				"London276"
			],
			"lat2": 48.000000,
			"maxlat": 48.000000,
			"runtime": 873977301,
			"nomLat1": 21.000000,
			"nomLat2": 35.000000,
			"maxNomLat": 35.000000,
			"mincut": 5
		},
		{
			"s1": "Miami,+FL285",
			"s2": "London275",
			"t1": "Tukwila,+WA509",
			"t2": "Oak+Brook,+IL310",
			"suurballeNbPaths": 2,
			"suurballeTime": 2967488,
			"suurballePaths": {
				"path0": [
					"Miami,+FL285",
					"New+York,+NY293",
					"Weehawken,+NJ543",
					"Oak+Brook,+IL300",
					"Oak+Brook,+IL310"
				],
				"lat0": 20.000000,
				"nbSeg0": 1,
				"path1": [
					"London275",
					"Weehawken,+NJ544",
					"Weehawken,+NJ552",
					"Oak+Brook,+IL300",
					"Oak+Brook,+IL301",
					"Chicago,+IL155",
					"Tukwila,+WA509"
				],
				"lat1": 55.000000,
				"nbSeg1": 4
			},
			"pathsExist": false,
			"runtime": 1707854674,
			"nomLat1": 40.000000,
			"nomLat2": 41.000000,
			"maxNomLat": 41.000000,
			"mincut": 4
		},
		{
			"s1": "Palo+Alto,+CA318",
			"s2": "Tokyo526",
			"t1": "Santa+Clara,+CA363",
			"t2": "Fort+Worth,+TX189",
			"suurballeNbPaths": 2,
			"suurballeTime": 2918513,
			"suurballePaths": {
				"path0": [
					"Palo+Alto,+CA318",
					"Santa+Clara,+CA363"
				],
				"lat0": 2.000000,
				"nbSeg0": 0,
				"path1": [
					"Tokyo526",
					"Tokyo525",
					"Santa+Clara,+CA404",
					"Santa+Clara,+CA403",
					"Fort+Worth,+TX189"
				],
				"lat1": 58.000000,
				"nbSeg1": 0
			},
			"pathsExist": true,
			"path1": [
				"Palo+Alto,+CA318",
				"Santa+Clara,+CA363"
			],
			"lat1": 2.000000,
			"path2": [
				"Tokyo526",
				"Santa+Clara,+CA404",
				"Santa+Clara,+CA388",
				"Oak+Brook,+IL300",
				"Fort+Worth,+TX189"
			],
			"lat2": 76.000000,
			"maxlat": 76.000000,
			"runtime": 911119838,
			"nomLat1": 2.000000,
			"nomLat2": 58.000000,
			"maxNomLat": 58.000000,
			"mincut": 6
		},
		{
			"s1": "San+Jose,+CA471",
			"s2": "Santa+Clara,+CA405",
			"t1": "Santa+Clara,+CA365",
			"t2": "San+Jose,+CA459",
			"suurballeNbPaths": 2,
			"suurballeTime": 2918838,
			"suurballePaths": {
				"path0": [
					"San+Jose,+CA471",
					"San+Jose,+CA472",
					"Santa+Clara,+CA431",
					"Santa+Clara,+CA365"
				],
				"lat0": 4.000000,
				"nbSeg0": 1,
				"path1": [
					"Santa+Clara,+CA405",
					"Santa+Clara,+CA403",
					"Santa+Clara,+CA429",
					"San+Jose,+CA459"
				],
				"lat1": 4.000000,
				"nbSeg1": 0
			},
			"pathsExist": true,
			"path1": [
				"San+Jose,+CA471",
				"Santa+Clara,+CA365"
			],
			"lat1": 6.000000,
			"path2": [
				"Santa+Clara,+CA405",
				"Santa+Clara,+CA404",
				"San+Jose,+CA460",
				"San+Jose,+CA459"
			],
			"lat2": 6.000000,
			"maxlat": 6.000000,
			"runtime": 1508533681,
			"nomLat1": 6.000000,
			"nomLat2": 4.000000,
			"maxNomLat": 6.000000,
			"mincut": 4
		},
		{
			"s1": "Fort+Worth,+TX190",
			"s2": "Irvine,+CA229",
			"t1": "Jersey+City,+NJ261",
			"t2": "Waltham,+MA569",
			"suurballeNbPaths": 2,
			"suurballeTime": 3356387,
			"suurballePaths": {
				"path0": [
					"Fort+Worth,+TX190",
					"Atlanta,+GA127",
					"Weehawken,+NJ543",
					"Jersey+City,+NJ244",
					"Jersey+City,+NJ261"
				],
				"lat0": 18.000000,
				"nbSeg0": 2,
				"path1": [
					"Irvine,+CA229",
					"Fort+Worth,+TX190",
					"Fort+Worth,+TX189",
					"Chicago,+IL156",
					"Oak+Brook,+IL300",
					"Waltham,+MA556",
					"Waltham,+MA569"
				],
				"lat1": 31.000000,
				"nbSeg1": 3
			},
			"pathsExist": false,
			"runtime": 947143656,
			"nomLat1": 23.000000,
			"nomLat2": 38.000000,
			"maxNomLat": 38.000000,
			"mincut": 5
		},
		{
			"s1": "El+Segundo,+CA164",
			"s2": "Santa+Clara,+CA364",
			"t1": "Tukwila,+WA508",
			"t2": "Irvine,+CA229",
			"suurballeNbPaths": 2,
			"suurballeTime": 3237373,
			"suurballePaths": {
				"path0": [
					"El+Segundo,+CA164",
					"Irvine,+CA229"
				],
				"lat0": 2.000000,
				"nbSeg0": 0,
				"path1": [
					"Santa+Clara,+CA364",
					"Santa+Clara,+CA430",
					"Santa+Clara,+CA429",
					"Tukwila,+WA508"
				],
				"lat1": 9.000000,
				"nbSeg1": 1
			},
			"pathsExist": false,
			"runtime": 1577262261,
			"nomLat1": 13.000000,
			"nomLat2": 8.000000,
			"maxNomLat": 13.000000,
			"mincut": 6
		},
		{
			"s1": "Atlanta,+GA133",
			"s2": "Atlanta,+GA126",
			"t1": "Herndon,+VA208",
			"t2": "New+York,+NY293",
			"suurballeNbPaths": 2,
			"suurballeTime": 3384887,
			"suurballePaths": {
				"path0": [
					"Atlanta,+GA133",
					"Atlanta,+GA127",
					"Weehawken,+NJ543",
					"New+York,+NY293"
				],
				"lat0": 10.000000,
				"nbSeg0": 2,
				"path1": [
					"Atlanta,+GA126",
					"Herndon,+VA193",
					"Herndon,+VA496",
					"Herndon,+VA495",
					"Herndon,+VA208"
				],
				"lat1": 9.000000,
				"nbSeg1": 0
			},
			"pathsExist": false,
			"runtime": 1326945806,
			"nomLat1": 10.000000,
			"nomLat2": 18.000000,
			"maxNomLat": 18.000000,
			"mincut": 3
		},
		{
			"s1": "Herndon,+VA206",
			"s2": "Santa+Clara,+CA444",
			"t1": "Santa+Clara,+CA365",
			"t2": "Fort+Worth,+TX190",
			"suurballeNbPaths": 2,
			"suurballeTime": 3038659,
			"suurballePaths": {
				"path0": [
					"Santa+Clara,+CA444",
					"Santa+Clara,+CA443",
					"Santa+Clara,+CA431",
					"Santa+Clara,+CA365"
				],
				"lat0": 3.000000,
				"nbSeg0": 1,
				"path1": [
					"Herndon,+VA206",
					"Herndon,+VA208",
					"Herndon,+VA495",
					"Herndon,+VA496",
					"Herndon,+VA193",
					"Atlanta,+GA127",
					"Fort+Worth,+TX190"
				],
				"lat1": 18.000000,
				"nbSeg1": 1
			},
			"pathsExist": false,
			"runtime": 1321594729,
			"nomLat1": 29.000000,
			"nomLat2": 15.000000,
			"maxNomLat": 29.000000,
			"mincut": 7
		},
		{
			"s1": "Chicago,+IL155",
			"s2": "London276",
			"t1": "Jersey+City,+NJ245",
			"t2": "Santa+Clara,+CA444",
			"suurballeNbPaths": 2,
			"suurballeTime": 12993011,
			"suurballePaths": {
				"path0": [
					"London276",
					"Jersey+City,+NJ245"
				],
				"lat0": 29.000000,
				"nbSeg0": 0,
				"path1": [
					"Chicago,+IL155",
					"Oak+Brook,+IL301",
					"San+Jose,+CA471",
					"Santa+Clara,+CA444"
				],
				"lat1": 20.000000,
				"nbSeg1": 0
			},
			"pathsExist": false,
			"runtime": 1096081745,
			"nomLat1": 14.000000,
			"nomLat2": 59.000000,
			"maxNomLat": 59.000000,
			"mincut": 5
		},
		{
			"s1": "New+York,+NY294",
			"s2": "Jersey+City,+NJ261",
			"t1": "London275",
			"t2": "Waltham,+MA568",
			"suurballeNbPaths": 2,
			"suurballeTime": 3019188,
			"suurballePaths": {
				"path0": [
					"New+York,+NY294",
					"Jersey+City,+NJ245",
					"London275"
				],
				"lat0": 31.000000,
				"nbSeg0": 0,
				"path1": [
					"Jersey+City,+NJ261",
					"Jersey+City,+NJ244",
					"Waltham,+MA568"
				],
				"lat1": 4.000000,
				"nbSeg1": 1
			},
			"pathsExist": false,
			"runtime": 1878033179,
			"nomLat1": 31.000000,
			"nomLat2": 5.000000,
			"maxNomLat": 31.000000,
			"mincut": 5
		},
		{
			"s1": "Tokyo525",
			"s2": "Waltham,+MA556",
			"t1": "Miami,+FL285",
			"t2": "Oak+Brook,+IL300",
			"suurballeNbPaths": 2,
			"suurballeTime": 3090857,
			"suurballePaths": {
				"path0": [
					"Waltham,+MA556",
					"Oak+Brook,+IL300"
				],
				"lat0": 8.000000,
				"nbSeg0": 0,
				"path1": [
					"Tokyo525",
					"Santa+Clara,+CA404",
					"Santa+Clara,+CA403",
					"Fort+Worth,+TX189",
					"Fort+Worth,+TX190",
					"Atlanta,+GA127",
					"Miami,+FL286",
					"Miami,+FL285"
				],
				"lat1": 73.000000,
				"nbSeg1": 0
			},
			"pathsExist": true,
			"path1": [
				"Tokyo525",
				"Tokyo526",
				"Santa+Clara,+CA430",
				"Santa+Clara,+CA404",
				"Miami,+FL285"
			],
			"lat1": 76.000000,
			"path2": [
				"Waltham,+MA556",
				"Oak+Brook,+IL300"
			],
			"lat2": 8.000000,
			"maxlat": 76.000000,
			"runtime": 1840951051,
			"nomLat1": 73.000000,
			"nomLat2": 8.000000,
			"maxNomLat": 73.000000,
			"mincut": 5
		},
		{
			"s1": "Herndon,+VA208",
			"s2": "London274",
			"t1": "Palo+Alto,+CA317",
			"t2": "El+Segundo,+CA163",
			"suurballeNbPaths": 2,
			"suurballeTime": 2780390,
			"suurballePaths": {
				"path0": [
					"Herndon,+VA208",
					"Herndon,+VA495",
					"Herndon,+VA496",
					"Santa+Clara,+CA429",
					"Santa+Clara,+CA403",
					"Palo+Alto,+CA104",
					"Palo+Alto,+CA317"
				],
				"lat0": 27.000000,
				"nbSeg0": 1,
				"path1": [
					"London274",
					"Weehawken,+NJ544",
					"Weehawken,+NJ543",
					"Atlanta,+GA127",
					"Fort+Worth,+TX190",
					"Irvine,+CA229",
					"El+Segundo,+CA164",
					"El+Segundo,+CA163"
				],
				"lat1": 59.000000,
				"nbSeg1": 5
			},
			"pathsExist": false,
			"runtime": 1855252630,
			"nomLat1": 27.000000,
			"nomLat2": 62.000000,
			"maxNomLat": 62.000000,
			"mincut": 5
		},
		{
			"s1": "Tokyo526",
			"s2": "Waltham,+MA555",
			"t1": "Weehawken,+NJ543",
			"t2": "Waltham,+MA569",
			"suurballeNbPaths": 2,
			"suurballeTime": 3012850,
			"suurballePaths": {
				"path0": [
					"Waltham,+MA555",
					"Waltham,+MA556",
					"Waltham,+MA569"
				],
				"lat0": 2.000000,
				"nbSeg0": 1,
				"path1": [
					"Tokyo526",
					"Santa+Clara,+CA336",
					"Santa+Clara,+CA430",
					"Santa+Clara,+CA429",
					"Herndon,+VA496",
					"Herndon,+VA495",
					"Weehawken,+NJ544",
					"Weehawken,+NJ543"
				],
				"lat1": 71.000000,
				"nbSeg1": 0
			},
			"pathsExist": true,
			"path1": [
				"Tokyo526",
				"Santa+Clara,+CA443",
				"Weehawken,+NJ543"
			],
			"lat1": 73.000000,
			"path2": [
				"Waltham,+MA555",
				"Waltham,+MA569"
			],
			"lat2": 2.000000,
			"maxlat": 73.000000,
			"runtime": 1121483947,
			"nomLat1": 71.000000,
			"nomLat2": 2.000000,
			"maxNomLat": 71.000000,
			"mincut": 6
		},
		{
			"s1": "Herndon,+VA208",
			"s2": "Oak+Brook,+IL300",
			"t1": "Herndon,+VA206",
			"t2": "Atlanta,+GA126",
			"suurballeNbPaths": 2,
			"suurballeTime": 3049814,
			"suurballePaths": {
				"path0": [
					"Herndon,+VA208",
					"Herndon,+VA206"
				],
				"lat0": 1.000000,
				"nbSeg0": 0,
				"path1": [
					"Oak+Brook,+IL300",
					"Weehawken,+NJ543",
					"Atlanta,+GA127",
					"Atlanta,+GA126"
				],
				"lat1": 15.000000,
				"nbSeg1": 1
			},
			"pathsExist": true,
			"path1": [
				"Herndon,+VA208",
				"Herndon,+VA206"
			],
			"lat1": 1.000000,
			"path2": [
				"Oak+Brook,+IL300",
				"Weehawken,+NJ543",
				"Atlanta,+GA127",
				"Atlanta,+GA126"
			],
			"lat2": 21.000000,
			"maxlat": 21.000000,
			"runtime": 1936311413,
			"nomLat1": 1.000000,
			"nomLat2": 20.000000,
			"maxNomLat": 20.000000,
			"mincut": 5
		},
		{
			"s1": "Oak+Brook,+IL315",
			"s2": "Oak+Brook,+IL307",
			"t1": "Santa+Clara,+CA430",
			"t2": "Tukwila,+WA508",
			"suurballeNbPaths": 2,
			"suurballeTime": 2899519,
			"suurballePaths": {
				"path0": [
					"Oak+Brook,+IL315",
					"Oak+Brook,+IL301",
					"Chicago,+IL155",
					"Tukwila,+WA508"
				],
				"lat0": 18.000000,
				"nbSeg0": 1,
				"path1": [
					"Oak+Brook,+IL307",
					"Oak+Brook,+IL301",
					"San+Jose,+CA471",
					"San+Jose,+CA472",
					"Santa+Clara,+CA430"
				],
				"lat1": 20.000000,
				"nbSeg1": 1
			},
			"pathsExist": false,
			"runtime": 1931910457,
			"nomLat1": 27.000000,
			"nomLat2": 19.000000,
			"maxNomLat": 27.000000,
			"mincut": 5
		},
		{
			"s1": "Tukwila,+WA508",
			"s2": "Weehawken,+NJ552",
			"t1": "El+Segundo,+CA164",
			"t2": "Santa+Clara,+CA388",
			"suurballeNbPaths": 2,
			"suurballeTime": 3050739,
			"suurballePaths": {
				"path0": [
					"Tukwila,+WA508",
					"Santa+Clara,+CA429",
					"Santa+Clara,+CA430",
					"Santa+Clara,+CA388"
				],
				"lat0": 9.000000,
				"nbSeg0": 0,
				"path1": [
					"Weehawken,+NJ552",
					"Weehawken,+NJ543",
					"Atlanta,+GA127",
					"Fort+Worth,+TX190",
					"Irvine,+CA229",
					"El+Segundo,+CA164"
				],
				"lat1": 29.000000,
				"nbSeg1": 3
			},
			"pathsExist": false,
			"runtime": 1180314188,
			"nomLat1": 13.000000,
			"nomLat2": 28.000000,
			"maxNomLat": 28.000000,
			"mincut": 5
		},
		{
			"s1": "Waltham,+MA568",
			"s2": "Chicago,+IL155",
			"t1": "San+Jose,+CA459",
			"t2": "London274",
			"suurballeNbPaths": 2,
			"suurballeTime": 3114932,
			"suurballePaths": {
				"path0": [
					"Waltham,+MA568",
					"Jersey+City,+NJ244",
					"Jersey+City,+NJ245",
					"London274"
				],
				"lat0": 33.000000,
				"nbSeg0": 1,
				"path1": [
					"Chicago,+IL155",
					"Tukwila,+WA508",
					"Santa+Clara,+CA429",
					"San+Jose,+CA459"
				],
				"lat1": 24.000000,
				"nbSeg1": 1
			},
			"pathsExist": false,
			"runtime": 1890159779,
			"nomLat1": 38.000000,
			"nomLat2": 43.000000,
			"maxNomLat": 43.000000,
			"mincut": 5
		},
		{
			"s1": "Irvine,+CA229",
			"s2": "London276",
			"t1": "Irvine,+CA237",
			"t2": "Chicago,+IL156",
			"suurballeNbPaths": 2,
			"suurballeTime": 2697492,
			"suurballePaths": {
				"path0": [
					"Irvine,+CA229",
					"Irvine,+CA228",
					"Irvine,+CA237"
				],
				"lat0": 2.000000,
				"nbSeg0": 0,
				"path1": [
					"London276",
					"Weehawken,+NJ544",
					"Weehawken,+NJ552",
					"Oak+Brook,+IL300",
					"Chicago,+IL156"
				],
				"lat1": 39.000000,
				"nbSeg1": 3
			},
			"pathsExist": false,
			"runtime": 1672648090,
			"nomLat1": 2.000000,
			"nomLat2": 42.000000,
			"maxNomLat": 42.000000,
			"mincut": 5
		},
		{
			"s1": "Oak+Brook,+IL310",
			"s2": "Jersey+City,+NJ244",
			"t1": "Amsterdam119",
			"t2": "Fort+Worth,+TX190",
			"suurballeNbPaths": 2,
			"suurballeTime": 2984990,
			"suurballePaths": {
				"path0": [
					"Jersey+City,+NJ244",
					"Jersey+City,+NJ245",
					"London274",
					"Amsterdam119"
				],
				"lat0": 33.000000,
				"nbSeg0": 0,
				"path1": [
					"Oak+Brook,+IL310",
					"Oak+Brook,+IL300",
					"Chicago,+IL156",
					"Fort+Worth,+TX189",
					"Fort+Worth,+TX190"
				],
				"lat1": 12.000000,
				"nbSeg1": 0
			},
			"pathsExist": false,
			"runtime": 1968463676,
			"nomLat1": 44.000000,
			"nomLat2": 23.000000,
			"maxNomLat": 44.000000,
			"mincut": 7
		},
		{
			"s1": "New+York,+NY294",
			"s2": "Jersey+City,+NJ261",
			"t1": "El+Segundo,+CA164",
			"t2": "Waltham,+MA569",
			"suurballeNbPaths": 2,
			"suurballeTime": 2990437,
			"suurballePaths": {
				"path0": [
					"Jersey+City,+NJ261",
					"Jersey+City,+NJ244",
					"Waltham,+MA569"
				],
				"lat0": 4.000000,
				"nbSeg0": 0,
				"path1": [
					"New+York,+NY294",
					"Weehawken,+NJ543",
					"Atlanta,+GA127",
					"Fort+Worth,+TX190",
					"Irvine,+CA229",
					"El+Segundo,+CA164"
				],
				"lat1": 30.000000,
				"nbSeg1": 4
			},
			"pathsExist": false,
			"runtime": 1206775356,
			"nomLat1": 40.000000,
			"nomLat2": 4.000000,
			"maxNomLat": 40.000000,
			"mincut": 5
		},
		{
			"s1": "San+Jose,+CA459",
			"s2": "Herndon,+VA208",
			"t1": "Waltham,+MA569",
			"t2": "El+Segundo,+CA164",
			"suurballeNbPaths": 2,
			"suurballeTime": 2959226,
			"suurballePaths": {
				"path0": [
					"San+Jose,+CA459",
					"Santa+Clara,+CA429",
					"Santa+Clara,+CA403",
					"El+Segundo,+CA164"
				],
				"lat0": 7.000000,
				"nbSeg0": 1,
				"path1": [
					"Herndon,+VA208",
					"New+York,+NY293",
					"Weehawken,+NJ543",
					"Jersey+City,+NJ244",
					"Waltham,+MA569"
				],
				"lat1": 10.000000,
				"nbSeg1": 3
			},
			"pathsExist": false,
			"runtime": 1718055723,
			"nomLat1": 33.000000,
			"nomLat2": 32.000000,
			"maxNomLat": 33.000000,
			"mincut": 5
		},
		{
			"s1": "San+Jose,+CA459",
			"s2": "Santa+Clara,+CA364",
			"t1": "Chicago,+IL155",
			"t2": "London276",
			"suurballeNbPaths": 2,
			"suurballeTime": 2742718,
			"suurballePaths": {
				"path0": [
					"San+Jose,+CA459",
					"Santa+Clara,+CA429",
					"Herndon,+VA496",
					"Herndon,+VA495",
					"Weehawken,+NJ544",
					"London276"
				],
				"lat0": 56.000000,
				"nbSeg0": 2,
				"path1": [
					"Santa+Clara,+CA364",
					"Santa+Clara,+CA430",
					"San+Jose,+CA472",
					"San+Jose,+CA471",
					"Oak+Brook,+IL301",
					"Chicago,+IL155"
				],
				"lat1": 22.000000,
				"nbSeg1": 2
			},
			"pathsExist": false,
			"runtime": 2036680885,
			"nomLat1": 25.000000,
			"nomLat2": 58.000000,
			"maxNomLat": 58.000000,
			"mincut": 5
		},
		{
			"s1": "Irvine,+CA228",
			"s2": "Miami,+FL285",
			"t1": "Waltham,+MA555",
			"t2": "Oak+Brook,+IL307",
			"suurballeNbPaths": 2,
			"suurballeTime": 2896889,
			"suurballePaths": {
				"path0": [
					"Irvine,+CA228",
					"Fort+Worth,+TX189",
					"Chicago,+IL156",
					"Oak+Brook,+IL300",
					"Oak+Brook,+IL307"
				],
				"lat0": 22.000000,
				"nbSeg0": 1,
				"path1": [
					"Miami,+FL285",
					"New+York,+NY293",
					"Weehawken,+NJ543",
					"Jersey+City,+NJ244",
					"Waltham,+MA568",
					"Waltham,+MA555"
				],
				"lat1": 18.000000,
				"nbSeg1": 2
			},
			"pathsExist": false,
			"runtime": 1233780332,
			"nomLat1": 31.000000,
			"nomLat2": 27.000000,
			"maxNomLat": 31.000000,
			"mincut": 6
		},
		{
			"s1": "Jersey+City,+NJ261",
			"s2": "Santa+Clara,+CA405",
			"t1": "Santa+Clara,+CA443",
			"t2": "Miami,+FL286",
			"suurballeNbPaths": 2,
			"suurballeTime": 2858711,
			"suurballePaths": {
				"path0": [
					"Santa+Clara,+CA405",
					"Santa+Clara,+CA403",
					"Santa+Clara,+CA404",
					"Santa+Clara,+CA443"
				],
				"lat0": 3.000000,
				"nbSeg0": 1,
				"path1": [
					"Jersey+City,+NJ261",
					"Jersey+City,+NJ245",
					"New+York,+NY294",
					"New+York,+NY293",
					"Miami,+FL285",
					"Miami,+FL286"
				],
				"lat1": 15.000000,
				"nbSeg1": 1
			},
			"pathsExist": false,
			"runtime": 1473847006,
			"nomLat1": 30.000000,
			"nomLat2": 29.000000,
			"maxNomLat": 30.000000,
			"mincut": 4
		},
		{
			"s1": "Santa+Clara,+CA429",
			"s2": "Waltham,+MA569",
			"t1": "Oak+Brook,+IL309",
			"t2": "Irvine,+CA231",
			"suurballeNbPaths": 2,
			"suurballeTime": 2565936,
			"suurballePaths": {
				"path0": [
					"Santa+Clara,+CA429",
					"Santa+Clara,+CA403",
					"El+Segundo,+CA164",
					"Irvine,+CA231"
				],
				"lat0": 7.000000,
				"nbSeg0": 1,
				"path1": [
					"Waltham,+MA569",
					"Waltham,+MA556",
					"Oak+Brook,+IL300",
					"Oak+Brook,+IL309"
				],
				"lat1": 10.000000,
				"nbSeg1": 2
			},
			"pathsExist": false,
			"runtime": 2043832268,
			"nomLat1": 26.000000,
			"nomLat2": 38.000000,
			"maxNomLat": 38.000000,
			"mincut": 5
		},
		{
			"s1": "Irvine,+CA230",
			"s2": "San+Jose,+CA472",
			"t1": "Santa+Clara,+CA403",
			"t2": "Santa+Clara,+CA389",
			"suurballeNbPaths": 2,
			"suurballeTime": 2528225,
			"suurballePaths": {
				"path0": [
					"San+Jose,+CA472",
					"Santa+Clara,+CA389"
				],
				"lat0": 2.000000,
				"nbSeg0": 0,
				"path1": [
					"Irvine,+CA230",
					"El+Segundo,+CA164",
					"Santa+Clara,+CA403"
				],
				"lat1": 6.000000,
				"nbSeg1": 2
			},
			"pathsExist": true,
			"path1": [
				"Irvine,+CA230",
				"Santa+Clara,+CA405",
				"Santa+Clara,+CA403"
			],
			"lat1": 8.000000,
			"path2": [
				"San+Jose,+CA472",
				"Santa+Clara,+CA389"
			],
			"lat2": 2.000000,
			"maxlat": 8.000000,
			"runtime": 2032137512,
			"nomLat1": 8.000000,
			"nomLat2": 2.000000,
			"maxNomLat": 8.000000,
			"mincut": 6
		},
		{
			"s1": "Palo+Alto,+CA318",
			"s2": "Herndon,+VA206",
			"t1": "Irvine,+CA231",
			"t2": "Tokyo525",
			"suurballeNbPaths": 2,
			"suurballeTime": 2607336,
			"suurballePaths": {
				"path0": [
					"Palo+Alto,+CA318",
					"Palo+Alto,+CA317",
					"Santa+Clara,+CA336",
					"Tokyo526",
					"Tokyo525"
				],
				"lat0": 47.000000,
				"nbSeg0": 0,
				"path1": [
					"Herndon,+VA206",
					"Herndon,+VA208",
					"Herndon,+VA495",
					"Herndon,+VA496",
					"Herndon,+VA193",
					"Atlanta,+GA127",
					"Fort+Worth,+TX190",
					"Irvine,+CA228",
					"Irvine,+CA231"
				],
				"lat1": 30.000000,
				"nbSeg1": 1
			},
			"pathsExist": false,
			"runtime": 2139155041,
			"nomLat1": 11.000000,
			"nomLat2": 70.000000,
			"maxNomLat": 70.000000,
			"mincut": 5
		},
		{
			"s1": "Herndon,+VA495",
			"s2": "Santa+Clara,+CA389",
			"t1": "Irvine,+CA237",
			"t2": "New+York,+NY294",
			"suurballeNbPaths": 2,
			"suurballeTime": 2795374,
			"suurballePaths": {
				"path0": [
					"Herndon,+VA495",
					"Herndon,+VA208",
					"New+York,+NY293",
					"New+York,+NY294"
				],
				"lat0": 5.000000,
				"nbSeg0": 2,
				"path1": [
					"Santa+Clara,+CA389",
					"Santa+Clara,+CA403",
					"El+Segundo,+CA164",
					"Irvine,+CA231",
					"Irvine,+CA237"
				],
				"lat1": 8.000000,
				"nbSeg1": 1
			},
			"pathsExist": false,
			"runtime": 2107652121,
			"nomLat1": 29.000000,
			"nomLat2": 28.000000,
			"maxNomLat": 29.000000,
			"mincut": 5
		},
		{
			"s1": "Waltham,+MA556",
			"s2": "Oak+Brook,+IL307",
			"t1": "Irvine,+CA213",
			"t2": "Atlanta,+GA127",
			"suurballeNbPaths": 2,
			"suurballeTime": 2769915,
			"suurballePaths": {
				"path0": [
					"Waltham,+MA556",
					"Waltham,+MA569",
					"Jersey+City,+NJ244",
					"Weehawken,+NJ543",
					"Atlanta,+GA127"
				],
				"lat0": 13.000000,
				"nbSeg0": 2,
				"path1": [
					"Oak+Brook,+IL307",
					"Oak+Brook,+IL300",
					"Chicago,+IL156",
					"Fort+Worth,+TX189",
					"Irvine,+CA228",
					"Irvine,+CA213"
				],
				"lat1": 23.000000,
				"nbSeg1": 1
			},
			"pathsExist": false,
			"runtime": 2087725122,
			"nomLat1": 31.000000,
			"nomLat2": 20.000000,
			"maxNomLat": 31.000000,
			"mincut": 6
		},
		{
			"s1": "Weehawken,+NJ552",
			"s2": "Irvine,+CA230",
			"t1": "Tukwila,+WA508",
			"t2": "Santa+Clara,+CA363",
			"suurballeNbPaths": 2,
			"suurballeTime": 2427405,
			"suurballePaths": {
				"path0": [
					"Weehawken,+NJ552",
					"Oak+Brook,+IL300",
					"Oak+Brook,+IL301",
					"Chicago,+IL155",
					"Tukwila,+WA508"
				],
				"lat0": 25.000000,
				"nbSeg0": 2,
				"path1": [
					"Irvine,+CA230",
					"El+Segundo,+CA164",
					"Santa+Clara,+CA443",
					"Santa+Clara,+CA431",
					"Santa+Clara,+CA363"
				],
				"lat1": 8.000000,
				"nbSeg1": 0
			},
			"pathsExist": false,
			"runtime": 1718616763,
			"nomLat1": 26.000000,
			"nomLat2": 8.000000,
			"maxNomLat": 26.000000,
			"mincut": 5
		},
		{
			"s1": "Atlanta,+GA133",
			"s2": "Irvine,+CA229",
			"t1": "Oak+Brook,+IL309",
			"t2": "Oak+Brook,+IL308",
			"suurballeNbPaths": 2,
			"suurballeTime": 2691415,
			"suurballePaths": {
				"path0": [
					"Atlanta,+GA133",
					"Atlanta,+GA127",
					"Weehawken,+NJ543",
					"Oak+Brook,+IL300",
					"Oak+Brook,+IL309"
				],
				"lat0": 16.000000,
				"nbSeg0": 1,
				"path1": [
					"Irvine,+CA229",
					"Fort+Worth,+TX190",
					"Fort+Worth,+TX189",
					"Chicago,+IL156",
					"Oak+Brook,+IL300",
					"Oak+Brook,+IL308"
				],
				"lat1": 23.000000,
				"nbSeg1": 2
			},
			"pathsExist": false,
			"runtime": 2165001121,
			"nomLat1": 21.000000,
			"nomLat2": 24.000000,
			"maxNomLat": 24.000000,
			"mincut": 5
		},
		{
			"s1": "Santa+Clara,+CA388",
			"s2": "Fort+Worth,+TX189",
			"t1": "Tokyo526",
			"t2": "San+Jose,+CA472",
			"suurballeNbPaths": 2,
			"suurballeTime": 2400987,
			"suurballePaths": {
				"path0": [
					"Santa+Clara,+CA388",
					"Santa+Clara,+CA389",
					"San+Jose,+CA472"
				],
				"lat0": 3.000000,
				"nbSeg0": 1,
				"path1": [
					"Fort+Worth,+TX189",
					"Santa+Clara,+CA403",
					"Santa+Clara,+CA404",
					"Tokyo525",
					"Tokyo526"
				],
				"lat1": 58.000000,
				"nbSeg1": 0
			},
			"pathsExist": true,
			"path1": [
				"Santa+Clara,+CA388",
				"Tokyo526"
			],
			"lat1": 46.000000,
			"path2": [
				"Fort+Worth,+TX189",
				"San+Jose,+CA472"
			],
			"lat2": 16.000000,
			"maxlat": 46.000000,
			"runtime": 2167448250,
			"nomLat1": 46.000000,
			"nomLat2": 16.000000,
			"maxNomLat": 46.000000,
			"mincut": 7
		},
		{
			"s1": "San+Jose,+CA460",
			"s2": "San+Jose,+CA459",
			"t1": "Irvine,+CA231",
			"t2": "New+York,+NY294",
			"suurballeNbPaths": 2,
			"suurballeTime": 2977522,
			"suurballePaths": {
				"path0": [
					"San+Jose,+CA460",
					"Santa+Clara,+CA443",
					"El+Segundo,+CA164",
					"Irvine,+CA231"
				],
				"lat0": 8.000000,
				"nbSeg0": 0,
				"path1": [
					"San+Jose,+CA459",
					"Santa+Clara,+CA429",
					"Herndon,+VA496",
					"Herndon,+VA495",
					"Herndon,+VA208",
					"New+York,+NY293",
					"New+York,+NY294"
				],
				"lat1": 29.000000,
				"nbSeg1": 2
			},
			"pathsExist": false,
			"runtime": 2212503721,
			"nomLat1": 8.000000,
			"nomLat2": 31.000000,
			"maxNomLat": 31.000000,
			"mincut": 4
		},
		{
			"s1": "Santa+Clara,+CA405",
			"s2": "New+York,+NY294",
			"t1": "Miami,+FL286",
			"t2": "San+Jose,+CA460",
			"suurballeNbPaths": 2,
			"suurballeTime": 2924567,
			"suurballePaths": {
				"path0": [
					"New+York,+NY294",
					"New+York,+NY293",
					"Miami,+FL285",
					"Miami,+FL286"
				],
				"lat0": 12.000000,
				"nbSeg0": 0,
				"path1": [
					"Santa+Clara,+CA405",
					"Santa+Clara,+CA403",
					"Santa+Clara,+CA429",
					"San+Jose,+CA459",
					"San+Jose,+CA460"
				],
				"lat1": 5.000000,
				"nbSeg1": 1
			},
			"pathsExist": false,
			"runtime": 1716811996,
			"nomLat1": 29.000000,
			"nomLat2": 31.000000,
			"maxNomLat": 31.000000,
			"mincut": 5
		},
		{
			"s1": "Waltham,+MA555",
			"s2": "Santa+Clara,+CA404",
			"t1": "San+Jose,+CA459",
			"t2": "Herndon,+VA495",
			"suurballeNbPaths": 2,
			"suurballeTime": 2761974,
			"suurballePaths": {
				"path0": [
					"Santa+Clara,+CA404",
					"Santa+Clara,+CA403",
					"Santa+Clara,+CA429",
					"San+Jose,+CA459"
				],
				"lat0": 4.000000,
				"nbSeg0": 1,
				"path1": [
					"Waltham,+MA555",
					"Waltham,+MA568",
					"Jersey+City,+NJ244",
					"Jersey+City,+NJ245",
					"Weehawken,+NJ544",
					"Herndon,+VA495"
				],
				"lat1": 10.000000,
				"nbSeg1": 2
			},
			"pathsExist": false,
			"runtime": 1951014213,
			"nomLat1": 37.000000,
			"nomLat2": 24.000000,
			"maxNomLat": 37.000000,
			"mincut": 5
		},
		{
			"s1": "New+York,+NY293",
			"s2": "London275",
			"t1": "Oak+Brook,+IL301",
			"t2": "Waltham,+MA569",
			"suurballeNbPaths": 2,
			"suurballeTime": 2420403,
			"suurballePaths": {
				"path0": [
					"New+York,+NY293",
					"Weehawken,+NJ543",
					"Oak+Brook,+IL300",
					"Oak+Brook,+IL301"
				],
				"lat0": 10.000000,
				"nbSeg0": 1,
				"path1": [
					"London275",
					"Jersey+City,+NJ245",
					"Jersey+City,+NJ244",
					"Waltham,+MA569"
				],
				"lat1": 33.000000,
				"nbSeg1": 0
			},
			"pathsExist": false,
			"runtime": 1898777185,
			"nomLat1": 11.000000,
			"nomLat2": 33.000000,
			"maxNomLat": 33.000000,
			"mincut": 6
		},
		{
			"s1": "Santa+Clara,+CA364",
			"s2": "Waltham,+MA555",
			"t1": "Waltham,+MA569",
			"t2": "Santa+Clara,+CA363",
			"suurballeNbPaths": 2,
			"suurballeTime": 2352109,
			"suurballePaths": {
				"path0": [
					"Santa+Clara,+CA364",
					"Santa+Clara,+CA431",
					"Santa+Clara,+CA363"
				],
				"lat0": 2.000000,
				"nbSeg0": 1,
				"path1": [
					"Waltham,+MA555",
					"Waltham,+MA556",
					"Waltham,+MA569"
				],
				"lat1": 2.000000,
				"nbSeg1": 1
			},
			"pathsExist": false,
			"runtime": 2194111367,
			"nomLat1": 33.000000,
			"nomLat2": 30.000000,
			"maxNomLat": 33.000000,
			"mincut": 5
		},
		{
			"s1": "London275",
			"s2": "Palo+Alto,+CA317",
			"t1": "Atlanta,+GA133",
			"t2": "Atlanta,+GA127",
			"suurballeNbPaths": 2,
			"suurballeTime": 2428984,
			"suurballePaths": {
				"path0": [
					"London275",
					"Weehawken,+NJ544",
					"Weehawken,+NJ543",
					"Atlanta,+GA127"
				],
				"lat0": 37.000000,
				"nbSeg0": 3,
				"path1": [
					"Palo+Alto,+CA317",
					"Palo+Alto,+CA104",
					"Santa+Clara,+CA403",
					"Fort+Worth,+TX189",
					"Fort+Worth,+TX190",
					"Atlanta,+GA127"
				],
				"lat1": 25.000000,
				"nbSeg1": 0
			},
			"pathsExist": false,
			"runtime": 1489837360,
			"nomLat1": 43.000000,
			"nomLat2": 25.000000,
			"maxNomLat": 43.000000,
			"mincut": 4
		},
		{
			"s1": "Waltham,+MA556",
			"s2": "Waltham,+MA568",
			"t1": "Weehawken,+NJ543",
			"t2": "El+Segundo,+CA164",
			"suurballeNbPaths": 2,
			"suurballeTime": 2184508,
			"suurballePaths": {
				"path0": [
					"Waltham,+MA568",
					"Jersey+City,+NJ244",
					"Weehawken,+NJ543"
				],
				"lat0": 5.000000,
				"nbSeg0": 1,
				"path1": [
					"Waltham,+MA556",
					"Oak+Brook,+IL300",
					"Chicago,+IL156",
					"Fort+Worth,+TX189",
					"Irvine,+CA228",
					"Irvine,+CA213",
					"El+Segundo,+CA164"
				],
				"lat1": 32.000000,
				"nbSeg1": 2
			},
			"pathsExist": false,
			"runtime": 1505221294,
			"nomLat1": 8.000000,
			"nomLat2": 34.000000,
			"maxNomLat": 34.000000,
			"mincut": 4
		},
		{
			"s1": "Santa+Clara,+CA364",
			"s2": "Santa+Clara,+CA403",
			"t1": "Tukwila,+WA508",
			"t2": "Herndon,+VA208",
			"suurballeNbPaths": 2,
			"suurballeTime": 2406442,
			"suurballePaths": {
				"path0": [
					"Santa+Clara,+CA403",
					"Santa+Clara,+CA429",
					"Tukwila,+WA508"
				],
				"lat0": 8.000000,
				"nbSeg0": 0,
				"path1": [
					"Santa+Clara,+CA364",
					"Santa+Clara,+CA430",
					"Santa+Clara,+CA429",
					"Herndon,+VA496",
					"Herndon,+VA495",
					"Herndon,+VA208"
				],
				"lat1": 25.000000,
				"nbSeg1": 1
			},
			"pathsExist": false,
			"runtime": 2331108424,
			"nomLat1": 9.000000,
			"nomLat2": 24.000000,
			"maxNomLat": 24.000000,
			"mincut": 5
		},
		{
			"s1": "Santa+Clara,+CA389",
			"s2": "Palo+Alto,+CA318",
			"t1": "Oak+Brook,+IL301",
			"t2": "Herndon,+VA208",
			"suurballeNbPaths": 2,
			"suurballeTime": 2448324,
			"suurballePaths": {
				"path0": [
					"Santa+Clara,+CA389",
					"San+Jose,+CA471",
					"Oak+Brook,+IL301"
				],
				"lat0": 18.000000,
				"nbSeg0": 0,
				"path1": [
					"Palo+Alto,+CA318",
					"Santa+Clara,+CA363",
					"Santa+Clara,+CA431",
					"Santa+Clara,+CA429",
					"Herndon,+VA496",
					"Herndon,+VA495",
					"Herndon,+VA208"
				],
				"lat1": 27.000000,
				"nbSeg1": 1
			},
			"pathsExist": false,
			"runtime": 1556007463,
			"nomLat1": 18.000000,
			"nomLat2": 28.000000,
			"maxNomLat": 28.000000,
			"mincut": 5
		},
		{
			"s1": "Waltham,+MA568",
			"s2": "Santa+Clara,+CA364",
			"t1": "San+Jose,+CA459",
			"t2": "Irvine,+CA231",
			"suurballeNbPaths": 2,
			"suurballeTime": 2422047,
			"suurballePaths": {
				"path0": [
					"Santa+Clara,+CA364",
					"Santa+Clara,+CA430",
					"Santa+Clara,+CA429",
					"San+Jose,+CA459"
				],
				"lat0": 4.000000,
				"nbSeg0": 1,
				"path1": [
					"Waltham,+MA568",
					"Waltham,+MA555",
					"Oak+Brook,+IL300",
					"Chicago,+IL156",
					"Fort+Worth,+TX189",
					"Irvine,+CA228",
					"Irvine,+CA231"
				],
				"lat1": 31.000000,
				"nbSeg1": 2
			},
			"pathsExist": false,
			"runtime": 2384803515,
			"nomLat1": 38.000000,
			"nomLat2": 8.000000,
			"maxNomLat": 38.000000,
			"mincut": 5
		},
		{
			"s1": "Waltham,+MA556",
			"s2": "Herndon,+VA206",
			"t1": "Miami,+FL285",
			"t2": "San+Jose,+CA471",
			"suurballeNbPaths": 2,
			"suurballeTime": 2158867,
			"suurballePaths": {
				"path0": [
					"Herndon,+VA206",
					"New+York,+NY293",
					"Miami,+FL285"
				],
				"lat0": 13.000000,
				"nbSeg0": 0,
				"path1": [
					"Waltham,+MA556",
					"Oak+Brook,+IL300",
					"Oak+Brook,+IL301",
					"San+Jose,+CA471"
				],
				"lat1": 25.000000,
				"nbSeg1": 0
			},
			"pathsExist": false,
			"runtime": 2374804890,
			"nomLat1": 21.000000,
			"nomLat2": 30.000000,
			"maxNomLat": 30.000000,
			"mincut": 5
		},
		{
			"s1": "Waltham,+MA568",
			"s2": "Weehawken,+NJ552",
			"t1": "Santa+Clara,+CA444",
			"t2": "Oak+Brook,+IL300",
			"suurballeNbPaths": 2,
			"suurballeTime": 2187174,
			"suurballePaths": {
				"path0": [
					"Weehawken,+NJ552",
					"Oak+Brook,+IL300"
				],
				"lat0": 7.000000,
				"nbSeg0": 0,
				"path1": [
					"Waltham,+MA568",
					"Waltham,+MA555",
					"Oak+Brook,+IL300"
				],
				"lat1": 9.000000,
				"nbSeg1": 1
			},
			"pathsExist": false,
			"runtime": 1813423432,
			"nomLat1": 29.000000,
			"nomLat2": 7.000000,
			"maxNomLat": 29.000000,
			"mincut": 6
		}
	],
	"demandsWithSol": 19
}
