{
	"nbDemands": 102,
	"demands": [
		{
			"s1": "57_Marseille",
			"s2": "53_Copenhagen",
			"t1": "81_Plovdiv",
			"t2": "74_Bratislava",
			"suurballeNbPaths": 2,
			"suurballeTime": 860856617,
			"suurballePaths": {
				"path0": [
					"53_Copenhagen",
					"36_None",
					"39_Berlin",
					"9_Dresden",
					"8_Leipzig",
					"64_Prague",
					"45_Brno",
					"74_Bratislava"
				],
				"lat0": 2019.000000,
				"nbSeg0": 1,
				"path1": [
					"57_Marseille",
					"92_Nice",
					"55_Genoa",
					"2_Pisa",
					"101_Rome",
					"84_Naples",
					"63_Bari",
					"71_Thessalonika",
					"40_Sofia",
					"81_Plovdiv"
				],
				"lat1": 3379.000000,
				"nbSeg1": 0
			},
			"pathsExist": true,
			"path1": [
				"57_Marseille",
				"81_Plovdiv"
			],
			"lat1": 3379.000000,
			"path2": [
				"53_Copenhagen",
				"8_Leipzig",
				"74_Bratislava"
			],
			"lat2": 2019.000000,
			"maxlat": 3379.000000,
			"runtime": 1671581274,
			"nomLat1": 3379.000000,
			"nomLat2": 2640.000000,
			"maxNomLat": 3379.000000,
			"mincut": 3
		},
		{
			"s1": "105_Rotterdam",
			"s2": "25_Basle",
			"t1": "46_Cologne",
			"t2": "16_Paris",
			"suurballeNbPaths": 2,
			"suurballeTime": 713511313,
			"suurballePaths": {
				"path0": [
					"105_Rotterdam",
					"13_Amsterdam",
					"104_Utrecht",
					"34_Dusseldorf",
					"46_Cologne"
				],
				"lat0": 479.000000,
				"nbSeg0": 2,
				"path1": [
					"25_Basle",
					"28_Berne",
					"29_Lausanne",
					"77_Geneva",
					"56_Lyon",
					"16_Paris"
				],
				"lat1": 1196.000000,
				"nbSeg1": 1
			},
			"pathsExist": true,
			"path1": [
				"105_Rotterdam",
				"46_Cologne"
			],
			"lat1": 536.000000,
			"path2": [
				"25_Basle",
				"28_Berne",
				"16_Paris"
			],
			"lat2": 1196.000000,
			"maxlat": 1196.000000,
			"runtime": 1795052971,
			"nomLat1": 536.000000,
			"nomLat2": 1256.000000,
			"maxNomLat": 1256.000000,
			"mincut": 4
		},
		{
			"s1": "83_New_York",
			"s2": "71_Thessalonika",
			"t1": "56_Lyon",
			"t2": "8_Leipzig",
			"suurballeNbPaths": 2,
			"suurballeTime": 193106543,
			"suurballePaths": {
				"path0": [
					"83_New_York",
					"10_London",
					"31_None",
					"20_Calais",
					"72_Lille",
					"16_Paris",
					"56_Lyon"
				],
				"lat0": 2164.000000,
				"nbSeg0": 0,
				"path1": [
					"71_Thessalonika",
					"41_Edirne",
					"68_Ruse",
					"42_Bucharest",
					"109_None",
					"66_Szolnok",
					"32_Budapest",
					"74_Bratislava",
					"45_Brno",
					"64_Prague",
					"8_Leipzig"
				],
				"lat1": 2820.000000,
				"nbSeg1": 3
			},
			"pathsExist": true,
			"path1": [
				"83_New_York",
				"56_Lyon"
			],
			"lat1": 2164.000000,
			"path2": [
				"71_Thessalonika",
				"41_Edirne",
				"66_Szolnok",
				"74_Bratislava",
				"8_Leipzig"
			],
			"lat2": 2820.000000,
			"maxlat": 2820.000000,
			"runtime": 2454054923,
			"nomLat1": 2164.000000,
			"nomLat2": 3067.000000,
			"maxNomLat": 3067.000000,
			"mincut": 5
		},
		{
			"s1": "19_Munich",
			"s2": "106_Antwerp",
			"t1": "73_Luxembourg",
			"t2": "46_Cologne",
			"suurballeNbPaths": 2,
			"suurballeTime": 16572133,
			"suurballePaths": {
				"path0": [
					"106_Antwerp",
					"11_Brussels",
					"73_Luxembourg"
				],
				"lat0": 389.000000,
				"nbSeg0": 0,
				"path1": [
					"19_Munich",
					"7_Nuremberg",
					"18_Frankfurt",
					"47_Bonn",
					"46_Cologne"
				],
				"lat1": 838.000000,
				"nbSeg1": 2
			},
			"pathsExist": true,
			"path1": [
				"19_Munich",
				"73_Luxembourg"
			],
			"lat1": 1035.000000,
			"path2": [
				"106_Antwerp",
				"13_Amsterdam",
				"46_Cologne"
			],
			"lat2": 614.000000,
			"maxlat": 1035.000000,
			"runtime": 3122471204,
			"nomLat1": 1035.000000,
			"nomLat2": 401.000000,
			"maxNomLat": 1035.000000,
			"mincut": 6
		},
		{
			"s1": "71_Thessalonika",
			"s2": "37_None",
			"t1": "81_Plovdiv",
			"t2": "9_Dresden",
			"suurballeNbPaths": 2,
			"suurballeTime": 76144299,
			"suurballePaths": {
				"path0": [
					"71_Thessalonika",
					"40_Sofia",
					"81_Plovdiv"
				],
				"lat0": 613.000000,
				"nbSeg0": 0,
				"path1": [
					"37_None",
					"61_Zandvort",
					"13_Amsterdam",
					"104_Utrecht",
					"34_Dusseldorf",
					"46_Cologne",
					"47_Bonn",
					"18_Frankfurt",
					"7_Nuremberg",
					"8_Leipzig",
					"9_Dresden"
				],
				"lat1": 1919.000000,
				"nbSeg1": 4
			},
			"pathsExist": true,
			"path1": [
				"71_Thessalonika",
				"81_Plovdiv"
			],
			"lat1": 613.000000,
			"path2": [
				"37_None",
				"13_Amsterdam",
				"9_Dresden"
			],
			"lat2": 1919.000000,
			"maxlat": 1919.000000,
			"runtime": 2174976749,
			"nomLat1": 613.000000,
			"nomLat2": 3413.000000,
			"maxNomLat": 3413.000000,
			"mincut": 4
		},
		{
			"s1": "23_Slough",
			"s2": "102_Essen",
			"t1": "11_Brussels",
			"t2": "61_Zandvort",
			"suurballeNbPaths": 2,
			"suurballeTime": 30364209,
			"suurballePaths": {
				"path0": [
					"23_Slough",
					"31_None",
					"20_Calais",
					"72_Lille",
					"11_Brussels"
				],
				"lat0": 1025.000000,
				"nbSeg0": 2,
				"path1": [
					"102_Essen",
					"34_Dusseldorf",
					"104_Utrecht",
					"13_Amsterdam",
					"61_Zandvort"
				],
				"lat1": 417.000000,
				"nbSeg1": 0
			},
			"pathsExist": true,
			"path1": [
				"23_Slough",
				"11_Brussels"
			],
			"lat1": 1025.000000,
			"path2": [
				"102_Essen",
				"61_Zandvort"
			],
			"lat2": 417.000000,
			"maxlat": 1025.000000,
			"runtime": 1634125239,
			"nomLat1": 1025.000000,
			"nomLat2": 417.000000,
			"maxNomLat": 1025.000000,
			"mincut": 4
		},
		{
			"s1": "3_Florence",
			"s2": "103_Dortmund",
			"t1": "2_Pisa",
			"t2": "11_Brussels",
			"suurballeNbPaths": 2,
			"suurballeTime": 335434325,
			"suurballePaths": {
				"path0": [
					"3_Florence",
					"2_Pisa"
				],
				"lat0": 119.000000,
				"nbSeg0": 0,
				"path1": [
					"103_Dortmund",
					"102_Essen",
					"34_Dusseldorf",
					"46_Cologne",
					"21_Liege",
					"11_Brussels"
				],
				"lat1": 501.000000,
				"nbSeg1": 2
			},
			"pathsExist": true,
			"path1": [
				"3_Florence",
				"2_Pisa"
			],
			"lat1": 119.000000,
			"path2": [
				"103_Dortmund",
				"11_Brussels"
			],
			"lat2": 501.000000,
			"maxlat": 501.000000,
			"runtime": 3202400528,
			"nomLat1": 119.000000,
			"nomLat2": 501.000000,
			"maxNomLat": 501.000000,
			"mincut": 5
		},
		{
			"s1": "7_Nuremberg",
			"s2": "16_Paris",
			"t1": "59_Gotenburg",
			"t2": "89_Poltiers",
			"suurballeNbPaths": 2,
			"suurballeTime": 5277949,
			"suurballePaths": {
				"path0": [
					"16_Paris",
					"89_Poltiers"
				],
				"lat0": 494.000000,
				"nbSeg0": 0,
				"path1": [
					"7_Nuremberg",
					"8_Leipzig",
					"9_Dresden",
					"39_Berlin",
					"36_None",
					"53_Copenhagen",
					"59_Gotenburg"
				],
				"lat1": 1931.000000,
				"nbSeg1": 0
			},
			"pathsExist": true,
			"path1": [
				"7_Nuremberg",
				"59_Gotenburg"
			],
			"lat1": 1931.000000,
			"path2": [
				"16_Paris",
				"89_Poltiers"
			],
			"lat2": 494.000000,
			"maxlat": 1931.000000,
			"runtime": 1858409825,
			"nomLat1": 1931.000000,
			"nomLat2": 494.000000,
			"maxNomLat": 1931.000000,
			"mincut": 4
		},
		{
			"s1": "56_Lyon",
			"s2": "65_Warsaw",
			"t1": "57_Marseille",
			"t2": "17_Dubai",
			"suurballeNbPaths": 2,
			"suurballeTime": 845712613,
			"suurballePaths": {
				"path0": [
					"56_Lyon",
					"57_Marseille"
				],
				"lat0": 464.000000,
				"nbSeg0": 2,
				"path1": [
					"65_Warsaw",
					"67_Krakow",
					"45_Brno",
					"64_Prague",
					"7_Nuremberg",
					"18_Frankfurt",
					"47_Bonn",
					"46_Cologne",
					"34_Dusseldorf",
					"104_Utrecht",
					"13_Amsterdam",
					"61_Zandvort",
					"37_None",
					"10_London",
					"17_Dubai"
				],
				"lat1": 3660.000000,
				"nbSeg1": 4
			},
			"pathsExist": true,
			"path1": [
				"56_Lyon",
				"57_Marseille"
			],
			"lat1": 464.000000,
			"path2": [
				"65_Warsaw",
				"13_Amsterdam",
				"17_Dubai"
			],
			"lat2": 3660.000000,
			"maxlat": 3660.000000,
			"runtime": 1741127545,
			"nomLat1": 464.000000,
			"nomLat2": 4448.000000,
			"maxNomLat": 4448.000000,
			"mincut": 6
		},
		{
			"s1": "53_Copenhagen",
			"s2": "17_Dubai",
			"t1": "46_Cologne",
			"t2": "31_None",
			"suurballeNbPaths": 2,
			"suurballeTime": 79162648,
			"suurballePaths": {
				"path0": [
					"17_Dubai",
					"23_Slough",
					"31_None"
				],
				"lat0": 706.000000,
				"nbSeg0": 1,
				"path1": [
					"53_Copenhagen",
					"35_Hamburg",
					"0_Bremen",
					"103_Dortmund",
					"102_Essen",
					"34_Dusseldorf",
					"46_Cologne"
				],
				"lat1": 1153.000000,
				"nbSeg1": 2
			},
			"pathsExist": true,
			"path1": [
				"53_Copenhagen",
				"46_Cologne"
			],
			"lat1": 1153.000000,
			"path2": [
				"17_Dubai",
				"31_None"
			],
			"lat2": 706.000000,
			"maxlat": 1153.000000,
			"runtime": 318078846,
			"nomLat1": 1153.000000,
			"nomLat2": 706.000000,
			"maxNomLat": 1153.000000,
			"mincut": 4
		},
		{
			"s1": "101_Rome",
			"s2": "12_Stuttgart",
			"t1": "50_Narborne",
			"t2": "83_New_York",
			"suurballeNbPaths": 2,
			"suurballeTime": 74351258,
			"suurballePaths": {
				"path0": [
					"101_Rome",
					"2_Pisa",
					"55_Genoa",
					"92_Nice",
					"57_Marseille",
					"50_Narborne"
				],
				"lat0": 1539.000000,
				"nbSeg0": 0,
				"path1": [
					"12_Stuttgart",
					"26_Karlsruhe",
					"18_Frankfurt",
					"47_Bonn",
					"46_Cologne",
					"34_Dusseldorf",
					"104_Utrecht",
					"13_Amsterdam",
					"61_Zandvort",
					"37_None",
					"10_London",
					"83_New_York"
				],
				"lat1": 2015.000000,
				"nbSeg1": 5
			},
			"pathsExist": true,
			"path1": [
				"101_Rome",
				"50_Narborne"
			],
			"lat1": 1539.000000,
			"path2": [
				"12_Stuttgart",
				"26_Karlsruhe",
				"13_Amsterdam",
				"83_New_York"
			],
			"lat2": 2015.000000,
			"maxlat": 2015.000000,
			"runtime": 366468783,
			"nomLat1": 1539.000000,
			"nomLat2": 2354.000000,
			"maxNomLat": 2354.000000,
			"mincut": 4
		},
		{
			"s1": "36_None",
			"s2": "94_None",
			"t1": "75_Hannover",
			"t2": "95_Barcelona",
			"suurballeNbPaths": 2,
			"suurballeTime": 84163519,
			"suurballePaths": {
				"path0": [
					"36_None",
					"75_Hannover"
				],
				"lat0": 353.000000,
				"nbSeg0": 0,
				"path1": [
					"94_None",
					"86_Valencia",
					"95_Barcelona"
				],
				"lat1": 862.000000,
				"nbSeg1": 0
			},
			"pathsExist": true,
			"path1": [
				"36_None",
				"75_Hannover"
			],
			"lat1": 353.000000,
			"path2": [
				"94_None",
				"95_Barcelona"
			],
			"lat2": 862.000000,
			"maxlat": 862.000000,
			"runtime": 338006905,
			"nomLat1": 353.000000,
			"nomLat2": 862.000000,
			"maxNomLat": 862.000000,
			"mincut": 4
		},
		{
			"s1": "59_Gotenburg",
			"s2": "71_Thessalonika",
			"t1": "76_Madrid",
			"t2": "12_Stuttgart",
			"suurballeNbPaths": 2,
			"suurballeTime": 79315080,
			"suurballePaths": {
				"path0": [
					"59_Gotenburg",
					"53_Copenhagen",
					"35_Hamburg",
					"0_Bremen",
					"103_Dortmund",
					"102_Essen",
					"34_Dusseldorf",
					"46_Cologne",
					"47_Bonn",
					"18_Frankfurt",
					"26_Karlsruhe",
					"12_Stuttgart"
				],
				"lat0": 2129.000000,
				"nbSeg0": 5,
				"path1": [
					"71_Thessalonika",
					"63_Bari",
					"84_Naples",
					"101_Rome",
					"2_Pisa",
					"55_Genoa",
					"92_Nice",
					"57_Marseille",
					"50_Narborne",
					"51_Bordeaux",
					"88_Bilbao",
					"76_Madrid"
				],
				"lat1": 4635.000000,
				"nbSeg1": 0
			},
			"pathsExist": true,
			"path1": [
				"59_Gotenburg",
				"11_Brussels",
				"76_Madrid"
			],
			"lat1": 4189.000000,
			"path2": [
				"71_Thessalonika",
				"12_Stuttgart"
			],
			"lat2": 2834.000000,
			"maxlat": 4189.000000,
			"runtime": 4471682027,
			"nomLat1": 5039.000000,
			"nomLat2": 2834.000000,
			"maxNomLat": 5039.000000,
			"mincut": 5
		},
		{
			"s1": "90_Cagliari",
			"s2": "24_Nancy",
			"t1": "109_None",
			"t2": "86_Valencia",
			"suurballeNbPaths": 2,
			"suurballeTime": 4411076,
			"suurballePaths": {
				"path0": [
					"24_Nancy",
					"27_Strasbourg",
					"12_Stuttgart",
					"19_Munich",
					"6_Salzburg",
					"33_Vienna",
					"32_Budapest",
					"66_Szolnok",
					"109_None"
				],
				"lat0": 2196.000000,
				"nbSeg0": 2,
				"path1": [
					"90_Cagliari",
					"91_Olbia",
					"101_Rome",
					"2_Pisa",
					"55_Genoa",
					"92_Nice",
					"57_Marseille",
					"50_Narborne",
					"95_Barcelona",
					"86_Valencia"
				],
				"lat1": 3188.000000,
				"nbSeg1": 0
			},
			"pathsExist": true,
			"path1": [
				"90_Cagliari",
				"4_Udine",
				"109_None"
			],
			"lat1": 3168.000000,
			"path2": [
				"24_Nancy",
				"51_Bordeaux",
				"86_Valencia"
			],
			"lat2": 2753.000000,
			"maxlat": 3168.000000,
			"runtime": 6315112112,
			"nomLat1": 3797.000000,
			"nomLat2": 2790.000000,
			"maxNomLat": 3797.000000,
			"mincut": 4
		},
		{
			"s1": "22_Dublin",
			"s2": "18_Frankfurt",
			"t1": "86_Valencia",
			"t2": "52_Zurich",
			"suurballeNbPaths": 2,
			"suurballeTime": 79466088,
			"suurballePaths": {
				"path0": [
					"18_Frankfurt",
					"26_Karlsruhe",
					"12_Stuttgart",
					"52_Zurich"
				],
				"lat0": 600.000000,
				"nbSeg0": 1,
				"path1": [
					"22_Dublin",
					"10_London",
					"31_None",
					"20_Calais",
					"72_Lille",
					"16_Paris",
					"89_Poltiers",
					"51_Bordeaux",
					"50_Narborne",
					"95_Barcelona",
					"86_Valencia"
				],
				"lat1": 4263.000000,
				"nbSeg1": 3
			},
			"pathsExist": true,
			"path1": [
				"22_Dublin",
				"51_Bordeaux",
				"86_Valencia"
			],
			"lat1": 4263.000000,
			"path2": [
				"18_Frankfurt",
				"26_Karlsruhe",
				"52_Zurich"
			],
			"lat2": 600.000000,
			"maxlat": 4263.000000,
			"runtime": 7393373220,
			"nomLat1": 4300.000000,
			"nomLat2": 771.000000,
			"maxNomLat": 4300.000000,
			"mincut": 5
		},
		{
			"s1": "77_Geneva",
			"s2": "46_Cologne",
			"t1": "51_Bordeaux",
			"t2": "24_Nancy",
			"suurballeNbPaths": 2,
			"suurballeTime": 84245345,
			"suurballePaths": {
				"path0": [
					"77_Geneva",
					"56_Lyon",
					"57_Marseille",
					"50_Narborne",
					"51_Bordeaux"
				],
				"lat0": 1550.000000,
				"nbSeg0": 2,
				"path1": [
					"46_Cologne",
					"47_Bonn",
					"18_Frankfurt",
					"27_Strasbourg",
					"24_Nancy"
				],
				"lat1": 773.000000,
				"nbSeg1": 2
			},
			"pathsExist": true,
			"path1": [
				"77_Geneva",
				"50_Narborne",
				"51_Bordeaux"
			],
			"lat1": 1550.000000,
			"path2": [
				"46_Cologne",
				"24_Nancy"
			],
			"lat2": 773.000000,
			"maxlat": 1550.000000,
			"runtime": 11585184914,
			"nomLat1": 1693.000000,
			"nomLat2": 773.000000,
			"maxNomLat": 1693.000000,
			"mincut": 4
		},
		{
			"s1": "70_Pescara",
			"s2": "73_Luxembourg",
			"t1": "54_Turin",
			"t2": "76_Madrid",
			"suurballeNbPaths": 2,
			"suurballeTime": 9312025055,
			"suurballePaths": {
				"path0": [
					"70_Pescara",
					"49_Bologna",
					"38_Milan",
					"54_Turin"
				],
				"lat0": 1095.000000,
				"nbSeg0": 2,
				"path1": [
					"73_Luxembourg",
					"11_Brussels",
					"72_Lille",
					"16_Paris",
					"89_Poltiers",
					"51_Bordeaux",
					"88_Bilbao",
					"76_Madrid"
				],
				"lat1": 2638.000000,
				"nbSeg1": 2
			},
			"pathsExist": true,
			"path1": [
				"70_Pescara",
				"54_Turin"
			],
			"lat1": 1095.000000,
			"path2": [
				"73_Luxembourg",
				"76_Madrid"
			],
			"lat2": 2638.000000,
			"maxlat": 2638.000000,
			"runtime": 3063037127,
			"nomLat1": 1095.000000,
			"nomLat2": 2638.000000,
			"maxNomLat": 2638.000000,
			"mincut": 4
		},
		{
			"s1": "35_Hamburg",
			"s2": "63_Bari",
			"t1": "53_Copenhagen",
			"t2": "42_Bucharest",
			"suurballeNbPaths": 2,
			"suurballeTime": 4144816,
			"suurballePaths": {
				"path0": [
					"35_Hamburg",
					"53_Copenhagen"
				],
				"lat0": 485.000000,
				"nbSeg0": 0,
				"path1": [
					"63_Bari",
					"71_Thessalonika",
					"41_Edirne",
					"68_Ruse",
					"42_Bucharest"
				],
				"lat1": 1681.000000,
				"nbSeg1": 1
			},
			"pathsExist": true,
			"path1": [
				"35_Hamburg",
				"53_Copenhagen"
			],
			"lat1": 485.000000,
			"path2": [
				"63_Bari",
				"41_Edirne",
				"42_Bucharest"
			],
			"lat2": 1681.000000,
			"maxlat": 1681.000000,
			"runtime": 11240251196,
			"nomLat1": 485.000000,
			"nomLat2": 1785.000000,
			"maxNomLat": 1785.000000,
			"mincut": 5
		},
		{
			"s1": "66_Szolnok",
			"s2": "75_Hannover",
			"t1": "101_Rome",
			"t2": "86_Valencia",
			"suurballeNbPaths": 2,
			"suurballeTime": 4664466,
			"suurballePaths": {
				"path0": [
					"66_Szolnok",
					"32_Budapest",
					"33_Vienna",
					"5_Graz",
					"4_Udine",
					"48_Venice",
					"49_Bologna",
					"3_Florence",
					"101_Rome"
				],
				"lat0": 2031.000000,
				"nbSeg0": 1,
				"path1": [
					"75_Hannover",
					"35_Hamburg",
					"0_Bremen",
					"103_Dortmund",
					"102_Essen",
					"34_Dusseldorf",
					"46_Cologne",
					"21_Liege",
					"11_Brussels",
					"72_Lille",
					"16_Paris",
					"89_Poltiers",
					"51_Bordeaux",
					"50_Narborne",
					"95_Barcelona",
					"86_Valencia"
				],
				"lat1": 4003.000000,
				"nbSeg1": 5
			},
			"pathsExist": true,
			"path1": [
				"66_Szolnok",
				"101_Rome"
			],
			"lat1": 3578.000000,
			"path2": [
				"75_Hannover",
				"11_Brussels",
				"51_Bordeaux",
				"86_Valencia"
			],
			"lat2": 4003.000000,
			"maxlat": 4003.000000,
			"runtime": 11109540741,
			"nomLat1": 3578.000000,
			"nomLat2": 5150.000000,
			"maxNomLat": 5150.000000,
			"mincut": 4
		},
		{
			"s1": "82_Washington_DC",
			"s2": "71_Thessalonika",
			"t1": "44_Stockholm",
			"t2": "49_Bologna",
			"suurballeNbPaths": 2,
			"suurballeTime": 4540356,
			"suurballePaths": {
				"path0": [
					"71_Thessalonika",
					"63_Bari",
					"70_Pescara",
					"49_Bologna"
				],
				"lat0": 1852.000000,
				"nbSeg0": 0,
				"path1": [
					"82_Washington_DC",
					"10_London",
					"37_None",
					"61_Zandvort",
					"13_Amsterdam",
					"104_Utrecht",
					"34_Dusseldorf",
					"102_Essen",
					"103_Dortmund",
					"0_Bremen",
					"35_Hamburg",
					"53_Copenhagen",
					"44_Stockholm"
				],
				"lat1": 3386.000000,
				"nbSeg1": 0
			},
			"pathsExist": true,
			"path1": [
				"82_Washington_DC",
				"44_Stockholm"
			],
			"lat1": 3386.000000,
			"path2": [
				"71_Thessalonika",
				"49_Bologna"
			],
			"lat2": 1852.000000,
			"maxlat": 3386.000000,
			"runtime": 11083362759,
			"nomLat1": 3386.000000,
			"nomLat2": 1852.000000,
			"maxNomLat": 3386.000000,
			"mincut": 5
		},
		{
			"s1": "32_Budapest",
			"s2": "11_Brussels",
			"t1": "16_Paris",
			"t2": "13_Amsterdam",
			"suurballeNbPaths": 2,
			"suurballeTime": 567528864,
			"suurballePaths": {
				"path0": [
					"11_Brussels",
					"106_Antwerp",
					"105_Rotterdam",
					"13_Amsterdam"
				],
				"lat0": 308.000000,
				"nbSeg0": 0,
				"path1": [
					"32_Budapest",
					"33_Vienna",
					"6_Salzburg",
					"19_Munich",
					"12_Stuttgart",
					"27_Strasbourg",
					"16_Paris"
				],
				"lat1": 2153.000000,
				"nbSeg1": 2
			},
			"pathsExist": true,
			"path1": [
				"32_Budapest",
				"16_Paris"
			],
			"lat1": 2153.000000,
			"path2": [
				"11_Brussels",
				"13_Amsterdam"
			],
			"lat2": 308.000000,
			"maxlat": 2153.000000,
			"runtime": 10697303469,
			"nomLat1": 2153.000000,
			"nomLat2": 308.000000,
			"maxNomLat": 2153.000000,
			"mincut": 8
		},
		{
			"s1": "11_Brussels",
			"s2": "32_Budapest",
			"t1": "14_Moscow",
			"t2": "24_Nancy",
			"suurballeNbPaths": 2,
			"suurballeTime": 74214394,
			"suurballePaths": {
				"path0": [
					"32_Budapest",
					"33_Vienna",
					"6_Salzburg",
					"19_Munich",
					"12_Stuttgart",
					"27_Strasbourg",
					"24_Nancy"
				],
				"lat0": 1682.000000,
				"nbSeg0": 2,
				"path1": [
					"11_Brussels",
					"21_Liege",
					"46_Cologne",
					"34_Dusseldorf",
					"102_Essen",
					"103_Dortmund",
					"0_Bremen",
					"35_Hamburg",
					"53_Copenhagen",
					"44_Stockholm",
					"14_Moscow"
				],
				"lat1": 4404.000000,
				"nbSeg1": 2
			},
			"pathsExist": true,
			"path1": [
				"11_Brussels",
				"14_Moscow"
			],
			"lat1": 4404.000000,
			"path2": [
				"32_Budapest",
				"24_Nancy"
			],
			"lat2": 1682.000000,
			"maxlat": 4404.000000,
			"runtime": 484419220,
			"nomLat1": 4404.000000,
			"nomLat2": 1682.000000,
			"maxNomLat": 4404.000000,
			"mincut": 4
		},
		{
			"s1": "50_Narborne",
			"s2": "41_Edirne",
			"t1": "76_Madrid",
			"t2": "62_Istanbul",
			"suurballeNbPaths": 2,
			"suurballeTime": 79196132,
			"suurballePaths": {
				"path0": [
					"41_Edirne",
					"62_Istanbul"
				],
				"lat0": 353.000000,
				"nbSeg0": 2,
				"path1": [
					"50_Narborne",
					"51_Bordeaux",
					"88_Bilbao",
					"76_Madrid"
				],
				"lat1": 1543.000000,
				"nbSeg1": 0
			},
			"pathsExist": true,
			"path1": [
				"50_Narborne",
				"76_Madrid"
			],
			"lat1": 1543.000000,
			"path2": [
				"41_Edirne",
				"62_Istanbul"
			],
			"lat2": 353.000000,
			"maxlat": 1543.000000,
			"runtime": 557223384,
			"nomLat1": 1543.000000,
			"nomLat2": 353.000000,
			"maxNomLat": 1543.000000,
			"mincut": 4
		},
		{
			"s1": "15_Helsinki",
			"s2": "92_Nice",
			"t1": "103_Dortmund",
			"t2": "74_Bratislava",
			"suurballeNbPaths": 2,
			"suurballeTime": 79252181,
			"suurballePaths": {
				"path0": [
					"15_Helsinki",
					"44_Stockholm",
					"53_Copenhagen",
					"35_Hamburg",
					"0_Bremen",
					"103_Dortmund"
				],
				"lat0": 2518.000000,
				"nbSeg0": 0,
				"path1": [
					"92_Nice",
					"55_Genoa",
					"2_Pisa",
					"3_Florence",
					"49_Bologna",
					"48_Venice",
					"4_Udine",
					"5_Graz",
					"33_Vienna",
					"45_Brno",
					"74_Bratislava"
				],
				"lat1": 2134.000000,
				"nbSeg1": 2
			},
			"pathsExist": true,
			"path1": [
				"15_Helsinki",
				"103_Dortmund"
			],
			"lat1": 2518.000000,
			"path2": [
				"92_Nice",
				"2_Pisa",
				"45_Brno",
				"74_Bratislava"
			],
			"lat2": 2134.000000,
			"maxlat": 2518.000000,
			"runtime": 409554192,
			"nomLat1": 2518.000000,
			"nomLat2": 3629.000000,
			"maxNomLat": 3629.000000,
			"mincut": 4
		},
		{
			"s1": "92_Nice",
			"s2": "26_Karlsruhe",
			"t1": "51_Bordeaux",
			"t2": "44_Stockholm",
			"suurballeNbPaths": 2,
			"suurballeTime": 89164119,
			"suurballePaths": {
				"path0": [
					"92_Nice",
					"57_Marseille",
					"50_Narborne",
					"51_Bordeaux"
				],
				"lat0": 1164.000000,
				"nbSeg0": 0,
				"path1": [
					"26_Karlsruhe",
					"18_Frankfurt",
					"47_Bonn",
					"46_Cologne",
					"34_Dusseldorf",
					"102_Essen",
					"103_Dortmund",
					"0_Bremen",
					"35_Hamburg",
					"53_Copenhagen",
					"44_Stockholm"
				],
				"lat1": 2508.000000,
				"nbSeg1": 4
			},
			"pathsExist": true,
			"path1": [
				"92_Nice",
				"51_Bordeaux"
			],
			"lat1": 1164.000000,
			"path2": [
				"26_Karlsruhe",
				"0_Bremen",
				"44_Stockholm"
			],
			"lat2": 2508.000000,
			"maxlat": 2508.000000,
			"runtime": 1082564813,
			"nomLat1": 1164.000000,
			"nomLat2": 2947.000000,
			"maxNomLat": 2947.000000,
			"mincut": 4
		},
		{
			"s1": "31_None",
			"s2": "56_Lyon",
			"t1": "0_Bremen",
			"t2": "71_Thessalonika",
			"suurballeNbPaths": 2,
			"suurballeTime": 84281208,
			"suurballePaths": {
				"path0": [
					"31_None",
					"20_Calais",
					"72_Lille",
					"11_Brussels",
					"21_Liege",
					"46_Cologne",
					"34_Dusseldorf",
					"102_Essen",
					"103_Dortmund",
					"0_Bremen"
				],
				"lat0": 1505.000000,
				"nbSeg0": 4,
				"path1": [
					"56_Lyon",
					"77_Geneva",
					"29_Lausanne",
					"28_Berne",
					"25_Basle",
					"52_Zurich",
					"38_Milan",
					"49_Bologna",
					"70_Pescara",
					"63_Bari",
					"71_Thessalonika"
				],
				"lat1": 3222.000000,
				"nbSeg1": 1
			},
			"pathsExist": true,
			"path1": [
				"31_None",
				"0_Bremen"
			],
			"lat1": 1864.000000,
			"path2": [
				"56_Lyon",
				"25_Basle",
				"71_Thessalonika"
			],
			"lat2": 3222.000000,
			"maxlat": 3222.000000,
			"runtime": 1165460474,
			"nomLat1": 1864.000000,
			"nomLat2": 3230.000000,
			"maxNomLat": 3230.000000,
			"mincut": 5
		},
		{
			"s1": "34_Dusseldorf",
			"s2": "33_Vienna",
			"t1": "53_Copenhagen",
			"t2": "28_Berne",
			"suurballeNbPaths": 2,
			"suurballeTime": 4150637,
			"suurballePaths": {
				"path0": [
					"34_Dusseldorf",
					"102_Essen",
					"103_Dortmund",
					"0_Bremen",
					"35_Hamburg",
					"53_Copenhagen"
				],
				"lat0": 1091.000000,
				"nbSeg0": 0,
				"path1": [
					"33_Vienna",
					"6_Salzburg",
					"19_Munich",
					"12_Stuttgart",
					"52_Zurich",
					"25_Basle",
					"28_Berne"
				],
				"lat1": 1471.000000,
				"nbSeg1": 2
			},
			"pathsExist": true,
			"path1": [
				"34_Dusseldorf",
				"53_Copenhagen"
			],
			"lat1": 1091.000000,
			"path2": [
				"33_Vienna",
				"28_Berne"
			],
			"lat2": 1471.000000,
			"maxlat": 1471.000000,
			"runtime": 701274967,
			"nomLat1": 1091.000000,
			"nomLat2": 1471.000000,
			"maxNomLat": 1471.000000,
			"mincut": 4
		},
		{
			"s1": "16_Paris",
			"s2": "28_Berne",
			"t1": "22_Dublin",
			"t2": "79_Haskovo",
			"suurballeNbPaths": 2,
			"suurballeTime": 9303343,
			"suurballePaths": {
				"path0": [
					"16_Paris",
					"72_Lille",
					"20_Calais",
					"31_None",
					"10_London",
					"22_Dublin"
				],
				"lat0": 1986.000000,
				"nbSeg0": 2,
				"path1": [
					"28_Berne",
					"25_Basle",
					"52_Zurich",
					"12_Stuttgart",
					"19_Munich",
					"6_Salzburg",
					"33_Vienna",
					"32_Budapest",
					"66_Szolnok",
					"109_None",
					"42_Bucharest",
					"79_Haskovo"
				],
				"lat1": 3171.000000,
				"nbSeg1": 3
			},
			"pathsExist": true,
			"path1": [
				"16_Paris",
				"22_Dublin"
			],
			"lat1": 1986.000000,
			"path2": [
				"28_Berne",
				"109_None",
				"79_Haskovo"
			],
			"lat2": 3171.000000,
			"maxlat": 3171.000000,
			"runtime": 687997517,
			"nomLat1": 1986.000000,
			"nomLat2": 3180.000000,
			"maxNomLat": 3180.000000,
			"mincut": 4
		},
		{
			"s1": "86_Valencia",
			"s2": "65_Warsaw",
			"t1": "77_Geneva",
			"t2": "109_None",
			"suurballeNbPaths": 2,
			"suurballeTime": 99698345,
			"suurballePaths": {
				"path0": [
					"86_Valencia",
					"95_Barcelona",
					"50_Narborne",
					"57_Marseille",
					"56_Lyon",
					"77_Geneva"
				],
				"lat0": 1846.000000,
				"nbSeg0": 2,
				"path1": [
					"65_Warsaw",
					"67_Krakow",
					"45_Brno",
					"74_Bratislava",
					"32_Budapest",
					"66_Szolnok",
					"109_None"
				],
				"lat1": 1851.000000,
				"nbSeg1": 1
			},
			"pathsExist": true,
			"path1": [
				"86_Valencia",
				"77_Geneva"
			],
			"lat1": 1846.000000,
			"path2": [
				"65_Warsaw",
				"74_Bratislava",
				"109_None"
			],
			"lat2": 1851.000000,
			"maxlat": 1851.000000,
			"runtime": 583849589,
			"nomLat1": 1846.000000,
			"nomLat2": 1920.000000,
			"maxNomLat": 1920.000000,
			"mincut": 4
		},
		{
			"s1": "10_London",
			"s2": "81_Plovdiv",
			"t1": "23_Slough",
			"t2": "30_None",
			"suurballeNbPaths": 2,
			"suurballeTime": 119342951,
			"suurballePaths": {
				"path0": [
					"10_London",
					"17_Dubai",
					"23_Slough"
				],
				"lat0": 706.000000,
				"nbSeg0": 1,
				"path1": [
					"81_Plovdiv",
					"40_Sofia",
					"71_Thessalonika",
					"63_Bari",
					"84_Naples",
					"30_None"
				],
				"lat1": 2200.000000,
				"nbSeg1": 0
			},
			"pathsExist": true,
			"path1": [
				"10_London",
				"23_Slough"
			],
			"lat1": 706.000000,
			"path2": [
				"81_Plovdiv",
				"30_None"
			],
			"lat2": 2200.000000,
			"maxlat": 2200.000000,
			"runtime": 610748252,
			"nomLat1": 706.000000,
			"nomLat2": 2200.000000,
			"maxNomLat": 2200.000000,
			"mincut": 4
		},
		{
			"s1": "81_Plovdiv",
			"s2": "13_Amsterdam",
			"t1": "68_Ruse",
			"t2": "42_Bucharest",
			"suurballeNbPaths": 2,
			"suurballeTime": 24385757,
			"suurballePaths": {
				"path0": [
					"81_Plovdiv",
					"40_Sofia",
					"68_Ruse"
				],
				"lat0": 645.000000,
				"nbSeg0": 0,
				"path1": [
					"13_Amsterdam",
					"104_Utrecht",
					"34_Dusseldorf",
					"46_Cologne",
					"47_Bonn",
					"18_Frankfurt",
					"7_Nuremberg",
					"64_Prague",
					"45_Brno",
					"74_Bratislava",
					"32_Budapest",
					"66_Szolnok",
					"109_None",
					"42_Bucharest"
				],
				"lat1": 3048.000000,
				"nbSeg1": 6
			},
			"pathsExist": true,
			"path1": [
				"81_Plovdiv",
				"68_Ruse"
			],
			"lat1": 645.000000,
			"path2": [
				"13_Amsterdam",
				"74_Bratislava",
				"66_Szolnok",
				"42_Bucharest"
			],
			"lat2": 3048.000000,
			"maxlat": 3048.000000,
			"runtime": 438201889,
			"nomLat1": 645.000000,
			"nomLat2": 3368.000000,
			"maxNomLat": 3368.000000,
			"mincut": 5
		},
		{
			"s1": "26_Karlsruhe",
			"s2": "62_Istanbul",
			"t1": "22_Dublin",
			"t2": "28_Berne",
			"suurballeNbPaths": 2,
			"suurballeTime": 4303116,
			"suurballePaths": {
				"path0": [
					"62_Istanbul",
					"41_Edirne",
					"71_Thessalonika",
					"63_Bari",
					"70_Pescara",
					"49_Bologna",
					"38_Milan",
					"52_Zurich",
					"25_Basle",
					"28_Berne"
				],
				"lat0": 3512.000000,
				"nbSeg0": 2,
				"path1": [
					"26_Karlsruhe",
					"18_Frankfurt",
					"47_Bonn",
					"46_Cologne",
					"34_Dusseldorf",
					"104_Utrecht",
					"13_Amsterdam",
					"61_Zandvort",
					"37_None",
					"10_London",
					"22_Dublin"
				],
				"lat1": 2387.000000,
				"nbSeg1": 6
			},
			"pathsExist": true,
			"path1": [
				"26_Karlsruhe",
				"22_Dublin"
			],
			"lat1": 3175.000000,
			"path2": [
				"62_Istanbul",
				"28_Berne"
			],
			"lat2": 3512.000000,
			"maxlat": 3512.000000,
			"runtime": 71645594,
			"nomLat1": 3175.000000,
			"nomLat2": 3512.000000,
			"maxNomLat": 3512.000000,
			"mincut": 4
		},
		{
			"s1": "59_Gotenburg",
			"s2": "51_Bordeaux",
			"t1": "36_None",
			"t2": "68_Ruse",
			"suurballeNbPaths": 2,
			"suurballeTime": 74478213,
			"suurballePaths": {
				"path0": [
					"59_Gotenburg",
					"53_Copenhagen",
					"36_None"
				],
				"lat0": 739.000000,
				"nbSeg0": 0,
				"path1": [
					"51_Bordeaux",
					"89_Poltiers",
					"16_Paris",
					"27_Strasbourg",
					"12_Stuttgart",
					"19_Munich",
					"6_Salzburg",
					"33_Vienna",
					"32_Budapest",
					"66_Szolnok",
					"109_None",
					"42_Bucharest",
					"68_Ruse"
				],
				"lat1": 3976.000000,
				"nbSeg1": 3
			},
			"pathsExist": true,
			"path1": [
				"59_Gotenburg",
				"36_None"
			],
			"lat1": 739.000000,
			"path2": [
				"51_Bordeaux",
				"66_Szolnok",
				"68_Ruse"
			],
			"lat2": 3976.000000,
			"maxlat": 3976.000000,
			"runtime": 557843039,
			"nomLat1": 739.000000,
			"nomLat2": 4471.000000,
			"maxNomLat": 4471.000000,
			"mincut": 4
		},
		{
			"s1": "16_Paris",
			"s2": "86_Valencia",
			"t1": "1_Poznan",
			"t2": "95_Barcelona",
			"suurballeNbPaths": 2,
			"suurballeTime": 3980789,
			"suurballePaths": {
				"path0": [
					"86_Valencia",
					"95_Barcelona"
				],
				"lat0": 509.000000,
				"nbSeg0": 0,
				"path1": [
					"16_Paris",
					"27_Strasbourg",
					"18_Frankfurt",
					"7_Nuremberg",
					"8_Leipzig",
					"9_Dresden",
					"39_Berlin",
					"1_Poznan"
				],
				"lat1": 2536.000000,
				"nbSeg1": 0
			},
			"pathsExist": true,
			"path1": [
				"16_Paris",
				"1_Poznan"
			],
			"lat1": 2536.000000,
			"path2": [
				"86_Valencia",
				"95_Barcelona"
			],
			"lat2": 509.000000,
			"maxlat": 2536.000000,
			"runtime": 932198850,
			"nomLat1": 2536.000000,
			"nomLat2": 509.000000,
			"maxNomLat": 2536.000000,
			"mincut": 4
		},
		{
			"s1": "76_Madrid",
			"s2": "79_Haskovo",
			"t1": "54_Turin",
			"t2": "43_Timisoara",
			"suurballeNbPaths": 2,
			"suurballeTime": 69346646,
			"suurballePaths": {
				"path0": [
					"79_Haskovo",
					"43_Timisoara"
				],
				"lat0": 917.000000,
				"nbSeg0": 0,
				"path1": [
					"76_Madrid",
					"88_Bilbao",
					"51_Bordeaux",
					"50_Narborne",
					"57_Marseille",
					"92_Nice",
					"55_Genoa",
					"54_Turin"
				],
				"lat1": 2610.000000,
				"nbSeg1": 2
			},
			"pathsExist": true,
			"path1": [
				"76_Madrid",
				"54_Turin"
			],
			"lat1": 2610.000000,
			"path2": [
				"79_Haskovo",
				"43_Timisoara"
			],
			"lat2": 917.000000,
			"maxlat": 2610.000000,
			"runtime": 95750422,
			"nomLat1": 2610.000000,
			"nomLat2": 917.000000,
			"maxNomLat": 2610.000000,
			"mincut": 4
		},
		{
			"s1": "109_None",
			"s2": "14_Moscow",
			"t1": "52_Zurich",
			"t2": "26_Karlsruhe",
			"suurballeNbPaths": 2,
			"suurballeTime": 154246633,
			"suurballePaths": {
				"path0": [
					"109_None",
					"66_Szolnok",
					"32_Budapest",
					"33_Vienna",
					"6_Salzburg",
					"19_Munich",
					"12_Stuttgart",
					"52_Zurich"
				],
				"lat0": 2096.000000,
				"nbSeg0": 2,
				"path1": [
					"14_Moscow",
					"44_Stockholm",
					"53_Copenhagen",
					"35_Hamburg",
					"0_Bremen",
					"103_Dortmund",
					"102_Essen",
					"34_Dusseldorf",
					"46_Cologne",
					"47_Bonn",
					"18_Frankfurt",
					"26_Karlsruhe"
				],
				"lat1": 4557.000000,
				"nbSeg1": 4
			},
			"pathsExist": true,
			"path1": [
				"109_None",
				"52_Zurich"
			],
			"lat1": 2096.000000,
			"path2": [
				"14_Moscow",
				"0_Bremen",
				"26_Karlsruhe"
			],
			"lat2": 4557.000000,
			"maxlat": 4557.000000,
			"runtime": 630966591,
			"nomLat1": 2096.000000,
			"nomLat2": 4996.000000,
			"maxNomLat": 4996.000000,
			"mincut": 5
		},
		{
			"s1": "45_Brno",
			"s2": "20_Calais",
			"t1": "64_Prague",
			"t2": "53_Copenhagen",
			"suurballeNbPaths": 2,
			"suurballeTime": 4151505,
			"suurballePaths": {
				"path0": [
					"45_Brno",
					"64_Prague"
				],
				"lat0": 315.000000,
				"nbSeg0": 0,
				"path1": [
					"20_Calais",
					"72_Lille",
					"11_Brussels",
					"21_Liege",
					"46_Cologne",
					"34_Dusseldorf",
					"102_Essen",
					"103_Dortmund",
					"0_Bremen",
					"35_Hamburg",
					"53_Copenhagen"
				],
				"lat1": 1800.000000,
				"nbSeg1": 4
			},
			"pathsExist": true,
			"path1": [
				"45_Brno",
				"64_Prague"
			],
			"lat1": 315.000000,
			"path2": [
				"20_Calais",
				"0_Bremen",
				"53_Copenhagen"
			],
			"lat2": 1800.000000,
			"maxlat": 1800.000000,
			"runtime": 119715768,
			"nomLat1": 315.000000,
			"nomLat2": 3340.000000,
			"maxNomLat": 3340.000000,
			"mincut": 5
		},
		{
			"s1": "49_Bologna",
			"s2": "42_Bucharest",
			"t1": "48_Venice",
			"t2": "10_London",
			"suurballeNbPaths": 2,
			"suurballeTime": 688222082,
			"suurballePaths": {
				"path0": [
					"49_Bologna",
					"48_Venice"
				],
				"lat0": 222.000000,
				"nbSeg0": 0,
				"path1": [
					"42_Bucharest",
					"109_None",
					"66_Szolnok",
					"32_Budapest",
					"74_Bratislava",
					"45_Brno",
					"64_Prague",
					"7_Nuremberg",
					"18_Frankfurt",
					"47_Bonn",
					"46_Cologne",
					"34_Dusseldorf",
					"104_Utrecht",
					"13_Amsterdam",
					"61_Zandvort",
					"37_None",
					"10_London"
				],
				"lat1": 3799.000000,
				"nbSeg1": 6
			},
			"pathsExist": true,
			"path1": [
				"49_Bologna",
				"48_Venice"
			],
			"lat1": 222.000000,
			"path2": [
				"42_Bucharest",
				"66_Szolnok",
				"74_Bratislava",
				"13_Amsterdam",
				"10_London"
			],
			"lat2": 3799.000000,
			"maxlat": 3799.000000,
			"runtime": 197871135,
			"nomLat1": 222.000000,
			"nomLat2": 4481.000000,
			"maxNomLat": 4481.000000,
			"mincut": 5
		},
		{
			"s1": "66_Szolnok",
			"s2": "0_Bremen",
			"t1": "29_Lausanne",
			"t2": "107_Ghent",
			"suurballeNbPaths": 2,
			"suurballeTime": 45266004,
			"suurballePaths": {
				"path0": [
					"0_Bremen",
					"103_Dortmund",
					"102_Essen",
					"34_Dusseldorf",
					"46_Cologne",
					"21_Liege",
					"11_Brussels",
					"106_Antwerp",
					"107_Ghent"
				],
				"lat0": 998.000000,
				"nbSeg0": 2,
				"path1": [
					"66_Szolnok",
					"32_Budapest",
					"33_Vienna",
					"6_Salzburg",
					"19_Munich",
					"12_Stuttgart",
					"52_Zurich",
					"25_Basle",
					"28_Berne",
					"29_Lausanne"
				],
				"lat1": 2128.000000,
				"nbSeg1": 2
			},
			"pathsExist": true,
			"path1": [
				"66_Szolnok",
				"29_Lausanne"
			],
			"lat1": 2128.000000,
			"path2": [
				"0_Bremen",
				"11_Brussels",
				"107_Ghent"
			],
			"lat2": 998.000000,
			"maxlat": 2128.000000,
			"runtime": 730736047,
			"nomLat1": 2128.000000,
			"nomLat2": 1087.000000,
			"maxNomLat": 2128.000000,
			"mincut": 4
		},
		{
			"s1": "29_Lausanne",
			"s2": "2_Pisa",
			"t1": "11_Brussels",
			"t2": "30_None",
			"suurballeNbPaths": 2,
			"suurballeTime": 133365265,
			"suurballePaths": {
				"path0": [
					"2_Pisa",
					"101_Rome",
					"84_Naples",
					"30_None"
				],
				"lat0": 1117.000000,
				"nbSeg0": 0,
				"path1": [
					"29_Lausanne",
					"77_Geneva",
					"56_Lyon",
					"16_Paris",
					"72_Lille",
					"11_Brussels"
				],
				"lat1": 1445.000000,
				"nbSeg1": 2
			},
			"pathsExist": true,
			"path1": [
				"29_Lausanne",
				"11_Brussels"
			],
			"lat1": 1445.000000,
			"path2": [
				"2_Pisa",
				"30_None"
			],
			"lat2": 1117.000000,
			"maxlat": 1445.000000,
			"runtime": 580472847,
			"nomLat1": 1445.000000,
			"nomLat2": 1117.000000,
			"maxNomLat": 1445.000000,
			"mincut": 5
		},
		{
			"s1": "89_Poltiers",
			"s2": "18_Frankfurt",
			"t1": "10_London",
			"t2": "67_Krakow",
			"suurballeNbPaths": 2,
			"suurballeTime": 45241933,
			"suurballePaths": {
				"path0": [
					"18_Frankfurt",
					"7_Nuremberg",
					"64_Prague",
					"45_Brno",
					"67_Krakow"
				],
				"lat0": 1487.000000,
				"nbSeg0": 0,
				"path1": [
					"89_Poltiers",
					"16_Paris",
					"72_Lille",
					"20_Calais",
					"31_None",
					"10_London"
				],
				"lat1": 1704.000000,
				"nbSeg1": 0
			},
			"pathsExist": true,
			"path1": [
				"89_Poltiers",
				"10_London"
			],
			"lat1": 1704.000000,
			"path2": [
				"18_Frankfurt",
				"67_Krakow"
			],
			"lat2": 1487.000000,
			"maxlat": 1704.000000,
			"runtime": 775264400,
			"nomLat1": 1704.000000,
			"nomLat2": 1487.000000,
			"maxNomLat": 1704.000000,
			"mincut": 4
		},
		{
			"s1": "89_Poltiers",
			"s2": "18_Frankfurt",
			"t1": "49_Bologna",
			"t2": "10_London",
			"suurballeNbPaths": 2,
			"suurballeTime": 4251563,
			"suurballePaths": {
				"path0": [
					"89_Poltiers",
					"16_Paris",
					"72_Lille",
					"20_Calais",
					"31_None",
					"10_London"
				],
				"lat0": 1704.000000,
				"nbSeg0": 0,
				"path1": [
					"18_Frankfurt",
					"26_Karlsruhe",
					"12_Stuttgart",
					"52_Zurich",
					"38_Milan",
					"49_Bologna"
				],
				"lat1": 1304.000000,
				"nbSeg1": 1
			},
			"pathsExist": true,
			"path1": [
				"89_Poltiers",
				"50_Narborne",
				"2_Pisa",
				"49_Bologna"
			],
			"lat1": 2271.000000,
			"path2": [
				"18_Frankfurt",
				"13_Amsterdam",
				"10_London"
			],
			"lat2": 1398.000000,
			"maxlat": 2271.000000,
			"runtime": 15444726724,
			"nomLat1": 2325.000000,
			"nomLat2": 2186.000000,
			"maxNomLat": 2325.000000,
			"mincut": 6
		},
		{
			"s1": "20_Calais",
			"s2": "54_Turin",
			"t1": "106_Antwerp",
			"t2": "109_None",
			"suurballeNbPaths": 2,
			"suurballeTime": 4418708,
			"suurballePaths": {
				"path0": [
					"20_Calais",
					"72_Lille",
					"11_Brussels",
					"106_Antwerp"
				],
				"lat0": 392.000000,
				"nbSeg0": 2,
				"path1": [
					"54_Turin",
					"38_Milan",
					"48_Venice",
					"4_Udine",
					"5_Graz",
					"33_Vienna",
					"32_Budapest",
					"66_Szolnok",
					"109_None"
				],
				"lat1": 2257.000000,
				"nbSeg1": 4
			},
			"pathsExist": true,
			"path1": [
				"20_Calais",
				"106_Antwerp"
			],
			"lat1": 392.000000,
			"path2": [
				"54_Turin",
				"109_None"
			],
			"lat2": 2257.000000,
			"maxlat": 2257.000000,
			"runtime": 730379362,
			"nomLat1": 392.000000,
			"nomLat2": 2257.000000,
			"maxNomLat": 2257.000000,
			"mincut": 6
		},
		{
			"s1": "28_Berne",
			"s2": "70_Pescara",
			"t1": "31_None",
			"t2": "38_Milan",
			"suurballeNbPaths": 2,
			"suurballeTime": 4098641,
			"suurballePaths": {
				"path0": [
					"70_Pescara",
					"49_Bologna",
					"38_Milan"
				],
				"lat0": 882.000000,
				"nbSeg0": 0,
				"path1": [
					"28_Berne",
					"29_Lausanne",
					"77_Geneva",
					"56_Lyon",
					"16_Paris",
					"72_Lille",
					"20_Calais",
					"31_None"
				],
				"lat1": 1932.000000,
				"nbSeg1": 0
			},
			"pathsExist": true,
			"path1": [
				"28_Berne",
				"31_None"
			],
			"lat1": 1932.000000,
			"path2": [
				"70_Pescara",
				"38_Milan"
			],
			"lat2": 882.000000,
			"maxlat": 1932.000000,
			"runtime": 220456036,
			"nomLat1": 1932.000000,
			"nomLat2": 882.000000,
			"maxNomLat": 1932.000000,
			"mincut": 4
		},
		{
			"s1": "95_Barcelona",
			"s2": "15_Helsinki",
			"t1": "49_Bologna",
			"t2": "78_Varna",
			"suurballeNbPaths": 2,
			"suurballeTime": 4228496,
			"suurballePaths": {
				"path0": [
					"95_Barcelona",
					"50_Narborne",
					"57_Marseille",
					"92_Nice",
					"55_Genoa",
					"2_Pisa",
					"3_Florence",
					"49_Bologna"
				],
				"lat0": 1709.000000,
				"nbSeg0": 1,
				"path1": [
					"15_Helsinki",
					"44_Stockholm",
					"53_Copenhagen",
					"36_None",
					"39_Berlin",
					"9_Dresden",
					"8_Leipzig",
					"64_Prague",
					"45_Brno",
					"74_Bratislava",
					"32_Budapest",
					"43_Timisoara",
					"78_Varna"
				],
				"lat1": 5266.000000,
				"nbSeg1": 2
			},
			"pathsExist": true,
			"path1": [
				"95_Barcelona",
				"49_Bologna"
			],
			"lat1": 1974.000000,
			"path2": [
				"15_Helsinki",
				"8_Leipzig",
				"74_Bratislava",
				"78_Varna"
			],
			"lat2": 5266.000000,
			"maxlat": 5266.000000,
			"runtime": 245944191,
			"nomLat1": 1974.000000,
			"nomLat2": 5956.000000,
			"maxNomLat": 5956.000000,
			"mincut": 4
		},
		{
			"s1": "81_Plovdiv",
			"s2": "60_Oslo",
			"t1": "70_Pescara",
			"t2": "89_Poltiers",
			"suurballeNbPaths": 2,
			"suurballeTime": 4551736,
			"suurballePaths": {
				"path0": [
					"81_Plovdiv",
					"40_Sofia",
					"71_Thessalonika",
					"63_Bari",
					"70_Pescara"
				],
				"lat0": 1921.000000,
				"nbSeg0": 0,
				"path1": [
					"60_Oslo",
					"59_Gotenburg",
					"53_Copenhagen",
					"35_Hamburg",
					"0_Bremen",
					"103_Dortmund",
					"102_Essen",
					"34_Dusseldorf",
					"46_Cologne",
					"21_Liege",
					"11_Brussels",
					"72_Lille",
					"16_Paris",
					"89_Poltiers"
				],
				"lat1": 3295.000000,
				"nbSeg1": 5
			},
			"pathsExist": true,
			"path1": [
				"81_Plovdiv",
				"70_Pescara"
			],
			"lat1": 1921.000000,
			"path2": [
				"60_Oslo",
				"59_Gotenburg",
				"11_Brussels",
				"89_Poltiers"
			],
			"lat2": 3295.000000,
			"maxlat": 3295.000000,
			"runtime": 1128271670,
			"nomLat1": 1921.000000,
			"nomLat2": 4902.000000,
			"maxNomLat": 4902.000000,
			"mincut": 4
		},
		{
			"s1": "58_Bruges",
			"s2": "102_Essen",
			"t1": "31_None",
			"t2": "49_Bologna",
			"suurballeNbPaths": 2,
			"suurballeTime": 951190740,
			"suurballePaths": {
				"path0": [
					"58_Bruges",
					"107_Ghent",
					"106_Antwerp",
					"11_Brussels",
					"72_Lille",
					"20_Calais",
					"31_None"
				],
				"lat0": 906.000000,
				"nbSeg0": 2,
				"path1": [
					"102_Essen",
					"34_Dusseldorf",
					"46_Cologne",
					"47_Bonn",
					"18_Frankfurt",
					"26_Karlsruhe",
					"12_Stuttgart",
					"52_Zurich",
					"38_Milan",
					"49_Bologna"
				],
				"lat1": 1689.000000,
				"nbSeg1": 5
			},
			"pathsExist": true,
			"path1": [
				"58_Bruges",
				"31_None"
			],
			"lat1": 1059.000000,
			"path2": [
				"102_Essen",
				"26_Karlsruhe",
				"49_Bologna"
			],
			"lat2": 1689.000000,
			"maxlat": 1689.000000,
			"runtime": 134621357,
			"nomLat1": 1059.000000,
			"nomLat2": 1860.000000,
			"maxNomLat": 1860.000000,
			"mincut": 4
		},
		{
			"s1": "20_Calais",
			"s2": "103_Dortmund",
			"t1": "76_Madrid",
			"t2": "75_Hannover",
			"suurballeNbPaths": 2,
			"suurballeTime": 14425392,
			"suurballePaths": {
				"path0": [
					"103_Dortmund",
					"0_Bremen",
					"35_Hamburg",
					"75_Hannover"
				],
				"lat0": 720.000000,
				"nbSeg0": 0,
				"path1": [
					"20_Calais",
					"72_Lille",
					"16_Paris",
					"89_Poltiers",
					"51_Bordeaux",
					"88_Bilbao",
					"76_Madrid"
				],
				"lat1": 2321.000000,
				"nbSeg1": 0
			},
			"pathsExist": true,
			"path1": [
				"20_Calais",
				"76_Madrid"
			],
			"lat1": 2321.000000,
			"path2": [
				"103_Dortmund",
				"75_Hannover"
			],
			"lat2": 720.000000,
			"maxlat": 2321.000000,
			"runtime": 936820719,
			"nomLat1": 2321.000000,
			"nomLat2": 720.000000,
			"maxNomLat": 2321.000000,
			"mincut": 4
		},
		{
			"s1": "58_Bruges",
			"s2": "49_Bologna",
			"t1": "57_Marseille",
			"t2": "68_Ruse",
			"suurballeNbPaths": 2,
			"suurballeTime": 1059809579,
			"suurballePaths": {
				"path0": [
					"58_Bruges",
					"107_Ghent",
					"106_Antwerp",
					"11_Brussels",
					"72_Lille",
					"16_Paris",
					"56_Lyon",
					"57_Marseille"
				],
				"lat0": 1862.000000,
				"nbSeg0": 4,
				"path1": [
					"49_Bologna",
					"48_Venice",
					"4_Udine",
					"5_Graz",
					"33_Vienna",
					"32_Budapest",
					"66_Szolnok",
					"109_None",
					"42_Bucharest",
					"68_Ruse"
				],
				"lat1": 2320.000000,
				"nbSeg1": 1
			},
			"pathsExist": true,
			"path1": [
				"58_Bruges",
				"57_Marseille"
			],
			"lat1": 1862.000000,
			"path2": [
				"49_Bologna",
				"66_Szolnok",
				"68_Ruse"
			],
			"lat2": 2320.000000,
			"maxlat": 2320.000000,
			"runtime": 347678674,
			"nomLat1": 1862.000000,
			"nomLat2": 2662.000000,
			"maxNomLat": 2662.000000,
			"mincut": 6
		},
		{
			"s1": "11_Brussels",
			"s2": "35_Hamburg",
			"t1": "17_Dubai",
			"t2": "8_Leipzig",
			"suurballeNbPaths": 2,
			"suurballeTime": 134470575,
			"suurballePaths": {
				"path0": [
					"35_Hamburg",
					"75_Hannover",
					"36_None",
					"39_Berlin",
					"9_Dresden",
					"8_Leipzig"
				],
				"lat0": 1383.000000,
				"nbSeg0": 1,
				"path1": [
					"11_Brussels",
					"106_Antwerp",
					"107_Ghent",
					"58_Bruges",
					"37_None",
					"10_London",
					"17_Dubai"
				],
				"lat1": 1293.000000,
				"nbSeg1": 1
			},
			"pathsExist": true,
			"path1": [
				"11_Brussels",
				"17_Dubai"
			],
			"lat1": 1378.000000,
			"path2": [
				"35_Hamburg",
				"75_Hannover",
				"8_Leipzig"
			],
			"lat2": 1383.000000,
			"maxlat": 1383.000000,
			"runtime": 82716962,
			"nomLat1": 1378.000000,
			"nomLat2": 1643.000000,
			"maxNomLat": 1643.000000,
			"mincut": 5
		},
		{
			"s1": "38_Milan",
			"s2": "73_Luxembourg",
			"t1": "94_None",
			"t2": "106_Antwerp",
			"suurballeNbPaths": 2,
			"suurballeTime": 1218976613,
			"suurballePaths": {
				"path0": [
					"73_Luxembourg",
					"11_Brussels",
					"106_Antwerp"
				],
				"lat0": 389.000000,
				"nbSeg0": 0,
				"path1": [
					"38_Milan",
					"54_Turin",
					"55_Genoa",
					"92_Nice",
					"57_Marseille",
					"50_Narborne",
					"95_Barcelona",
					"86_Valencia",
					"94_None"
				],
				"lat1": 2498.000000,
				"nbSeg1": 4
			},
			"pathsExist": true,
			"path1": [
				"38_Milan",
				"94_None"
			],
			"lat1": 2498.000000,
			"path2": [
				"73_Luxembourg",
				"106_Antwerp"
			],
			"lat2": 389.000000,
			"maxlat": 2498.000000,
			"runtime": 101504839,
			"nomLat1": 2498.000000,
			"nomLat2": 389.000000,
			"maxNomLat": 2498.000000,
			"mincut": 5
		},
		{
			"s1": "31_None",
			"s2": "34_Dusseldorf",
			"t1": "46_Cologne",
			"t2": "60_Oslo",
			"suurballeNbPaths": 2,
			"suurballeTime": 1172218027,
			"suurballePaths": {
				"path0": [
					"31_None",
					"20_Calais",
					"72_Lille",
					"11_Brussels",
					"21_Liege",
					"46_Cologne"
				],
				"lat0": 1000.000000,
				"nbSeg0": 2,
				"path1": [
					"34_Dusseldorf",
					"102_Essen",
					"103_Dortmund",
					"0_Bremen",
					"35_Hamburg",
					"53_Copenhagen",
					"59_Gotenburg",
					"60_Oslo"
				],
				"lat1": 1906.000000,
				"nbSeg1": 1
			},
			"pathsExist": true,
			"path1": [
				"31_None",
				"46_Cologne"
			],
			"lat1": 1000.000000,
			"path2": [
				"34_Dusseldorf",
				"59_Gotenburg",
				"60_Oslo"
			],
			"lat2": 1906.000000,
			"maxlat": 1906.000000,
			"runtime": 283789585,
			"nomLat1": 1000.000000,
			"nomLat2": 2663.000000,
			"maxNomLat": 2663.000000,
			"mincut": 5
		},
		{
			"s1": "88_Bilbao",
			"s2": "101_Rome",
			"t1": "8_Leipzig",
			"t2": "6_Salzburg",
			"suurballeNbPaths": 2,
			"suurballeTime": 1149210447,
			"suurballePaths": {
				"path0": [
					"88_Bilbao",
					"51_Bordeaux",
					"89_Poltiers",
					"16_Paris",
					"27_Strasbourg",
					"18_Frankfurt",
					"7_Nuremberg",
					"8_Leipzig"
				],
				"lat0": 2953.000000,
				"nbSeg0": 0,
				"path1": [
					"101_Rome",
					"3_Florence",
					"49_Bologna",
					"48_Venice",
					"4_Udine",
					"5_Graz",
					"33_Vienna",
					"6_Salzburg"
				],
				"lat1": 1933.000000,
				"nbSeg1": 1
			},
			"pathsExist": true,
			"path1": [
				"88_Bilbao",
				"8_Leipzig"
			],
			"lat1": 2953.000000,
			"path2": [
				"101_Rome",
				"4_Udine",
				"6_Salzburg"
			],
			"lat2": 1933.000000,
			"maxlat": 2953.000000,
			"runtime": 78771576,
			"nomLat1": 2953.000000,
			"nomLat2": 2031.000000,
			"maxNomLat": 2953.000000,
			"mincut": 5
		},
		{
			"s1": "63_Bari",
			"s2": "41_Edirne",
			"t1": "76_Madrid",
			"t2": "40_Sofia",
			"suurballeNbPaths": 2,
			"suurballeTime": 1166491802,
			"suurballePaths": {
				"path0": [
					"41_Edirne",
					"40_Sofia"
				],
				"lat0": 353.000000,
				"nbSeg0": 0,
				"path1": [
					"63_Bari",
					"84_Naples",
					"101_Rome",
					"2_Pisa",
					"55_Genoa",
					"92_Nice",
					"57_Marseille",
					"50_Narborne",
					"51_Bordeaux",
					"88_Bilbao",
					"76_Madrid"
				],
				"lat1": 3773.000000,
				"nbSeg1": 0
			},
			"pathsExist": true,
			"path1": [
				"63_Bari",
				"76_Madrid"
			],
			"lat1": 3773.000000,
			"path2": [
				"41_Edirne",
				"40_Sofia"
			],
			"lat2": 353.000000,
			"maxlat": 3773.000000,
			"runtime": 373729393,
			"nomLat1": 3773.000000,
			"nomLat2": 353.000000,
			"maxNomLat": 3773.000000,
			"mincut": 5
		},
		{
			"s1": "33_Vienna",
			"s2": "82_Washington_DC",
			"t1": "40_Sofia",
			"t2": "9_Dresden",
			"suurballeNbPaths": 2,
			"suurballeTime": 39415602,
			"suurballePaths": {
				"path0": [
					"33_Vienna",
					"32_Budapest",
					"66_Szolnok",
					"109_None",
					"42_Bucharest",
					"68_Ruse",
					"40_Sofia"
				],
				"lat0": 1762.000000,
				"nbSeg0": 1,
				"path1": [
					"82_Washington_DC",
					"10_London",
					"37_None",
					"61_Zandvort",
					"13_Amsterdam",
					"104_Utrecht",
					"34_Dusseldorf",
					"46_Cologne",
					"47_Bonn",
					"18_Frankfurt",
					"7_Nuremberg",
					"8_Leipzig",
					"9_Dresden"
				],
				"lat1": 2625.000000,
				"nbSeg1": 4
			},
			"pathsExist": true,
			"path1": [
				"33_Vienna",
				"40_Sofia"
			],
			"lat1": 1836.000000,
			"path2": [
				"82_Washington_DC",
				"13_Amsterdam",
				"9_Dresden"
			],
			"lat2": 2625.000000,
			"maxlat": 2625.000000,
			"runtime": 1551071246,
			"nomLat1": 1836.000000,
			"nomLat2": 3413.000000,
			"maxNomLat": 3413.000000,
			"mincut": 5
		},
		{
			"s1": "59_Gotenburg",
			"s2": "7_Nuremberg",
			"t1": "103_Dortmund",
			"t2": "86_Valencia",
			"suurballeNbPaths": 2,
			"suurballeTime": 43587316,
			"suurballePaths": {
				"path0": [
					"59_Gotenburg",
					"53_Copenhagen",
					"35_Hamburg",
					"0_Bremen",
					"103_Dortmund"
				],
				"lat0": 1366.000000,
				"nbSeg0": 0,
				"path1": [
					"7_Nuremberg",
					"19_Munich",
					"12_Stuttgart",
					"52_Zurich",
					"25_Basle",
					"28_Berne",
					"29_Lausanne",
					"77_Geneva",
					"56_Lyon",
					"57_Marseille",
					"50_Narborne",
					"95_Barcelona",
					"86_Valencia"
				],
				"lat1": 3176.000000,
				"nbSeg1": 5
			},
			"pathsExist": true,
			"path1": [
				"59_Gotenburg",
				"103_Dortmund"
			],
			"lat1": 1366.000000,
			"path2": [
				"7_Nuremberg",
				"25_Basle",
				"86_Valencia"
			],
			"lat2": 3176.000000,
			"maxlat": 3176.000000,
			"runtime": 1483971916,
			"nomLat1": 1366.000000,
			"nomLat2": 3605.000000,
			"maxNomLat": 3605.000000,
			"mincut": 4
		},
		{
			"s1": "67_Krakow",
			"s2": "24_Nancy",
			"t1": "18_Frankfurt",
			"t2": "85_Mazara_del_Vallo",
			"suurballeNbPaths": 2,
			"suurballeTime": 14386215,
			"suurballePaths": {
				"path0": [
					"24_Nancy",
					"27_Strasbourg",
					"18_Frankfurt"
				],
				"lat0": 505.000000,
				"nbSeg0": 0,
				"path1": [
					"67_Krakow",
					"45_Brno",
					"33_Vienna",
					"5_Graz",
					"4_Udine",
					"48_Venice",
					"49_Bologna",
					"3_Florence",
					"101_Rome",
					"84_Naples",
					"30_None",
					"85_Mazara_del_Vallo"
				],
				"lat1": 3157.000000,
				"nbSeg1": 2
			},
			"pathsExist": true,
			"path1": [
				"67_Krakow",
				"102_Essen",
				"18_Frankfurt"
			],
			"lat1": 2257.000000,
			"path2": [
				"24_Nancy",
				"3_Florence",
				"30_None",
				"85_Mazara_del_Vallo"
			],
			"lat2": 2915.000000,
			"maxlat": 2915.000000,
			"runtime": 12707146286,
			"nomLat1": 1487.000000,
			"nomLat2": 4177.000000,
			"maxNomLat": 4177.000000,
			"mincut": 4
		},
		{
			"s1": "13_Amsterdam",
			"s2": "30_None",
			"t1": "73_Luxembourg",
			"t2": "70_Pescara",
			"suurballeNbPaths": 2,
			"suurballeTime": 4379993,
			"suurballePaths": {
				"path0": [
					"30_None",
					"84_Naples",
					"63_Bari",
					"70_Pescara"
				],
				"lat0": 1171.000000,
				"nbSeg0": 0,
				"path1": [
					"13_Amsterdam",
					"105_Rotterdam",
					"106_Antwerp",
					"11_Brussels",
					"73_Luxembourg"
				],
				"lat1": 624.000000,
				"nbSeg1": 0
			},
			"pathsExist": true,
			"path1": [
				"13_Amsterdam",
				"73_Luxembourg"
			],
			"lat1": 624.000000,
			"path2": [
				"30_None",
				"70_Pescara"
			],
			"lat2": 1171.000000,
			"maxlat": 1171.000000,
			"runtime": 454881474,
			"nomLat1": 624.000000,
			"nomLat2": 1171.000000,
			"maxNomLat": 1171.000000,
			"mincut": 4
		},
		{
			"s1": "48_Venice",
			"s2": "13_Amsterdam",
			"t1": "1_Poznan",
			"t2": "103_Dortmund",
			"suurballeNbPaths": 2,
			"suurballeTime": 116333611,
			"suurballePaths": {
				"path0": [
					"13_Amsterdam",
					"104_Utrecht",
					"34_Dusseldorf",
					"102_Essen",
					"103_Dortmund"
				],
				"lat0": 428.000000,
				"nbSeg0": 0,
				"path1": [
					"48_Venice",
					"4_Udine",
					"5_Graz",
					"33_Vienna",
					"45_Brno",
					"67_Krakow",
					"65_Warsaw",
					"1_Poznan"
				],
				"lat1": 2266.000000,
				"nbSeg1": 0
			},
			"pathsExist": true,
			"path1": [
				"48_Venice",
				"1_Poznan"
			],
			"lat1": 2266.000000,
			"path2": [
				"13_Amsterdam",
				"103_Dortmund"
			],
			"lat2": 428.000000,
			"maxlat": 2266.000000,
			"runtime": 382465155,
			"nomLat1": 2266.000000,
			"nomLat2": 428.000000,
			"maxNomLat": 2266.000000,
			"mincut": 3
		},
		{
			"s1": "92_Nice",
			"s2": "15_Helsinki",
			"t1": "46_Cologne",
			"t2": "60_Oslo",
			"suurballeNbPaths": 2,
			"suurballeTime": 94119682,
			"suurballePaths": {
				"path0": [
					"15_Helsinki",
					"44_Stockholm",
					"60_Oslo"
				],
				"lat0": 1362.000000,
				"nbSeg0": 0,
				"path1": [
					"92_Nice",
					"55_Genoa",
					"54_Turin",
					"38_Milan",
					"52_Zurich",
					"12_Stuttgart",
					"26_Karlsruhe",
					"18_Frankfurt",
					"47_Bonn",
					"46_Cologne"
				],
				"lat1": 1919.000000,
				"nbSeg1": 7
			},
			"pathsExist": true,
			"path1": [
				"92_Nice",
				"38_Milan",
				"26_Karlsruhe",
				"46_Cologne"
			],
			"lat1": 1919.000000,
			"path2": [
				"15_Helsinki",
				"60_Oslo"
			],
			"lat2": 1362.000000,
			"maxlat": 1919.000000,
			"runtime": 2265735596,
			"nomLat1": 2636.000000,
			"nomLat2": 1362.000000,
			"maxNomLat": 2636.000000,
			"mincut": 4
		},
		{
			"s1": "56_Lyon",
			"s2": "3_Florence",
			"t1": "12_Stuttgart",
			"t2": "81_Plovdiv",
			"suurballeNbPaths": 2,
			"suurballeTime": 84489434,
			"suurballePaths": {
				"path0": [
					"56_Lyon",
					"77_Geneva",
					"29_Lausanne",
					"28_Berne",
					"25_Basle",
					"52_Zurich",
					"12_Stuttgart"
				],
				"lat0": 944.000000,
				"nbSeg0": 1,
				"path1": [
					"3_Florence",
					"101_Rome",
					"84_Naples",
					"63_Bari",
					"71_Thessalonika",
					"40_Sofia",
					"81_Plovdiv"
				],
				"lat1": 2556.000000,
				"nbSeg1": 1
			},
			"pathsExist": true,
			"path1": [
				"56_Lyon",
				"12_Stuttgart"
			],
			"lat1": 1508.000000,
			"path2": [
				"3_Florence",
				"84_Naples",
				"81_Plovdiv"
			],
			"lat2": 2556.000000,
			"maxlat": 2556.000000,
			"runtime": 514242236,
			"nomLat1": 1508.000000,
			"nomLat2": 2605.000000,
			"maxNomLat": 2605.000000,
			"mincut": 5
		},
		{
			"s1": "94_None",
			"s2": "48_Venice",
			"t1": "28_Berne",
			"t2": "60_Oslo",
			"suurballeNbPaths": 2,
			"suurballeTime": 94627693,
			"suurballePaths": {
				"path0": [
					"94_None",
					"86_Valencia",
					"95_Barcelona",
					"50_Narborne",
					"57_Marseille",
					"56_Lyon",
					"77_Geneva",
					"29_Lausanne",
					"28_Berne"
				],
				"lat0": 2424.000000,
				"nbSeg0": 2,
				"path1": [
					"48_Venice",
					"4_Udine",
					"5_Graz",
					"33_Vienna",
					"45_Brno",
					"64_Prague",
					"8_Leipzig",
					"9_Dresden",
					"39_Berlin",
					"36_None",
					"53_Copenhagen",
					"59_Gotenburg",
					"60_Oslo"
				],
				"lat1": 3572.000000,
				"nbSeg1": 2
			},
			"pathsExist": true,
			"path1": [
				"94_None",
				"28_Berne"
			],
			"lat1": 2424.000000,
			"path2": [
				"48_Venice",
				"64_Prague",
				"59_Gotenburg",
				"60_Oslo"
			],
			"lat2": 3572.000000,
			"maxlat": 3572.000000,
			"runtime": 590896206,
			"nomLat1": 2424.000000,
			"nomLat2": 4950.000000,
			"maxNomLat": 4950.000000,
			"mincut": 4
		},
		{
			"s1": "66_Szolnok",
			"s2": "107_Ghent",
			"t1": "94_None",
			"t2": "0_Bremen",
			"suurballeNbPaths": 2,
			"suurballeTime": 84160949,
			"suurballePaths": {
				"path0": [
					"107_Ghent",
					"106_Antwerp",
					"11_Brussels",
					"21_Liege",
					"46_Cologne",
					"34_Dusseldorf",
					"102_Essen",
					"103_Dortmund",
					"0_Bremen"
				],
				"lat0": 998.000000,
				"nbSeg0": 2,
				"path1": [
					"66_Szolnok",
					"32_Budapest",
					"33_Vienna",
					"5_Graz",
					"4_Udine",
					"48_Venice",
					"49_Bologna",
					"3_Florence",
					"2_Pisa",
					"55_Genoa",
					"92_Nice",
					"57_Marseille",
					"50_Narborne",
					"95_Barcelona",
					"86_Valencia",
					"94_None"
				],
				"lat1": 4072.000000,
				"nbSeg1": 1
			},
			"pathsExist": true,
			"path1": [
				"66_Szolnok",
				"2_Pisa",
				"94_None"
			],
			"lat1": 4072.000000,
			"path2": [
				"107_Ghent",
				"11_Brussels",
				"0_Bremen"
			],
			"lat2": 998.000000,
			"maxlat": 4072.000000,
			"runtime": 17944008182,
			"nomLat1": 5140.000000,
			"nomLat2": 1087.000000,
			"maxNomLat": 5140.000000,
			"mincut": 4
		},
		{
			"s1": "72_Lille",
			"s2": "46_Cologne",
			"t1": "73_Luxembourg",
			"t2": "53_Copenhagen",
			"suurballeNbPaths": 2,
			"suurballeTime": 84343468,
			"suurballePaths": {
				"path0": [
					"72_Lille",
					"11_Brussels",
					"73_Luxembourg"
				],
				"lat0": 476.000000,
				"nbSeg0": 2,
				"path1": [
					"46_Cologne",
					"34_Dusseldorf",
					"102_Essen",
					"103_Dortmund",
					"0_Bremen",
					"35_Hamburg",
					"53_Copenhagen"
				],
				"lat1": 1153.000000,
				"nbSeg1": 2
			},
			"pathsExist": true,
			"path1": [
				"72_Lille",
				"73_Luxembourg"
			],
			"lat1": 476.000000,
			"path2": [
				"46_Cologne",
				"53_Copenhagen"
			],
			"lat2": 1153.000000,
			"maxlat": 1153.000000,
			"runtime": 517742853,
			"nomLat1": 476.000000,
			"nomLat2": 1153.000000,
			"maxNomLat": 1153.000000,
			"mincut": 4
		},
		{
			"s1": "57_Marseille",
			"s2": "101_Rome",
			"t1": "86_Valencia",
			"t2": "82_Washington_DC",
			"suurballeNbPaths": 2,
			"suurballeTime": 4609795,
			"suurballePaths": {
				"path0": [
					"57_Marseille",
					"50_Narborne",
					"95_Barcelona",
					"86_Valencia"
				],
				"lat0": 1191.000000,
				"nbSeg0": 0,
				"path1": [
					"101_Rome",
					"3_Florence",
					"49_Bologna",
					"38_Milan",
					"52_Zurich",
					"12_Stuttgart",
					"26_Karlsruhe",
					"18_Frankfurt",
					"47_Bonn",
					"46_Cologne",
					"34_Dusseldorf",
					"104_Utrecht",
					"13_Amsterdam",
					"61_Zandvort",
					"37_None",
					"10_London",
					"82_Washington_DC"
				],
				"lat1": 3585.000000,
				"nbSeg1": 5
			},
			"pathsExist": true,
			"path1": [
				"57_Marseille",
				"86_Valencia"
			],
			"lat1": 1191.000000,
			"path2": [
				"101_Rome",
				"26_Karlsruhe",
				"13_Amsterdam",
				"82_Washington_DC"
			],
			"lat2": 3585.000000,
			"maxlat": 3585.000000,
			"runtime": 584995731,
			"nomLat1": 1191.000000,
			"nomLat2": 3899.000000,
			"maxNomLat": 3899.000000,
			"mincut": 4
		},
		{
			"s1": "18_Frankfurt",
			"s2": "69_Szeged",
			"t1": "27_Strasbourg",
			"t2": "91_Olbia",
			"suurballeNbPaths": 2,
			"suurballeTime": 84448302,
			"suurballePaths": {
				"path0": [
					"18_Frankfurt",
					"27_Strasbourg"
				],
				"lat0": 310.000000,
				"nbSeg0": 0,
				"path1": [
					"69_Szeged",
					"43_Timisoara",
					"32_Budapest",
					"33_Vienna",
					"5_Graz",
					"4_Udine",
					"48_Venice",
					"49_Bologna",
					"3_Florence",
					"101_Rome",
					"91_Olbia"
				],
				"lat1": 2931.000000,
				"nbSeg1": 1
			},
			"pathsExist": true,
			"path1": [
				"18_Frankfurt",
				"27_Strasbourg"
			],
			"lat1": 310.000000,
			"path2": [
				"69_Szeged",
				"4_Udine",
				"91_Olbia"
			],
			"lat2": 2931.000000,
			"maxlat": 2931.000000,
			"runtime": 512292118,
			"nomLat1": 310.000000,
			"nomLat2": 3616.000000,
			"maxNomLat": 3616.000000,
			"mincut": 6
		},
		{
			"s1": "1_Poznan",
			"s2": "45_Brno",
			"t1": "11_Brussels",
			"t2": "79_Haskovo",
			"suurballeNbPaths": 2,
			"suurballeTime": 109400546,
			"suurballePaths": {
				"path0": [
					"45_Brno",
					"74_Bratislava",
					"32_Budapest",
					"66_Szolnok",
					"109_None",
					"42_Bucharest",
					"79_Haskovo"
				],
				"lat0": 1820.000000,
				"nbSeg0": 2,
				"path1": [
					"1_Poznan",
					"39_Berlin",
					"9_Dresden",
					"8_Leipzig",
					"7_Nuremberg",
					"18_Frankfurt",
					"47_Bonn",
					"46_Cologne",
					"21_Liege",
					"11_Brussels"
				],
				"lat1": 2156.000000,
				"nbSeg1": 3
			},
			"pathsExist": true,
			"path1": [
				"1_Poznan",
				"21_Liege",
				"11_Brussels"
			],
			"lat1": 2156.000000,
			"path2": [
				"45_Brno",
				"74_Bratislava",
				"109_None",
				"79_Haskovo"
			],
			"lat2": 1820.000000,
			"maxlat": 2156.000000,
			"runtime": 17355396337,
			"nomLat1": 2341.000000,
			"nomLat2": 1898.000000,
			"maxNomLat": 2341.000000,
			"mincut": 4
		},
		{
			"s1": "9_Dresden",
			"s2": "87_Seville",
			"t1": "106_Antwerp",
			"t2": "89_Poltiers",
			"suurballeNbPaths": 2,
			"suurballeTime": 99602300,
			"suurballePaths": {
				"path0": [
					"87_Seville",
					"76_Madrid",
					"88_Bilbao",
					"51_Bordeaux",
					"89_Poltiers"
				],
				"lat0": 1979.000000,
				"nbSeg0": 0,
				"path1": [
					"9_Dresden",
					"8_Leipzig",
					"7_Nuremberg",
					"18_Frankfurt",
					"47_Bonn",
					"46_Cologne",
					"21_Liege",
					"11_Brussels",
					"106_Antwerp"
				],
				"lat1": 1543.000000,
				"nbSeg1": 3
			},
			"pathsExist": true,
			"path1": [
				"9_Dresden",
				"106_Antwerp"
			],
			"lat1": 1728.000000,
			"path2": [
				"87_Seville",
				"89_Poltiers"
			],
			"lat2": 1979.000000,
			"maxlat": 1979.000000,
			"runtime": 430623411,
			"nomLat1": 1728.000000,
			"nomLat2": 1979.000000,
			"maxNomLat": 1979.000000,
			"mincut": 4
		},
		{
			"s1": "70_Pescara",
			"s2": "9_Dresden",
			"t1": "45_Brno",
			"t2": "47_Bonn",
			"suurballeNbPaths": 2,
			"suurballeTime": 94497712,
			"suurballePaths": {
				"path0": [
					"9_Dresden",
					"8_Leipzig",
					"7_Nuremberg",
					"18_Frankfurt",
					"47_Bonn"
				],
				"lat0": 1097.000000,
				"nbSeg0": 2,
				"path1": [
					"70_Pescara",
					"49_Bologna",
					"48_Venice",
					"4_Udine",
					"5_Graz",
					"33_Vienna",
					"45_Brno"
				],
				"lat1": 1712.000000,
				"nbSeg1": 0
			},
			"pathsExist": true,
			"path1": [
				"70_Pescara",
				"45_Brno"
			],
			"lat1": 1712.000000,
			"path2": [
				"9_Dresden",
				"47_Bonn"
			],
			"lat2": 1097.000000,
			"maxlat": 1712.000000,
			"runtime": 377972971,
			"nomLat1": 1712.000000,
			"nomLat2": 1097.000000,
			"maxNomLat": 1712.000000,
			"mincut": 4
		},
		{
			"s1": "80_Veliko_Turnovo",
			"s2": "59_Gotenburg",
			"t1": "41_Edirne",
			"t2": "5_Graz",
			"suurballeNbPaths": 2,
			"suurballeTime": 936589427,
			"suurballePaths": {
				"path0": [
					"80_Veliko_Turnovo",
					"40_Sofia",
					"41_Edirne"
				],
				"lat0": 678.000000,
				"nbSeg0": 0,
				"path1": [
					"59_Gotenburg",
					"53_Copenhagen",
					"36_None",
					"39_Berlin",
					"9_Dresden",
					"8_Leipzig",
					"64_Prague",
					"45_Brno",
					"33_Vienna",
					"5_Graz"
				],
				"lat1": 2631.000000,
				"nbSeg1": 1
			},
			"pathsExist": true,
			"path1": [
				"80_Veliko_Turnovo",
				"41_Edirne"
			],
			"lat1": 678.000000,
			"path2": [
				"59_Gotenburg",
				"8_Leipzig",
				"5_Graz"
			],
			"lat2": 2631.000000,
			"maxlat": 2631.000000,
			"runtime": 163948172,
			"nomLat1": 678.000000,
			"nomLat2": 3252.000000,
			"maxNomLat": 3252.000000,
			"mincut": 4
		},
		{
			"s1": "75_Hannover",
			"s2": "11_Brussels",
			"t1": "59_Gotenburg",
			"t2": "82_Washington_DC",
			"suurballeNbPaths": 2,
			"suurballeTime": 99659799,
			"suurballePaths": {
				"path0": [
					"75_Hannover",
					"36_None",
					"53_Copenhagen",
					"59_Gotenburg"
				],
				"lat0": 1092.000000,
				"nbSeg0": 1,
				"path1": [
					"11_Brussels",
					"106_Antwerp",
					"107_Ghent",
					"58_Bruges",
					"37_None",
					"10_London",
					"82_Washington_DC"
				],
				"lat1": 1293.000000,
				"nbSeg1": 1
			},
			"pathsExist": true,
			"path1": [
				"75_Hannover",
				"59_Gotenburg"
			],
			"lat1": 1096.000000,
			"path2": [
				"11_Brussels",
				"37_None",
				"82_Washington_DC"
			],
			"lat2": 1293.000000,
			"maxlat": 1293.000000,
			"runtime": 561003423,
			"nomLat1": 1096.000000,
			"nomLat2": 1378.000000,
			"maxNomLat": 1378.000000,
			"mincut": 4
		},
		{
			"s1": "105_Rotterdam",
			"s2": "93_Toulouse",
			"t1": "19_Munich",
			"t2": "50_Narborne",
			"suurballeNbPaths": 2,
			"suurballeTime": 89533130,
			"suurballePaths": {
				"path0": [
					"93_Toulouse",
					"50_Narborne"
				],
				"lat0": 228.000000,
				"nbSeg0": 0,
				"path1": [
					"105_Rotterdam",
					"13_Amsterdam",
					"104_Utrecht",
					"34_Dusseldorf",
					"46_Cologne",
					"47_Bonn",
					"18_Frankfurt",
					"7_Nuremberg",
					"19_Munich"
				],
				"lat1": 1317.000000,
				"nbSeg1": 4
			},
			"pathsExist": true,
			"path1": [
				"105_Rotterdam",
				"13_Amsterdam",
				"19_Munich"
			],
			"lat1": 1317.000000,
			"path2": [
				"93_Toulouse",
				"50_Narborne"
			],
			"lat2": 228.000000,
			"maxlat": 1317.000000,
			"runtime": 1289523795,
			"nomLat1": 1884.000000,
			"nomLat2": 228.000000,
			"maxNomLat": 1884.000000,
			"mincut": 4
		},
		{
			"s1": "60_Oslo",
			"s2": "4_Udine",
			"t1": "53_Copenhagen",
			"t2": "5_Graz",
			"suurballeNbPaths": 2,
			"suurballeTime": 94214878,
			"suurballePaths": {
				"path0": [
					"4_Udine",
					"5_Graz"
				],
				"lat0": 342.000000,
				"nbSeg0": 0,
				"path1": [
					"60_Oslo",
					"59_Gotenburg",
					"53_Copenhagen"
				],
				"lat1": 815.000000,
				"nbSeg1": 1
			},
			"pathsExist": true,
			"path1": [
				"60_Oslo",
				"59_Gotenburg",
				"53_Copenhagen"
			],
			"lat1": 815.000000,
			"path2": [
				"4_Udine",
				"5_Graz"
			],
			"lat2": 342.000000,
			"maxlat": 815.000000,
			"runtime": 3603504785,
			"nomLat1": 1572.000000,
			"nomLat2": 342.000000,
			"maxNomLat": 1572.000000,
			"mincut": 4
		},
		{
			"s1": "29_Lausanne",
			"s2": "90_Cagliari",
			"t1": "55_Genoa",
			"t2": "33_Vienna",
			"suurballeNbPaths": 2,
			"suurballeTime": 89634197,
			"suurballePaths": {
				"path0": [
					"90_Cagliari",
					"91_Olbia",
					"101_Rome",
					"2_Pisa",
					"55_Genoa"
				],
				"lat0": 1466.000000,
				"nbSeg0": 0,
				"path1": [
					"29_Lausanne",
					"28_Berne",
					"25_Basle",
					"52_Zurich",
					"12_Stuttgart",
					"19_Munich",
					"6_Salzburg",
					"33_Vienna"
				],
				"lat1": 1606.000000,
				"nbSeg1": 2
			},
			"pathsExist": true,
			"path1": [
				"29_Lausanne",
				"55_Genoa"
			],
			"lat1": 1276.000000,
			"path2": [
				"90_Cagliari",
				"33_Vienna"
			],
			"lat2": 2293.000000,
			"maxlat": 2293.000000,
			"runtime": 342611389,
			"nomLat1": 1276.000000,
			"nomLat2": 2293.000000,
			"maxNomLat": 2293.000000,
			"mincut": 4
		},
		{
			"s1": "63_Bari",
			"s2": "10_London",
			"t1": "57_Marseille",
			"t2": "17_Dubai",
			"suurballeNbPaths": 2,
			"suurballeTime": 94508014,
			"suurballePaths": {
				"path0": [
					"10_London",
					"17_Dubai"
				],
				"lat0": 353.000000,
				"nbSeg0": 0,
				"path1": [
					"63_Bari",
					"84_Naples",
					"101_Rome",
					"2_Pisa",
					"55_Genoa",
					"92_Nice",
					"57_Marseille"
				],
				"lat1": 1904.000000,
				"nbSeg1": 0
			},
			"pathsExist": true,
			"path1": [
				"63_Bari",
				"57_Marseille"
			],
			"lat1": 1904.000000,
			"path2": [
				"10_London",
				"17_Dubai"
			],
			"lat2": 353.000000,
			"maxlat": 1904.000000,
			"runtime": 499687423,
			"nomLat1": 1904.000000,
			"nomLat2": 353.000000,
			"maxNomLat": 1904.000000,
			"mincut": 6
		},
		{
			"s1": "19_Munich",
			"s2": "24_Nancy",
			"t1": "3_Florence",
			"t2": "47_Bonn",
			"suurballeNbPaths": 2,
			"suurballeTime": 84436075,
			"suurballePaths": {
				"path0": [
					"24_Nancy",
					"27_Strasbourg",
					"18_Frankfurt",
					"47_Bonn"
				],
				"lat0": 728.000000,
				"nbSeg0": 2,
				"path1": [
					"19_Munich",
					"12_Stuttgart",
					"52_Zurich",
					"38_Milan",
					"49_Bologna",
					"3_Florence"
				],
				"lat1": 1444.000000,
				"nbSeg1": 2
			},
			"pathsExist": true,
			"path1": [
				"19_Munich",
				"3_Florence"
			],
			"lat1": 1444.000000,
			"path2": [
				"24_Nancy",
				"47_Bonn"
			],
			"lat2": 728.000000,
			"maxlat": 1444.000000,
			"runtime": 375723979,
			"nomLat1": 1444.000000,
			"nomLat2": 728.000000,
			"maxNomLat": 1444.000000,
			"mincut": 6
		},
		{
			"s1": "8_Leipzig",
			"s2": "38_Milan",
			"t1": "39_Berlin",
			"t2": "14_Moscow",
			"suurballeNbPaths": 2,
			"suurballeTime": 44408260,
			"suurballePaths": {
				"path0": [
					"8_Leipzig",
					"9_Dresden",
					"39_Berlin"
				],
				"lat0": 452.000000,
				"nbSeg0": 0,
				"path1": [
					"38_Milan",
					"52_Zurich",
					"12_Stuttgart",
					"26_Karlsruhe",
					"18_Frankfurt",
					"47_Bonn",
					"46_Cologne",
					"34_Dusseldorf",
					"102_Essen",
					"103_Dortmund",
					"0_Bremen",
					"35_Hamburg",
					"53_Copenhagen",
					"44_Stockholm",
					"14_Moscow"
				],
				"lat1": 5310.000000,
				"nbSeg1": 5
			},
			"pathsExist": true,
			"path1": [
				"8_Leipzig",
				"67_Krakow",
				"39_Berlin"
			],
			"lat1": 2379.000000,
			"path2": [
				"38_Milan",
				"26_Karlsruhe",
				"0_Bremen",
				"14_Moscow"
			],
			"lat2": 5310.000000,
			"maxlat": 5310.000000,
			"runtime": 18661955078,
			"nomLat1": 452.000000,
			"nomLat2": 5689.000000,
			"maxNomLat": 5689.000000,
			"mincut": 3
		},
		{
			"s1": "56_Lyon",
			"s2": "25_Basle",
			"t1": "61_Zandvort",
			"t2": "49_Bologna",
			"suurballeNbPaths": 2,
			"suurballeTime": 4456798,
			"suurballePaths": {
				"path0": [
					"25_Basle",
					"52_Zurich",
					"38_Milan",
					"49_Bologna"
				],
				"lat0": 833.000000,
				"nbSeg0": 0,
				"path1": [
					"56_Lyon",
					"16_Paris",
					"72_Lille",
					"11_Brussels",
					"106_Antwerp",
					"105_Rotterdam",
					"13_Amsterdam",
					"61_Zandvort"
				],
				"lat1": 1517.000000,
				"nbSeg1": 2
			},
			"pathsExist": true,
			"path1": [
				"56_Lyon",
				"11_Brussels",
				"61_Zandvort"
			],
			"lat1": 1517.000000,
			"path2": [
				"25_Basle",
				"3_Florence",
				"49_Bologna"
			],
			"lat2": 1113.000000,
			"maxlat": 1517.000000,
			"runtime": 15412876085,
			"nomLat1": 2575.000000,
			"nomLat2": 833.000000,
			"maxNomLat": 2575.000000,
			"mincut": 4
		},
		{
			"s1": "48_Venice",
			"s2": "71_Thessalonika",
			"t1": "20_Calais",
			"t2": "62_Istanbul",
			"suurballeNbPaths": 2,
			"suurballeTime": 4537581,
			"suurballePaths": {
				"path0": [
					"71_Thessalonika",
					"41_Edirne",
					"62_Istanbul"
				],
				"lat0": 706.000000,
				"nbSeg0": 2,
				"path1": [
					"48_Venice",
					"38_Milan",
					"52_Zurich",
					"12_Stuttgart",
					"26_Karlsruhe",
					"18_Frankfurt",
					"47_Bonn",
					"46_Cologne",
					"21_Liege",
					"11_Brussels",
					"72_Lille",
					"20_Calais"
				],
				"lat1": 2293.000000,
				"nbSeg1": 8
			},
			"pathsExist": true,
			"path1": [
				"48_Venice",
				"26_Karlsruhe",
				"21_Liege",
				"20_Calais"
			],
			"lat1": 2293.000000,
			"path2": [
				"71_Thessalonika",
				"62_Istanbul"
			],
			"lat2": 706.000000,
			"maxlat": 2293.000000,
			"runtime": 4744176442,
			"nomLat1": 2409.000000,
			"nomLat2": 706.000000,
			"maxNomLat": 2409.000000,
			"mincut": 4
		},
		{
			"s1": "8_Leipzig",
			"s2": "80_Veliko_Turnovo",
			"t1": "0_Bremen",
			"t2": "79_Haskovo",
			"suurballeNbPaths": 2,
			"suurballeTime": 99636249,
			"suurballePaths": {
				"path0": [
					"80_Veliko_Turnovo",
					"40_Sofia",
					"68_Ruse",
					"42_Bucharest",
					"79_Haskovo"
				],
				"lat0": 1331.000000,
				"nbSeg0": 1,
				"path1": [
					"8_Leipzig",
					"7_Nuremberg",
					"18_Frankfurt",
					"47_Bonn",
					"46_Cologne",
					"34_Dusseldorf",
					"102_Essen",
					"103_Dortmund",
					"0_Bremen"
				],
				"lat1": 1475.000000,
				"nbSeg1": 4
			},
			"pathsExist": true,
			"path1": [
				"8_Leipzig",
				"18_Frankfurt",
				"0_Bremen"
			],
			"lat1": 1475.000000,
			"path2": [
				"80_Veliko_Turnovo",
				"68_Ruse",
				"79_Haskovo"
			],
			"lat2": 1331.000000,
			"maxlat": 1475.000000,
			"runtime": 5438733137,
			"nomLat1": 1806.000000,
			"nomLat2": 2237.000000,
			"maxNomLat": 2237.000000,
			"mincut": 4
		},
		{
			"s1": "73_Luxembourg",
			"s2": "38_Milan",
			"t1": "54_Turin",
			"t2": "90_Cagliari",
			"suurballeNbPaths": 2,
			"suurballeTime": 124352701,
			"suurballePaths": {
				"path0": [
					"38_Milan",
					"54_Turin"
				],
				"lat0": 213.000000,
				"nbSeg0": 2,
				"path1": [
					"73_Luxembourg",
					"47_Bonn",
					"18_Frankfurt",
					"26_Karlsruhe",
					"12_Stuttgart",
					"52_Zurich",
					"38_Milan",
					"49_Bologna",
					"3_Florence",
					"101_Rome",
					"91_Olbia",
					"90_Cagliari"
				],
				"lat1": 3083.000000,
				"nbSeg1": 3
			},
			"pathsExist": true,
			"path1": [
				"73_Luxembourg",
				"26_Karlsruhe",
				"54_Turin"
			],
			"lat1": 1644.000000,
			"path2": [
				"38_Milan",
				"49_Bologna",
				"90_Cagliari"
			],
			"lat2": 1652.000000,
			"maxlat": 1652.000000,
			"runtime": 5937478249,
			"nomLat1": 1815.000000,
			"nomLat2": 1652.000000,
			"maxNomLat": 1815.000000,
			"mincut": 5
		},
		{
			"s1": "59_Gotenburg",
			"s2": "72_Lille",
			"t1": "75_Hannover",
			"t2": "9_Dresden",
			"suurballeNbPaths": 2,
			"suurballeTime": 99453310,
			"suurballePaths": {
				"path0": [
					"59_Gotenburg",
					"53_Copenhagen",
					"36_None",
					"75_Hannover"
				],
				"lat0": 1092.000000,
				"nbSeg0": 1,
				"path1": [
					"72_Lille",
					"11_Brussels",
					"21_Liege",
					"46_Cologne",
					"47_Bonn",
					"18_Frankfurt",
					"7_Nuremberg",
					"8_Leipzig",
					"9_Dresden"
				],
				"lat1": 1630.000000,
				"nbSeg1": 5
			},
			"pathsExist": true,
			"path1": [
				"59_Gotenburg",
				"75_Hannover"
			],
			"lat1": 1096.000000,
			"path2": [
				"72_Lille",
				"21_Liege",
				"7_Nuremberg",
				"9_Dresden"
			],
			"lat2": 1630.000000,
			"maxlat": 1630.000000,
			"runtime": 657180492,
			"nomLat1": 1096.000000,
			"nomLat2": 2195.000000,
			"maxNomLat": 2195.000000,
			"mincut": 4
		},
		{
			"s1": "34_Dusseldorf",
			"s2": "51_Bordeaux",
			"t1": "12_Stuttgart",
			"t2": "91_Olbia",
			"suurballeNbPaths": 2,
			"suurballeTime": 99480913,
			"suurballePaths": {
				"path0": [
					"34_Dusseldorf",
					"46_Cologne",
					"47_Bonn",
					"18_Frankfurt",
					"26_Karlsruhe",
					"12_Stuttgart"
				],
				"lat0": 652.000000,
				"nbSeg0": 5,
				"path1": [
					"51_Bordeaux",
					"50_Narborne",
					"57_Marseille",
					"92_Nice",
					"55_Genoa",
					"2_Pisa",
					"101_Rome",
					"91_Olbia"
				],
				"lat1": 2566.000000,
				"nbSeg1": 0
			},
			"pathsExist": true,
			"path1": [
				"34_Dusseldorf",
				"6_Salzburg",
				"12_Stuttgart"
			],
			"lat1": 1616.000000,
			"path2": [
				"51_Bordeaux",
				"91_Olbia"
			],
			"lat2": 2566.000000,
			"maxlat": 2566.000000,
			"runtime": 6369810093,
			"nomLat1": 823.000000,
			"nomLat2": 2566.000000,
			"maxNomLat": 2566.000000,
			"mincut": 6
		},
		{
			"s1": "10_London",
			"s2": "6_Salzburg",
			"t1": "0_Bremen",
			"t2": "19_Munich",
			"suurballeNbPaths": 2,
			"suurballeTime": 99458679,
			"suurballePaths": {
				"path0": [
					"6_Salzburg",
					"19_Munich"
				],
				"lat0": 197.000000,
				"nbSeg0": 0,
				"path1": [
					"10_London",
					"37_None",
					"61_Zandvort",
					"13_Amsterdam",
					"104_Utrecht",
					"34_Dusseldorf",
					"102_Essen",
					"103_Dortmund",
					"0_Bremen"
				],
				"lat1": 1511.000000,
				"nbSeg1": 0
			},
			"pathsExist": true,
			"path1": [
				"10_London",
				"0_Bremen"
			],
			"lat1": 1511.000000,
			"path2": [
				"6_Salzburg",
				"19_Munich"
			],
			"lat2": 197.000000,
			"maxlat": 1511.000000,
			"runtime": 640577700,
			"nomLat1": 1511.000000,
			"nomLat2": 197.000000,
			"maxNomLat": 1511.000000,
			"mincut": 4
		},
		{
			"s1": "32_Budapest",
			"s2": "101_Rome",
			"t1": "105_Rotterdam",
			"t2": "70_Pescara",
			"suurballeNbPaths": 2,
			"suurballeTime": 104603421,
			"suurballePaths": {
				"path0": [
					"101_Rome",
					"3_Florence",
					"49_Bologna",
					"70_Pescara"
				],
				"lat0": 1074.000000,
				"nbSeg0": 1,
				"path1": [
					"32_Budapest",
					"74_Bratislava",
					"45_Brno",
					"64_Prague",
					"7_Nuremberg",
					"18_Frankfurt",
					"47_Bonn",
					"46_Cologne",
					"34_Dusseldorf",
					"104_Utrecht",
					"13_Amsterdam",
					"105_Rotterdam"
				],
				"lat1": 2281.000000,
				"nbSeg1": 5
			},
			"pathsExist": true,
			"path1": [
				"32_Budapest",
				"74_Bratislava",
				"13_Amsterdam",
				"105_Rotterdam"
			],
			"lat1": 2281.000000,
			"path2": [
				"101_Rome",
				"3_Florence",
				"70_Pescara"
			],
			"lat2": 1074.000000,
			"maxlat": 2281.000000,
			"runtime": 19675758560,
			"nomLat1": 2866.000000,
			"nomLat2": 1137.000000,
			"maxNomLat": 2866.000000,
			"mincut": 4
		},
		{
			"s1": "0_Bremen",
			"s2": "18_Frankfurt",
			"t1": "57_Marseille",
			"t2": "84_Naples",
			"suurballeNbPaths": 2,
			"suurballeTime": 99551232,
			"suurballePaths": {
				"path0": [
					"18_Frankfurt",
					"26_Karlsruhe",
					"12_Stuttgart",
					"52_Zurich",
					"38_Milan",
					"49_Bologna",
					"3_Florence",
					"101_Rome",
					"84_Naples"
				],
				"lat0": 2153.000000,
				"nbSeg0": 2,
				"path1": [
					"0_Bremen",
					"103_Dortmund",
					"102_Essen",
					"34_Dusseldorf",
					"46_Cologne",
					"21_Liege",
					"11_Brussels",
					"72_Lille",
					"16_Paris",
					"56_Lyon",
					"57_Marseille"
				],
				"lat1": 2461.000000,
				"nbSeg1": 6
			},
			"pathsExist": true,
			"path1": [
				"0_Bremen",
				"11_Brussels",
				"57_Marseille"
			],
			"lat1": 2461.000000,
			"path2": [
				"18_Frankfurt",
				"26_Karlsruhe",
				"38_Milan",
				"3_Florence",
				"84_Naples"
			],
			"lat2": 2153.000000,
			"maxlat": 2461.000000,
			"runtime": 8524145299,
			"nomLat1": 2872.000000,
			"nomLat2": 2837.000000,
			"maxNomLat": 2872.000000,
			"mincut": 5
		},
		{
			"s1": "40_Sofia",
			"s2": "47_Bonn",
			"t1": "74_Bratislava",
			"t2": "65_Warsaw",
			"suurballeNbPaths": 2,
			"suurballeTime": 99016453,
			"suurballePaths": {
				"path0": [
					"40_Sofia",
					"68_Ruse",
					"42_Bucharest",
					"109_None",
					"66_Szolnok",
					"32_Budapest",
					"74_Bratislava"
				],
				"lat0": 1674.000000,
				"nbSeg0": 1,
				"path1": [
					"47_Bonn",
					"18_Frankfurt",
					"7_Nuremberg",
					"64_Prague",
					"45_Brno",
					"67_Krakow",
					"65_Warsaw"
				],
				"lat1": 2132.000000,
				"nbSeg1": 2
			},
			"pathsExist": true,
			"path1": [
				"40_Sofia",
				"74_Bratislava"
			],
			"lat1": 1748.000000,
			"path2": [
				"47_Bonn",
				"65_Warsaw"
			],
			"lat2": 2132.000000,
			"maxlat": 2132.000000,
			"runtime": 596383916,
			"nomLat1": 1748.000000,
			"nomLat2": 2132.000000,
			"maxNomLat": 2132.000000,
			"mincut": 4
		},
		{
			"s1": "81_Plovdiv",
			"s2": "65_Warsaw",
			"t1": "38_Milan",
			"t2": "59_Gotenburg",
			"suurballeNbPaths": 2,
			"suurballeTime": 119223456,
			"suurballePaths": {
				"path0": [
					"65_Warsaw",
					"1_Poznan",
					"39_Berlin",
					"36_None",
					"53_Copenhagen",
					"59_Gotenburg"
				],
				"lat0": 1962.000000,
				"nbSeg0": 0,
				"path1": [
					"81_Plovdiv",
					"43_Timisoara",
					"32_Budapest",
					"33_Vienna",
					"5_Graz",
					"4_Udine",
					"48_Venice",
					"38_Milan"
				],
				"lat1": 2781.000000,
				"nbSeg1": 3
			},
			"pathsExist": true,
			"path1": [
				"81_Plovdiv",
				"4_Udine",
				"38_Milan"
			],
			"lat1": 2781.000000,
			"path2": [
				"65_Warsaw",
				"59_Gotenburg"
			],
			"lat2": 1962.000000,
			"maxlat": 2781.000000,
			"runtime": 6780230748,
			"nomLat1": 2803.000000,
			"nomLat2": 1962.000000,
			"maxNomLat": 2803.000000,
			"mincut": 4
		},
		{
			"s1": "93_Toulouse",
			"s2": "17_Dubai",
			"t1": "66_Szolnok",
			"t2": "106_Antwerp",
			"suurballeNbPaths": 2,
			"suurballeTime": 104364220,
			"suurballePaths": {
				"path0": [
					"17_Dubai",
					"10_London",
					"37_None",
					"58_Bruges",
					"107_Ghent",
					"106_Antwerp"
				],
				"lat0": 1220.000000,
				"nbSeg0": 0,
				"path1": [
					"93_Toulouse",
					"50_Narborne",
					"57_Marseille",
					"92_Nice",
					"55_Genoa",
					"2_Pisa",
					"3_Florence",
					"49_Bologna",
					"48_Venice",
					"4_Udine",
					"5_Graz",
					"33_Vienna",
					"32_Budapest",
					"66_Szolnok"
				],
				"lat1": 3082.000000,
				"nbSeg1": 1
			},
			"pathsExist": true,
			"path1": [
				"93_Toulouse",
				"2_Pisa",
				"66_Szolnok"
			],
			"lat1": 3082.000000,
			"path2": [
				"17_Dubai",
				"106_Antwerp"
			],
			"lat2": 1220.000000,
			"maxlat": 3082.000000,
			"runtime": 4465556172,
			"nomLat1": 3512.000000,
			"nomLat2": 1220.000000,
			"maxNomLat": 3512.000000,
			"mincut": 4
		},
		{
			"s1": "78_Varna",
			"s2": "21_Liege",
			"t1": "67_Krakow",
			"t2": "29_Lausanne",
			"suurballeNbPaths": 2,
			"suurballeTime": 104341183,
			"suurballePaths": {
				"path0": [
					"78_Varna",
					"43_Timisoara",
					"32_Budapest",
					"74_Bratislava",
					"45_Brno",
					"67_Krakow"
				],
				"lat0": 2351.000000,
				"nbSeg0": 1,
				"path1": [
					"21_Liege",
					"46_Cologne",
					"47_Bonn",
					"18_Frankfurt",
					"26_Karlsruhe",
					"12_Stuttgart",
					"52_Zurich",
					"25_Basle",
					"28_Berne",
					"29_Lausanne"
				],
				"lat1": 1428.000000,
				"nbSeg1": 3
			},
			"pathsExist": true,
			"path1": [
				"78_Varna",
				"74_Bratislava",
				"67_Krakow"
			],
			"lat1": 2351.000000,
			"path2": [
				"21_Liege",
				"26_Karlsruhe",
				"29_Lausanne"
			],
			"lat2": 1428.000000,
			"maxlat": 2351.000000,
			"runtime": 7820938166,
			"nomLat1": 2420.000000,
			"nomLat2": 1598.000000,
			"maxNomLat": 2420.000000,
			"mincut": 4
		},
		{
			"s1": "62_Istanbul",
			"s2": "35_Hamburg",
			"t1": "56_Lyon",
			"t2": "27_Strasbourg",
			"suurballeNbPaths": 2,
			"suurballeTime": 109533067,
			"suurballePaths": {
				"path0": [
					"35_Hamburg",
					"0_Bremen",
					"103_Dortmund",
					"102_Essen",
					"34_Dusseldorf",
					"46_Cologne",
					"47_Bonn",
					"18_Frankfurt",
					"27_Strasbourg"
				],
				"lat0": 1246.000000,
				"nbSeg0": 4,
				"path1": [
					"62_Istanbul",
					"41_Edirne",
					"71_Thessalonika",
					"63_Bari",
					"70_Pescara",
					"49_Bologna",
					"38_Milan",
					"52_Zurich",
					"25_Basle",
					"28_Berne",
					"29_Lausanne",
					"77_Geneva",
					"56_Lyon"
				],
				"lat1": 3928.000000,
				"nbSeg1": 3
			},
			"pathsExist": true,
			"path1": [
				"62_Istanbul",
				"25_Basle",
				"56_Lyon"
			],
			"lat1": 3928.000000,
			"path2": [
				"35_Hamburg",
				"0_Bremen",
				"27_Strasbourg"
			],
			"lat2": 1246.000000,
			"maxlat": 3928.000000,
			"runtime": 7907926867,
			"nomLat1": 3936.000000,
			"nomLat2": 2655.000000,
			"maxNomLat": 3936.000000,
			"mincut": 4
		},
		{
			"s1": "9_Dresden",
			"s2": "72_Lille",
			"t1": "48_Venice",
			"t2": "16_Paris",
			"suurballeNbPaths": 2,
			"suurballeTime": 14344141,
			"suurballePaths": {
				"path0": [
					"72_Lille",
					"16_Paris"
				],
				"lat0": 345.000000,
				"nbSeg0": 0,
				"path1": [
					"9_Dresden",
					"8_Leipzig",
					"64_Prague",
					"45_Brno",
					"33_Vienna",
					"5_Graz",
					"4_Udine",
					"48_Venice"
				],
				"lat1": 1771.000000,
				"nbSeg1": 1
			},
			"pathsExist": true,
			"path1": [
				"9_Dresden",
				"4_Udine",
				"48_Venice"
			],
			"lat1": 1771.000000,
			"path2": [
				"72_Lille",
				"16_Paris"
			],
			"lat2": 345.000000,
			"maxlat": 1771.000000,
			"runtime": 8301741986,
			"nomLat1": 2192.000000,
			"nomLat2": 345.000000,
			"maxNomLat": 2192.000000,
			"mincut": 5
		},
		{
			"s1": "25_Basle",
			"s2": "60_Oslo",
			"t1": "30_None",
			"t2": "43_Timisoara",
			"suurballeNbPaths": 2,
			"suurballeTime": 104654449,
			"suurballePaths": {
				"path0": [
					"25_Basle",
					"52_Zurich",
					"38_Milan",
					"49_Bologna",
					"3_Florence",
					"101_Rome",
					"84_Naples",
					"30_None"
				],
				"lat0": 2035.000000,
				"nbSeg0": 1,
				"path1": [
					"60_Oslo",
					"59_Gotenburg",
					"53_Copenhagen",
					"36_None",
					"39_Berlin",
					"9_Dresden",
					"8_Leipzig",
					"64_Prague",
					"45_Brno",
					"74_Bratislava",
					"32_Budapest",
					"43_Timisoara"
				],
				"lat1": 3538.000000,
				"nbSeg1": 3
			},
			"pathsExist": true,
			"path1": [
				"25_Basle",
				"30_None"
			],
			"lat1": 2548.000000,
			"path2": [
				"60_Oslo",
				"59_Gotenburg",
				"8_Leipzig",
				"74_Bratislava",
				"43_Timisoara"
			],
			"lat2": 3538.000000,
			"maxlat": 3538.000000,
			"runtime": 620715389,
			"nomLat1": 2548.000000,
			"nomLat2": 4985.000000,
			"maxNomLat": 4985.000000,
			"mincut": 4
		},
		{
			"s1": "7_Nuremberg",
			"s2": "89_Poltiers",
			"t1": "70_Pescara",
			"t2": "17_Dubai",
			"suurballeNbPaths": 2,
			"suurballeTime": 109424099,
			"suurballePaths": {
				"path0": [
					"7_Nuremberg",
					"19_Munich",
					"12_Stuttgart",
					"52_Zurich",
					"38_Milan",
					"49_Bologna",
					"70_Pescara"
				],
				"lat0": 2103.000000,
				"nbSeg0": 2,
				"path1": [
					"89_Poltiers",
					"16_Paris",
					"72_Lille",
					"20_Calais",
					"31_None",
					"10_London",
					"17_Dubai"
				],
				"lat1": 2057.000000,
				"nbSeg1": 1
			},
			"pathsExist": true,
			"path1": [
				"7_Nuremberg",
				"70_Pescara"
			],
			"lat1": 2103.000000,
			"path2": [
				"89_Poltiers",
				"17_Dubai"
			],
			"lat2": 2057.000000,
			"maxlat": 2103.000000,
			"runtime": 498485107,
			"nomLat1": 2103.000000,
			"nomLat2": 2057.000000,
			"maxNomLat": 2103.000000,
			"mincut": 4
		},
		{
			"s1": "106_Antwerp",
			"s2": "18_Frankfurt",
			"t1": "86_Valencia",
			"t2": "71_Thessalonika",
			"suurballeNbPaths": 2,
			"suurballeTime": 104242956,
			"suurballePaths": {
				"path0": [
					"106_Antwerp",
					"11_Brussels",
					"72_Lille",
					"16_Paris",
					"89_Poltiers",
					"51_Bordeaux",
					"50_Narborne",
					"95_Barcelona",
					"86_Valencia"
				],
				"lat0": 2855.000000,
				"nbSeg0": 3,
				"path1": [
					"18_Frankfurt",
					"26_Karlsruhe",
					"12_Stuttgart",
					"52_Zurich",
					"38_Milan",
					"49_Bologna",
					"70_Pescara",
					"63_Bari",
					"71_Thessalonika"
				],
				"lat1": 3156.000000,
				"nbSeg1": 1
			},
			"pathsExist": true,
			"path1": [
				"106_Antwerp",
				"86_Valencia"
			],
			"lat1": 2892.000000,
			"path2": [
				"18_Frankfurt",
				"26_Karlsruhe",
				"71_Thessalonika"
			],
			"lat2": 3156.000000,
			"maxlat": 3156.000000,
			"runtime": 762708825,
			"nomLat1": 2892.000000,
			"nomLat2": 3327.000000,
			"maxNomLat": 3327.000000,
			"mincut": 5
		},
		{
			"s1": "46_Cologne",
			"s2": "12_Stuttgart",
			"t1": "66_Szolnok",
			"t2": "84_Naples",
			"suurballeNbPaths": 2,
			"suurballeTime": 104462781,
			"suurballePaths": {
				"path0": [
					"12_Stuttgart",
					"52_Zurich",
					"38_Milan",
					"49_Bologna",
					"3_Florence",
					"101_Rome",
					"84_Naples"
				],
				"lat0": 1831.000000,
				"nbSeg0": 1,
				"path1": [
					"46_Cologne",
					"47_Bonn",
					"18_Frankfurt",
					"7_Nuremberg",
					"64_Prague",
					"45_Brno",
					"74_Bratislava",
					"32_Budapest",
					"66_Szolnok"
				],
				"lat1": 1963.000000,
				"nbSeg1": 3
			},
			"pathsExist": true,
			"path1": [
				"46_Cologne",
				"74_Bratislava",
				"66_Szolnok"
			],
			"lat1": 1963.000000,
			"path2": [
				"12_Stuttgart",
				"3_Florence",
				"84_Naples"
			],
			"lat2": 1831.000000,
			"maxlat": 1963.000000,
			"runtime": 8907080005,
			"nomLat1": 2032.000000,
			"nomLat2": 2344.000000,
			"maxNomLat": 2344.000000,
			"mincut": 5
		},
		{
			"s1": "6_Salzburg",
			"s2": "10_London",
			"t1": "46_Cologne",
			"t2": "14_Moscow",
			"suurballeNbPaths": 2,
			"suurballeTime": 104571508,
			"suurballePaths": {
				"path0": [
					"10_London",
					"37_None",
					"61_Zandvort",
					"13_Amsterdam",
					"104_Utrecht",
					"34_Dusseldorf",
					"46_Cologne"
				],
				"lat0": 1130.000000,
				"nbSeg0": 2,
				"path1": [
					"6_Salzburg",
					"19_Munich",
					"7_Nuremberg",
					"8_Leipzig",
					"9_Dresden",
					"39_Berlin",
					"36_None",
					"53_Copenhagen",
					"44_Stockholm",
					"14_Moscow"
				],
				"lat1": 4920.000000,
				"nbSeg1": 0
			},
			"pathsExist": true,
			"path1": [
				"6_Salzburg",
				"26_Karlsruhe",
				"46_Cologne"
			],
			"lat1": 1109.000000,
			"path2": [
				"10_London",
				"14_Moscow"
			],
			"lat2": 5082.000000,
			"maxlat": 5082.000000,
			"runtime": 9214147049,
			"nomLat1": 1035.000000,
			"nomLat2": 5082.000000,
			"maxNomLat": 5082.000000,
			"mincut": 4
		},
		{
			"s1": "93_Toulouse",
			"s2": "74_Bratislava",
			"t1": "73_Luxembourg",
			"t2": "7_Nuremberg",
			"suurballeNbPaths": 2,
			"suurballeTime": 194565508,
			"suurballePaths": {
				"path0": [
					"74_Bratislava",
					"45_Brno",
					"64_Prague",
					"7_Nuremberg"
				],
				"lat0": 946.000000,
				"nbSeg0": 0,
				"path1": [
					"93_Toulouse",
					"51_Bordeaux",
					"89_Poltiers",
					"16_Paris",
					"72_Lille",
					"11_Brussels",
					"73_Luxembourg"
				],
				"lat1": 2019.000000,
				"nbSeg1": 2
			},
			"pathsExist": true,
			"path1": [
				"93_Toulouse",
				"73_Luxembourg"
			],
			"lat1": 2019.000000,
			"path2": [
				"74_Bratislava",
				"7_Nuremberg"
			],
			"lat2": 946.000000,
			"maxlat": 2019.000000,
			"runtime": 518681105,
			"nomLat1": 2019.000000,
			"nomLat2": 946.000000,
			"maxNomLat": 2019.000000,
			"mincut": 4
		},
		{
			"s1": "43_Timisoara",
			"s2": "75_Hannover",
			"t1": "40_Sofia",
			"t2": "39_Berlin",
			"suurballeNbPaths": 2,
			"suurballeTime": 104328070,
			"suurballePaths": {
				"path0": [
					"43_Timisoara",
					"81_Plovdiv",
					"40_Sofia"
				],
				"lat0": 1044.000000,
				"nbSeg0": 0,
				"path1": [
					"75_Hannover",
					"36_None",
					"39_Berlin"
				],
				"lat1": 706.000000,
				"nbSeg1": 0
			},
			"pathsExist": true,
			"path1": [
				"43_Timisoara",
				"40_Sofia"
			],
			"lat1": 1044.000000,
			"path2": [
				"75_Hannover",
				"39_Berlin"
			],
			"lat2": 706.000000,
			"maxlat": 1044.000000,
			"runtime": 617924327,
			"nomLat1": 1044.000000,
			"nomLat2": 706.000000,
			"maxNomLat": 1044.000000,
			"mincut": 7
		},
		{
			"s1": "49_Bologna",
			"s2": "45_Brno",
			"t1": "57_Marseille",
			"t2": "4_Udine",
			"suurballeNbPaths": 2,
			"suurballeTime": 99446007,
			"suurballePaths": {
				"path0": [
					"45_Brno",
					"33_Vienna",
					"5_Graz",
					"4_Udine"
				],
				"lat0": 776.000000,
				"nbSeg0": 0,
				"path1": [
					"49_Bologna",
					"3_Florence",
					"2_Pisa",
					"55_Genoa",
					"92_Nice",
					"57_Marseille"
				],
				"lat1": 1027.000000,
				"nbSeg1": 1
			},
			"pathsExist": true,
			"path1": [
				"49_Bologna",
				"2_Pisa",
				"57_Marseille"
			],
			"lat1": 1027.000000,
			"path2": [
				"45_Brno",
				"4_Udine"
			],
			"lat2": 776.000000,
			"maxlat": 1027.000000,
			"runtime": 9569146540,
			"nomLat1": 1292.000000,
			"nomLat2": 776.000000,
			"maxNomLat": 1292.000000,
			"mincut": 6
		},
		{
			"s1": "7_Nuremberg",
			"s2": "3_Florence",
			"t1": "92_Nice",
			"t2": "38_Milan",
			"suurballeNbPaths": 2,
			"suurballeTime": 4445418,
			"suurballePaths": {
				"path0": [
					"3_Florence",
					"2_Pisa",
					"55_Genoa",
					"92_Nice"
				],
				"lat0": 618.000000,
				"nbSeg0": 0,
				"path1": [
					"7_Nuremberg",
					"19_Munich",
					"12_Stuttgart",
					"52_Zurich",
					"38_Milan"
				],
				"lat1": 1221.000000,
				"nbSeg1": 2
			},
			"pathsExist": true,
			"path1": [
				"7_Nuremberg",
				"38_Milan",
				"92_Nice"
			],
			"lat1": 1906.000000,
			"path2": [
				"3_Florence",
				"101_Rome",
				"49_Bologna",
				"38_Milan"
			],
			"lat2": 1258.000000,
			"maxlat": 1906.000000,
			"runtime": 4244866200,
			"nomLat1": 2683.000000,
			"nomLat2": 478.000000,
			"maxNomLat": 2683.000000,
			"mincut": 6
		},
		{
			"s1": "21_Liege",
			"s2": "75_Hannover",
			"t1": "38_Milan",
			"t2": "78_Varna",
			"suurballeNbPaths": 2,
			"suurballeTime": 114485624,
			"suurballePaths": {
				"path0": [
					"21_Liege",
					"46_Cologne",
					"47_Bonn",
					"18_Frankfurt",
					"26_Karlsruhe",
					"12_Stuttgart",
					"52_Zurich",
					"38_Milan"
				],
				"lat0": 1409.000000,
				"nbSeg0": 3,
				"path1": [
					"75_Hannover",
					"36_None",
					"39_Berlin",
					"9_Dresden",
					"8_Leipzig",
					"64_Prague",
					"45_Brno",
					"74_Bratislava",
					"32_Budapest",
					"43_Timisoara",
					"78_Varna"
				],
				"lat1": 3728.000000,
				"nbSeg1": 2
			},
			"pathsExist": true,
			"path1": [
				"21_Liege",
				"2_Pisa",
				"38_Milan"
			],
			"lat1": 3209.000000,
			"path2": [
				"75_Hannover",
				"8_Leipzig",
				"74_Bratislava",
				"78_Varna"
			],
			"lat2": 3728.000000,
			"maxlat": 3728.000000,
			"runtime": 9781086222,
			"nomLat1": 2151.000000,
			"nomLat2": 4418.000000,
			"maxNomLat": 4418.000000,
			"mincut": 4
		}
	],
	"demandsWithSol": 102
}
