{
	"nbDemands": 100,
	"demands": [
		{
			"s1": "73_Sagar",
			"s2": "130_Trichy",
			"t1": "133_Salem",
			"t2": "83_Chandigarh",
			"suurballeNbPaths": 2,
			"suurballeTime": 1009882700,
			"suurballePaths": {
				"path0": [
					"130_Trichy",
					"32_Coimbatore",
					"131_Tirupur",
					"132_Erode",
					"52_Bangalore",
					"133_Salem"
				],
				"lat0": 1064.000000,
				"nbSeg0": 1,
				"path1": [
					"73_Sagar",
					"120_Rajgarh",
					"119_Gwalior",
					"122_Agra",
					"123_Mathura",
					"46_Delhi",
					"47_Sonipat",
					"107_Karnal",
					"86_Ambala",
					"83_Chandigarh"
				],
				"lat1": 1743.000000,
				"nbSeg1": 1
			},
			"pathsExist": false,
			"runtime": 244415266,
			"nomLat1": 3872.000000,
			"nomLat2": 6579.000000,
			"maxNomLat": 6579.000000,
			"mincut": 4
		},
		{
			"s1": "40_Rohtak",
			"s2": "13_Gaya",
			"t1": "91_Ahmedabad",
			"t2": "103_Bharuch",
			"suurballeNbPaths": 2,
			"suurballeTime": 1036083451,
			"suurballePaths": {
				"path0": [
					"40_Rohtak",
					"47_Sonipat",
					"46_Delhi",
					"128_Jaipur",
					"126_Bhilwara",
					"1_Udaipur",
					"91_Ahmedabad"
				],
				"lat0": 1470.000000,
				"nbSeg0": 5,
				"path1": [
					"13_Gaya",
					"12_Hazaribagh",
					"11_Bokaro",
					"31_Jamshedpur",
					"34_Rourkela",
					"60_Raipur",
					"61_Bhandara",
					"62_Nagpur",
					"64_Amravati",
					"65_Buldhana",
					"98_Jalgaon",
					"104_Surat",
					"103_Bharuch"
				],
				"lat1": 3003.000000,
				"nbSeg1": 1
			},
			"pathsExist": false,
			"runtime": 316190559,
			"nomLat1": 1730.000000,
			"nomLat2": 3595.000000,
			"maxNomLat": 3595.000000,
			"mincut": 3
		},
		{
			"s1": "11_Bokaro",
			"s2": "128_Jaipur",
			"t1": "76_Ahmednagar",
			"t2": "17_Asansol",
			"suurballeNbPaths": 2,
			"suurballeTime": 828470827,
			"suurballePaths": {
				"path0": [
					"11_Bokaro",
					"17_Asansol"
				],
				"lat0": 178.000000,
				"nbSeg0": 0,
				"path1": [
					"128_Jaipur",
					"127_Tonk",
					"125_Kota",
					"120_Rajgarh",
					"95_Indore",
					"87_Dhar",
					"67_Khandwa",
					"98_Jalgaon",
					"97_Aurangabad",
					"76_Ahmednagar"
				],
				"lat1": 1823.000000,
				"nbSeg1": 1
			},
			"pathsExist": false,
			"runtime": 372616550,
			"nomLat1": 3149.000000,
			"nomLat2": 3348.000000,
			"maxNomLat": 3348.000000,
			"mincut": 6
		},
		{
			"s1": "10_Patna",
			"s2": "85_Sangli",
			"t1": "20_Torangallu",
			"t2": "17_Asansol",
			"suurballeNbPaths": 2,
			"suurballeTime": 1072980632,
			"suurballePaths": {
				"path0": [
					"10_Patna",
					"13_Gaya",
					"12_Hazaribagh",
					"11_Bokaro",
					"17_Asansol"
				],
				"lat0": 617.000000,
				"nbSeg0": 0,
				"path1": [
					"85_Sangli",
					"84_Kolhapur",
					"25_Belgaum",
					"21_Bellary",
					"20_Torangallu"
				],
				"lat1": 748.000000,
				"nbSeg1": 0
			},
			"pathsExist": false,
			"runtime": 263467538,
			"nomLat1": 4726.000000,
			"nomLat2": 5078.000000,
			"maxNomLat": 5078.000000,
			"mincut": 4
		},
		{
			"s1": "109_Kollam",
			"s2": "132_Erode",
			"t1": "17_Asansol",
			"t2": "134_Palladam",
			"suurballeNbPaths": 2,
			"suurballeTime": 845926387,
			"suurballePaths": {
				"path0": [
					"109_Kollam",
					"116_Trivandrum",
					"115_Kanyakumari",
					"113_Tirunelveli",
					"129_Sivakasi",
					"130_Trichy",
					"134_Palladam"
				],
				"lat0": 1073.000000,
				"nbSeg0": 1,
				"path1": [
					"132_Erode",
					"52_Bangalore",
					"20_Torangallu",
					"26_Raichur",
					"81_Hyderabad",
					"80_Chandrapur",
					"63_Wardha",
					"62_Nagpur",
					"61_Bhandara",
					"60_Raipur",
					"34_Rourkela",
					"31_Jamshedpur",
					"11_Bokaro",
					"17_Asansol"
				],
				"lat1": 3752.000000,
				"nbSeg1": 1
			},
			"pathsExist": false,
			"runtime": 289120618,
			"nomLat1": 5181.000000,
			"nomLat2": 748.000000,
			"maxNomLat": 5181.000000,
			"mincut": 3
		},
		{
			"s1": "51_Kanchipuram",
			"s2": "43_Kot_kapura",
			"t1": "76_Ahmednagar",
			"t2": "23_Hubli",
			"suurballeNbPaths": 2,
			"suurballeTime": 1064502502,
			"suurballePaths": {
				"path0": [
					"51_Kanchipuram",
					"58_Tirupati",
					"53_Kolar",
					"52_Bangalore",
					"70_None",
					"54_Hassan",
					"23_Hubli"
				],
				"lat0": 1445.000000,
				"nbSeg0": 3,
				"path1": [
					"43_Kot_kapura",
					"108_Talwandi_Bahi",
					"141_Ludhiana",
					"142_Patiala",
					"40_Rohtak",
					"47_Sonipat",
					"46_Delhi",
					"123_Mathura",
					"122_Agra",
					"119_Gwalior",
					"120_Rajgarh",
					"95_Indore",
					"87_Dhar",
					"67_Khandwa",
					"98_Jalgaon",
					"97_Aurangabad",
					"76_Ahmednagar"
				],
				"lat1": 2977.000000,
				"nbSeg1": 2
			},
			"pathsExist": false,
			"runtime": 247630082,
			"nomLat1": 2471.000000,
			"nomLat2": 3945.000000,
			"maxNomLat": 3945.000000,
			"mincut": 4
		},
		{
			"s1": "75_Nanded",
			"s2": "103_Bharuch",
			"t1": "98_Jalgaon",
			"t2": "115_Kanyakumari",
			"suurballeNbPaths": 2,
			"suurballeTime": 845584317,
			"suurballePaths": {
				"path0": [
					"103_Bharuch",
					"104_Surat",
					"98_Jalgaon"
				],
				"lat0": 584.000000,
				"nbSeg0": 0,
				"path1": [
					"75_Nanded",
					"82_Sangareddy",
					"81_Hyderabad",
					"26_Raichur",
					"20_Torangallu",
					"52_Bangalore",
					"132_Erode",
					"131_Tirupur",
					"32_Coimbatore",
					"129_Sivakasi",
					"113_Tirunelveli",
					"115_Kanyakumari"
				],
				"lat1": 2444.000000,
				"nbSeg1": 0
			},
			"pathsExist": false,
			"runtime": 419438379,
			"nomLat1": 597.000000,
			"nomLat2": 3775.000000,
			"maxNomLat": 3775.000000,
			"mincut": 4
		},
		{
			"s1": "17_Asansol",
			"s2": "29_Panjim",
			"t1": "115_Kanyakumari",
			"t2": "62_Nagpur",
			"suurballeNbPaths": 2,
			"suurballeTime": 600398810,
			"suurballePaths": {
				"path0": [
					"17_Asansol",
					"11_Bokaro",
					"31_Jamshedpur",
					"34_Rourkela",
					"60_Raipur",
					"61_Bhandara",
					"62_Nagpur"
				],
				"lat0": 1660.000000,
				"nbSeg0": 0,
				"path1": [
					"29_Panjim",
					"22_Goa",
					"37_Mangalore",
					"36_Cannonore",
					"39_Kozhikode",
					"38_Palghat",
					"33_Thirussur",
					"117_Allepey",
					"112_Kottayem",
					"110_Ernakulam",
					"109_Kollam",
					"116_Trivandrum",
					"115_Kanyakumari"
				],
				"lat1": 1955.000000,
				"nbSeg1": 1
			},
			"pathsExist": false,
			"runtime": 173120068,
			"nomLat1": 5409.000000,
			"nomLat2": 1854.000000,
			"maxNomLat": 5409.000000,
			"mincut": 4
		},
		{
			"s1": "25_Belgaum",
			"s2": "142_Patiala",
			"t1": "141_Ludhiana",
			"t2": "0_Varanasi",
			"suurballeNbPaths": 2,
			"suurballeTime": 1018205693,
			"suurballePaths": {
				"path0": [
					"142_Patiala",
					"141_Ludhiana"
				],
				"lat0": 142.000000,
				"nbSeg0": 0,
				"path1": [
					"25_Belgaum",
					"84_Kolhapur",
					"78_Satara",
					"77_Pune",
					"76_Ahmednagar",
					"97_Aurangabad",
					"98_Jalgaon",
					"67_Khandwa",
					"87_Dhar",
					"95_Indore",
					"71_Jabalpur",
					"15_Satna",
					"18_Rewa",
					"9_Allahabad",
					"7_Fatehpur",
					"6_Kanpur",
					"5_Lucknow",
					"8_Jaunpur",
					"0_Varanasi"
				],
				"lat1": 3857.000000,
				"nbSeg1": 2
			},
			"pathsExist": false,
			"runtime": 379716410,
			"nomLat1": 3584.000000,
			"nomLat2": 1893.000000,
			"maxNomLat": 3584.000000,
			"mincut": 4
		},
		{
			"s1": "131_Tirupur",
			"s2": "114_Tiruchendur",
			"t1": "83_Chandigarh",
			"t2": "73_Sagar",
			"suurballeNbPaths": 2,
			"suurballeTime": 692570589,
			"suurballePaths": {
				"path0": [
					"131_Tirupur",
					"132_Erode",
					"52_Bangalore",
					"20_Torangallu",
					"26_Raichur",
					"81_Hyderabad",
					"80_Chandrapur",
					"63_Wardha",
					"62_Nagpur",
					"61_Bhandara",
					"60_Raipur",
					"71_Jabalpur",
					"72_Damoh",
					"73_Sagar"
				],
				"lat0": 3374.000000,
				"nbSeg0": 1,
				"path1": [
					"114_Tiruchendur",
					"115_Kanyakumari",
					"116_Trivandrum",
					"109_Kollam",
					"110_Ernakulam",
					"112_Kottayem",
					"117_Allepey",
					"33_Thirussur",
					"38_Palghat",
					"39_Kozhikode",
					"36_Cannonore",
					"37_Mangalore",
					"22_Goa",
					"29_Panjim",
					"25_Belgaum",
					"84_Kolhapur",
					"78_Satara",
					"77_Pune",
					"76_Ahmednagar",
					"97_Aurangabad",
					"98_Jalgaon",
					"67_Khandwa",
					"87_Dhar",
					"95_Indore",
					"120_Rajgarh",
					"119_Gwalior",
					"122_Agra",
					"123_Mathura",
					"46_Delhi",
					"47_Sonipat",
					"107_Karnal",
					"86_Ambala",
					"83_Chandigarh"
				],
				"lat1": 5560.000000,
				"nbSeg1": 4
			},
			"pathsExist": false,
			"runtime": 324005497,
			"nomLat1": 6182.000000,
			"nomLat2": 4910.000000,
			"maxNomLat": 6182.000000,
			"mincut": 3
		},
		{
			"s1": "103_Bharuch",
			"s2": "111_Thiruvalla",
			"t1": "132_Erode",
			"t2": "0_Varanasi",
			"suurballeNbPaths": 2,
			"suurballeTime": 997173634,
			"suurballePaths": {
				"path0": [
					"111_Thiruvalla",
					"110_Ernakulam",
					"112_Kottayem",
					"117_Allepey",
					"32_Coimbatore",
					"131_Tirupur",
					"132_Erode"
				],
				"lat0": 736.000000,
				"nbSeg0": 2,
				"path1": [
					"103_Bharuch",
					"106_Baroda",
					"105_Godhra",
					"91_Ahmedabad",
					"1_Udaipur",
					"126_Bhilwara",
					"128_Jaipur",
					"46_Delhi",
					"124_Ghaziabad",
					"45_Meerut",
					"48_Moradabad",
					"49_Bareilly",
					"3_Sitapur",
					"2_Hadiagarh",
					"5_Lucknow",
					"8_Jaunpur",
					"0_Varanasi"
				],
				"lat1": 3198.000000,
				"nbSeg1": 4
			},
			"pathsExist": false,
			"runtime": 364975188,
			"nomLat1": 3013.000000,
			"nomLat2": 5715.000000,
			"maxNomLat": 5715.000000,
			"mincut": 4
		},
		{
			"s1": "103_Bharuch",
			"s2": "27_Gulbarga",
			"t1": "18_Rewa",
			"t2": "11_Bokaro",
			"suurballeNbPaths": 2,
			"suurballeTime": 880198373,
			"suurballePaths": {
				"path0": [
					"103_Bharuch",
					"106_Baroda",
					"105_Godhra",
					"91_Ahmedabad",
					"94_Ratlam",
					"88_Ujjain",
					"95_Indore",
					"71_Jabalpur",
					"15_Satna",
					"18_Rewa"
				],
				"lat0": 2168.000000,
				"nbSeg0": 1,
				"path1": [
					"27_Gulbarga",
					"81_Hyderabad",
					"80_Chandrapur",
					"63_Wardha",
					"62_Nagpur",
					"61_Bhandara",
					"60_Raipur",
					"34_Rourkela",
					"31_Jamshedpur",
					"11_Bokaro"
				],
				"lat1": 2590.000000,
				"nbSeg1": 1
			},
			"pathsExist": false,
			"runtime": 394503901,
			"nomLat1": 2220.000000,
			"nomLat2": 4058.000000,
			"maxNomLat": 4058.000000,
			"mincut": 4
		},
		{
			"s1": "65_Buldhana",
			"s2": "54_Hassan",
			"t1": "9_Allahabad",
			"t2": "108_Talwandi_Bahi",
			"suurballeNbPaths": 2,
			"suurballeTime": 1061861720,
			"suurballePaths": {
				"path0": [
					"65_Buldhana",
					"64_Amravati",
					"62_Nagpur",
					"61_Bhandara",
					"60_Raipur",
					"71_Jabalpur",
					"15_Satna",
					"18_Rewa",
					"9_Allahabad"
				],
				"lat0": 2026.000000,
				"nbSeg0": 2,
				"path1": [
					"54_Hassan",
					"23_Hubli",
					"25_Belgaum",
					"84_Kolhapur",
					"78_Satara",
					"77_Pune",
					"76_Ahmednagar",
					"97_Aurangabad",
					"98_Jalgaon",
					"67_Khandwa",
					"87_Dhar",
					"95_Indore",
					"120_Rajgarh",
					"119_Gwalior",
					"122_Agra",
					"123_Mathura",
					"46_Delhi",
					"47_Sonipat",
					"40_Rohtak",
					"142_Patiala",
					"141_Ludhiana",
					"108_Talwandi_Bahi"
				],
				"lat1": 4260.000000,
				"nbSeg1": 3
			},
			"pathsExist": false,
			"runtime": 261406621,
			"nomLat1": 2709.000000,
			"nomLat2": 4362.000000,
			"maxNomLat": 4362.000000,
			"mincut": 4
		},
		{
			"s1": "38_Palghat",
			"s2": "69_Dhenkanal",
			"t1": "140_Jalandhar",
			"t2": "2_Hadiagarh",
			"suurballeNbPaths": 2,
			"suurballeTime": 939509149,
			"suurballePaths": {
				"path0": [
					"69_Dhenkanal",
					"60_Raipur",
					"71_Jabalpur",
					"15_Satna",
					"18_Rewa",
					"9_Allahabad",
					"7_Fatehpur",
					"6_Kanpur",
					"5_Lucknow",
					"2_Hadiagarh"
				],
				"lat0": 2292.000000,
				"nbSeg0": 1,
				"path1": [
					"38_Palghat",
					"39_Kozhikode",
					"36_Cannonore",
					"37_Mangalore",
					"22_Goa",
					"29_Panjim",
					"25_Belgaum",
					"84_Kolhapur",
					"78_Satara",
					"77_Pune",
					"76_Ahmednagar",
					"97_Aurangabad",
					"98_Jalgaon",
					"67_Khandwa",
					"87_Dhar",
					"95_Indore",
					"120_Rajgarh",
					"119_Gwalior",
					"122_Agra",
					"123_Mathura",
					"46_Delhi",
					"47_Sonipat",
					"40_Rohtak",
					"142_Patiala",
					"141_Ludhiana",
					"140_Jalandhar"
				],
				"lat1": 4784.000000,
				"nbSeg1": 6
			},
			"pathsExist": false,
			"runtime": 418655512,
			"nomLat1": 5139.000000,
			"nomLat2": 2975.000000,
			"maxNomLat": 5139.000000,
			"mincut": 4
		},
		{
			"s1": "65_Buldhana",
			"s2": "88_Ujjain",
			"t1": "128_Jaipur",
			"t2": "142_Patiala",
			"suurballeNbPaths": 2,
			"suurballeTime": 1145624528,
			"suurballePaths": {
				"path0": [
					"88_Ujjain",
					"94_Ratlam",
					"126_Bhilwara",
					"128_Jaipur"
				],
				"lat0": 869.000000,
				"nbSeg0": 0,
				"path1": [
					"65_Buldhana",
					"98_Jalgaon",
					"67_Khandwa",
					"87_Dhar",
					"95_Indore",
					"120_Rajgarh",
					"119_Gwalior",
					"122_Agra",
					"123_Mathura",
					"46_Delhi",
					"47_Sonipat",
					"40_Rohtak",
					"142_Patiala"
				],
				"lat1": 2371.000000,
				"nbSeg1": 2
			},
			"pathsExist": false,
			"runtime": 327210635,
			"nomLat1": 1589.000000,
			"nomLat2": 1701.000000,
			"maxNomLat": 1701.000000,
			"mincut": 4
		},
		{
			"s1": "40_Rohtak",
			"s2": "38_Palghat",
			"t1": "53_Kolar",
			"t2": "82_Sangareddy",
			"suurballeNbPaths": 2,
			"suurballeTime": 830512044,
			"suurballePaths": {
				"path0": [
					"38_Palghat",
					"33_Thirussur",
					"117_Allepey",
					"32_Coimbatore",
					"131_Tirupur",
					"132_Erode",
					"52_Bangalore",
					"53_Kolar"
				],
				"lat0": 1180.000000,
				"nbSeg0": 1,
				"path1": [
					"40_Rohtak",
					"47_Sonipat",
					"46_Delhi",
					"123_Mathura",
					"122_Agra",
					"119_Gwalior",
					"120_Rajgarh",
					"95_Indore",
					"87_Dhar",
					"67_Khandwa",
					"98_Jalgaon",
					"97_Aurangabad",
					"75_Nanded",
					"82_Sangareddy"
				],
				"lat1": 2870.000000,
				"nbSeg1": 2
			},
			"pathsExist": false,
			"runtime": 256751088,
			"nomLat1": 5429.000000,
			"nomLat2": 2446.000000,
			"maxNomLat": 5429.000000,
			"mincut": 4
		},
		{
			"s1": "116_Trivandrum",
			"s2": "112_Kottayem",
			"t1": "29_Panjim",
			"t2": "17_Asansol",
			"suurballeNbPaths": 2,
			"suurballeTime": 762565018,
			"suurballePaths": {
				"path0": [
					"112_Kottayem",
					"117_Allepey",
					"33_Thirussur",
					"38_Palghat",
					"39_Kozhikode",
					"36_Cannonore",
					"37_Mangalore",
					"22_Goa",
					"29_Panjim"
				],
				"lat0": 1405.000000,
				"nbSeg0": 0,
				"path1": [
					"116_Trivandrum",
					"115_Kanyakumari",
					"113_Tirunelveli",
					"129_Sivakasi",
					"32_Coimbatore",
					"131_Tirupur",
					"132_Erode",
					"52_Bangalore",
					"20_Torangallu",
					"26_Raichur",
					"81_Hyderabad",
					"80_Chandrapur",
					"63_Wardha",
					"62_Nagpur",
					"61_Bhandara",
					"60_Raipur",
					"34_Rourkela",
					"31_Jamshedpur",
					"11_Bokaro",
					"17_Asansol"
				],
				"lat1": 4659.000000,
				"nbSeg1": 1
			},
			"pathsExist": false,
			"runtime": 183808606,
			"nomLat1": 2314.000000,
			"nomLat2": 4875.000000,
			"maxNomLat": 4875.000000,
			"mincut": 2
		},
		{
			"s1": "132_Erode",
			"s2": "122_Agra",
			"t1": "48_Moradabad",
			"t2": "62_Nagpur",
			"suurballeNbPaths": 2,
			"suurballeTime": 712195967,
			"suurballePaths": {
				"path0": [
					"122_Agra",
					"123_Mathura",
					"46_Delhi",
					"124_Ghaziabad",
					"45_Meerut",
					"48_Moradabad"
				],
				"lat0": 611.000000,
				"nbSeg0": 0,
				"path1": [
					"132_Erode",
					"52_Bangalore",
					"20_Torangallu",
					"26_Raichur",
					"81_Hyderabad",
					"80_Chandrapur",
					"63_Wardha",
					"62_Nagpur"
				],
				"lat1": 2092.000000,
				"nbSeg1": 0
			},
			"pathsExist": false,
			"runtime": 210205517,
			"nomLat1": 5974.000000,
			"nomLat2": 2575.000000,
			"maxNomLat": 5974.000000,
			"mincut": 4
		},
		{
			"s1": "33_Thirussur",
			"s2": "55_Mysore",
			"t1": "25_Belgaum",
			"t2": "137_Pathankot",
			"suurballeNbPaths": 2,
			"suurballeTime": 777379948,
			"suurballePaths": {
				"path0": [
					"33_Thirussur",
					"38_Palghat",
					"39_Kozhikode",
					"36_Cannonore",
					"37_Mangalore",
					"22_Goa",
					"29_Panjim",
					"25_Belgaum"
				],
				"lat0": 1306.000000,
				"nbSeg0": 1,
				"path1": [
					"55_Mysore",
					"52_Bangalore",
					"20_Torangallu",
					"26_Raichur",
					"81_Hyderabad",
					"82_Sangareddy",
					"75_Nanded",
					"97_Aurangabad",
					"98_Jalgaon",
					"67_Khandwa",
					"87_Dhar",
					"95_Indore",
					"120_Rajgarh",
					"119_Gwalior",
					"122_Agra",
					"123_Mathura",
					"46_Delhi",
					"47_Sonipat",
					"40_Rohtak",
					"142_Patiala",
					"141_Ludhiana",
					"140_Jalandhar",
					"138_Hoshiarpur",
					"137_Pathankot"
				],
				"lat1": 4872.000000,
				"nbSeg1": 5
			},
			"pathsExist": false,
			"runtime": 185537776,
			"nomLat1": 1559.000000,
			"nomLat2": 6476.000000,
			"maxNomLat": 6476.000000,
			"mincut": 4
		},
		{
			"s1": "75_Nanded",
			"s2": "103_Bharuch",
			"t1": "64_Amravati",
			"t2": "117_Allepey",
			"suurballeNbPaths": 2,
			"suurballeTime": 1298452756,
			"suurballePaths": {
				"path0": [
					"103_Bharuch",
					"104_Surat",
					"98_Jalgaon",
					"65_Buldhana",
					"64_Amravati"
				],
				"lat0": 1014.000000,
				"nbSeg0": 0,
				"path1": [
					"75_Nanded",
					"82_Sangareddy",
					"81_Hyderabad",
					"26_Raichur",
					"20_Torangallu",
					"52_Bangalore",
					"132_Erode",
					"131_Tirupur",
					"32_Coimbatore",
					"117_Allepey"
				],
				"lat1": 2156.000000,
				"nbSeg1": 0
			},
			"pathsExist": false,
			"runtime": 242945257,
			"nomLat1": 1027.000000,
			"nomLat2": 3487.000000,
			"maxNomLat": 3487.000000,
			"mincut": 4
		},
		{
			"s1": "25_Belgaum",
			"s2": "16_Dhanbad",
			"t1": "8_Jaunpur",
			"t2": "102_Mumbai",
			"suurballeNbPaths": 2,
			"suurballeTime": 869946042,
			"suurballePaths": {
				"path0": [
					"25_Belgaum",
					"84_Kolhapur",
					"78_Satara",
					"77_Pune",
					"102_Mumbai"
				],
				"lat0": 722.000000,
				"nbSeg0": 1,
				"path1": [
					"16_Dhanbad",
					"11_Bokaro",
					"12_Hazaribagh",
					"13_Gaya",
					"10_Patna",
					"0_Varanasi",
					"8_Jaunpur"
				],
				"lat1": 983.000000,
				"nbSeg1": 0
			},
			"pathsExist": false,
			"runtime": 342611189,
			"nomLat1": 4496.000000,
			"nomLat2": 3719.000000,
			"maxNomLat": 4496.000000,
			"mincut": 5
		},
		{
			"s1": "11_Bokaro",
			"s2": "62_Nagpur",
			"t1": "33_Thirussur",
			"t2": "120_Rajgarh",
			"suurballeNbPaths": 2,
			"suurballeTime": 812506346,
			"suurballePaths": {
				"path0": [
					"11_Bokaro",
					"31_Jamshedpur",
					"34_Rourkela",
					"60_Raipur",
					"71_Jabalpur",
					"72_Damoh",
					"73_Sagar",
					"120_Rajgarh"
				],
				"lat0": 2126.000000,
				"nbSeg0": 1,
				"path1": [
					"62_Nagpur",
					"63_Wardha",
					"80_Chandrapur",
					"81_Hyderabad",
					"26_Raichur",
					"20_Torangallu",
					"52_Bangalore",
					"132_Erode",
					"131_Tirupur",
					"32_Coimbatore",
					"117_Allepey",
					"33_Thirussur"
				],
				"lat1": 2763.000000,
				"nbSeg1": 0
			},
			"pathsExist": false,
			"runtime": 101910008,
			"nomLat1": 4849.000000,
			"nomLat2": 1907.000000,
			"maxNomLat": 4849.000000,
			"mincut": 5
		},
		{
			"s1": "69_Dhenkanal",
			"s2": "30_Ranchi",
			"t1": "68_Bhubaneshwar",
			"t2": "11_Bokaro",
			"suurballeNbPaths": 2,
			"suurballeTime": 1317428127,
			"suurballePaths": {
				"path0": [
					"69_Dhenkanal",
					"68_Bhubaneshwar"
				],
				"lat0": 94.000000,
				"nbSeg0": 0,
				"path1": [
					"30_Ranchi",
					"12_Hazaribagh",
					"11_Bokaro"
				],
				"lat1": 237.000000,
				"nbSeg1": 0
			},
			"pathsExist": false,
			"runtime": 230181033,
			"nomLat1": 94.000000,
			"nomLat2": 237.000000,
			"maxNomLat": 237.000000,
			"mincut": 4
		},
		{
			"s1": "81_Hyderabad",
			"s2": "142_Patiala",
			"t1": "82_Sangareddy",
			"t2": "60_Raipur",
			"suurballeNbPaths": 2,
			"suurballeTime": 918642797,
			"suurballePaths": {
				"path0": [
					"81_Hyderabad",
					"82_Sangareddy"
				],
				"lat0": 87.000000,
				"nbSeg0": 0,
				"path1": [
					"142_Patiala",
					"40_Rohtak",
					"47_Sonipat",
					"46_Delhi",
					"123_Mathura",
					"122_Agra",
					"119_Gwalior",
					"19_Jhansi",
					"15_Satna",
					"71_Jabalpur",
					"60_Raipur"
				],
				"lat1": 2273.000000,
				"nbSeg1": 2
			},
			"pathsExist": false,
			"runtime": 298199890,
			"nomLat1": 87.000000,
			"nomLat2": 2967.000000,
			"maxNomLat": 2967.000000,
			"mincut": 6
		},
		{
			"s1": "47_Sonipat",
			"s2": "87_Dhar",
			"t1": "10_Patna",
			"t2": "141_Ludhiana",
			"suurballeNbPaths": 2,
			"suurballeTime": 1255325723,
			"suurballePaths": {
				"path0": [
					"47_Sonipat",
					"40_Rohtak",
					"142_Patiala",
					"141_Ludhiana"
				],
				"lat0": 491.000000,
				"nbSeg0": 0,
				"path1": [
					"87_Dhar",
					"95_Indore",
					"71_Jabalpur",
					"15_Satna",
					"18_Rewa",
					"9_Allahabad",
					"7_Fatehpur",
					"6_Kanpur",
					"5_Lucknow",
					"8_Jaunpur",
					"0_Varanasi",
					"10_Patna"
				],
				"lat1": 2669.000000,
				"nbSeg1": 1
			},
			"pathsExist": false,
			"runtime": 307991489,
			"nomLat1": 1898.000000,
			"nomLat2": 1982.000000,
			"maxNomLat": 1982.000000,
			"mincut": 4
		},
		{
			"s1": "7_Fatehpur",
			"s2": "124_Ghaziabad",
			"t1": "39_Kozhikode",
			"t2": "79_Visakhapatnam",
			"suurballeNbPaths": 2,
			"suurballeTime": 1320541450,
			"suurballePaths": {
				"path0": [
					"7_Fatehpur",
					"9_Allahabad",
					"18_Rewa",
					"15_Satna",
					"71_Jabalpur",
					"60_Raipur",
					"69_Dhenkanal",
					"79_Visakhapatnam"
				],
				"lat0": 2636.000000,
				"nbSeg0": 1,
				"path1": [
					"124_Ghaziabad",
					"46_Delhi",
					"123_Mathura",
					"122_Agra",
					"119_Gwalior",
					"120_Rajgarh",
					"95_Indore",
					"87_Dhar",
					"67_Khandwa",
					"98_Jalgaon",
					"97_Aurangabad",
					"76_Ahmednagar",
					"77_Pune",
					"78_Satara",
					"84_Kolhapur",
					"25_Belgaum",
					"29_Panjim",
					"22_Goa",
					"37_Mangalore",
					"36_Cannonore",
					"39_Kozhikode"
				],
				"lat1": 3974.000000,
				"nbSeg1": 3
			},
			"pathsExist": false,
			"runtime": 243434461,
			"nomLat1": 5939.000000,
			"nomLat2": 3955.000000,
			"maxNomLat": 5939.000000,
			"mincut": 3
		},
		{
			"s1": "5_Lucknow",
			"s2": "71_Jabalpur",
			"t1": "88_Ujjain",
			"t2": "100_Dhulia",
			"suurballeNbPaths": 2,
			"suurballeTime": 904585351,
			"suurballePaths": {
				"path0": [
					"71_Jabalpur",
					"95_Indore",
					"88_Ujjain"
				],
				"lat0": 802.000000,
				"nbSeg0": 0,
				"path1": [
					"5_Lucknow",
					"6_Kanpur",
					"7_Fatehpur",
					"9_Allahabad",
					"18_Rewa",
					"15_Satna",
					"71_Jabalpur",
					"72_Damoh",
					"73_Sagar",
					"96_Vidisha",
					"95_Indore",
					"87_Dhar",
					"67_Khandwa",
					"98_Jalgaon",
					"100_Dhulia"
				],
				"lat1": 2540.000000,
				"nbSeg1": 3
			},
			"pathsExist": false,
			"runtime": 294872782,
			"nomLat1": 2524.000000,
			"nomLat2": 1388.000000,
			"maxNomLat": 2524.000000,
			"mincut": 6
		},
		{
			"s1": "108_Talwandi_Bahi",
			"s2": "1_Udaipur",
			"t1": "77_Pune",
			"t2": "60_Raipur",
			"suurballeNbPaths": 2,
			"suurballeTime": 1124824450,
			"suurballePaths": {
				"path0": [
					"1_Udaipur",
					"91_Ahmedabad",
					"105_Godhra",
					"106_Baroda",
					"103_Bharuch",
					"104_Surat",
					"101_Valsad",
					"102_Mumbai",
					"77_Pune"
				],
				"lat0": 1487.000000,
				"nbSeg0": 0,
				"path1": [
					"108_Talwandi_Bahi",
					"141_Ludhiana",
					"142_Patiala",
					"40_Rohtak",
					"47_Sonipat",
					"46_Delhi",
					"123_Mathura",
					"122_Agra",
					"119_Gwalior",
					"19_Jhansi",
					"15_Satna",
					"71_Jabalpur",
					"60_Raipur"
				],
				"lat1": 2565.000000,
				"nbSeg1": 2
			},
			"pathsExist": false,
			"runtime": 264376108,
			"nomLat1": 3163.000000,
			"nomLat2": 2160.000000,
			"maxNomLat": 3163.000000,
			"mincut": 4
		},
		{
			"s1": "30_Ranchi",
			"s2": "69_Dhenkanal",
			"t1": "34_Rourkela",
			"t2": "65_Buldhana",
			"suurballeNbPaths": 2,
			"suurballeTime": 1207348292,
			"suurballePaths": {
				"path0": [
					"30_Ranchi",
					"12_Hazaribagh",
					"11_Bokaro",
					"31_Jamshedpur",
					"34_Rourkela"
				],
				"lat0": 680.000000,
				"nbSeg0": 0,
				"path1": [
					"69_Dhenkanal",
					"60_Raipur",
					"61_Bhandara",
					"62_Nagpur",
					"64_Amravati",
					"65_Buldhana"
				],
				"lat1": 1672.000000,
				"nbSeg1": 0
			},
			"pathsExist": false,
			"runtime": 385132471,
			"nomLat1": 680.000000,
			"nomLat2": 1672.000000,
			"maxNomLat": 1672.000000,
			"mincut": 3
		},
		{
			"s1": "73_Sagar",
			"s2": "79_Visakhapatnam",
			"t1": "77_Pune",
			"t2": "17_Asansol",
			"suurballeNbPaths": 2,
			"suurballeTime": 1329263975,
			"suurballePaths": {
				"path0": [
					"73_Sagar",
					"96_Vidisha",
					"95_Indore",
					"87_Dhar",
					"67_Khandwa",
					"98_Jalgaon",
					"97_Aurangabad",
					"76_Ahmednagar",
					"77_Pune"
				],
				"lat0": 1670.000000,
				"nbSeg0": 1,
				"path1": [
					"79_Visakhapatnam",
					"69_Dhenkanal",
					"68_Bhubaneshwar",
					"35_Kharagpur",
					"14_Kolkata",
					"30_Ranchi",
					"12_Hazaribagh",
					"11_Bokaro",
					"17_Asansol"
				],
				"lat1": 2395.000000,
				"nbSeg1": 1
			},
			"pathsExist": false,
			"runtime": 207556030,
			"nomLat1": 1758.000000,
			"nomLat2": 2596.000000,
			"maxNomLat": 2596.000000,
			"mincut": 5
		},
		{
			"s1": "33_Thirussur",
			"s2": "129_Sivakasi",
			"t1": "144_Madural",
			"t2": "111_Thiruvalla",
			"suurballeNbPaths": 2,
			"suurballeTime": 1319342866,
			"suurballePaths": {
				"path0": [
					"129_Sivakasi",
					"144_Madural"
				],
				"lat0": 109.000000,
				"nbSeg0": 0,
				"path1": [
					"33_Thirussur",
					"117_Allepey",
					"112_Kottayem",
					"110_Ernakulam",
					"111_Thiruvalla"
				],
				"lat1": 459.000000,
				"nbSeg1": 2
			},
			"pathsExist": false,
			"runtime": 263731562,
			"nomLat1": 946.000000,
			"nomLat2": 902.000000,
			"maxNomLat": 946.000000,
			"mincut": 3
		},
		{
			"s1": "0_Varanasi",
			"s2": "120_Rajgarh",
			"t1": "71_Jabalpur",
			"t2": "138_Hoshiarpur",
			"suurballeNbPaths": 2,
			"suurballeTime": 578651108,
			"suurballePaths": {
				"path0": [
					"120_Rajgarh",
					"73_Sagar",
					"72_Damoh",
					"71_Jabalpur"
				],
				"lat0": 627.000000,
				"nbSeg0": 1,
				"path1": [
					"0_Varanasi",
					"8_Jaunpur",
					"5_Lucknow",
					"2_Hadiagarh",
					"3_Sitapur",
					"49_Bareilly",
					"48_Moradabad",
					"45_Meerut",
					"124_Ghaziabad",
					"46_Delhi",
					"47_Sonipat",
					"40_Rohtak",
					"142_Patiala",
					"141_Ludhiana",
					"140_Jalandhar",
					"138_Hoshiarpur"
				],
				"lat1": 2191.000000,
				"nbSeg1": 3
			},
			"pathsExist": false,
			"runtime": 243070979,
			"nomLat1": 2300.000000,
			"nomLat2": 1737.000000,
			"maxNomLat": 2300.000000,
			"mincut": 6
		},
		{
			"s1": "23_Hubli",
			"s2": "114_Tiruchendur",
			"t1": "0_Varanasi",
			"t2": "89_Gandhinagar",
			"suurballeNbPaths": 2,
			"suurballeTime": 723755391,
			"suurballePaths": {
				"path0": [
					"23_Hubli",
					"25_Belgaum",
					"84_Kolhapur",
					"78_Satara",
					"77_Pune",
					"102_Mumbai",
					"101_Valsad",
					"104_Surat",
					"103_Bharuch",
					"106_Baroda",
					"105_Godhra",
					"91_Ahmedabad",
					"90_Himmatnagar",
					"89_Gandhinagar"
				],
				"lat0": 2033.000000,
				"nbSeg0": 2,
				"path1": [
					"114_Tiruchendur",
					"113_Tirunelveli",
					"129_Sivakasi",
					"32_Coimbatore",
					"131_Tirupur",
					"132_Erode",
					"52_Bangalore",
					"20_Torangallu",
					"26_Raichur",
					"81_Hyderabad",
					"80_Chandrapur",
					"63_Wardha",
					"62_Nagpur",
					"61_Bhandara",
					"60_Raipur",
					"34_Rourkela",
					"31_Jamshedpur",
					"11_Bokaro",
					"12_Hazaribagh",
					"13_Gaya",
					"10_Patna",
					"0_Varanasi"
				],
				"lat1": 5104.000000,
				"nbSeg1": 1
			},
			"pathsExist": false,
			"runtime": 474438907,
			"nomLat1": 5619.000000,
			"nomLat2": 6218.000000,
			"maxNomLat": 6218.000000,
			"mincut": 4
		},
		{
			"s1": "114_Tiruchendur",
			"s2": "77_Pune",
			"t1": "14_Kolkata",
			"t2": "32_Coimbatore",
			"suurballeNbPaths": 2,
			"suurballeTime": 1165797439,
			"suurballePaths": {
				"path0": [
					"114_Tiruchendur",
					"113_Tirunelveli",
					"129_Sivakasi",
					"32_Coimbatore"
				],
				"lat0": 564.000000,
				"nbSeg0": 0,
				"path1": [
					"77_Pune",
					"76_Ahmednagar",
					"97_Aurangabad",
					"98_Jalgaon",
					"65_Buldhana",
					"64_Amravati",
					"62_Nagpur",
					"61_Bhandara",
					"60_Raipur",
					"69_Dhenkanal",
					"68_Bhubaneshwar",
					"35_Kharagpur",
					"14_Kolkata"
				],
				"lat1": 3163.000000,
				"nbSeg1": 1
			},
			"pathsExist": false,
			"runtime": 263593886,
			"nomLat1": 4218.000000,
			"nomLat2": 2380.000000,
			"maxNomLat": 4218.000000,
			"mincut": 5
		},
		{
			"s1": "103_Bharuch",
			"s2": "11_Bokaro",
			"t1": "114_Tiruchendur",
			"t2": "83_Chandigarh",
			"suurballeNbPaths": 2,
			"suurballeTime": 1246199061,
			"suurballePaths": {
				"path0": [
					"103_Bharuch",
					"104_Surat",
					"101_Valsad",
					"102_Mumbai",
					"77_Pune",
					"78_Satara",
					"84_Kolhapur",
					"25_Belgaum",
					"21_Bellary",
					"20_Torangallu",
					"52_Bangalore",
					"132_Erode",
					"131_Tirupur",
					"32_Coimbatore",
					"129_Sivakasi",
					"113_Tirunelveli",
					"114_Tiruchendur"
				],
				"lat0": 3231.000000,
				"nbSeg0": 1,
				"path1": [
					"11_Bokaro",
					"12_Hazaribagh",
					"13_Gaya",
					"10_Patna",
					"0_Varanasi",
					"8_Jaunpur",
					"5_Lucknow",
					"2_Hadiagarh",
					"3_Sitapur",
					"49_Bareilly",
					"48_Moradabad",
					"45_Meerut",
					"124_Ghaziabad",
					"46_Delhi",
					"47_Sonipat",
					"107_Karnal",
					"86_Ambala",
					"83_Chandigarh"
				],
				"lat1": 2678.000000,
				"nbSeg1": 1
			},
			"pathsExist": false,
			"runtime": 321571773,
			"nomLat1": 3742.000000,
			"nomLat2": 3986.000000,
			"maxNomLat": 3986.000000,
			"mincut": 4
		},
		{
			"s1": "102_Mumbai",
			"s2": "113_Tirunelveli",
			"t1": "7_Fatehpur",
			"t2": "10_Patna",
			"suurballeNbPaths": 2,
			"suurballeTime": 970519071,
			"suurballePaths": {
				"path0": [
					"102_Mumbai",
					"99_Nasik",
					"100_Dhulia",
					"98_Jalgaon",
					"67_Khandwa",
					"87_Dhar",
					"95_Indore",
					"71_Jabalpur",
					"15_Satna",
					"18_Rewa",
					"9_Allahabad",
					"7_Fatehpur"
				],
				"lat0": 2671.000000,
				"nbSeg0": 2,
				"path1": [
					"113_Tirunelveli",
					"129_Sivakasi",
					"32_Coimbatore",
					"131_Tirupur",
					"132_Erode",
					"52_Bangalore",
					"20_Torangallu",
					"26_Raichur",
					"81_Hyderabad",
					"80_Chandrapur",
					"63_Wardha",
					"62_Nagpur",
					"61_Bhandara",
					"60_Raipur",
					"34_Rourkela",
					"31_Jamshedpur",
					"11_Bokaro",
					"12_Hazaribagh",
					"13_Gaya",
					"10_Patna"
				],
				"lat1": 4648.000000,
				"nbSeg1": 1
			},
			"pathsExist": false,
			"runtime": 383619678,
			"nomLat1": 3606.000000,
			"nomLat2": 5543.000000,
			"maxNomLat": 5543.000000,
			"mincut": 3
		},
		{
			"s1": "122_Agra",
			"s2": "15_Satna",
			"t1": "43_Kot_kapura",
			"t2": "83_Chandigarh",
			"suurballeNbPaths": 2,
			"suurballeTime": 1333297955,
			"suurballePaths": {
				"path0": [
					"122_Agra",
					"123_Mathura",
					"46_Delhi",
					"47_Sonipat",
					"107_Karnal",
					"86_Ambala",
					"83_Chandigarh"
				],
				"lat0": 731.000000,
				"nbSeg0": 0,
				"path1": [
					"15_Satna",
					"18_Rewa",
					"9_Allahabad",
					"7_Fatehpur",
					"6_Kanpur",
					"5_Lucknow",
					"2_Hadiagarh",
					"3_Sitapur",
					"49_Bareilly",
					"48_Moradabad",
					"45_Meerut",
					"124_Ghaziabad",
					"46_Delhi",
					"41_Gurgaon",
					"40_Rohtak",
					"142_Patiala",
					"141_Ludhiana",
					"108_Talwandi_Bahi",
					"43_Kot_kapura"
				],
				"lat1": 2513.000000,
				"nbSeg1": 3
			},
			"pathsExist": false,
			"runtime": 247835225,
			"nomLat1": 1093.000000,
			"nomLat2": 1495.000000,
			"maxNomLat": 1495.000000,
			"mincut": 2
		},
		{
			"s1": "16_Dhanbad",
			"s2": "129_Sivakasi",
			"t1": "70_None",
			"t2": "48_Moradabad",
			"suurballeNbPaths": 2,
			"suurballeTime": 682572513,
			"suurballePaths": {
				"path0": [
					"129_Sivakasi",
					"32_Coimbatore",
					"131_Tirupur",
					"132_Erode",
					"52_Bangalore",
					"70_None"
				],
				"lat0": 1028.000000,
				"nbSeg0": 2,
				"path1": [
					"16_Dhanbad",
					"11_Bokaro",
					"12_Hazaribagh",
					"13_Gaya",
					"10_Patna",
					"0_Varanasi",
					"8_Jaunpur",
					"5_Lucknow",
					"2_Hadiagarh",
					"3_Sitapur",
					"49_Bareilly",
					"48_Moradabad"
				],
				"lat1": 2048.000000,
				"nbSeg1": 0
			},
			"pathsExist": false,
			"runtime": 324578656,
			"nomLat1": 4182.000000,
			"nomLat2": 6761.000000,
			"maxNomLat": 6761.000000,
			"mincut": 5
		},
		{
			"s1": "93_Bhopal",
			"s2": "118_None",
			"t1": "21_Bellary",
			"t2": "9_Allahabad",
			"suurballeNbPaths": 2,
			"suurballeTime": 973485895,
			"suurballePaths": {
				"path0": [
					"93_Bhopal",
					"120_Rajgarh",
					"119_Gwalior",
					"19_Jhansi",
					"9_Allahabad"
				],
				"lat0": 1384.000000,
				"nbSeg0": 0,
				"path1": [
					"118_None",
					"70_None",
					"52_Bangalore",
					"20_Torangallu",
					"21_Bellary"
				],
				"lat1": 948.000000,
				"nbSeg1": 2
			},
			"pathsExist": false,
			"runtime": 375901719,
			"nomLat1": 2483.000000,
			"nomLat2": 5021.000000,
			"maxNomLat": 5021.000000,
			"mincut": 5
		},
		{
			"s1": "48_Moradabad",
			"s2": "110_Ernakulam",
			"t1": "89_Gandhinagar",
			"t2": "45_Meerut",
			"suurballeNbPaths": 2,
			"suurballeTime": 724069083,
			"suurballePaths": {
				"path0": [
					"48_Moradabad",
					"45_Meerut"
				],
				"lat0": 182.000000,
				"nbSeg0": 0,
				"path1": [
					"110_Ernakulam",
					"112_Kottayem",
					"117_Allepey",
					"33_Thirussur",
					"38_Palghat",
					"39_Kozhikode",
					"36_Cannonore",
					"37_Mangalore",
					"22_Goa",
					"29_Panjim",
					"25_Belgaum",
					"84_Kolhapur",
					"78_Satara",
					"77_Pune",
					"102_Mumbai",
					"101_Valsad",
					"104_Surat",
					"103_Bharuch",
					"106_Baroda",
					"105_Godhra",
					"91_Ahmedabad",
					"90_Himmatnagar",
					"89_Gandhinagar"
				],
				"lat1": 3514.000000,
				"nbSeg1": 3
			},
			"pathsExist": false,
			"runtime": 359385007,
			"nomLat1": 2102.000000,
			"nomLat2": 6401.000000,
			"maxNomLat": 6401.000000,
			"mincut": 4
		},
		{
			"s1": "62_Nagpur",
			"s2": "10_Patna",
			"t1": "38_Palghat",
			"t2": "52_Bangalore",
			"suurballeNbPaths": 2,
			"suurballeTime": 1071362850,
			"suurballePaths": {
				"path0": [
					"62_Nagpur",
					"63_Wardha",
					"80_Chandrapur",
					"81_Hyderabad",
					"26_Raichur",
					"20_Torangallu",
					"52_Bangalore"
				],
				"lat0": 1785.000000,
				"nbSeg0": 0,
				"path1": [
					"10_Patna",
					"13_Gaya",
					"12_Hazaribagh",
					"11_Bokaro",
					"31_Jamshedpur",
					"34_Rourkela",
					"60_Raipur",
					"61_Bhandara",
					"62_Nagpur",
					"64_Amravati",
					"65_Buldhana",
					"98_Jalgaon",
					"97_Aurangabad",
					"76_Ahmednagar",
					"77_Pune",
					"78_Satara",
					"84_Kolhapur",
					"25_Belgaum",
					"29_Panjim",
					"22_Goa",
					"37_Mangalore",
					"36_Cannonore",
					"39_Kozhikode",
					"38_Palghat"
				],
				"lat1": 4913.000000,
				"nbSeg1": 3
			},
			"pathsExist": false,
			"runtime": 304657507,
			"nomLat1": 3172.000000,
			"nomLat2": 4310.000000,
			"maxNomLat": 4310.000000,
			"mincut": 5
		},
		{
			"s1": "38_Palghat",
			"s2": "37_Mangalore",
			"t1": "24_Solapur",
			"t2": "83_Chandigarh",
			"suurballeNbPaths": 2,
			"suurballeTime": 1103278393,
			"suurballePaths": {
				"path0": [
					"37_Mangalore",
					"22_Goa",
					"29_Panjim",
					"25_Belgaum",
					"24_Solapur"
				],
				"lat0": 1096.000000,
				"nbSeg0": 1,
				"path1": [
					"38_Palghat",
					"39_Kozhikode",
					"36_Cannonore",
					"37_Mangalore",
					"118_None",
					"54_Hassan",
					"23_Hubli",
					"25_Belgaum",
					"84_Kolhapur",
					"78_Satara",
					"77_Pune",
					"76_Ahmednagar",
					"97_Aurangabad",
					"98_Jalgaon",
					"67_Khandwa",
					"87_Dhar",
					"95_Indore",
					"120_Rajgarh",
					"119_Gwalior",
					"122_Agra",
					"123_Mathura",
					"46_Delhi",
					"47_Sonipat",
					"107_Karnal",
					"86_Ambala",
					"83_Chandigarh"
				],
				"lat1": 4946.000000,
				"nbSeg1": 3
			},
			"pathsExist": false,
			"runtime": 320678577,
			"nomLat1": 1885.000000,
			"nomLat2": 4351.000000,
			"maxNomLat": 4351.000000,
			"mincut": 4
		},
		{
			"s1": "135_Chidambaram",
			"s2": "1_Udaipur",
			"t1": "142_Patiala",
			"t2": "138_Hoshiarpur",
			"suurballeNbPaths": 2,
			"suurballeTime": 879537492,
			"suurballePaths": {
				"path0": [
					"1_Udaipur",
					"126_Bhilwara",
					"128_Jaipur",
					"46_Delhi",
					"41_Gurgaon",
					"40_Rohtak",
					"142_Patiala"
				],
				"lat0": 1405.000000,
				"nbSeg0": 5,
				"path1": [
					"135_Chidambaram",
					"136_Pondicherry",
					"51_Kanchipuram",
					"58_Tirupati",
					"59_Nellore",
					"56_Ongole",
					"57_Vijayavada",
					"81_Hyderabad",
					"82_Sangareddy",
					"75_Nanded",
					"97_Aurangabad",
					"98_Jalgaon",
					"67_Khandwa",
					"87_Dhar",
					"95_Indore",
					"120_Rajgarh",
					"119_Gwalior",
					"122_Agra",
					"123_Mathura",
					"46_Delhi",
					"47_Sonipat",
					"107_Karnal",
					"86_Ambala",
					"83_Chandigarh",
					"141_Ludhiana",
					"140_Jalandhar",
					"138_Hoshiarpur"
				],
				"lat1": 5001.000000,
				"nbSeg1": 11
			},
			"pathsExist": false,
			"runtime": 335977468,
			"nomLat1": 5887.000000,
			"nomLat2": 1711.000000,
			"maxNomLat": 5887.000000,
			"mincut": 2
		},
		{
			"s1": "124_Ghaziabad",
			"s2": "35_Kharagpur",
			"t1": "86_Ambala",
			"t2": "7_Fatehpur",
			"suurballeNbPaths": 2,
			"suurballeTime": 1345100891,
			"suurballePaths": {
				"path0": [
					"124_Ghaziabad",
					"46_Delhi",
					"47_Sonipat",
					"107_Karnal",
					"86_Ambala"
				],
				"lat0": 387.000000,
				"nbSeg0": 0,
				"path1": [
					"35_Kharagpur",
					"14_Kolkata",
					"30_Ranchi",
					"12_Hazaribagh",
					"13_Gaya",
					"10_Patna",
					"0_Varanasi",
					"8_Jaunpur",
					"5_Lucknow",
					"6_Kanpur",
					"7_Fatehpur"
				],
				"lat1": 2246.000000,
				"nbSeg1": 1
			},
			"pathsExist": false,
			"runtime": 263638167,
			"nomLat1": 387.000000,
			"nomLat2": 3200.000000,
			"maxNomLat": 3200.000000,
			"mincut": 4
		},
		{
			"s1": "7_Fatehpur",
			"s2": "113_Tirunelveli",
			"t1": "5_Lucknow",
			"t2": "69_Dhenkanal",
			"suurballeNbPaths": 2,
			"suurballeTime": 1135033947,
			"suurballePaths": {
				"path0": [
					"7_Fatehpur",
					"6_Kanpur",
					"5_Lucknow"
				],
				"lat0": 250.000000,
				"nbSeg0": 0,
				"path1": [
					"113_Tirunelveli",
					"129_Sivakasi",
					"32_Coimbatore",
					"131_Tirupur",
					"132_Erode",
					"52_Bangalore",
					"53_Kolar",
					"58_Tirupati",
					"59_Nellore",
					"56_Ongole",
					"79_Visakhapatnam",
					"69_Dhenkanal"
				],
				"lat1": 3080.000000,
				"nbSeg1": 5
			},
			"pathsExist": false,
			"runtime": 336109333,
			"nomLat1": 250.000000,
			"nomLat2": 3371.000000,
			"maxNomLat": 3371.000000,
			"mincut": 5
		},
		{
			"s1": "112_Kottayem",
			"s2": "26_Raichur",
			"t1": "82_Sangareddy",
			"t2": "30_Ranchi",
			"suurballeNbPaths": 2,
			"suurballeTime": 838445527,
			"suurballePaths": {
				"path0": [
					"26_Raichur",
					"81_Hyderabad",
					"82_Sangareddy"
				],
				"lat0": 385.000000,
				"nbSeg0": 0,
				"path1": [
					"112_Kottayem",
					"117_Allepey",
					"32_Coimbatore",
					"131_Tirupur",
					"132_Erode",
					"52_Bangalore",
					"53_Kolar",
					"58_Tirupati",
					"59_Nellore",
					"56_Ongole",
					"79_Visakhapatnam",
					"69_Dhenkanal",
					"68_Bhubaneshwar",
					"35_Kharagpur",
					"14_Kolkata",
					"30_Ranchi"
				],
				"lat1": 4259.000000,
				"nbSeg1": 4
			},
			"pathsExist": false,
			"runtime": 236055953,
			"nomLat1": 1885.000000,
			"nomLat2": 3623.000000,
			"maxNomLat": 3623.000000,
			"mincut": 4
		},
		{
			"s1": "118_None",
			"s2": "114_Tiruchendur",
			"t1": "39_Kozhikode",
			"t2": "87_Dhar",
			"suurballeNbPaths": 2,
			"suurballeTime": 1346854358,
			"suurballePaths": {
				"path0": [
					"114_Tiruchendur",
					"115_Kanyakumari",
					"116_Trivandrum",
					"109_Kollam",
					"110_Ernakulam",
					"112_Kottayem",
					"117_Allepey",
					"33_Thirussur",
					"38_Palghat",
					"39_Kozhikode"
				],
				"lat0": 1207.000000,
				"nbSeg0": 1,
				"path1": [
					"118_None",
					"54_Hassan",
					"23_Hubli",
					"25_Belgaum",
					"84_Kolhapur",
					"78_Satara",
					"77_Pune",
					"76_Ahmednagar",
					"97_Aurangabad",
					"98_Jalgaon",
					"67_Khandwa",
					"87_Dhar"
				],
				"lat1": 2403.000000,
				"nbSeg1": 1
			},
			"pathsExist": false,
			"runtime": 243579665,
			"nomLat1": 574.000000,
			"nomLat2": 3595.000000,
			"maxNomLat": 3595.000000,
			"mincut": 5
		},
		{
			"s1": "118_None",
			"s2": "111_Thiruvalla",
			"t1": "43_Kot_kapura",
			"t2": "96_Vidisha",
			"suurballeNbPaths": 2,
			"suurballeTime": 1248365047,
			"suurballePaths": {
				"path0": [
					"118_None",
					"54_Hassan",
					"23_Hubli",
					"25_Belgaum",
					"24_Solapur",
					"76_Ahmednagar",
					"97_Aurangabad",
					"98_Jalgaon",
					"67_Khandwa",
					"87_Dhar",
					"95_Indore",
					"96_Vidisha"
				],
				"lat0": 2927.000000,
				"nbSeg0": 0,
				"path1": [
					"111_Thiruvalla",
					"110_Ernakulam",
					"112_Kottayem",
					"117_Allepey",
					"33_Thirussur",
					"38_Palghat",
					"39_Kozhikode",
					"36_Cannonore",
					"37_Mangalore",
					"22_Goa",
					"29_Panjim",
					"25_Belgaum",
					"84_Kolhapur",
					"78_Satara",
					"77_Pune",
					"102_Mumbai",
					"101_Valsad",
					"104_Surat",
					"103_Bharuch",
					"106_Baroda",
					"105_Godhra",
					"91_Ahmedabad",
					"1_Udaipur",
					"126_Bhilwara",
					"128_Jaipur",
					"46_Delhi",
					"47_Sonipat",
					"40_Rohtak",
					"142_Patiala",
					"141_Ludhiana",
					"108_Talwandi_Bahi",
					"43_Kot_kapura"
				],
				"lat1": 5514.000000,
				"nbSeg1": 8
			},
			"pathsExist": false,
			"runtime": 330528443,
			"nomLat1": 4641.000000,
			"nomLat2": 5428.000000,
			"maxNomLat": 5428.000000,
			"mincut": 4
		},
		{
			"s1": "34_Rourkela",
			"s2": "21_Bellary",
			"t1": "135_Chidambaram",
			"t2": "123_Mathura",
			"suurballeNbPaths": 2,
			"suurballeTime": 1248498655,
			"suurballePaths": {
				"path0": [
					"21_Bellary",
					"20_Torangallu",
					"52_Bangalore",
					"133_Salem",
					"136_Pondicherry",
					"135_Chidambaram"
				],
				"lat0": 1183.000000,
				"nbSeg0": 0,
				"path1": [
					"34_Rourkela",
					"60_Raipur",
					"71_Jabalpur",
					"15_Satna",
					"19_Jhansi",
					"119_Gwalior",
					"122_Agra",
					"123_Mathura"
				],
				"lat1": 2211.000000,
				"nbSeg1": 1
			},
			"pathsExist": false,
			"runtime": 313549628,
			"nomLat1": 3512.000000,
			"nomLat2": 3197.000000,
			"maxNomLat": 3512.000000,
			"mincut": 4
		},
		{
			"s1": "123_Mathura",
			"s2": "64_Amravati",
			"t1": "82_Sangareddy",
			"t2": "3_Sitapur",
			"suurballeNbPaths": 2,
			"suurballeTime": 1359970205,
			"suurballePaths": {
				"path0": [
					"64_Amravati",
					"62_Nagpur",
					"63_Wardha",
					"80_Chandrapur",
					"81_Hyderabad",
					"82_Sangareddy"
				],
				"lat0": 1141.000000,
				"nbSeg0": 1,
				"path1": [
					"123_Mathura",
					"46_Delhi",
					"124_Ghaziabad",
					"45_Meerut",
					"48_Moradabad",
					"49_Bareilly",
					"3_Sitapur"
				],
				"lat1": 924.000000,
				"nbSeg1": 0
			},
			"pathsExist": false,
			"runtime": 244806023,
			"nomLat1": 2486.000000,
			"nomLat2": 3178.000000,
			"maxNomLat": 3178.000000,
			"mincut": 4
		},
		{
			"s1": "17_Asansol",
			"s2": "13_Gaya",
			"t1": "110_Ernakulam",
			"t2": "51_Kanchipuram",
			"suurballeNbPaths": 2,
			"suurballeTime": 1366279064,
			"suurballePaths": {
				"path0": [
					"13_Gaya",
					"12_Hazaribagh",
					"30_Ranchi",
					"14_Kolkata",
					"35_Kharagpur",
					"68_Bhubaneshwar",
					"69_Dhenkanal",
					"79_Visakhapatnam",
					"56_Ongole",
					"59_Nellore",
					"58_Tirupati",
					"51_Kanchipuram"
				],
				"lat0": 3512.000000,
				"nbSeg0": 5,
				"path1": [
					"17_Asansol",
					"11_Bokaro",
					"31_Jamshedpur",
					"34_Rourkela",
					"60_Raipur",
					"61_Bhandara",
					"62_Nagpur",
					"63_Wardha",
					"80_Chandrapur",
					"81_Hyderabad",
					"26_Raichur",
					"20_Torangallu",
					"52_Bangalore",
					"132_Erode",
					"131_Tirupur",
					"32_Coimbatore",
					"117_Allepey",
					"112_Kottayem",
					"110_Ernakulam"
				],
				"lat1": 4361.000000,
				"nbSeg1": 1
			},
			"pathsExist": false,
			"runtime": 207607494,
			"nomLat1": 4965.000000,
			"nomLat2": 3943.000000,
			"maxNomLat": 4965.000000,
			"mincut": 3
		},
		{
			"s1": "71_Jabalpur",
			"s2": "93_Bhopal",
			"t1": "136_Pondicherry",
			"t2": "92_Anand",
			"suurballeNbPaths": 2,
			"suurballeTime": 920002508,
			"suurballePaths": {
				"path0": [
					"93_Bhopal",
					"88_Ujjain",
					"94_Ratlam",
					"91_Ahmedabad",
					"92_Anand"
				],
				"lat0": 940.000000,
				"nbSeg0": 0,
				"path1": [
					"71_Jabalpur",
					"60_Raipur",
					"61_Bhandara",
					"62_Nagpur",
					"63_Wardha",
					"80_Chandrapur",
					"81_Hyderabad",
					"57_Vijayavada",
					"56_Ongole",
					"59_Nellore",
					"58_Tirupati",
					"51_Kanchipuram",
					"136_Pondicherry"
				],
				"lat1": 3079.000000,
				"nbSeg1": 7
			},
			"pathsExist": false,
			"runtime": 265208447,
			"nomLat1": 3279.000000,
			"nomLat2": 940.000000,
			"maxNomLat": 3279.000000,
			"mincut": 5
		},
		{
			"s1": "82_Sangareddy",
			"s2": "33_Thirussur",
			"t1": "93_Bhopal",
			"t2": "77_Pune",
			"suurballeNbPaths": 2,
			"suurballeTime": 1209099269,
			"suurballePaths": {
				"path0": [
					"82_Sangareddy",
					"75_Nanded",
					"97_Aurangabad",
					"98_Jalgaon",
					"67_Khandwa",
					"87_Dhar",
					"88_Ujjain",
					"93_Bhopal"
				],
				"lat0": 1772.000000,
				"nbSeg0": 0,
				"path1": [
					"33_Thirussur",
					"38_Palghat",
					"39_Kozhikode",
					"36_Cannonore",
					"37_Mangalore",
					"22_Goa",
					"29_Panjim",
					"25_Belgaum",
					"84_Kolhapur",
					"78_Satara",
					"77_Pune"
				],
				"lat1": 1825.000000,
				"nbSeg1": 2
			},
			"pathsExist": false,
			"runtime": 352617630,
			"nomLat1": 1772.000000,
			"nomLat2": 2510.000000,
			"maxNomLat": 2510.000000,
			"mincut": 4
		},
		{
			"s1": "97_Aurangabad",
			"s2": "47_Sonipat",
			"t1": "18_Rewa",
			"t2": "110_Ernakulam",
			"suurballeNbPaths": 2,
			"suurballeTime": 1210220306,
			"suurballePaths": {
				"path0": [
					"47_Sonipat",
					"46_Delhi",
					"123_Mathura",
					"122_Agra",
					"119_Gwalior",
					"19_Jhansi",
					"15_Satna",
					"18_Rewa"
				],
				"lat0": 1238.000000,
				"nbSeg0": 1,
				"path1": [
					"97_Aurangabad",
					"76_Ahmednagar",
					"77_Pune",
					"78_Satara",
					"84_Kolhapur",
					"25_Belgaum",
					"29_Panjim",
					"22_Goa",
					"37_Mangalore",
					"36_Cannonore",
					"39_Kozhikode",
					"38_Palghat",
					"33_Thirussur",
					"117_Allepey",
					"112_Kottayem",
					"110_Ernakulam"
				],
				"lat1": 2533.000000,
				"nbSeg1": 2
			},
			"pathsExist": false,
			"runtime": 352322436,
			"nomLat1": 1854.000000,
			"nomLat2": 6362.000000,
			"maxNomLat": 6362.000000,
			"mincut": 4
		},
		{
			"s1": "33_Thirussur",
			"s2": "89_Gandhinagar",
			"t1": "35_Kharagpur",
			"t2": "30_Ranchi",
			"suurballeNbPaths": 2,
			"suurballeTime": 1145203383,
			"suurballePaths": {
				"path0": [
					"89_Gandhinagar",
					"90_Himmatnagar",
					"91_Ahmedabad",
					"94_Ratlam",
					"88_Ujjain",
					"95_Indore",
					"71_Jabalpur",
					"60_Raipur",
					"34_Rourkela",
					"31_Jamshedpur",
					"11_Bokaro",
					"12_Hazaribagh",
					"30_Ranchi"
				],
				"lat0": 3302.000000,
				"nbSeg0": 2,
				"path1": [
					"33_Thirussur",
					"117_Allepey",
					"32_Coimbatore",
					"131_Tirupur",
					"132_Erode",
					"52_Bangalore",
					"53_Kolar",
					"58_Tirupati",
					"59_Nellore",
					"56_Ongole",
					"79_Visakhapatnam",
					"69_Dhenkanal",
					"68_Bhubaneshwar",
					"35_Kharagpur"
				],
				"lat1": 3682.000000,
				"nbSeg1": 4
			},
			"pathsExist": false,
			"runtime": 435301370,
			"nomLat1": 3682.000000,
			"nomLat2": 4048.000000,
			"maxNomLat": 4048.000000,
			"mincut": 2
		},
		{
			"s1": "15_Satna",
			"s2": "144_Madural",
			"t1": "29_Panjim",
			"t2": "48_Moradabad",
			"suurballeNbPaths": 2,
			"suurballeTime": 1220878889,
			"suurballePaths": {
				"path0": [
					"15_Satna",
					"19_Jhansi",
					"119_Gwalior",
					"122_Agra",
					"123_Mathura",
					"46_Delhi",
					"124_Ghaziabad",
					"45_Meerut",
					"48_Moradabad"
				],
				"lat0": 1375.000000,
				"nbSeg0": 0,
				"path1": [
					"144_Madural",
					"129_Sivakasi",
					"32_Coimbatore",
					"131_Tirupur",
					"132_Erode",
					"52_Bangalore",
					"20_Torangallu",
					"21_Bellary",
					"25_Belgaum",
					"29_Panjim"
				],
				"lat1": 2012.000000,
				"nbSeg1": 0
			},
			"pathsExist": false,
			"runtime": 389347790,
			"nomLat1": 2860.000000,
			"nomLat2": 6870.000000,
			"maxNomLat": 6870.000000,
			"mincut": 4
		},
		{
			"s1": "114_Tiruchendur",
			"s2": "86_Ambala",
			"t1": "117_Allepey",
			"t2": "73_Sagar",
			"suurballeNbPaths": 2,
			"suurballeTime": 1331638846,
			"suurballePaths": {
				"path0": [
					"114_Tiruchendur",
					"115_Kanyakumari",
					"116_Trivandrum",
					"109_Kollam",
					"110_Ernakulam",
					"112_Kottayem",
					"117_Allepey"
				],
				"lat0": 725.000000,
				"nbSeg0": 1,
				"path1": [
					"86_Ambala",
					"107_Karnal",
					"47_Sonipat",
					"46_Delhi",
					"123_Mathura",
					"122_Agra",
					"119_Gwalior",
					"120_Rajgarh",
					"73_Sagar"
				],
				"lat1": 1673.000000,
				"nbSeg1": 1
			},
			"pathsExist": false,
			"runtime": 312102713,
			"nomLat1": 873.000000,
			"nomLat2": 1689.000000,
			"maxNomLat": 1689.000000,
			"mincut": 4
		},
		{
			"s1": "115_Kanyakumari",
			"s2": "12_Hazaribagh",
			"t1": "141_Ludhiana",
			"t2": "32_Coimbatore",
			"suurballeNbPaths": 2,
			"suurballeTime": 1259584489,
			"suurballePaths": {
				"path0": [
					"115_Kanyakumari",
					"113_Tirunelveli",
					"129_Sivakasi",
					"32_Coimbatore"
				],
				"lat0": 597.000000,
				"nbSeg0": 0,
				"path1": [
					"12_Hazaribagh",
					"13_Gaya",
					"10_Patna",
					"0_Varanasi",
					"8_Jaunpur",
					"5_Lucknow",
					"2_Hadiagarh",
					"3_Sitapur",
					"49_Bareilly",
					"48_Moradabad",
					"45_Meerut",
					"124_Ghaziabad",
					"46_Delhi",
					"47_Sonipat",
					"40_Rohtak",
					"142_Patiala",
					"141_Ludhiana"
				],
				"lat1": 2713.000000,
				"nbSeg1": 2
			},
			"pathsExist": false,
			"runtime": 347123506,
			"nomLat1": 7305.000000,
			"nomLat2": 4458.000000,
			"maxNomLat": 7305.000000,
			"mincut": 6
		},
		{
			"s1": "22_Goa",
			"s2": "21_Bellary",
			"t1": "131_Tirupur",
			"t2": "61_Bhandara",
			"suurballeNbPaths": 2,
			"suurballeTime": 1131112050,
			"suurballePaths": {
				"path0": [
					"21_Bellary",
					"20_Torangallu",
					"52_Bangalore",
					"132_Erode",
					"131_Tirupur"
				],
				"lat0": 893.000000,
				"nbSeg0": 0,
				"path1": [
					"22_Goa",
					"29_Panjim",
					"25_Belgaum",
					"24_Solapur",
					"27_Gulbarga",
					"81_Hyderabad",
					"80_Chandrapur",
					"63_Wardha",
					"62_Nagpur",
					"61_Bhandara"
				],
				"lat1": 1959.000000,
				"nbSeg1": 1
			},
			"pathsExist": false,
			"runtime": 402824307,
			"nomLat1": 1737.000000,
			"nomLat2": 1487.000000,
			"maxNomLat": 1737.000000,
			"mincut": 4
		},
		{
			"s1": "104_Surat",
			"s2": "73_Sagar",
			"t1": "3_Sitapur",
			"t2": "114_Tiruchendur",
			"suurballeNbPaths": 2,
			"suurballeTime": 1360437630,
			"suurballePaths": {
				"path0": [
					"73_Sagar",
					"72_Damoh",
					"71_Jabalpur",
					"15_Satna",
					"18_Rewa",
					"9_Allahabad",
					"7_Fatehpur",
					"6_Kanpur",
					"5_Lucknow",
					"2_Hadiagarh",
					"3_Sitapur"
				],
				"lat0": 1626.000000,
				"nbSeg0": 1,
				"path1": [
					"104_Surat",
					"101_Valsad",
					"102_Mumbai",
					"77_Pune",
					"78_Satara",
					"84_Kolhapur",
					"25_Belgaum",
					"21_Bellary",
					"20_Torangallu",
					"52_Bangalore",
					"132_Erode",
					"131_Tirupur",
					"32_Coimbatore",
					"129_Sivakasi",
					"113_Tirunelveli",
					"114_Tiruchendur"
				],
				"lat1": 3125.000000,
				"nbSeg1": 1
			},
			"pathsExist": false,
			"runtime": 245871438,
			"nomLat1": 3750.000000,
			"nomLat2": 4910.000000,
			"maxNomLat": 4910.000000,
			"mincut": 4
		},
		{
			"s1": "64_Amravati",
			"s2": "35_Kharagpur",
			"t1": "77_Pune",
			"t2": "120_Rajgarh",
			"suurballeNbPaths": 2,
			"suurballeTime": 930460711,
			"suurballePaths": {
				"path0": [
					"64_Amravati",
					"65_Buldhana",
					"98_Jalgaon",
					"97_Aurangabad",
					"76_Ahmednagar",
					"77_Pune"
				],
				"lat0": 1024.000000,
				"nbSeg0": 0,
				"path1": [
					"35_Kharagpur",
					"68_Bhubaneshwar",
					"69_Dhenkanal",
					"60_Raipur",
					"71_Jabalpur",
					"72_Damoh",
					"73_Sagar",
					"120_Rajgarh"
				],
				"lat1": 2355.000000,
				"nbSeg1": 1
			},
			"pathsExist": false,
			"runtime": 272114892,
			"nomLat1": 1024.000000,
			"nomLat2": 2724.000000,
			"maxNomLat": 2724.000000,
			"mincut": 4
		},
		{
			"s1": "110_Ernakulam",
			"s2": "101_Valsad",
			"t1": "41_Gurgaon",
			"t2": "75_Nanded",
			"suurballeNbPaths": 2,
			"suurballeTime": 1164423486,
			"suurballePaths": {
				"path0": [
					"101_Valsad",
					"104_Surat",
					"103_Bharuch",
					"106_Baroda",
					"105_Godhra",
					"91_Ahmedabad",
					"1_Udaipur",
					"126_Bhilwara",
					"128_Jaipur",
					"46_Delhi",
					"41_Gurgaon"
				],
				"lat0": 1999.000000,
				"nbSeg0": 4,
				"path1": [
					"110_Ernakulam",
					"112_Kottayem",
					"117_Allepey",
					"32_Coimbatore",
					"131_Tirupur",
					"132_Erode",
					"52_Bangalore",
					"20_Torangallu",
					"26_Raichur",
					"81_Hyderabad",
					"82_Sangareddy",
					"75_Nanded"
				],
				"lat1": 2291.000000,
				"nbSeg1": 0
			},
			"pathsExist": false,
			"runtime": 355143469,
			"nomLat1": 6334.000000,
			"nomLat2": 1180.000000,
			"maxNomLat": 6334.000000,
			"mincut": 4
		},
		{
			"s1": "88_Ujjain",
			"s2": "72_Damoh",
			"t1": "54_Hassan",
			"t2": "82_Sangareddy",
			"suurballeNbPaths": 2,
			"suurballeTime": 1264755367,
			"suurballePaths": {
				"path0": [
					"72_Damoh",
					"71_Jabalpur",
					"60_Raipur",
					"61_Bhandara",
					"62_Nagpur",
					"63_Wardha",
					"80_Chandrapur",
					"81_Hyderabad",
					"82_Sangareddy"
				],
				"lat0": 1965.000000,
				"nbSeg0": 1,
				"path1": [
					"88_Ujjain",
					"87_Dhar",
					"67_Khandwa",
					"98_Jalgaon",
					"97_Aurangabad",
					"76_Ahmednagar",
					"77_Pune",
					"78_Satara",
					"84_Kolhapur",
					"25_Belgaum",
					"23_Hubli",
					"54_Hassan"
				],
				"lat1": 2317.000000,
				"nbSeg1": 1
			},
			"pathsExist": false,
			"runtime": 316446782,
			"nomLat1": 2369.000000,
			"nomLat2": 3433.000000,
			"maxNomLat": 3433.000000,
			"mincut": 4
		},
		{
			"s1": "92_Anand",
			"s2": "57_Vijayavada",
			"t1": "133_Salem",
			"t2": "93_Bhopal",
			"suurballeNbPaths": 2,
			"suurballeTime": 826731572,
			"suurballePaths": {
				"path0": [
					"92_Anand",
					"91_Ahmedabad",
					"94_Ratlam",
					"88_Ujjain",
					"93_Bhopal"
				],
				"lat0": 940.000000,
				"nbSeg0": 0,
				"path1": [
					"57_Vijayavada",
					"56_Ongole",
					"59_Nellore",
					"58_Tirupati",
					"53_Kolar",
					"52_Bangalore",
					"133_Salem"
				],
				"lat1": 1230.000000,
				"nbSeg1": 7
			},
			"pathsExist": false,
			"runtime": 257586073,
			"nomLat1": 5048.000000,
			"nomLat2": 3955.000000,
			"maxNomLat": 5048.000000,
			"mincut": 4
		},
		{
			"s1": "49_Bareilly",
			"s2": "126_Bhilwara",
			"t1": "92_Anand",
			"t2": "73_Sagar",
			"suurballeNbPaths": 2,
			"suurballeTime": 988579644,
			"suurballePaths": {
				"path0": [
					"126_Bhilwara",
					"1_Udaipur",
					"91_Ahmedabad",
					"92_Anand"
				],
				"lat0": 667.000000,
				"nbSeg0": 2,
				"path1": [
					"49_Bareilly",
					"48_Moradabad",
					"45_Meerut",
					"124_Ghaziabad",
					"46_Delhi",
					"123_Mathura",
					"122_Agra",
					"119_Gwalior",
					"120_Rajgarh",
					"73_Sagar"
				],
				"lat1": 1764.000000,
				"nbSeg1": 1
			},
			"pathsExist": false,
			"runtime": 427899724,
			"nomLat1": 2111.000000,
			"nomLat2": 1049.000000,
			"maxNomLat": 2111.000000,
			"mincut": 5
		},
		{
			"s1": "132_Erode",
			"s2": "80_Chandrapur",
			"t1": "100_Dhulia",
			"t2": "93_Bhopal",
			"suurballeNbPaths": 2,
			"suurballeTime": 1156085976,
			"suurballePaths": {
				"path0": [
					"80_Chandrapur",
					"63_Wardha",
					"62_Nagpur",
					"64_Amravati",
					"65_Buldhana",
					"98_Jalgaon",
					"100_Dhulia"
				],
				"lat0": 1123.000000,
				"nbSeg0": 1,
				"path1": [
					"132_Erode",
					"52_Bangalore",
					"20_Torangallu",
					"26_Raichur",
					"81_Hyderabad",
					"82_Sangareddy",
					"75_Nanded",
					"97_Aurangabad",
					"98_Jalgaon",
					"67_Khandwa",
					"87_Dhar",
					"88_Ujjain",
					"93_Bhopal"
				],
				"lat1": 3138.000000,
				"nbSeg1": 1
			},
			"pathsExist": false,
			"runtime": 410660743,
			"nomLat1": 2508.000000,
			"nomLat2": 2400.000000,
			"maxNomLat": 2508.000000,
			"mincut": 4
		},
		{
			"s1": "123_Mathura",
			"s2": "55_Mysore",
			"t1": "115_Kanyakumari",
			"t2": "134_Palladam",
			"suurballeNbPaths": 2,
			"suurballeTime": 1228341084,
			"suurballePaths": {
				"path0": [
					"55_Mysore",
					"52_Bangalore",
					"132_Erode",
					"131_Tirupur",
					"32_Coimbatore",
					"129_Sivakasi",
					"113_Tirunelveli",
					"115_Kanyakumari"
				],
				"lat0": 1286.000000,
				"nbSeg0": 0,
				"path1": [
					"123_Mathura",
					"122_Agra",
					"119_Gwalior",
					"120_Rajgarh",
					"95_Indore",
					"87_Dhar",
					"67_Khandwa",
					"98_Jalgaon",
					"97_Aurangabad",
					"75_Nanded",
					"82_Sangareddy",
					"81_Hyderabad",
					"57_Vijayavada",
					"56_Ongole",
					"59_Nellore",
					"58_Tirupati",
					"51_Kanchipuram",
					"136_Pondicherry",
					"135_Chidambaram",
					"134_Palladam"
				],
				"lat1": 4480.000000,
				"nbSeg1": 7
			},
			"pathsExist": false,
			"runtime": 377777415,
			"nomLat1": 6409.000000,
			"nomLat2": 1349.000000,
			"maxNomLat": 6409.000000,
			"mincut": 3
		},
		{
			"s1": "71_Jabalpur",
			"s2": "15_Satna",
			"t1": "82_Sangareddy",
			"t2": "40_Rohtak",
			"suurballeNbPaths": 2,
			"suurballeTime": 914979289,
			"suurballePaths": {
				"path0": [
					"71_Jabalpur",
					"60_Raipur",
					"61_Bhandara",
					"62_Nagpur",
					"63_Wardha",
					"80_Chandrapur",
					"81_Hyderabad",
					"82_Sangareddy"
				],
				"lat0": 1811.000000,
				"nbSeg0": 1,
				"path1": [
					"15_Satna",
					"19_Jhansi",
					"119_Gwalior",
					"122_Agra",
					"123_Mathura",
					"46_Delhi",
					"47_Sonipat",
					"40_Rohtak"
				],
				"lat1": 1233.000000,
				"nbSeg1": 1
			},
			"pathsExist": false,
			"runtime": 230155763,
			"nomLat1": 3279.000000,
			"nomLat2": 1241.000000,
			"maxNomLat": 3279.000000,
			"mincut": 4
		},
		{
			"s1": "2_Hadiagarh",
			"s2": "141_Ludhiana",
			"t1": "115_Kanyakumari",
			"t2": "86_Ambala",
			"suurballeNbPaths": 2,
			"suurballeTime": 1322258791,
			"suurballePaths": {
				"path0": [
					"141_Ludhiana",
					"83_Chandigarh",
					"86_Ambala"
				],
				"lat0": 228.000000,
				"nbSeg0": 0,
				"path1": [
					"2_Hadiagarh",
					"5_Lucknow",
					"6_Kanpur",
					"7_Fatehpur",
					"9_Allahabad",
					"18_Rewa",
					"15_Satna",
					"71_Jabalpur",
					"60_Raipur",
					"61_Bhandara",
					"62_Nagpur",
					"63_Wardha",
					"80_Chandrapur",
					"81_Hyderabad",
					"26_Raichur",
					"20_Torangallu",
					"52_Bangalore",
					"132_Erode",
					"131_Tirupur",
					"32_Coimbatore",
					"129_Sivakasi",
					"113_Tirunelveli",
					"115_Kanyakumari"
				],
				"lat1": 4895.000000,
				"nbSeg1": 2
			},
			"pathsExist": false,
			"runtime": 285359354,
			"nomLat1": 6473.000000,
			"nomLat2": 228.000000,
			"maxNomLat": 6473.000000,
			"mincut": 4
		},
		{
			"s1": "132_Erode",
			"s2": "30_Ranchi",
			"t1": "71_Jabalpur",
			"t2": "144_Madural",
			"suurballeNbPaths": 2,
			"suurballeTime": 1334933705,
			"suurballePaths": {
				"path0": [
					"132_Erode",
					"131_Tirupur",
					"32_Coimbatore",
					"129_Sivakasi",
					"144_Madural"
				],
				"lat0": 605.000000,
				"nbSeg0": 0,
				"path1": [
					"30_Ranchi",
					"12_Hazaribagh",
					"11_Bokaro",
					"31_Jamshedpur",
					"34_Rourkela",
					"60_Raipur",
					"71_Jabalpur"
				],
				"lat1": 1736.000000,
				"nbSeg1": 1
			},
			"pathsExist": false,
			"runtime": 275761374,
			"nomLat1": 3607.000000,
			"nomLat2": 4636.000000,
			"maxNomLat": 4636.000000,
			"mincut": 4
		},
		{
			"s1": "90_Himmatnagar",
			"s2": "118_None",
			"t1": "25_Belgaum",
			"t2": "17_Asansol",
			"suurballeNbPaths": 2,
			"suurballeTime": 1083450159,
			"suurballePaths": {
				"path0": [
					"118_None",
					"54_Hassan",
					"23_Hubli",
					"25_Belgaum"
				],
				"lat0": 853.000000,
				"nbSeg0": 0,
				"path1": [
					"90_Himmatnagar",
					"91_Ahmedabad",
					"94_Ratlam",
					"88_Ujjain",
					"95_Indore",
					"71_Jabalpur",
					"60_Raipur",
					"34_Rourkela",
					"31_Jamshedpur",
					"11_Bokaro",
					"17_Asansol"
				],
				"lat1": 3154.000000,
				"nbSeg1": 0
			},
			"pathsExist": false,
			"runtime": 337179238,
			"nomLat1": 2416.000000,
			"nomLat2": 4499.000000,
			"maxNomLat": 4499.000000,
			"mincut": 5
		},
		{
			"s1": "98_Jalgaon",
			"s2": "43_Kot_kapura",
			"t1": "19_Jhansi",
			"t2": "41_Gurgaon",
			"suurballeNbPaths": 2,
			"suurballeTime": 1025820053,
			"suurballePaths": {
				"path0": [
					"43_Kot_kapura",
					"108_Talwandi_Bahi",
					"141_Ludhiana",
					"142_Patiala",
					"40_Rohtak",
					"41_Gurgaon"
				],
				"lat0": 731.000000,
				"nbSeg0": 0,
				"path1": [
					"98_Jalgaon",
					"67_Khandwa",
					"87_Dhar",
					"95_Indore",
					"120_Rajgarh",
					"119_Gwalior",
					"19_Jhansi"
				],
				"lat1": 1470.000000,
				"nbSeg1": 1
			},
			"pathsExist": false,
			"runtime": 410714456,
			"nomLat1": 1966.000000,
			"nomLat2": 731.000000,
			"maxNomLat": 1966.000000,
			"mincut": 5
		},
		{
			"s1": "110_Ernakulam",
			"s2": "131_Tirupur",
			"t1": "73_Sagar",
			"t2": "100_Dhulia",
			"suurballeNbPaths": 2,
			"suurballeTime": 1406169568,
			"suurballePaths": {
				"path0": [
					"131_Tirupur",
					"132_Erode",
					"52_Bangalore",
					"20_Torangallu",
					"26_Raichur",
					"81_Hyderabad",
					"80_Chandrapur",
					"63_Wardha",
					"62_Nagpur",
					"61_Bhandara",
					"60_Raipur",
					"71_Jabalpur",
					"72_Damoh",
					"73_Sagar"
				],
				"lat0": 3374.000000,
				"nbSeg0": 1,
				"path1": [
					"110_Ernakulam",
					"112_Kottayem",
					"117_Allepey",
					"33_Thirussur",
					"38_Palghat",
					"39_Kozhikode",
					"36_Cannonore",
					"37_Mangalore",
					"22_Goa",
					"29_Panjim",
					"25_Belgaum",
					"84_Kolhapur",
					"78_Satara",
					"77_Pune",
					"76_Ahmednagar",
					"99_Nasik",
					"100_Dhulia"
				],
				"lat1": 2830.000000,
				"nbSeg1": 3
			},
			"pathsExist": false,
			"runtime": 263998442,
			"nomLat1": 4499.000000,
			"nomLat2": 2596.000000,
			"maxNomLat": 4499.000000,
			"mincut": 3
		},
		{
			"s1": "68_Bhubaneshwar",
			"s2": "122_Agra",
			"t1": "79_Visakhapatnam",
			"t2": "65_Buldhana",
			"suurballeNbPaths": 2,
			"suurballeTime": 1386639793,
			"suurballePaths": {
				"path0": [
					"68_Bhubaneshwar",
					"69_Dhenkanal",
					"79_Visakhapatnam"
				],
				"lat0": 779.000000,
				"nbSeg0": 0,
				"path1": [
					"122_Agra",
					"119_Gwalior",
					"120_Rajgarh",
					"95_Indore",
					"87_Dhar",
					"67_Khandwa",
					"98_Jalgaon",
					"65_Buldhana"
				],
				"lat1": 1632.000000,
				"nbSeg1": 0
			},
			"pathsExist": false,
			"runtime": 263833786,
			"nomLat1": 779.000000,
			"nomLat2": 1632.000000,
			"maxNomLat": 1632.000000,
			"mincut": 4
		},
		{
			"s1": "101_Valsad",
			"s2": "41_Gurgaon",
			"t1": "137_Pathankot",
			"t2": "110_Ernakulam",
			"suurballeNbPaths": 2,
			"suurballeTime": 1229584076,
			"suurballePaths": {
				"path0": [
					"41_Gurgaon",
					"40_Rohtak",
					"142_Patiala",
					"141_Ludhiana",
					"140_Jalandhar",
					"138_Hoshiarpur",
					"137_Pathankot"
				],
				"lat0": 841.000000,
				"nbSeg0": 2,
				"path1": [
					"101_Valsad",
					"102_Mumbai",
					"77_Pune",
					"78_Satara",
					"84_Kolhapur",
					"25_Belgaum",
					"29_Panjim",
					"22_Goa",
					"37_Mangalore",
					"36_Cannonore",
					"39_Kozhikode",
					"38_Palghat",
					"33_Thirussur",
					"117_Allepey",
					"112_Kottayem",
					"110_Ernakulam"
				],
				"lat1": 2665.000000,
				"nbSeg1": 2
			},
			"pathsExist": false,
			"runtime": 263748759,
			"nomLat1": 3316.000000,
			"nomLat2": 6334.000000,
			"maxNomLat": 6334.000000,
			"mincut": 4
		},
		{
			"s1": "95_Indore",
			"s2": "37_Mangalore",
			"t1": "45_Meerut",
			"t2": "109_Kollam",
			"suurballeNbPaths": 2,
			"suurballeTime": 948332277,
			"suurballePaths": {
				"path0": [
					"95_Indore",
					"120_Rajgarh",
					"119_Gwalior",
					"122_Agra",
					"123_Mathura",
					"46_Delhi",
					"124_Ghaziabad",
					"45_Meerut"
				],
				"lat0": 1382.000000,
				"nbSeg0": 1,
				"path1": [
					"37_Mangalore",
					"36_Cannonore",
					"39_Kozhikode",
					"38_Palghat",
					"33_Thirussur",
					"117_Allepey",
					"112_Kottayem",
					"110_Ernakulam",
					"109_Kollam"
				],
				"lat1": 1182.000000,
				"nbSeg1": 0
			},
			"pathsExist": false,
			"runtime": 444073622,
			"nomLat1": 1474.000000,
			"nomLat2": 1182.000000,
			"maxNomLat": 1474.000000,
			"mincut": 4
		},
		{
			"s1": "30_Ranchi",
			"s2": "84_Kolhapur",
			"t1": "69_Dhenkanal",
			"t2": "132_Erode",
			"suurballeNbPaths": 2,
			"suurballeTime": 927010821,
			"suurballePaths": {
				"path0": [
					"30_Ranchi",
					"14_Kolkata",
					"35_Kharagpur",
					"68_Bhubaneshwar",
					"69_Dhenkanal"
				],
				"lat0": 1295.000000,
				"nbSeg0": 0,
				"path1": [
					"84_Kolhapur",
					"25_Belgaum",
					"21_Bellary",
					"20_Torangallu",
					"52_Bangalore",
					"132_Erode"
				],
				"lat1": 1431.000000,
				"nbSeg1": 0
			},
			"pathsExist": false,
			"runtime": 245417090,
			"nomLat1": 1295.000000,
			"nomLat2": 1431.000000,
			"maxNomLat": 1431.000000,
			"mincut": 4
		},
		{
			"s1": "17_Asansol",
			"s2": "116_Trivandrum",
			"t1": "26_Raichur",
			"t2": "98_Jalgaon",
			"suurballeNbPaths": 2,
			"suurballeTime": 1406834304,
			"suurballePaths": {
				"path0": [
					"17_Asansol",
					"11_Bokaro",
					"31_Jamshedpur",
					"34_Rourkela",
					"60_Raipur",
					"61_Bhandara",
					"62_Nagpur",
					"64_Amravati",
					"65_Buldhana",
					"98_Jalgaon"
				],
				"lat0": 2331.000000,
				"nbSeg0": 1,
				"path1": [
					"116_Trivandrum",
					"115_Kanyakumari",
					"113_Tirunelveli",
					"129_Sivakasi",
					"32_Coimbatore",
					"131_Tirupur",
					"132_Erode",
					"52_Bangalore",
					"20_Torangallu",
					"26_Raichur"
				],
				"lat1": 1888.000000,
				"nbSeg1": 0
			},
			"pathsExist": false,
			"runtime": 234842057,
			"nomLat1": 4239.000000,
			"nomLat2": 3336.000000,
			"maxNomLat": 4239.000000,
			"mincut": 4
		},
		{
			"s1": "134_Palladam",
			"s2": "43_Kot_kapura",
			"t1": "118_None",
			"t2": "79_Visakhapatnam",
			"suurballeNbPaths": 2,
			"suurballeTime": 1410382825,
			"suurballePaths": {
				"path0": [
					"134_Palladam",
					"130_Trichy",
					"32_Coimbatore",
					"131_Tirupur",
					"132_Erode",
					"52_Bangalore",
					"70_None",
					"118_None"
				],
				"lat0": 1505.000000,
				"nbSeg0": 3,
				"path1": [
					"43_Kot_kapura",
					"108_Talwandi_Bahi",
					"141_Ludhiana",
					"142_Patiala",
					"40_Rohtak",
					"47_Sonipat",
					"46_Delhi",
					"123_Mathura",
					"122_Agra",
					"119_Gwalior",
					"19_Jhansi",
					"15_Satna",
					"71_Jabalpur",
					"60_Raipur",
					"69_Dhenkanal",
					"79_Visakhapatnam"
				],
				"lat1": 4002.000000,
				"nbSeg1": 2
			},
			"pathsExist": false,
			"runtime": 230509542,
			"nomLat1": 1582.000000,
			"nomLat2": 4696.000000,
			"maxNomLat": 4696.000000,
			"mincut": 4
		},
		{
			"s1": "105_Godhra",
			"s2": "119_Gwalior",
			"t1": "75_Nanded",
			"t2": "32_Coimbatore",
			"suurballeNbPaths": 2,
			"suurballeTime": 945387894,
			"suurballePaths": {
				"path0": [
					"119_Gwalior",
					"120_Rajgarh",
					"95_Indore",
					"87_Dhar",
					"67_Khandwa",
					"98_Jalgaon",
					"97_Aurangabad",
					"75_Nanded"
				],
				"lat0": 1901.000000,
				"nbSeg0": 0,
				"path1": [
					"105_Godhra",
					"106_Baroda",
					"103_Bharuch",
					"104_Surat",
					"101_Valsad",
					"102_Mumbai",
					"77_Pune",
					"78_Satara",
					"84_Kolhapur",
					"25_Belgaum",
					"21_Bellary",
					"20_Torangallu",
					"52_Bangalore",
					"132_Erode",
					"131_Tirupur",
					"32_Coimbatore"
				],
				"lat1": 2906.000000,
				"nbSeg1": 1
			},
			"pathsExist": false,
			"runtime": 325349263,
			"nomLat1": 1420.000000,
			"nomLat2": 5252.000000,
			"maxNomLat": 5252.000000,
			"mincut": 4
		},
		{
			"s1": "43_Kot_kapura",
			"s2": "132_Erode",
			"t1": "85_Sangli",
			"t2": "31_Jamshedpur",
			"suurballeNbPaths": 2,
			"suurballeTime": 1179650292,
			"suurballePaths": {
				"path0": [
					"132_Erode",
					"52_Bangalore",
					"20_Torangallu",
					"21_Bellary",
					"25_Belgaum",
					"84_Kolhapur",
					"85_Sangli"
				],
				"lat0": 1503.000000,
				"nbSeg0": 0,
				"path1": [
					"43_Kot_kapura",
					"108_Talwandi_Bahi",
					"141_Ludhiana",
					"142_Patiala",
					"40_Rohtak",
					"47_Sonipat",
					"46_Delhi",
					"124_Ghaziabad",
					"45_Meerut",
					"48_Moradabad",
					"49_Bareilly",
					"3_Sitapur",
					"2_Hadiagarh",
					"5_Lucknow",
					"8_Jaunpur",
					"0_Varanasi",
					"10_Patna",
					"13_Gaya",
					"12_Hazaribagh",
					"11_Bokaro",
					"31_Jamshedpur"
				],
				"lat1": 3222.000000,
				"nbSeg1": 2
			},
			"pathsExist": false,
			"runtime": 442167294,
			"nomLat1": 3567.000000,
			"nomLat2": 3988.000000,
			"maxNomLat": 3988.000000,
			"mincut": 4
		},
		{
			"s1": "80_Chandrapur",
			"s2": "100_Dhulia",
			"t1": "85_Sangli",
			"t2": "78_Satara",
			"suurballeNbPaths": 2,
			"suurballeTime": 1422666662,
			"suurballePaths": {
				"path0": [
					"100_Dhulia",
					"99_Nasik",
					"76_Ahmednagar",
					"77_Pune",
					"78_Satara"
				],
				"lat0": 834.000000,
				"nbSeg0": 1,
				"path1": [
					"80_Chandrapur",
					"81_Hyderabad",
					"27_Gulbarga",
					"24_Solapur",
					"25_Belgaum",
					"84_Kolhapur",
					"85_Sangli"
				],
				"lat1": 1640.000000,
				"nbSeg1": 0
			},
			"pathsExist": false,
			"runtime": 263355646,
			"nomLat1": 1640.000000,
			"nomLat2": 858.000000,
			"maxNomLat": 1640.000000,
			"mincut": 2
		},
		{
			"s1": "16_Dhanbad",
			"s2": "132_Erode",
			"t1": "94_Ratlam",
			"t2": "48_Moradabad",
			"suurballeNbPaths": 2,
			"suurballeTime": 1414445909,
			"suurballePaths": {
				"path0": [
					"16_Dhanbad",
					"11_Bokaro",
					"12_Hazaribagh",
					"13_Gaya",
					"10_Patna",
					"0_Varanasi",
					"8_Jaunpur",
					"5_Lucknow",
					"2_Hadiagarh",
					"3_Sitapur",
					"49_Bareilly",
					"48_Moradabad"
				],
				"lat0": 2048.000000,
				"nbSeg0": 0,
				"path1": [
					"132_Erode",
					"52_Bangalore",
					"20_Torangallu",
					"26_Raichur",
					"81_Hyderabad",
					"82_Sangareddy",
					"75_Nanded",
					"97_Aurangabad",
					"98_Jalgaon",
					"67_Khandwa",
					"87_Dhar",
					"88_Ujjain",
					"94_Ratlam"
				],
				"lat1": 2981.000000,
				"nbSeg1": 1
			},
			"pathsExist": false,
			"runtime": 249805252,
			"nomLat1": 2513.000000,
			"nomLat2": 5974.000000,
			"maxNomLat": 5974.000000,
			"mincut": 4
		},
		{
			"s1": "107_Karnal",
			"s2": "96_Vidisha",
			"t1": "103_Bharuch",
			"t2": "122_Agra",
			"suurballeNbPaths": 2,
			"suurballeTime": 921472331,
			"suurballePaths": {
				"path0": [
					"107_Karnal",
					"47_Sonipat",
					"46_Delhi",
					"123_Mathura",
					"122_Agra"
				],
				"lat0": 524.000000,
				"nbSeg0": 0,
				"path1": [
					"96_Vidisha",
					"95_Indore",
					"88_Ujjain",
					"94_Ratlam",
					"91_Ahmedabad",
					"105_Godhra",
					"106_Baroda",
					"103_Bharuch"
				],
				"lat1": 1441.000000,
				"nbSeg1": 1
			},
			"pathsExist": false,
			"runtime": 121749980,
			"nomLat1": 2202.000000,
			"nomLat2": 1327.000000,
			"maxNomLat": 2202.000000,
			"mincut": 4
		},
		{
			"s1": "20_Torangallu",
			"s2": "57_Vijayavada",
			"t1": "89_Gandhinagar",
			"t2": "137_Pathankot",
			"suurballeNbPaths": 2,
			"suurballeTime": 1144191245,
			"suurballePaths": {
				"path0": [
					"20_Torangallu",
					"21_Bellary",
					"25_Belgaum",
					"84_Kolhapur",
					"78_Satara",
					"77_Pune",
					"102_Mumbai",
					"101_Valsad",
					"104_Surat",
					"103_Bharuch",
					"106_Baroda",
					"105_Godhra",
					"91_Ahmedabad",
					"90_Himmatnagar",
					"89_Gandhinagar"
				],
				"lat0": 2385.000000,
				"nbSeg0": 2,
				"path1": [
					"57_Vijayavada",
					"81_Hyderabad",
					"82_Sangareddy",
					"75_Nanded",
					"97_Aurangabad",
					"98_Jalgaon",
					"67_Khandwa",
					"87_Dhar",
					"95_Indore",
					"120_Rajgarh",
					"119_Gwalior",
					"122_Agra",
					"123_Mathura",
					"46_Delhi",
					"47_Sonipat",
					"40_Rohtak",
					"142_Patiala",
					"141_Ludhiana",
					"140_Jalandhar",
					"138_Hoshiarpur",
					"137_Pathankot"
				],
				"lat1": 4099.000000,
				"nbSeg1": 5
			},
			"pathsExist": false,
			"runtime": 415380719,
			"nomLat1": 3039.000000,
			"nomLat2": 5735.000000,
			"maxNomLat": 5735.000000,
			"mincut": 4
		},
		{
			"s1": "95_Indore",
			"s2": "115_Kanyakumari",
			"t1": "5_Lucknow",
			"t2": "35_Kharagpur",
			"suurballeNbPaths": 2,
			"suurballeTime": 1035610642,
			"suurballePaths": {
				"path0": [
					"95_Indore",
					"71_Jabalpur",
					"15_Satna",
					"18_Rewa",
					"9_Allahabad",
					"7_Fatehpur",
					"6_Kanpur",
					"5_Lucknow"
				],
				"lat0": 1750.000000,
				"nbSeg0": 1,
				"path1": [
					"115_Kanyakumari",
					"113_Tirunelveli",
					"129_Sivakasi",
					"32_Coimbatore",
					"131_Tirupur",
					"132_Erode",
					"52_Bangalore",
					"53_Kolar",
					"58_Tirupati",
					"59_Nellore",
					"56_Ongole",
					"79_Visakhapatnam",
					"69_Dhenkanal",
					"68_Bhubaneshwar",
					"35_Kharagpur"
				],
				"lat1": 3773.000000,
				"nbSeg1": 5
			},
			"pathsExist": false,
			"runtime": 439751551,
			"nomLat1": 2433.000000,
			"nomLat2": 4064.000000,
			"maxNomLat": 4064.000000,
			"mincut": 4
		},
		{
			"s1": "111_Thiruvalla",
			"s2": "33_Thirussur",
			"t1": "0_Varanasi",
			"t2": "132_Erode",
			"suurballeNbPaths": 2,
			"suurballeTime": 890802027,
			"suurballePaths": {
				"path0": [
					"111_Thiruvalla",
					"110_Ernakulam",
					"112_Kottayem",
					"117_Allepey",
					"32_Coimbatore",
					"131_Tirupur",
					"132_Erode"
				],
				"lat0": 736.000000,
				"nbSeg0": 2,
				"path1": [
					"33_Thirussur",
					"38_Palghat",
					"39_Kozhikode",
					"36_Cannonore",
					"37_Mangalore",
					"22_Goa",
					"29_Panjim",
					"25_Belgaum",
					"84_Kolhapur",
					"78_Satara",
					"77_Pune",
					"76_Ahmednagar",
					"97_Aurangabad",
					"98_Jalgaon",
					"67_Khandwa",
					"87_Dhar",
					"95_Indore",
					"71_Jabalpur",
					"15_Satna",
					"18_Rewa",
					"9_Allahabad",
					"7_Fatehpur",
					"6_Kanpur",
					"5_Lucknow",
					"8_Jaunpur",
					"0_Varanasi"
				],
				"lat1": 5163.000000,
				"nbSeg1": 3
			},
			"pathsExist": false,
			"runtime": 319289336,
			"nomLat1": 5715.000000,
			"nomLat2": 671.000000,
			"maxNomLat": 5715.000000,
			"mincut": 3
		},
		{
			"s1": "32_Coimbatore",
			"s2": "81_Hyderabad",
			"t1": "67_Khandwa",
			"t2": "141_Ludhiana",
			"suurballeNbPaths": 2,
			"suurballeTime": 1323188128,
			"suurballePaths": {
				"path0": [
					"81_Hyderabad",
					"82_Sangareddy",
					"75_Nanded",
					"97_Aurangabad",
					"98_Jalgaon",
					"67_Khandwa"
				],
				"lat0": 1205.000000,
				"nbSeg0": 0,
				"path1": [
					"32_Coimbatore",
					"131_Tirupur",
					"132_Erode",
					"52_Bangalore",
					"20_Torangallu",
					"21_Bellary",
					"25_Belgaum",
					"84_Kolhapur",
					"78_Satara",
					"77_Pune",
					"102_Mumbai",
					"101_Valsad",
					"104_Surat",
					"103_Bharuch",
					"106_Baroda",
					"105_Godhra",
					"91_Ahmedabad",
					"1_Udaipur",
					"126_Bhilwara",
					"128_Jaipur",
					"46_Delhi",
					"47_Sonipat",
					"40_Rohtak",
					"142_Patiala",
					"141_Ludhiana"
				],
				"lat1": 4974.000000,
				"nbSeg1": 5
			},
			"pathsExist": false,
			"runtime": 340984647,
			"nomLat1": 2799.000000,
			"nomLat2": 3419.000000,
			"maxNomLat": 3419.000000,
			"mincut": 4
		},
		{
			"s1": "103_Bharuch",
			"s2": "31_Jamshedpur",
			"t1": "61_Bhandara",
			"t2": "141_Ludhiana",
			"suurballeNbPaths": 2,
			"suurballeTime": 1431373543,
			"suurballePaths": {
				"path0": [
					"31_Jamshedpur",
					"34_Rourkela",
					"60_Raipur",
					"61_Bhandara"
				],
				"lat0": 1192.000000,
				"nbSeg0": 0,
				"path1": [
					"103_Bharuch",
					"106_Baroda",
					"105_Godhra",
					"91_Ahmedabad",
					"1_Udaipur",
					"126_Bhilwara",
					"128_Jaipur",
					"46_Delhi",
					"47_Sonipat",
					"40_Rohtak",
					"142_Patiala",
					"141_Ludhiana"
				],
				"lat1": 2307.000000,
				"nbSeg1": 5
			},
			"pathsExist": false,
			"runtime": 248023431,
			"nomLat1": 1355.000000,
			"nomLat2": 3954.000000,
			"maxNomLat": 3954.000000,
			"mincut": 4
		},
		{
			"s1": "77_Pune",
			"s2": "56_Ongole",
			"t1": "132_Erode",
			"t2": "30_Ranchi",
			"suurballeNbPaths": 2,
			"suurballeTime": 1430715513,
			"suurballePaths": {
				"path0": [
					"56_Ongole",
					"59_Nellore",
					"58_Tirupati",
					"53_Kolar",
					"52_Bangalore",
					"132_Erode"
				],
				"lat0": 1049.000000,
				"nbSeg0": 4,
				"path1": [
					"77_Pune",
					"76_Ahmednagar",
					"97_Aurangabad",
					"98_Jalgaon",
					"65_Buldhana",
					"64_Amravati",
					"62_Nagpur",
					"61_Bhandara",
					"60_Raipur",
					"34_Rourkela",
					"31_Jamshedpur",
					"11_Bokaro",
					"12_Hazaribagh",
					"30_Ranchi"
				],
				"lat1": 2984.000000,
				"nbSeg1": 2
			},
			"pathsExist": false,
			"runtime": 263552269,
			"nomLat1": 2215.000000,
			"nomLat2": 2691.000000,
			"maxNomLat": 2691.000000,
			"mincut": 4
		},
		{
			"s1": "11_Bokaro",
			"s2": "86_Ambala",
			"t1": "51_Kanchipuram",
			"t2": "132_Erode",
			"suurballeNbPaths": 2,
			"suurballeTime": 1435422567,
			"suurballePaths": {
				"path0": [
					"11_Bokaro",
					"12_Hazaribagh",
					"30_Ranchi",
					"14_Kolkata",
					"35_Kharagpur",
					"68_Bhubaneshwar",
					"69_Dhenkanal",
					"79_Visakhapatnam",
					"56_Ongole",
					"59_Nellore",
					"58_Tirupati",
					"51_Kanchipuram"
				],
				"lat0": 3476.000000,
				"nbSeg0": 5,
				"path1": [
					"86_Ambala",
					"107_Karnal",
					"47_Sonipat",
					"46_Delhi",
					"123_Mathura",
					"122_Agra",
					"119_Gwalior",
					"120_Rajgarh",
					"95_Indore",
					"87_Dhar",
					"67_Khandwa",
					"98_Jalgaon",
					"97_Aurangabad",
					"75_Nanded",
					"82_Sangareddy",
					"81_Hyderabad",
					"26_Raichur",
					"20_Torangallu",
					"52_Bangalore",
					"132_Erode"
				],
				"lat1": 4428.000000,
				"nbSeg1": 2
			},
			"pathsExist": false,
			"runtime": 168871270,
			"nomLat1": 3677.000000,
			"nomLat2": 6024.000000,
			"maxNomLat": 6024.000000,
			"mincut": 4
		},
		{
			"s1": "60_Raipur",
			"s2": "33_Thirussur",
			"t1": "124_Ghaziabad",
			"t2": "14_Kolkata",
			"suurballeNbPaths": 2,
			"suurballeTime": 1434034065,
			"suurballePaths": {
				"path0": [
					"60_Raipur",
					"69_Dhenkanal",
					"68_Bhubaneshwar",
					"35_Kharagpur",
					"14_Kolkata"
				],
				"lat0": 1451.000000,
				"nbSeg0": 0,
				"path1": [
					"33_Thirussur",
					"38_Palghat",
					"39_Kozhikode",
					"36_Cannonore",
					"37_Mangalore",
					"22_Goa",
					"29_Panjim",
					"25_Belgaum",
					"84_Kolhapur",
					"78_Satara",
					"77_Pune",
					"76_Ahmednagar",
					"97_Aurangabad",
					"98_Jalgaon",
					"67_Khandwa",
					"87_Dhar",
					"95_Indore",
					"120_Rajgarh",
					"119_Gwalior",
					"122_Agra",
					"123_Mathura",
					"46_Delhi",
					"124_Ghaziabad"
				],
				"lat1": 4259.000000,
				"nbSeg1": 3
			},
			"pathsExist": false,
			"runtime": 263128677,
			"nomLat1": 2572.000000,
			"nomLat2": 3869.000000,
			"maxNomLat": 3869.000000,
			"mincut": 4
		},
		{
			"s1": "109_Kollam",
			"s2": "43_Kot_kapura",
			"t1": "60_Raipur",
			"t2": "7_Fatehpur",
			"suurballeNbPaths": 2,
			"suurballeTime": 969262374,
			"suurballePaths": {
				"path0": [
					"109_Kollam",
					"110_Ernakulam",
					"112_Kottayem",
					"117_Allepey",
					"32_Coimbatore",
					"131_Tirupur",
					"132_Erode",
					"52_Bangalore",
					"20_Torangallu",
					"26_Raichur",
					"81_Hyderabad",
					"80_Chandrapur",
					"63_Wardha",
					"62_Nagpur",
					"61_Bhandara",
					"60_Raipur"
				],
				"lat0": 3364.000000,
				"nbSeg0": 1,
				"path1": [
					"43_Kot_kapura",
					"108_Talwandi_Bahi",
					"141_Ludhiana",
					"142_Patiala",
					"40_Rohtak",
					"47_Sonipat",
					"46_Delhi",
					"124_Ghaziabad",
					"45_Meerut",
					"48_Moradabad",
					"49_Bareilly",
					"3_Sitapur",
					"2_Hadiagarh",
					"5_Lucknow",
					"6_Kanpur",
					"7_Fatehpur"
				],
				"lat1": 2022.000000,
				"nbSeg1": 2
			},
			"pathsExist": false,
			"runtime": 270437852,
			"nomLat1": 3968.000000,
			"nomLat2": 2195.000000,
			"maxNomLat": 3968.000000,
			"mincut": 4
		},
		{
			"s1": "107_Karnal",
			"s2": "3_Sitapur",
			"t1": "112_Kottayem",
			"t2": "41_Gurgaon",
			"suurballeNbPaths": 2,
			"suurballeTime": 1274964898,
			"suurballePaths": {
				"path0": [
					"107_Karnal",
					"47_Sonipat",
					"46_Delhi",
					"41_Gurgaon"
				],
				"lat0": 260.000000,
				"nbSeg0": 1,
				"path1": [
					"3_Sitapur",
					"2_Hadiagarh",
					"5_Lucknow",
					"6_Kanpur",
					"7_Fatehpur",
					"9_Allahabad",
					"18_Rewa",
					"15_Satna",
					"71_Jabalpur",
					"60_Raipur",
					"61_Bhandara",
					"62_Nagpur",
					"63_Wardha",
					"80_Chandrapur",
					"81_Hyderabad",
					"26_Raichur",
					"20_Torangallu",
					"52_Bangalore",
					"132_Erode",
					"131_Tirupur",
					"32_Coimbatore",
					"117_Allepey",
					"112_Kottayem"
				],
				"lat1": 4865.000000,
				"nbSeg1": 2
			},
			"pathsExist": false,
			"runtime": 397442877,
			"nomLat1": 6406.000000,
			"nomLat2": 745.000000,
			"maxNomLat": 6406.000000,
			"mincut": 4
		},
		{
			"s1": "78_Satara",
			"s2": "27_Gulbarga",
			"t1": "94_Ratlam",
			"t2": "45_Meerut",
			"suurballeNbPaths": 2,
			"suurballeTime": 1213943371,
			"suurballePaths": {
				"path0": [
					"27_Gulbarga",
					"24_Solapur",
					"76_Ahmednagar",
					"97_Aurangabad",
					"98_Jalgaon",
					"67_Khandwa",
					"87_Dhar",
					"88_Ujjain",
					"94_Ratlam"
				],
				"lat0": 1622.000000,
				"nbSeg0": 0,
				"path1": [
					"78_Satara",
					"77_Pune",
					"102_Mumbai",
					"101_Valsad",
					"104_Surat",
					"103_Bharuch",
					"106_Baroda",
					"105_Godhra",
					"91_Ahmedabad",
					"1_Udaipur",
					"126_Bhilwara",
					"128_Jaipur",
					"46_Delhi",
					"124_Ghaziabad",
					"45_Meerut"
				],
				"lat1": 2735.000000,
				"nbSeg1": 3
			},
			"pathsExist": false,
			"runtime": 434498799,
			"nomLat1": 1457.000000,
			"nomLat2": 2879.000000,
			"maxNomLat": 2879.000000,
			"mincut": 4
		},
		{
			"s1": "17_Asansol",
			"s2": "45_Meerut",
			"t1": "89_Gandhinagar",
			"t2": "75_Nanded",
			"suurballeNbPaths": 2,
			"suurballeTime": 1365276302,
			"suurballePaths": {
				"path0": [
					"45_Meerut",
					"124_Ghaziabad",
					"46_Delhi",
					"128_Jaipur",
					"126_Bhilwara",
					"1_Udaipur",
					"91_Ahmedabad",
					"90_Himmatnagar",
					"89_Gandhinagar"
				],
				"lat0": 1643.000000,
				"nbSeg0": 5,
				"path1": [
					"17_Asansol",
					"11_Bokaro",
					"31_Jamshedpur",
					"34_Rourkela",
					"60_Raipur",
					"61_Bhandara",
					"62_Nagpur",
					"63_Wardha",
					"80_Chandrapur",
					"81_Hyderabad",
					"82_Sangareddy",
					"75_Nanded"
				],
				"lat1": 2876.000000,
				"nbSeg1": 1
			},
			"pathsExist": false,
			"runtime": 313216019,
			"nomLat1": 3268.000000,
			"nomLat2": 2556.000000,
			"maxNomLat": 3268.000000,
			"mincut": 4
		},
		{
			"s1": "144_Madural",
			"s2": "112_Kottayem",
			"t1": "57_Vijayavada",
			"t2": "109_Kollam",
			"suurballeNbPaths": 2,
			"suurballeTime": 1442387614,
			"suurballePaths": {
				"path0": [
					"112_Kottayem",
					"110_Ernakulam",
					"109_Kollam"
				],
				"lat0": 306.000000,
				"nbSeg0": 0,
				"path1": [
					"144_Madural",
					"129_Sivakasi",
					"32_Coimbatore",
					"131_Tirupur",
					"132_Erode",
					"52_Bangalore",
					"53_Kolar",
					"58_Tirupati",
					"59_Nellore",
					"56_Ongole",
					"57_Vijayavada"
				],
				"lat1": 1872.000000,
				"nbSeg1": 7
			},
			"pathsExist": false,
			"runtime": 248240693,
			"nomLat1": 2300.000000,
			"nomLat2": 306.000000,
			"maxNomLat": 2300.000000,
			"mincut": 4
		},
		{
			"s1": "81_Hyderabad",
			"s2": "0_Varanasi",
			"t1": "126_Bhilwara",
			"t2": "142_Patiala",
			"suurballeNbPaths": 2,
			"suurballeTime": 1441171852,
			"suurballePaths": {
				"path0": [
					"81_Hyderabad",
					"82_Sangareddy",
					"75_Nanded",
					"97_Aurangabad",
					"98_Jalgaon",
					"67_Khandwa",
					"87_Dhar",
					"88_Ujjain",
					"94_Ratlam",
					"126_Bhilwara"
				],
				"lat0": 2090.000000,
				"nbSeg0": 0,
				"path1": [
					"0_Varanasi",
					"8_Jaunpur",
					"5_Lucknow",
					"2_Hadiagarh",
					"3_Sitapur",
					"49_Bareilly",
					"48_Moradabad",
					"45_Meerut",
					"124_Ghaziabad",
					"46_Delhi",
					"47_Sonipat",
					"40_Rohtak",
					"142_Patiala"
				],
				"lat1": 1885.000000,
				"nbSeg1": 1
			},
			"pathsExist": false,
			"runtime": 263488565,
			"nomLat1": 2090.000000,
			"nomLat2": 1893.000000,
			"maxNomLat": 2090.000000,
			"mincut": 4
		},
		{
			"s1": "15_Satna",
			"s2": "76_Ahmednagar",
			"t1": "119_Gwalior",
			"t2": "11_Bokaro",
			"suurballeNbPaths": 2,
			"suurballeTime": 1103661984,
			"suurballePaths": {
				"path0": [
					"15_Satna",
					"19_Jhansi",
					"119_Gwalior"
				],
				"lat0": 580.000000,
				"nbSeg0": 0,
				"path1": [
					"76_Ahmednagar",
					"97_Aurangabad",
					"98_Jalgaon",
					"65_Buldhana",
					"64_Amravati",
					"62_Nagpur",
					"61_Bhandara",
					"60_Raipur",
					"34_Rourkela",
					"31_Jamshedpur",
					"11_Bokaro"
				],
				"lat1": 2557.000000,
				"nbSeg1": 1
			},
			"pathsExist": false,
			"runtime": 380317462,
			"nomLat1": 580.000000,
			"nomLat2": 3149.000000,
			"maxNomLat": 3149.000000,
			"mincut": 5
		},
		{
			"s1": "128_Jaipur",
			"s2": "139_Amritsar",
			"t1": "134_Palladam",
			"t2": "20_Torangallu",
			"suurballeNbPaths": 2,
			"suurballeTime": 1441265143,
			"suurballePaths": {
				"path0": [
					"128_Jaipur",
					"126_Bhilwara",
					"1_Udaipur",
					"91_Ahmedabad",
					"105_Godhra",
					"106_Baroda",
					"103_Bharuch",
					"104_Surat",
					"101_Valsad",
					"102_Mumbai",
					"77_Pune",
					"78_Satara",
					"84_Kolhapur",
					"25_Belgaum",
					"21_Bellary",
					"20_Torangallu"
				],
				"lat0": 3088.000000,
				"nbSeg0": 3,
				"path1": [
					"139_Amritsar",
					"43_Kot_kapura",
					"108_Talwandi_Bahi",
					"141_Ludhiana",
					"142_Patiala",
					"40_Rohtak",
					"47_Sonipat",
					"46_Delhi",
					"123_Mathura",
					"122_Agra",
					"119_Gwalior",
					"120_Rajgarh",
					"95_Indore",
					"87_Dhar",
					"67_Khandwa",
					"98_Jalgaon",
					"97_Aurangabad",
					"75_Nanded",
					"82_Sangareddy",
					"81_Hyderabad",
					"57_Vijayavada",
					"56_Ongole",
					"59_Nellore",
					"58_Tirupati",
					"51_Kanchipuram",
					"136_Pondicherry",
					"135_Chidambaram",
					"134_Palladam"
				],
				"lat1": 5679.000000,
				"nbSeg1": 9
			},
			"pathsExist": false,
			"runtime": 245731797,
			"nomLat1": 5502.000000,
			"nomLat2": 4496.000000,
			"maxNomLat": 5502.000000,
			"mincut": 4
		}
	],
	"demandsWithSol": 0
}
