{
	"nbDemands": 95,
	"demands": [
		{
			"s1": "Pennsauken,+NJ4135",
			"s2": "Pearl+Harbor,+HI6400",
			"t1": "Dallas,+TX1742",
			"t2": "Atlanta,+GA6465",
			"suurballeNbPaths": 2,
			"suurballeTime": 112210652,
			"suurballePaths": {
				"path0": [
					"Pennsauken,+NJ4135",
					"Relay,+MD4093",
					"Atlanta,+GA4032",
					"Atlanta,+GA6465"
				],
				"lat0": 9.000000,
				"nbSeg0": 6,
				"path1": [
					"Pearl+Harbor,+HI6400",
					"Pearl+Harbor,+HI4053",
					"Anaheim,+CA4101",
					"Dallas,+TX2635",
					"Dallas,+TX1742"
				],
				"lat1": 35.000000,
				"nbSeg1": 8
			},
			"pathsExist": true,
			"path1": [
				"Pennsauken,+NJ4135",
				"Dallas,+TX1742"
			],
			"lat1": 13.000000,
			"path2": [
				"Pearl+Harbor,+HI6400",
				"Atlanta,+GA6465"
			],
			"lat2": 42.000000,
			"maxlat": 42.000000,
			"runtime": 2345073921,
			"nomLat1": 13.000000,
			"nomLat2": 42.000000,
			"maxNomLat": 42.000000,
			"mincut": 16
		},
		{
			"s1": "Roachdale,+IN6676",
			"s2": "Pennsauken,+NJ4117",
			"t1": "Kansas+City,+MO6750",
			"t2": "Chicago,+IL6654",
			"suurballeNbPaths": 2,
			"suurballeTime": 130327312,
			"suurballePaths": {
				"path0": [
					"Pennsauken,+NJ4117",
					"Kansas+City,+MO4105",
					"Kansas+City,+MO4082",
					"Kansas+City,+MO6750"
				],
				"lat0": 12.000000,
				"nbSeg0": 6,
				"path1": [
					"Roachdale,+IN6676",
					"Roachdale,+IN4111",
					"Chicago,+IL4036",
					"Chicago,+IL4037",
					"Chicago,+IL6654"
				],
				"lat1": 6.000000,
				"nbSeg1": 7
			},
			"pathsExist": true,
			"path1": [
				"Roachdale,+IN6676",
				"Kansas+City,+MO6750"
			],
			"lat1": 10.000000,
			"path2": [
				"Pennsauken,+NJ4117",
				"Roachdale,+IN4056",
				"Chicago,+IL6654"
			],
			"lat2": 12.000000,
			"maxlat": 12.000000,
			"runtime": 2346309719,
			"nomLat1": 10.000000,
			"nomLat2": 14.000000,
			"maxNomLat": 14.000000,
			"mincut": 8
		},
		{
			"s1": "New+York,+NY4107",
			"s2": "Relay,+MD4127",
			"t1": "New+York,+NY6605",
			"t2": "Atlanta,+GA6565",
			"suurballeNbPaths": 2,
			"suurballeTime": 341353630,
			"suurballePaths": {
				"path0": [
					"New+York,+NY4107",
					"New+York,+NY4116",
					"New+York,+NY6605"
				],
				"lat0": 2.000000,
				"nbSeg0": 4,
				"path1": [
					"Relay,+MD4127",
					"Relay,+MD4093",
					"Atlanta,+GA4032",
					"Atlanta,+GA6565"
				],
				"lat1": 8.000000,
				"nbSeg1": 6
			},
			"pathsExist": true,
			"path1": [
				"New+York,+NY4107",
				"New+York,+NY6605"
			],
			"lat1": 2.000000,
			"path2": [
				"Relay,+MD4127",
				"Atlanta,+GA6565"
			],
			"lat2": 8.000000,
			"maxlat": 8.000000,
			"runtime": 2348837852,
			"nomLat1": 2.000000,
			"nomLat2": 8.000000,
			"maxNomLat": 8.000000,
			"mincut": 10
		},
		{
			"s1": "Atlanta,+GA6628",
			"s2": "Ashburn,+VA10162",
			"t1": "Roachdale,+IN6712",
			"t2": "Anaheim,+CA6490",
			"suurballeNbPaths": 2,
			"suurballeTime": 427295591,
			"suurballePaths": {
				"path0": [
					"Atlanta,+GA6628",
					"Atlanta,+GA4032",
					"Dallas,+TX2635",
					"Anaheim,+CA4099",
					"Anaheim,+CA6490"
				],
				"lat0": 20.000000,
				"nbSeg0": 8,
				"path1": [
					"Ashburn,+VA10162",
					"Relay,+MD4131",
					"Relay,+MD4093",
					"Pennsauken,+NJ4135",
					"Pennsauken,+NJ4126",
					"Roachdale,+IN4056",
					"Roachdale,+IN6712"
				],
				"lat1": 14.000000,
				"nbSeg1": 12
			},
			"pathsExist": true,
			"path1": [
				"Atlanta,+GA6628",
				"Roachdale,+IN6712"
			],
			"lat1": 11.000000,
			"path2": [
				"Ashburn,+VA10162",
				"Dallas,+TX2635",
				"Anaheim,+CA6490"
			],
			"lat2": 28.000000,
			"maxlat": 28.000000,
			"runtime": 2396298611,
			"nomLat1": 11.000000,
			"nomLat2": 30.000000,
			"maxNomLat": 30.000000,
			"mincut": 8
		},
		{
			"s1": "Tacoma,+WA6720",
			"s2": "Washington,+DC6736",
			"t1": "Kansas+City,+MO4105",
			"t2": "New+York,+NY4129",
			"suurballeNbPaths": 2,
			"suurballeTime": 763018966,
			"suurballePaths": {
				"path0": [
					"Washington,+DC6736",
					"Washington,+DC4139",
					"Relay,+MD4054",
					"New+York,+NY4129"
				],
				"lat0": 6.000000,
				"nbSeg0": 6,
				"path1": [
					"Tacoma,+WA6720",
					"Tacoma,+WA3251",
					"Seattle,+WA4060",
					"Kansas+City,+MO4043",
					"Kansas+City,+MO4105"
				],
				"lat1": 18.000000,
				"nbSeg1": 8
			},
			"pathsExist": true,
			"path1": [
				"Tacoma,+WA6720",
				"Kansas+City,+MO4105"
			],
			"lat1": 18.000000,
			"path2": [
				"Washington,+DC6736",
				"New+York,+NY4129"
			],
			"lat2": 6.000000,
			"maxlat": 18.000000,
			"runtime": 2024961587,
			"nomLat1": 18.000000,
			"nomLat2": 6.000000,
			"maxNomLat": 18.000000,
			"mincut": 16
		},
		{
			"s1": "Chicago,+IL4036",
			"s2": "Kansas+City,+MO6544",
			"t1": "Kansas+City,+MO6458",
			"t2": "Pennsauken,+NJ4117",
			"suurballeNbPaths": 2,
			"suurballeTime": 1078780443,
			"suurballePaths": {
				"path0": [
					"Chicago,+IL4036",
					"Roachdale,+IN4111",
					"Pennsauken,+NJ4117"
				],
				"lat0": 10.000000,
				"nbSeg0": 3,
				"path1": [
					"Kansas+City,+MO6544",
					"Kansas+City,+MO4043",
					"Kansas+City,+MO6458"
				],
				"lat1": 2.000000,
				"nbSeg1": 4
			},
			"pathsExist": true,
			"path1": [
				"Chicago,+IL4036",
				"Kansas+City,+MO6458"
			],
			"lat1": 7.000000,
			"path2": [
				"Kansas+City,+MO6544",
				"Pennsauken,+NJ4117"
			],
			"lat2": 11.000000,
			"maxlat": 11.000000,
			"runtime": 1964977511,
			"nomLat1": 7.000000,
			"nomLat2": 11.000000,
			"maxNomLat": 11.000000,
			"mincut": 24
		},
		{
			"s1": "Dallas,+TX6598",
			"s2": "Orlando,+FL4089",
			"t1": "Research+Triangle+Park,+NC4057",
			"t2": "Dallas,+TX6663",
			"suurballeNbPaths": 2,
			"suurballeTime": 591759780,
			"suurballePaths": {
				"path0": [
					"Dallas,+TX6598",
					"Dallas,+TX2635",
					"Dallas,+TX6663"
				],
				"lat0": 2.000000,
				"nbSeg0": 4,
				"path1": [
					"Orlando,+FL4089",
					"Orlando,+FL4050",
					"Atlanta,+GA4102",
					"Relay,+MD4131",
					"Relay,+MD4054",
					"Research+Triangle+Park,+NC4057"
				],
				"lat1": 17.000000,
				"nbSeg1": 10
			},
			"pathsExist": true,
			"path1": [
				"Dallas,+TX6598",
				"Atlanta,+GA6735",
				"Research+Triangle+Park,+NC4057"
			],
			"lat1": 19.000000,
			"path2": [
				"Orlando,+FL4089",
				"Dallas,+TX6663"
			],
			"lat2": 11.000000,
			"maxlat": 19.000000,
			"runtime": 2578205744,
			"nomLat1": 22.000000,
			"nomLat2": 11.000000,
			"maxNomLat": 22.000000,
			"mincut": 6
		},
		{
			"s1": "Stockton,+CA4113",
			"s2": "Stockton,+CA6583",
			"t1": "Chicago,+IL6651",
			"t2": "Dallas,+TX6645",
			"suurballeNbPaths": 2,
			"suurballeTime": 1224156907,
			"suurballePaths": {
				"path0": [
					"Stockton,+CA4113",
					"Chicago,+IL4036",
					"Chicago,+IL4122",
					"Chicago,+IL6651"
				],
				"lat0": 18.000000,
				"nbSeg0": 6,
				"path1": [
					"Stockton,+CA6583",
					"Stockton,+CA4064",
					"San+Jose,+CA4119",
					"Dallas,+TX4080",
					"Dallas,+TX6645"
				],
				"lat1": 17.000000,
				"nbSeg1": 7
			},
			"pathsExist": true,
			"path1": [
				"Stockton,+CA4113",
				"Chicago,+IL6651"
			],
			"lat1": 18.000000,
			"path2": [
				"Stockton,+CA6583",
				"Dallas,+TX6645"
			],
			"lat2": 19.000000,
			"maxlat": 19.000000,
			"runtime": 1822914160,
			"nomLat1": 18.000000,
			"nomLat2": 19.000000,
			"maxNomLat": 19.000000,
			"mincut": 12
		},
		{
			"s1": "Anaheim,+CA6512",
			"s2": "Kansas+City,+MO6707",
			"t1": "Roachdale,+IN6402",
			"t2": "Washington,+DC6736",
			"suurballeNbPaths": 2,
			"suurballeTime": 612315241,
			"suurballePaths": {
				"path0": [
					"Kansas+City,+MO6707",
					"Kansas+City,+MO4043",
					"Chicago,+IL4037",
					"Roachdale,+IN4056",
					"Roachdale,+IN6402"
				],
				"lat0": 10.000000,
				"nbSeg0": 8,
				"path1": [
					"Anaheim,+CA6512",
					"Anaheim,+CA4101",
					"Dallas,+TX2635",
					"Dallas,+TX6573",
					"Relay,+MD5801",
					"Relay,+MD4110",
					"Washington,+DC4140",
					"Washington,+DC6736"
				],
				"lat1": 28.000000,
				"nbSeg1": 14
			},
			"pathsExist": true,
			"path1": [
				"Anaheim,+CA6512",
				"Roachdale,+IN6402"
			],
			"lat1": 24.000000,
			"path2": [
				"Kansas+City,+MO6707",
				"Pennsauken,+NJ4091",
				"Washington,+DC6736"
			],
			"lat2": 18.000000,
			"maxlat": 24.000000,
			"runtime": 2491963095,
			"nomLat1": 24.000000,
			"nomLat2": 22.000000,
			"maxNomLat": 24.000000,
			"mincut": 18
		},
		{
			"s1": "Dallas,+TX6573",
			"s2": "Roachdale,+IN6677",
			"t1": "Atlanta,+GA2338",
			"t2": "Pennsauken,+NJ4117",
			"suurballeNbPaths": 2,
			"suurballeTime": 1126966880,
			"suurballePaths": {
				"path0": [
					"Dallas,+TX6573",
					"Dallas,+TX4015",
					"Atlanta,+GA4074",
					"Atlanta,+GA2338"
				],
				"lat0": 9.000000,
				"nbSeg0": 6,
				"path1": [
					"Roachdale,+IN6677",
					"Roachdale,+IN4056",
					"Pennsauken,+NJ4126",
					"Pennsauken,+NJ4117"
				],
				"lat1": 9.000000,
				"nbSeg1": 6
			},
			"pathsExist": true,
			"path1": [
				"Dallas,+TX6573",
				"Atlanta,+GA2338"
			],
			"lat1": 9.000000,
			"path2": [
				"Roachdale,+IN6677",
				"Pennsauken,+NJ4117"
			],
			"lat2": 9.000000,
			"maxlat": 9.000000,
			"runtime": 1813089684,
			"nomLat1": 9.000000,
			"nomLat2": 9.000000,
			"maxNomLat": 9.000000,
			"mincut": 16
		},
		{
			"s1": "Stockton,+CA4113",
			"s2": "Roachdale,+IN4111",
			"t1": "Pennsauken,+NJ6647",
			"t2": "Relay,+MD6576",
			"suurballeNbPaths": 2,
			"suurballeTime": 597799386,
			"suurballePaths": {
				"path0": [
					"Roachdale,+IN4111",
					"Pennsauken,+NJ4117",
					"Pennsauken,+NJ4135",
					"Pennsauken,+NJ6647"
				],
				"lat0": 9.000000,
				"nbSeg0": 6,
				"path1": [
					"Stockton,+CA4113",
					"Stockton,+CA4096",
					"San+Jose,+CA4112",
					"Relay,+MD4093",
					"Relay,+MD6576"
				],
				"lat1": 25.000000,
				"nbSeg1": 8
			},
			"pathsExist": true,
			"path1": [
				"Stockton,+CA4113",
				"Pennsauken,+NJ6647"
			],
			"lat1": 23.000000,
			"path2": [
				"Roachdale,+IN4111",
				"Pennsauken,+NJ4109",
				"Relay,+MD6576"
			],
			"lat2": 13.000000,
			"maxlat": 23.000000,
			"runtime": 2594200119,
			"nomLat1": 23.000000,
			"nomLat2": 13.000000,
			"maxNomLat": 23.000000,
			"mincut": 6
		},
		{
			"s1": "Chicago,+IL6586",
			"s2": "Atlanta,+GA6565",
			"t1": "Seattle,+WA4060",
			"t2": "Pennsauken,+NJ6516",
			"suurballeNbPaths": 2,
			"suurballeTime": 824211153,
			"suurballePaths": {
				"path0": [
					"Chicago,+IL6586",
					"Chicago,+IL4104",
					"Seattle,+WA4059",
					"Seattle,+WA4060"
				],
				"lat0": 17.000000,
				"nbSeg0": 6,
				"path1": [
					"Atlanta,+GA6565",
					"Atlanta,+GA4032",
					"Relay,+MD4093",
					"Relay,+MD4118",
					"Pennsauken,+NJ4091",
					"Pennsauken,+NJ6516"
				],
				"lat1": 11.000000,
				"nbSeg1": 10
			},
			"pathsExist": true,
			"path1": [
				"Chicago,+IL6586",
				"Seattle,+WA4060"
			],
			"lat1": 17.000000,
			"path2": [
				"Atlanta,+GA6565",
				"Pennsauken,+NJ6516"
			],
			"lat2": 11.000000,
			"maxlat": 17.000000,
			"runtime": 2161656306,
			"nomLat1": 17.000000,
			"nomLat2": 11.000000,
			"maxNomLat": 17.000000,
			"mincut": 14
		},
		{
			"s1": "Pennsauken,+NJ6399",
			"s2": "Cheyenne,+WY4034",
			"t1": "Reston,+VA5496",
			"t2": "Roachdale,+IN4111",
			"suurballeNbPaths": 2,
			"suurballeTime": 816064591,
			"suurballePaths": {
				"path0": [
					"Cheyenne,+WY4034",
					"Chicago,+IL4104",
					"Roachdale,+IN4111"
				],
				"lat0": 12.000000,
				"nbSeg0": 4,
				"path1": [
					"Pennsauken,+NJ6399",
					"Pennsauken,+NJ4052",
					"Pennsauken,+NJ4091",
					"Relay,+MD4118",
					"Relay,+MD4054",
					"Reston,+VA5496"
				],
				"lat1": 7.000000,
				"nbSeg1": 10
			},
			"pathsExist": true,
			"path1": [
				"Pennsauken,+NJ6399",
				"Reston,+VA5496"
			],
			"lat1": 7.000000,
			"path2": [
				"Cheyenne,+WY4034",
				"Roachdale,+IN4111"
			],
			"lat2": 12.000000,
			"maxlat": 12.000000,
			"runtime": 2415852760,
			"nomLat1": 7.000000,
			"nomLat2": 12.000000,
			"maxNomLat": 12.000000,
			"mincut": 18
		},
		{
			"s1": "Pennsauken,+NJ4109",
			"s2": "Chicago,+IL4037",
			"t1": "Dallas,+TX6726",
			"t2": "Kansas+City,+MO6690",
			"suurballeNbPaths": 2,
			"suurballeTime": 1389070560,
			"suurballePaths": {
				"path0": [
					"Pennsauken,+NJ4109",
					"Dallas,+TX4015",
					"Dallas,+TX6726"
				],
				"lat0": 13.000000,
				"nbSeg0": 4,
				"path1": [
					"Chicago,+IL4037",
					"Kansas+City,+MO4043",
					"Kansas+City,+MO6690"
				],
				"lat1": 6.000000,
				"nbSeg1": 4
			},
			"pathsExist": true,
			"path1": [
				"Pennsauken,+NJ4109",
				"Dallas,+TX6726"
			],
			"lat1": 13.000000,
			"path2": [
				"Chicago,+IL4037",
				"Kansas+City,+MO6690"
			],
			"lat2": 6.000000,
			"maxlat": 13.000000,
			"runtime": 1669735744,
			"nomLat1": 13.000000,
			"nomLat2": 6.000000,
			"maxNomLat": 13.000000,
			"mincut": 22
		},
		{
			"s1": "Frankfurt4040",
			"s2": "Stockholm,+Sweden4066",
			"t1": "Milan,+Italy4085",
			"t2": "Dallas,+TX6587",
			"suurballeNbPaths": 2,
			"suurballeTime": 690860555,
			"suurballePaths": {
				"path0": [
					"Frankfurt4040",
					"Milan,+Italy4085"
				],
				"lat0": 4.000000,
				"nbSeg0": 2,
				"path1": [
					"Stockholm,+Sweden4066",
					"Copenhagen4038",
					"Manasquan,+NJ4086",
					"Relay,+MD4110",
					"Atlanta,+GA4074",
					"Dallas,+TX4015",
					"Dallas,+TX6587"
				],
				"lat1": 54.000000,
				"nbSeg1": 12
			},
			"pathsExist": true,
			"path1": [
				"Frankfurt4040",
				"Milan,+Italy4085"
			],
			"lat1": 4.000000,
			"path2": [
				"Stockholm,+Sweden4066",
				"Dallas,+TX6587"
			],
			"lat2": 54.000000,
			"maxlat": 54.000000,
			"runtime": 2336237319,
			"nomLat1": 4.000000,
			"nomLat2": 54.000000,
			"maxNomLat": 54.000000,
			"mincut": 10
		},
		{
			"s1": "Pennsauken,+NJ4135",
			"s2": "Lees+Summit,+MO5504",
			"t1": "Dallas,+TX6558",
			"t2": "Atlanta,+GA4032",
			"suurballeNbPaths": 2,
			"suurballeTime": 1130051929,
			"suurballePaths": {
				"path0": [
					"Pennsauken,+NJ4135",
					"Relay,+MD4093",
					"Atlanta,+GA4032"
				],
				"lat0": 8.000000,
				"nbSeg0": 4,
				"path1": [
					"Lees+Summit,+MO5504",
					"Kansas+City,+MO4043",
					"Dallas,+TX4015",
					"Dallas,+TX6558"
				],
				"lat1": 8.000000,
				"nbSeg1": 6
			},
			"pathsExist": true,
			"path1": [
				"Pennsauken,+NJ4135",
				"Dallas,+TX6558"
			],
			"lat1": 14.000000,
			"path2": [
				"Lees+Summit,+MO5504",
				"Chicago,+IL4037",
				"Atlanta,+GA4032"
			],
			"lat2": 13.000000,
			"maxlat": 14.000000,
			"runtime": 1913578567,
			"nomLat1": 14.000000,
			"nomLat2": 15.000000,
			"maxNomLat": 15.000000,
			"mincut": 16
		},
		{
			"s1": "Anaheim,+CA6564",
			"s2": "Relay,+MD5801",
			"t1": "Anaheim,+CA4100",
			"t2": "Dallas,+TX2635",
			"suurballeNbPaths": 2,
			"suurballeTime": 871813353,
			"suurballePaths": {
				"path0": [
					"Anaheim,+CA6564",
					"Anaheim,+CA4100"
				],
				"lat0": 1.000000,
				"nbSeg0": 2,
				"path1": [
					"Relay,+MD5801",
					"Dallas,+TX6573",
					"Dallas,+TX2635"
				],
				"lat1": 12.000000,
				"nbSeg1": 4
			},
			"pathsExist": true,
			"path1": [
				"Anaheim,+CA6564",
				"Anaheim,+CA4100"
			],
			"lat1": 1.000000,
			"path2": [
				"Relay,+MD5801",
				"Dallas,+TX2635"
			],
			"lat2": 15.000000,
			"maxlat": 15.000000,
			"runtime": 2195995255,
			"nomLat1": 1.000000,
			"nomLat2": 15.000000,
			"maxNomLat": 15.000000,
			"mincut": 18
		},
		{
			"s1": "Orlando,+FL4050",
			"s2": "Kansas+City,+MO6458",
			"t1": "Roachdale,+IN6676",
			"t2": "Pennsauken,+NJ4109",
			"suurballeNbPaths": 2,
			"suurballeTime": 709375920,
			"suurballePaths": {
				"path0": [
					"Orlando,+FL4050",
					"Orlando,+FL4089",
					"New+York,+NY4028",
					"Pennsauken,+NJ4135",
					"Pennsauken,+NJ4109"
				],
				"lat0": 13.000000,
				"nbSeg0": 8,
				"path1": [
					"Kansas+City,+MO6458",
					"Kansas+City,+MO4043",
					"Chicago,+IL4104",
					"Roachdale,+IN4111",
					"Roachdale,+IN6676"
				],
				"lat1": 10.000000,
				"nbSeg1": 8
			},
			"pathsExist": true,
			"path1": [
				"Orlando,+FL4050",
				"Roachdale,+IN6676"
			],
			"lat1": 16.000000,
			"path2": [
				"Kansas+City,+MO6458",
				"Kansas+City,+MO4105",
				"Pennsauken,+NJ4109"
			],
			"lat2": 12.000000,
			"maxlat": 16.000000,
			"runtime": 2380421945,
			"nomLat1": 16.000000,
			"nomLat2": 18.000000,
			"maxNomLat": 18.000000,
			"mincut": 26
		},
		{
			"s1": "Chicago,+IL6639",
			"s2": "Chicago,+IL4122",
			"t1": "Dallas,+TX6483",
			"t2": "Relay,+MD6576",
			"suurballeNbPaths": 2,
			"suurballeTime": 741754780,
			"suurballePaths": {
				"path0": [
					"Chicago,+IL4122",
					"Chicago,+IL1391",
					"Dallas,+TX4115",
					"Dallas,+TX6483"
				],
				"lat0": 10.000000,
				"nbSeg0": 6,
				"path1": [
					"Chicago,+IL6639",
					"Chicago,+IL4104",
					"New+York,+NY4048",
					"Relay,+MD4110",
					"Relay,+MD4093",
					"Relay,+MD6576"
				],
				"lat1": 13.000000,
				"nbSeg1": 10
			},
			"pathsExist": true,
			"path1": [
				"Chicago,+IL6639",
				"Dallas,+TX6483"
			],
			"lat1": 10.000000,
			"path2": [
				"Chicago,+IL4122",
				"New+York,+NY4048",
				"Relay,+MD6576"
			],
			"lat2": 13.000000,
			"maxlat": 13.000000,
			"runtime": 2289557144,
			"nomLat1": 10.000000,
			"nomLat2": 14.000000,
			"maxNomLat": 14.000000,
			"mincut": 14
		},
		{
			"s1": "Pearl+Harbor,+HI6550",
			"s2": "Stockton,+CA6758",
			"t1": "Kansas+City,+MO6395",
			"t2": "Dallas,+TX6558",
			"suurballeNbPaths": 2,
			"suurballeTime": 1060215563,
			"suurballePaths": {
				"path0": [
					"Stockton,+CA6758",
					"Stockton,+CA4064",
					"San+Jose,+CA4119",
					"Dallas,+TX4080",
					"Dallas,+TX6558"
				],
				"lat0": 17.000000,
				"nbSeg0": 7,
				"path1": [
					"Pearl+Harbor,+HI6550",
					"Pearl+Harbor,+HI4053",
					"Anaheim,+CA4101",
					"Dallas,+TX2635",
					"Kansas+City,+MO4105",
					"Kansas+City,+MO6395"
				],
				"lat1": 40.000000,
				"nbSeg1": 10
			},
			"pathsExist": true,
			"path1": [
				"Pearl+Harbor,+HI6550",
				"Kansas+City,+MO6395"
			],
			"lat1": 40.000000,
			"path2": [
				"Stockton,+CA6758",
				"Stockton,+CA4065",
				"Dallas,+TX6558"
			],
			"lat2": 19.000000,
			"maxlat": 40.000000,
			"runtime": 2512244864,
			"nomLat1": 40.000000,
			"nomLat2": 19.000000,
			"maxNomLat": 40.000000,
			"mincut": 12
		},
		{
			"s1": "New+York,+NY4137",
			"s2": "Cheyenne,+WY6388",
			"t1": "Roachdale,+IN6402",
			"t2": "Relay,+MD6551",
			"suurballeNbPaths": 2,
			"suurballeTime": 1442914173,
			"suurballePaths": {
				"path0": [
					"New+York,+NY4137",
					"New+York,+NY4129",
					"Relay,+MD4054",
					"Relay,+MD6551"
				],
				"lat0": 5.000000,
				"nbSeg0": 6,
				"path1": [
					"Cheyenne,+WY6388",
					"Cheyenne,+WY4034",
					"Chicago,+IL4037",
					"Roachdale,+IN4056",
					"Roachdale,+IN6402"
				],
				"lat1": 14.000000,
				"nbSeg1": 8
			},
			"pathsExist": true,
			"path1": [
				"New+York,+NY4137",
				"Roachdale,+IN6402"
			],
			"lat1": 12.000000,
			"path2": [
				"Cheyenne,+WY6388",
				"Chicago,+IL4104",
				"Relay,+MD6551"
			],
			"lat2": 21.000000,
			"maxlat": 21.000000,
			"runtime": 1564413923,
			"nomLat1": 12.000000,
			"nomLat2": 23.000000,
			"maxNomLat": 23.000000,
			"mincut": 10
		},
		{
			"s1": "Stockton,+CA6619",
			"s2": "Relay,+MD6461",
			"t1": "Rancho+Cordova,+CA5514",
			"t2": "Ashburn,+VA10163",
			"suurballeNbPaths": 2,
			"suurballeTime": 1250122600,
			"suurballePaths": {
				"path0": [
					"Stockton,+CA6619",
					"Stockton,+CA4096",
					"Rancho+Cordova,+CA5514"
				],
				"lat0": 3.000000,
				"nbSeg0": 4,
				"path1": [
					"Relay,+MD6461",
					"Relay,+MD4054",
					"Relay,+MD4127",
					"Ashburn,+VA10163"
				],
				"lat1": 4.000000,
				"nbSeg1": 6
			},
			"pathsExist": true,
			"path1": [
				"Stockton,+CA6619",
				"Rancho+Cordova,+CA5514"
			],
			"lat1": 3.000000,
			"path2": [
				"Relay,+MD6461",
				"Ashburn,+VA10163"
			],
			"lat2": 4.000000,
			"maxlat": 4.000000,
			"runtime": 1822827967,
			"nomLat1": 3.000000,
			"nomLat2": 4.000000,
			"maxNomLat": 4.000000,
			"mincut": 8
		},
		{
			"s1": "Tokyo4070",
			"s2": "Stockton,+CA6569",
			"t1": "Chicago,+IL6441",
			"t2": "Hong+Kong6421",
			"suurballeNbPaths": 2,
			"suurballeTime": 634929390,
			"suurballePaths": {
				"path0": [
					"Tokyo4070",
					"Hong+Kong4042",
					"Hong+Kong6421"
				],
				"lat0": 17.000000,
				"nbSeg0": 4,
				"path1": [
					"Stockton,+CA6569",
					"Stockton,+CA4065",
					"Chicago,+IL4036",
					"Chicago,+IL6441"
				],
				"lat1": 18.000000,
				"nbSeg1": 6
			},
			"pathsExist": true,
			"path1": [
				"Tokyo4070",
				"Chicago,+IL6441"
			],
			"lat1": 59.000000,
			"path2": [
				"Stockton,+CA6569",
				"Hong+Kong6421"
			],
			"lat2": 58.000000,
			"maxlat": 59.000000,
			"runtime": 2684415997,
			"nomLat1": 59.000000,
			"nomLat2": 58.000000,
			"maxNomLat": 59.000000,
			"mincut": 16
		},
		{
			"s1": "Dallas,+TX6658",
			"s2": "Dallas,+TX4133",
			"t1": "Dallas,+TX6641",
			"t2": "Kansas+City,+MO6544",
			"suurballeNbPaths": 2,
			"suurballeTime": 522909494,
			"suurballePaths": {
				"path0": [
					"Dallas,+TX4133",
					"Dallas,+TX2635",
					"Dallas,+TX6641"
				],
				"lat0": 2.000000,
				"nbSeg0": 4,
				"path1": [
					"Dallas,+TX6658",
					"Dallas,+TX4080",
					"Kansas+City,+MO4082",
					"Kansas+City,+MO6544"
				],
				"lat1": 7.000000,
				"nbSeg1": 6
			},
			"pathsExist": true,
			"path1": [
				"Dallas,+TX6658",
				"Dallas,+TX6641"
			],
			"lat1": 2.000000,
			"path2": [
				"Dallas,+TX4133",
				"Kansas+City,+MO6544"
			],
			"lat2": 7.000000,
			"maxlat": 7.000000,
			"runtime": 378389570,
			"nomLat1": 2.000000,
			"nomLat2": 7.000000,
			"maxNomLat": 7.000000,
			"mincut": 10
		},
		{
			"s1": "Dallas,+TX6580",
			"s2": "Cheyenne,+WY6542",
			"t1": "Dallas,+TX6471",
			"t2": "Atlanta,+GA4074",
			"suurballeNbPaths": 2,
			"suurballeTime": 480212286,
			"suurballePaths": {
				"path0": [
					"Dallas,+TX6580",
					"Dallas,+TX4015",
					"Atlanta,+GA4074"
				],
				"lat0": 8.000000,
				"nbSeg0": 4,
				"path1": [
					"Cheyenne,+WY6542",
					"Cheyenne,+WY4076",
					"Dallas,+TX4080",
					"Dallas,+TX6471"
				],
				"lat1": 9.000000,
				"nbSeg1": 5
			},
			"pathsExist": true,
			"path1": [
				"Dallas,+TX6580",
				"Dallas,+TX6471"
			],
			"lat1": 2.000000,
			"path2": [
				"Cheyenne,+WY6542",
				"Atlanta,+GA4074"
			],
			"lat2": 16.000000,
			"maxlat": 16.000000,
			"runtime": 413732807,
			"nomLat1": 2.000000,
			"nomLat2": 16.000000,
			"maxNomLat": 16.000000,
			"mincut": 14
		},
		{
			"s1": "Stockton,+CA6407",
			"s2": "Roachdale,+IN6729",
			"t1": "New+York,+NY6606",
			"t2": "Roachdale,+IN6402",
			"suurballeNbPaths": 2,
			"suurballeTime": 518742922,
			"suurballePaths": {
				"path0": [
					"Roachdale,+IN6729",
					"Roachdale,+IN4056",
					"Roachdale,+IN6402"
				],
				"lat0": 2.000000,
				"nbSeg0": 4,
				"path1": [
					"Stockton,+CA6407",
					"Stockton,+CA4096",
					"Pennsauken,+NJ4109",
					"New+York,+NY4116",
					"New+York,+NY6606"
				],
				"lat1": 25.000000,
				"nbSeg1": 8
			},
			"pathsExist": true,
			"path1": [
				"Stockton,+CA6407",
				"New+York,+NY6606"
			],
			"lat1": 25.000000,
			"path2": [
				"Roachdale,+IN6729",
				"Roachdale,+IN6402"
			],
			"lat2": 2.000000,
			"maxlat": 25.000000,
			"runtime": 398973319,
			"nomLat1": 25.000000,
			"nomLat2": 2.000000,
			"maxNomLat": 25.000000,
			"mincut": 10
		},
		{
			"s1": "Dallas,+TX4133",
			"s2": "Anaheim,+CA6502",
			"t1": "Anaheim,+CA6591",
			"t2": "Relay,+MD4029",
			"suurballeNbPaths": 2,
			"suurballeTime": 101990417,
			"suurballePaths": {
				"path0": [
					"Anaheim,+CA6502",
					"Anaheim,+CA4101",
					"Anaheim,+CA6591"
				],
				"lat0": 2.000000,
				"nbSeg0": 4,
				"path1": [
					"Dallas,+TX4133",
					"Dallas,+TX2635",
					"Dallas,+TX6573",
					"Relay,+MD5801",
					"Relay,+MD4110",
					"Relay,+MD4029"
				],
				"lat1": 15.000000,
				"nbSeg1": 10
			},
			"pathsExist": true,
			"path1": [
				"Dallas,+TX4133",
				"Anaheim,+CA6591"
			],
			"lat1": 13.000000,
			"path2": [
				"Anaheim,+CA6502",
				"Dallas,+TX4015",
				"Relay,+MD4029"
			],
			"lat2": 26.000000,
			"maxlat": 26.000000,
			"runtime": 401148254,
			"nomLat1": 13.000000,
			"nomLat2": 28.000000,
			"maxNomLat": 28.000000,
			"mincut": 10
		},
		{
			"s1": "Anaheim,+CA4100",
			"s2": "Pennsauken,+NJ6647",
			"t1": "Copenhagen4077",
			"t2": "Seattle,+WA4019",
			"suurballeNbPaths": 2,
			"suurballeTime": 148933496,
			"suurballePaths": {
				"path0": [
					"Anaheim,+CA4100",
					"San+Jose,+CA4112",
					"San+Jose,+CA4062",
					"Tacoma,+WA3251",
					"Seattle,+WA4059",
					"Seattle,+WA4019"
				],
				"lat0": 15.000000,
				"nbSeg0": 9,
				"path1": [
					"Pennsauken,+NJ6647",
					"Pennsauken,+NJ4135",
					"Pennsauken,+NJ4109",
					"New+York,+NY4116",
					"New+York,+NY4088",
					"Manasquan,+NJ4086",
					"Copenhagen4038",
					"Copenhagen4077"
				],
				"lat1": 41.000000,
				"nbSeg1": 14
			},
			"pathsExist": true,
			"path1": [
				"Anaheim,+CA4100",
				"Dallas,+TX4015",
				"Copenhagen4077"
			],
			"lat1": 62.000000,
			"path2": [
				"Pennsauken,+NJ6647",
				"New+York,+NY4048",
				"Seattle,+WA4019"
			],
			"lat2": 28.000000,
			"maxlat": 62.000000,
			"runtime": 3725441760,
			"nomLat1": 64.000000,
			"nomLat2": 30.000000,
			"maxNomLat": 64.000000,
			"mincut": 12
		},
		{
			"s1": "Pearl+Harbor,+HI4053",
			"s2": "Lees+Summit,+MO5504",
			"t1": "Chicago,+IL6669",
			"t2": "Chicago,+IL6639",
			"suurballeNbPaths": 2,
			"suurballeTime": 154483842,
			"suurballePaths": {
				"path0": [
					"Pearl+Harbor,+HI4053",
					"Stockton,+CA4065",
					"Chicago,+IL4036",
					"Chicago,+IL6669"
				],
				"lat0": 38.000000,
				"nbSeg0": 6,
				"path1": [
					"Lees+Summit,+MO5504",
					"Kansas+City,+MO4043",
					"Chicago,+IL4037",
					"Chicago,+IL6639"
				],
				"lat1": 8.000000,
				"nbSeg1": 6
			},
			"pathsExist": true,
			"path1": [
				"Pearl+Harbor,+HI4053",
				"Stockton,+CA4065",
				"Chicago,+IL6669"
			],
			"lat1": 39.000000,
			"path2": [
				"Lees+Summit,+MO5504",
				"Chicago,+IL6639"
			],
			"lat2": 8.000000,
			"maxlat": 39.000000,
			"runtime": 854923460,
			"nomLat1": 42.000000,
			"nomLat2": 8.000000,
			"maxNomLat": 42.000000,
			"mincut": 18
		},
		{
			"s1": "Manasquan,+NJ4086",
			"s2": "San+Jose,+CA4119",
			"t1": "Roachdale,+IN4111",
			"t2": "Sydney,+Australia4067",
			"suurballeNbPaths": 2,
			"suurballeTime": 266389523,
			"suurballePaths": {
				"path0": [
					"San+Jose,+CA4119",
					"Stockton,+CA4064",
					"Sydney,+Australia4068",
					"Sydney,+Australia6437",
					"Sydney,+Australia4067"
				],
				"lat0": 66.000000,
				"nbSeg0": 8,
				"path1": [
					"Manasquan,+NJ4086",
					"New+York,+NY4088",
					"New+York,+NY4124",
					"Pennsauken,+NJ4091",
					"Pennsauken,+NJ4117",
					"Roachdale,+IN4111"
				],
				"lat1": 13.000000,
				"nbSeg1": 10
			},
			"pathsExist": true,
			"path1": [
				"Manasquan,+NJ4086",
				"Roachdale,+IN4111"
			],
			"lat1": 13.000000,
			"path2": [
				"San+Jose,+CA4119",
				"Sydney,+Australia4067"
			],
			"lat2": 66.000000,
			"maxlat": 66.000000,
			"runtime": 193619683,
			"nomLat1": 13.000000,
			"nomLat2": 66.000000,
			"maxNomLat": 66.000000,
			"mincut": 18
		},
		{
			"s1": "London4044",
			"s2": "Anaheim,+CA6570",
			"t1": "Stockton,+CA4065",
			"t2": "Springfield,+MA4023",
			"suurballeNbPaths": 2,
			"suurballeTime": 329631383,
			"suurballePaths": {
				"path0": [
					"Anaheim,+CA6570",
					"Anaheim,+CA4031",
					"Anaheim,+CA6512",
					"Stockton,+CA3402",
					"Stockton,+CA4065"
				],
				"lat0": 7.000000,
				"nbSeg0": 8,
				"path1": [
					"London4044",
					"London4045",
					"New+York,+NY4017",
					"New+York,+NY4048",
					"New+York,+NY4137",
					"Springfield,+MA4020",
					"Springfield,+MA4023"
				],
				"lat1": 35.000000,
				"nbSeg1": 12
			},
			"pathsExist": true,
			"path1": [
				"London4044",
				"Chicago,+IL4104",
				"Stockton,+CA4065"
			],
			"lat1": 57.000000,
			"path2": [
				"Anaheim,+CA6570",
				"Springfield,+MA4023"
			],
			"lat2": 28.000000,
			"maxlat": 57.000000,
			"runtime": 357426587,
			"nomLat1": 58.000000,
			"nomLat2": 28.000000,
			"maxNomLat": 58.000000,
			"mincut": 14
		},
		{
			"s1": "Seattle,+WA6450",
			"s2": "Dallas,+TX6587",
			"t1": "New+York,+NY6532",
			"t2": "Chicago,+IL6611",
			"suurballeNbPaths": 2,
			"suurballeTime": 486231724,
			"suurballePaths": {
				"path0": [
					"Seattle,+WA6450",
					"Seattle,+WA4019",
					"Seattle,+WA4059",
					"Chicago,+IL4104",
					"Chicago,+IL6611"
				],
				"lat0": 18.000000,
				"nbSeg0": 8,
				"path1": [
					"Dallas,+TX6587",
					"Dallas,+TX4015",
					"Pennsauken,+NJ4109",
					"New+York,+NY4116",
					"New+York,+NY6532"
				],
				"lat1": 16.000000,
				"nbSeg1": 8
			},
			"pathsExist": true,
			"path1": [
				"Seattle,+WA6450",
				"New+York,+NY6532"
			],
			"lat1": 25.000000,
			"path2": [
				"Dallas,+TX6587",
				"Chicago,+IL6611"
			],
			"lat2": 10.000000,
			"maxlat": 25.000000,
			"runtime": 204185293,
			"nomLat1": 25.000000,
			"nomLat2": 10.000000,
			"maxNomLat": 25.000000,
			"mincut": 14
		},
		{
			"s1": "Chicago,+IL1484",
			"s2": "New+York,+NY6427",
			"t1": "Copenhagen4077",
			"t2": "New+York,+NY4107",
			"suurballeNbPaths": 2,
			"suurballeTime": 482620964,
			"suurballePaths": {
				"path0": [
					"New+York,+NY6427",
					"New+York,+NY4107"
				],
				"lat0": 1.000000,
				"nbSeg0": 2,
				"path1": [
					"Chicago,+IL1484",
					"New+York,+NY4088",
					"Manasquan,+NJ4086",
					"Copenhagen4038",
					"Copenhagen4077"
				],
				"lat1": 43.000000,
				"nbSeg1": 8
			},
			"pathsExist": true,
			"path1": [
				"Chicago,+IL1484",
				"Copenhagen4077"
			],
			"lat1": 43.000000,
			"path2": [
				"New+York,+NY6427",
				"New+York,+NY4107"
			],
			"lat2": 1.000000,
			"maxlat": 43.000000,
			"runtime": 275264650,
			"nomLat1": 43.000000,
			"nomLat2": 1.000000,
			"maxNomLat": 43.000000,
			"mincut": 32
		},
		{
			"s1": "Dallas,+TX6558",
			"s2": "Stockton,+CA6463",
			"t1": "Lees+Summit,+MO5512",
			"t2": "Washington,+DC6456",
			"suurballeNbPaths": 2,
			"suurballeTime": 765642586,
			"suurballePaths": {
				"path0": [
					"Dallas,+TX6558",
					"Dallas,+TX4015",
					"Kansas+City,+MO6690",
					"Kansas+City,+MO4106",
					"Lees+Summit,+MO5512"
				],
				"lat0": 9.000000,
				"nbSeg0": 7,
				"path1": [
					"Stockton,+CA6463",
					"Stockton,+CA4096",
					"San+Jose,+CA4112",
					"Relay,+MD4093",
					"Washington,+DC6456"
				],
				"lat1": 26.000000,
				"nbSeg1": 8
			},
			"pathsExist": true,
			"path1": [
				"Dallas,+TX6558",
				"Lees+Summit,+MO5512"
			],
			"lat1": 9.000000,
			"path2": [
				"Stockton,+CA6463",
				"Washington,+DC6456"
			],
			"lat2": 26.000000,
			"maxlat": 26.000000,
			"runtime": 322024434,
			"nomLat1": 9.000000,
			"nomLat2": 26.000000,
			"maxNomLat": 26.000000,
			"mincut": 14
		},
		{
			"s1": "Pennsauken,+NJ6647",
			"s2": "Anaheim,+CA6520",
			"t1": "Relay,+MD4136",
			"t2": "Kansas+City,+MO6690",
			"suurballeNbPaths": 2,
			"suurballeTime": 1044356180,
			"suurballePaths": {
				"path0": [
					"Anaheim,+CA6520",
					"Anaheim,+CA4073",
					"Dallas,+TX4015",
					"Kansas+City,+MO6690"
				],
				"lat0": 17.000000,
				"nbSeg0": 5,
				"path1": [
					"Pennsauken,+NJ6647",
					"Pennsauken,+NJ4135",
					"Relay,+MD4093",
					"Relay,+MD4127",
					"Relay,+MD4136"
				],
				"lat1": 5.000000,
				"nbSeg1": 8
			},
			"pathsExist": true,
			"path1": [
				"Pennsauken,+NJ6647",
				"Relay,+MD4136"
			],
			"lat1": 6.000000,
			"path2": [
				"Anaheim,+CA6520",
				"Kansas+City,+MO6690"
			],
			"lat2": 18.000000,
			"maxlat": 18.000000,
			"runtime": 288209863,
			"nomLat1": 6.000000,
			"nomLat2": 18.000000,
			"maxNomLat": 18.000000,
			"mincut": 14
		},
		{
			"s1": "Stockton,+CA6758",
			"s2": "New+York,+NY4137",
			"t1": "Chicago,+IL6586",
			"t2": "Kansas+City,+MO6707",
			"suurballeNbPaths": 2,
			"suurballeTime": 1272946093,
			"suurballePaths": {
				"path0": [
					"New+York,+NY4137",
					"New+York,+NY4124",
					"Chicago,+IL4037",
					"Chicago,+IL6586"
				],
				"lat0": 9.000000,
				"nbSeg0": 6,
				"path1": [
					"Stockton,+CA6758",
					"Stockton,+CA4064",
					"San+Jose,+CA4119",
					"Dallas,+TX4080",
					"Kansas+City,+MO4082",
					"Kansas+City,+MO6707"
				],
				"lat1": 22.000000,
				"nbSeg1": 9
			},
			"pathsExist": true,
			"path1": [
				"Stockton,+CA6758",
				"Chicago,+IL6586"
			],
			"lat1": 18.000000,
			"path2": [
				"New+York,+NY4137",
				"Kansas+City,+MO6707"
			],
			"lat2": 14.000000,
			"maxlat": 18.000000,
			"runtime": 258809180,
			"nomLat1": 18.000000,
			"nomLat2": 14.000000,
			"maxNomLat": 18.000000,
			"mincut": 18
		},
		{
			"s1": "London4045",
			"s2": "New+York,+NY6751",
			"t1": "Hamburg,+Germany4041",
			"t2": "Stockton,+CA6479",
			"suurballeNbPaths": 2,
			"suurballeTime": 1090333448,
			"suurballePaths": {
				"path0": [
					"London4045",
					"London4044",
					"Copenhagen4077",
					"Hamburg,+Germany4081",
					"Hamburg,+Germany4041"
				],
				"lat0": 11.000000,
				"nbSeg0": 8,
				"path1": [
					"New+York,+NY6751",
					"New+York,+NY4048",
					"Pennsauken,+NJ4052",
					"Stockton,+CA4064",
					"Stockton,+CA6479"
				],
				"lat1": 25.000000,
				"nbSeg1": 8
			},
			"pathsExist": true,
			"path1": [
				"London4045",
				"Hamburg,+Germany4041"
			],
			"lat1": 11.000000,
			"path2": [
				"New+York,+NY6751",
				"Stockton,+CA6479"
			],
			"lat2": 25.000000,
			"maxlat": 25.000000,
			"runtime": 707605906,
			"nomLat1": 11.000000,
			"nomLat2": 25.000000,
			"maxNomLat": 25.000000,
			"mincut": 8
		},
		{
			"s1": "Chicago,+IL4036",
			"s2": "Santa+Clara,+CA5508",
			"t1": "New+York,+NY6496",
			"t2": "Atlanta,+GA6745",
			"suurballeNbPaths": 2,
			"suurballeTime": 1672551945,
			"suurballePaths": {
				"path0": [
					"Chicago,+IL4036",
					"Chicago,+IL4104",
					"New+York,+NY4048",
					"New+York,+NY6496"
				],
				"lat0": 9.000000,
				"nbSeg0": 6,
				"path1": [
					"Santa+Clara,+CA5508",
					"San+Jose,+CA4119",
					"Dallas,+TX4080",
					"Dallas,+TX2635",
					"Atlanta,+GA4032",
					"Atlanta,+GA6745"
				],
				"lat1": 24.000000,
				"nbSeg1": 9
			},
			"pathsExist": true,
			"path1": [
				"Chicago,+IL4036",
				"New+York,+NY6496"
			],
			"lat1": 9.000000,
			"path2": [
				"Santa+Clara,+CA5508",
				"Atlanta,+GA6745"
			],
			"lat2": 26.000000,
			"maxlat": 26.000000,
			"runtime": 218748760,
			"nomLat1": 9.000000,
			"nomLat2": 26.000000,
			"maxNomLat": 26.000000,
			"mincut": 18
		},
		{
			"s1": "Kansas+City,+MO6544",
			"s2": "New+York,+NY6605",
			"t1": "Los+Angeles,+CA5502",
			"t2": "Ashburn,+VA10161",
			"suurballeNbPaths": 2,
			"suurballeTime": 1700023312,
			"suurballePaths": {
				"path0": [
					"Kansas+City,+MO6544",
					"Kansas+City,+MO4105",
					"Dallas,+TX4115",
					"Anaheim,+CA4031",
					"Los+Angeles,+CA5502"
				],
				"lat0": 19.000000,
				"nbSeg0": 8,
				"path1": [
					"New+York,+NY6605",
					"New+York,+NY4116",
					"Relay,+MD4110",
					"Relay,+MD4138",
					"Ashburn,+VA10161"
				],
				"lat1": 7.000000,
				"nbSeg1": 8
			},
			"pathsExist": true,
			"path1": [
				"Kansas+City,+MO6544",
				"Los+Angeles,+CA5502"
			],
			"lat1": 19.000000,
			"path2": [
				"New+York,+NY6605",
				"Relay,+MD4110",
				"Ashburn,+VA10161"
			],
			"lat2": 7.000000,
			"maxlat": 19.000000,
			"runtime": 518997129,
			"nomLat1": 19.000000,
			"nomLat2": 8.000000,
			"maxNomLat": 19.000000,
			"mincut": 4
		},
		{
			"s1": "New+York,+NY6606",
			"s2": "Roachdale,+IN6402",
			"t1": "Atlanta,+GA6735",
			"t2": "Anaheim,+CA6721",
			"suurballeNbPaths": 2,
			"suurballeTime": 1907546404,
			"suurballePaths": {
				"path0": [
					"New+York,+NY6606",
					"New+York,+NY4124",
					"New+York,+NY4088",
					"Atlanta,+GA4074",
					"Atlanta,+GA6735"
				],
				"lat0": 11.000000,
				"nbSeg0": 8,
				"path1": [
					"Roachdale,+IN6402",
					"Roachdale,+IN4056",
					"Chicago,+IL4037",
					"Dallas,+TX4080",
					"Anaheim,+CA6502",
					"Anaheim,+CA6721"
				],
				"lat1": 24.000000,
				"nbSeg1": 9
			},
			"pathsExist": true,
			"path1": [
				"New+York,+NY6606",
				"Atlanta,+GA6735"
			],
			"lat1": 11.000000,
			"path2": [
				"Roachdale,+IN6402",
				"Anaheim,+CA6721"
			],
			"lat2": 24.000000,
			"maxlat": 24.000000,
			"runtime": 554294783,
			"nomLat1": 11.000000,
			"nomLat2": 24.000000,
			"maxNomLat": 24.000000,
			"mincut": 10
		},
		{
			"s1": "Dallas,+TX6645",
			"s2": "Atlanta,+GA6685",
			"t1": "Springfield,+MA4025",
			"t2": "New+York,+NY6524",
			"suurballeNbPaths": 2,
			"suurballeTime": 1908120451,
			"suurballePaths": {
				"path0": [
					"Atlanta,+GA6685",
					"Atlanta,+GA4074",
					"New+York,+NY4088",
					"New+York,+NY6524"
				],
				"lat0": 10.000000,
				"nbSeg0": 6,
				"path1": [
					"Dallas,+TX6645",
					"Dallas,+TX4080",
					"Chicago,+IL1484",
					"Springfield,+MA4023",
					"Springfield,+MA4025"
				],
				"lat1": 18.000000,
				"nbSeg1": 8
			},
			"pathsExist": true,
			"path1": [
				"Dallas,+TX6645",
				"Springfield,+MA4025"
			],
			"lat1": 18.000000,
			"path2": [
				"Atlanta,+GA6685",
				"New+York,+NY6524"
			],
			"lat2": 10.000000,
			"maxlat": 18.000000,
			"runtime": 513042317,
			"nomLat1": 18.000000,
			"nomLat2": 10.000000,
			"maxNomLat": 18.000000,
			"mincut": 10
		},
		{
			"s1": "Orlando,+FL4108",
			"s2": "Tokyo4069",
			"t1": "Lees+Summit,+MO5503",
			"t2": "Washington,+DC6443",
			"suurballeNbPaths": 2,
			"suurballeTime": 1793389783,
			"suurballePaths": {
				"path0": [
					"Orlando,+FL4108",
					"Atlanta,+GA4032",
					"Relay,+MD4093",
					"Washington,+DC6443"
				],
				"lat0": 13.000000,
				"nbSeg0": 6,
				"path1": [
					"Tokyo4069",
					"Tokyo4070",
					"Tacoma,+WA3251",
					"Seattle,+WA4060",
					"Kansas+City,+MO4043",
					"Kansas+City,+MO4082",
					"Lees+Summit,+MO5503"
				],
				"lat1": 60.000000,
				"nbSeg1": 12
			},
			"pathsExist": true,
			"path1": [
				"Orlando,+FL4108",
				"Lees+Summit,+MO5503"
			],
			"lat1": 20.000000,
			"path2": [
				"Tokyo4069",
				"Washington,+DC6443"
			],
			"lat2": 70.000000,
			"maxlat": 70.000000,
			"runtime": 681056581,
			"nomLat1": 20.000000,
			"nomLat2": 70.000000,
			"maxNomLat": 70.000000,
			"mincut": 16
		},
		{
			"s1": "Pearl+Harbor,+HI6400",
			"s2": "Orlando,+FL6429",
			"t1": "Washington,+DC4142",
			"t2": "Cheyenne,+WY6542",
			"suurballeNbPaths": 2,
			"suurballeTime": 1960646651,
			"suurballePaths": {
				"path0": [
					"Orlando,+FL6429",
					"Orlando,+FL4108",
					"Atlanta,+GA4032",
					"Relay,+MD4093",
					"Washington,+DC4142"
				],
				"lat0": 14.000000,
				"nbSeg0": 8,
				"path1": [
					"Pearl+Harbor,+HI6400",
					"Pearl+Harbor,+HI4053",
					"Stockton,+CA4065",
					"San+Jose,+CA4095",
					"Tacoma,+WA4114",
					"Cheyenne,+WY4076",
					"Cheyenne,+WY6542"
				],
				"lat1": 41.000000,
				"nbSeg1": 12
			},
			"pathsExist": true,
			"path1": [
				"Pearl+Harbor,+HI6400",
				"Washington,+DC4142"
			],
			"lat1": 47.000000,
			"path2": [
				"Orlando,+FL6429",
				"Cheyenne,+WY6542"
			],
			"lat2": 22.000000,
			"maxlat": 47.000000,
			"runtime": 693822428,
			"nomLat1": 47.000000,
			"nomLat2": 22.000000,
			"maxNomLat": 47.000000,
			"mincut": 12
		},
		{
			"s1": "Dallas,+TX6726",
			"s2": "Atlanta,+GA6481",
			"t1": "Cheyenne,+WY6746",
			"t2": "Cheyenne,+WY6388",
			"suurballeNbPaths": 2,
			"suurballeTime": 2400633913,
			"suurballePaths": {
				"path0": [
					"Dallas,+TX6726",
					"Dallas,+TX4080",
					"Cheyenne,+WY4076",
					"Cheyenne,+WY6388"
				],
				"lat0": 9.000000,
				"nbSeg0": 5,
				"path1": [
					"Atlanta,+GA6481",
					"Atlanta,+GA4032",
					"Chicago,+IL4037",
					"Kansas+City,+MO4043",
					"Kansas+City,+MO6544",
					"Cheyenne,+WY6746"
				],
				"lat1": 19.000000,
				"nbSeg1": 10
			},
			"pathsExist": true,
			"path1": [
				"Dallas,+TX6726",
				"Cheyenne,+WY6746"
			],
			"lat1": 13.000000,
			"path2": [
				"Atlanta,+GA6481",
				"Cheyenne,+WY6388"
			],
			"lat2": 17.000000,
			"maxlat": 17.000000,
			"runtime": 711746634,
			"nomLat1": 13.000000,
			"nomLat2": 17.000000,
			"maxNomLat": 17.000000,
			"mincut": 6
		},
		{
			"s1": "Anaheim,+CA6556",
			"s2": "Relay,+MD6487",
			"t1": "Milan,+Italy4046",
			"t2": "New+York,+NY4124",
			"suurballeNbPaths": 2,
			"suurballeTime": 1636339340,
			"suurballePaths": {
				"path0": [
					"Anaheim,+CA6556",
					"Anaheim,+CA4073",
					"Dallas,+TX4015",
					"Pennsauken,+NJ4109",
					"New+York,+NY4116",
					"New+York,+NY4124"
				],
				"lat0": 27.000000,
				"nbSeg0": 10,
				"path1": [
					"Relay,+MD6487",
					"Relay,+MD4110",
					"New+York,+NY4048",
					"New+York,+NY4017",
					"London4045",
					"London4044",
					"Paris4090",
					"Milan,+Italy4046"
				],
				"lat1": 43.000000,
				"nbSeg1": 14
			},
			"pathsExist": true,
			"path1": [
				"Anaheim,+CA6556",
				"Dallas,+TX2635",
				"Milan,+Italy4046"
			],
			"lat1": 68.000000,
			"path2": [
				"Relay,+MD6487",
				"New+York,+NY4116",
				"New+York,+NY4124"
			],
			"lat2": 5.000000,
			"maxlat": 68.000000,
			"runtime": 1665425759,
			"nomLat1": 72.000000,
			"nomLat2": 9.000000,
			"maxNomLat": 72.000000,
			"mincut": 14
		},
		{
			"s1": "Anaheim,+CA4099",
			"s2": "San+Jose,+CA6742",
			"t1": "Chicago,+IL6644",
			"t2": "Atlanta,+GA2347",
			"suurballeNbPaths": 2,
			"suurballeTime": 2877319723,
			"suurballePaths": {
				"path0": [
					"Anaheim,+CA4099",
					"Dallas,+TX2635",
					"Atlanta,+GA4032",
					"Atlanta,+GA2347"
				],
				"lat0": 19.000000,
				"nbSeg0": 6,
				"path1": [
					"San+Jose,+CA6742",
					"San+Jose,+CA4062",
					"Chicago,+IL4037",
					"Chicago,+IL6644"
				],
				"lat1": 18.000000,
				"nbSeg1": 6
			},
			"pathsExist": true,
			"path1": [
				"Anaheim,+CA4099",
				"Chicago,+IL6644"
			],
			"lat1": 21.000000,
			"path2": [
				"San+Jose,+CA6742",
				"Atlanta,+GA2347"
			],
			"lat2": 24.000000,
			"maxlat": 24.000000,
			"runtime": 489007806,
			"nomLat1": 21.000000,
			"nomLat2": 24.000000,
			"maxNomLat": 24.000000,
			"mincut": 12
		},
		{
			"s1": "Cheyenne,+WY4076",
			"s2": "Roachdale,+IN6729",
			"t1": "Tacoma,+WA3251",
			"t2": "Pennsauken,+NJ4125",
			"suurballeNbPaths": 2,
			"suurballeTime": 2724356349,
			"suurballePaths": {
				"path0": [
					"Cheyenne,+WY4076",
					"Tacoma,+WA3251"
				],
				"lat0": 9.000000,
				"nbSeg0": 2,
				"path1": [
					"Roachdale,+IN6729",
					"Roachdale,+IN4056",
					"Pennsauken,+NJ4125"
				],
				"lat1": 8.000000,
				"nbSeg1": 4
			},
			"pathsExist": true,
			"path1": [
				"Cheyenne,+WY4076",
				"Tacoma,+WA3251"
			],
			"lat1": 9.000000,
			"path2": [
				"Roachdale,+IN6729",
				"Pennsauken,+NJ4125"
			],
			"lat2": 8.000000,
			"maxlat": 9.000000,
			"runtime": 791810158,
			"nomLat1": 9.000000,
			"nomLat2": 8.000000,
			"maxNomLat": 9.000000,
			"mincut": 20
		},
		{
			"s1": "Atlanta,+GA3957",
			"s2": "Dallas,+TX4080",
			"t1": "Orlando,+FL4089",
			"t2": "Chicago,+IL1391",
			"suurballeNbPaths": 2,
			"suurballeTime": 2081316999,
			"suurballePaths": {
				"path0": [
					"Dallas,+TX4080",
					"Chicago,+IL1484",
					"Chicago,+IL1391"
				],
				"lat0": 9.000000,
				"nbSeg0": 4,
				"path1": [
					"Atlanta,+GA3957",
					"Atlanta,+GA4032",
					"Orlando,+FL4108",
					"Orlando,+FL4089"
				],
				"lat1": 7.000000,
				"nbSeg1": 6
			},
			"pathsExist": true,
			"path1": [
				"Atlanta,+GA3957",
				"Orlando,+FL4089"
			],
			"lat1": 7.000000,
			"path2": [
				"Dallas,+TX4080",
				"Chicago,+IL1391"
			],
			"lat2": 9.000000,
			"maxlat": 9.000000,
			"runtime": 462045883,
			"nomLat1": 7.000000,
			"nomLat2": 9.000000,
			"maxNomLat": 9.000000,
			"mincut": 56
		},
		{
			"s1": "Relay,+MD6696",
			"s2": "Roachdale,+IN6712",
			"t1": "Chicago,+IL6648",
			"t2": "Pennsauken,+NJ4091",
			"suurballeNbPaths": 2,
			"suurballeTime": 1250965883,
			"suurballePaths": {
				"path0": [
					"Relay,+MD6696",
					"Relay,+MD4054",
					"Relay,+MD4118",
					"Pennsauken,+NJ4091"
				],
				"lat0": 4.000000,
				"nbSeg0": 6,
				"path1": [
					"Roachdale,+IN6712",
					"Roachdale,+IN4056",
					"Chicago,+IL4037",
					"Chicago,+IL6648"
				],
				"lat1": 5.000000,
				"nbSeg1": 6
			},
			"pathsExist": true,
			"path1": [
				"Relay,+MD6696",
				"Relay,+MD4054",
				"Chicago,+IL6648"
			],
			"lat1": 13.000000,
			"path2": [
				"Roachdale,+IN6712",
				"Pennsauken,+NJ4125",
				"Pennsauken,+NJ4091"
			],
			"lat2": 9.000000,
			"maxlat": 13.000000,
			"runtime": 1348790637,
			"nomLat1": 14.000000,
			"nomLat2": 10.000000,
			"maxNomLat": 14.000000,
			"mincut": 10
		},
		{
			"s1": "Springfield,+MA4023",
			"s2": "Chicago,+IL6724",
			"t1": "Kansas+City,+MO4106",
			"t2": "Stockholm,+Sweden4097",
			"suurballeNbPaths": 2,
			"suurballeTime": 2095895202,
			"suurballePaths": {
				"path0": [
					"Chicago,+IL6724",
					"Chicago,+IL4037",
					"Kansas+City,+MO4043",
					"Kansas+City,+MO4106"
				],
				"lat0": 7.000000,
				"nbSeg0": 6,
				"path1": [
					"Springfield,+MA4023",
					"Springfield,+MA4020",
					"New+York,+NY4137",
					"New+York,+NY4048",
					"Manasquan,+NJ4047",
					"Manasquan,+NJ4086",
					"Copenhagen4038",
					"Stockholm,+Sweden4066",
					"Stockholm,+Sweden4097"
				],
				"lat1": 45.000000,
				"nbSeg1": 16
			},
			"pathsExist": true,
			"path1": [
				"Springfield,+MA4023",
				"Kansas+City,+MO4106"
			],
			"lat1": 15.000000,
			"path2": [
				"Chicago,+IL6724",
				"Stockholm,+Sweden4097"
			],
			"lat2": 48.000000,
			"maxlat": 48.000000,
			"runtime": 499306443,
			"nomLat1": 15.000000,
			"nomLat2": 48.000000,
			"maxNomLat": 48.000000,
			"mincut": 22
		},
		{
			"s1": "Anaheim,+CA4073",
			"s2": "Chicago,+IL6669",
			"t1": "Boston5509",
			"t2": "San+Jose,+CA4112",
			"suurballeNbPaths": 2,
			"suurballeTime": 2115481048,
			"suurballePaths": {
				"path0": [
					"Anaheim,+CA4073",
					"San+Jose,+CA4095",
					"San+Jose,+CA4112"
				],
				"lat0": 5.000000,
				"nbSeg0": 4,
				"path1": [
					"Chicago,+IL6669",
					"Chicago,+IL1484",
					"Springfield,+MA4023",
					"Boston5509"
				],
				"lat1": 11.000000,
				"nbSeg1": 6
			},
			"pathsExist": true,
			"path1": [
				"Anaheim,+CA4073",
				"Pennsauken,+NJ4109",
				"Boston5509"
			],
			"lat1": 29.000000,
			"path2": [
				"Chicago,+IL6669",
				"Chicago,+IL4037",
				"San+Jose,+CA4112"
			],
			"lat2": 18.000000,
			"maxlat": 29.000000,
			"runtime": 1659768963,
			"nomLat1": 30.000000,
			"nomLat2": 24.000000,
			"maxNomLat": 30.000000,
			"mincut": 18
		},
		{
			"s1": "Dallas,+TX6580",
			"s2": "Dallas,+TX4080",
			"t1": "Dallas,+TX6419",
			"t2": "Tokyo4069",
			"suurballeNbPaths": 2,
			"suurballeTime": 1431653284,
			"suurballePaths": {
				"path0": [
					"Dallas,+TX4080",
					"Dallas,+TX6419"
				],
				"lat0": 1.000000,
				"nbSeg0": 2,
				"path1": [
					"Dallas,+TX6580",
					"Dallas,+TX4080",
					"Cheyenne,+WY4076",
					"Tacoma,+WA4114",
					"Tokyo4070",
					"Tokyo4069"
				],
				"lat1": 58.000000,
				"nbSeg1": 9
			},
			"pathsExist": true,
			"path1": [
				"Dallas,+TX6580",
				"Dallas,+TX6419"
			],
			"lat1": 2.000000,
			"path2": [
				"Dallas,+TX4080",
				"Tokyo4069"
			],
			"lat2": 61.000000,
			"maxlat": 61.000000,
			"runtime": 710607723,
			"nomLat1": 2.000000,
			"nomLat2": 61.000000,
			"maxNomLat": 61.000000,
			"mincut": 16
		},
		{
			"s1": "Atlanta,+GA3957",
			"s2": "Relay,+MD5801",
			"t1": "Boston5499",
			"t2": "Reston,+VA5497",
			"suurballeNbPaths": 2,
			"suurballeTime": 1879491228,
			"suurballePaths": {
				"path0": [
					"Relay,+MD5801",
					"Relay,+MD4110",
					"Relay,+MD4093",
					"Reston,+VA5497"
				],
				"lat0": 4.000000,
				"nbSeg0": 6,
				"path1": [
					"Atlanta,+GA3957",
					"Atlanta,+GA4032",
					"New+York,+NY4048",
					"New+York,+NY4137",
					"Springfield,+MA4020",
					"Boston5499"
				],
				"lat1": 14.000000,
				"nbSeg1": 10
			},
			"pathsExist": true,
			"path1": [
				"Atlanta,+GA3957",
				"Atlanta,+GA4032",
				"Boston5499"
			],
			"lat1": 14.000000,
			"path2": [
				"Relay,+MD5801",
				"Reston,+VA5497"
			],
			"lat2": 4.000000,
			"maxlat": 14.000000,
			"runtime": 1731144450,
			"nomLat1": 18.000000,
			"nomLat2": 4.000000,
			"maxNomLat": 18.000000,
			"mincut": 8
		},
		{
			"s1": "San+Jose,+CA4062",
			"s2": "Dallas,+TX1742",
			"t1": "Pennsauken,+NJ4091",
			"t2": "Chicago,+IL6603",
			"suurballeNbPaths": 2,
			"suurballeTime": 535150660,
			"suurballePaths": {
				"path0": [
					"San+Jose,+CA4062",
					"Chicago,+IL4037",
					"Chicago,+IL6603"
				],
				"lat0": 17.000000,
				"nbSeg0": 4,
				"path1": [
					"Dallas,+TX1742",
					"Dallas,+TX4115",
					"Pennsauken,+NJ4135",
					"Pennsauken,+NJ4091"
				],
				"lat1": 14.000000,
				"nbSeg1": 6
			},
			"pathsExist": true,
			"path1": [
				"San+Jose,+CA4062",
				"Stockton,+CA4065",
				"Pennsauken,+NJ4091"
			],
			"lat1": 24.000000,
			"path2": [
				"Dallas,+TX1742",
				"Chicago,+IL6603"
			],
			"lat2": 10.000000,
			"maxlat": 24.000000,
			"runtime": 721322021,
			"nomLat1": 25.000000,
			"nomLat2": 10.000000,
			"maxNomLat": 25.000000,
			"mincut": 32
		},
		{
			"s1": "Paris4051",
			"s2": "Atlanta,+GA4102",
			"t1": "Ashburn,+VA10161",
			"t2": "Dallas,+TX6598",
			"suurballeNbPaths": 2,
			"suurballeTime": 1470947957,
			"suurballePaths": {
				"path0": [
					"Atlanta,+GA4102",
					"Atlanta,+GA6735",
					"Dallas,+TX6598"
				],
				"lat0": 8.000000,
				"nbSeg0": 4,
				"path1": [
					"Paris4051",
					"Paris4090",
					"London4044",
					"London4083",
					"Manasquan,+NJ4047",
					"Relay,+MD4054",
					"Relay,+MD4138",
					"Ashburn,+VA10161"
				],
				"lat1": 41.000000,
				"nbSeg1": 14
			},
			"pathsExist": true,
			"path1": [
				"Paris4051",
				"Ashburn,+VA10161"
			],
			"lat1": 41.000000,
			"path2": [
				"Atlanta,+GA4102",
				"Atlanta,+GA6735",
				"Dallas,+TX6598"
			],
			"lat2": 8.000000,
			"maxlat": 41.000000,
			"runtime": 710574676,
			"nomLat1": 41.000000,
			"nomLat2": 9.000000,
			"maxNomLat": 41.000000,
			"mincut": 18
		},
		{
			"s1": "Pearl+Harbor,+HI6550",
			"s2": "New+York,+NY6524",
			"t1": "Relay,+MD4054",
			"t2": "Tacoma,+WA6701",
			"suurballeNbPaths": 2,
			"suurballeTime": 587560702,
			"suurballePaths": {
				"path0": [
					"New+York,+NY6524",
					"New+York,+NY4129",
					"Relay,+MD4054"
				],
				"lat0": 4.000000,
				"nbSeg0": 4,
				"path1": [
					"Pearl+Harbor,+HI6550",
					"Pearl+Harbor,+HI4053",
					"Stockton,+CA4064",
					"San+Jose,+CA4119",
					"San+Jose,+CA4062",
					"Tacoma,+WA3251",
					"Tacoma,+WA6701"
				],
				"lat1": 33.000000,
				"nbSeg1": 12
			},
			"pathsExist": true,
			"path1": [
				"Pearl+Harbor,+HI6550",
				"Relay,+MD4054"
			],
			"lat1": 47.000000,
			"path2": [
				"New+York,+NY6524",
				"Tacoma,+WA6701"
			],
			"lat2": 27.000000,
			"maxlat": 47.000000,
			"runtime": 3305883756,
			"nomLat1": 47.000000,
			"nomLat2": 27.000000,
			"maxNomLat": 47.000000,
			"mincut": 8
		},
		{
			"s1": "Atlanta,+GA2338",
			"s2": "Atlanta,+GA6628",
			"t1": "New+York,+NY4088",
			"t2": "Atlanta,+GA4074",
			"suurballeNbPaths": 2,
			"suurballeTime": 611617324,
			"suurballePaths": {
				"path0": [
					"Atlanta,+GA2338",
					"Atlanta,+GA4074"
				],
				"lat0": 1.000000,
				"nbSeg0": 2,
				"path1": [
					"Atlanta,+GA6628",
					"Atlanta,+GA4074"
				],
				"lat1": 1.000000,
				"nbSeg1": 2
			},
			"pathsExist": true,
			"path1": [
				"Atlanta,+GA2338",
				"New+York,+NY4088"
			],
			"lat1": 9.000000,
			"path2": [
				"Atlanta,+GA6628",
				"Atlanta,+GA4074"
			],
			"lat2": 1.000000,
			"maxlat": 9.000000,
			"runtime": 729792803,
			"nomLat1": 9.000000,
			"nomLat2": 1.000000,
			"maxNomLat": 9.000000,
			"mincut": 12
		},
		{
			"s1": "Brussels,+Belgium4075",
			"s2": "Chicago,+IL6572",
			"t1": "Milan,+Italy4085",
			"t2": "New+York,+NY6397",
			"suurballeNbPaths": 2,
			"suurballeTime": 185727834,
			"suurballePaths": {
				"path0": [
					"Chicago,+IL6572",
					"Chicago,+IL1484",
					"New+York,+NY4088",
					"New+York,+NY6397"
				],
				"lat0": 9.000000,
				"nbSeg0": 6,
				"path1": [
					"Brussels,+Belgium4075",
					"Brussels,+Belgium4033",
					"London4044",
					"Paris4090",
					"Milan,+Italy4046",
					"Milan,+Italy4085"
				],
				"lat1": 13.000000,
				"nbSeg1": 9
			},
			"pathsExist": true,
			"path1": [
				"Brussels,+Belgium4075",
				"Milan,+Italy4085"
			],
			"lat1": 14.000000,
			"path2": [
				"Chicago,+IL6572",
				"Chicago,+IL1484",
				"New+York,+NY6397"
			],
			"lat2": 9.000000,
			"maxlat": 14.000000,
			"runtime": 2497371474,
			"nomLat1": 14.000000,
			"nomLat2": 10.000000,
			"maxNomLat": 14.000000,
			"mincut": 8
		},
		{
			"s1": "Dallas,+TX3549",
			"s2": "Tokyo4070",
			"t1": "Kansas+City,+MO4082",
			"t2": "New+York,+NY4137",
			"suurballeNbPaths": 2,
			"suurballeTime": 1109885108,
			"suurballePaths": {
				"path0": [
					"Dallas,+TX3549",
					"Dallas,+TX4080",
					"Kansas+City,+MO4082"
				],
				"lat0": 6.000000,
				"nbSeg0": 4,
				"path1": [
					"Tokyo4070",
					"Tacoma,+WA3251",
					"Seattle,+WA4059",
					"Chicago,+IL4104",
					"New+York,+NY4048",
					"New+York,+NY4137"
				],
				"lat1": 65.000000,
				"nbSeg1": 10
			},
			"pathsExist": true,
			"path1": [
				"Dallas,+TX3549",
				"Kansas+City,+MO4082"
			],
			"lat1": 6.000000,
			"path2": [
				"Tokyo4070",
				"New+York,+NY4137"
			],
			"lat2": 66.000000,
			"maxlat": 66.000000,
			"runtime": 710991682,
			"nomLat1": 6.000000,
			"nomLat2": 66.000000,
			"maxNomLat": 66.000000,
			"mincut": 20
		},
		{
			"s1": "Dallas,+TX6689",
			"s2": "Pennsauken,+NJ6525",
			"t1": "Pennsauken,+NJ6448",
			"t2": "Atlanta,+GA2338",
			"suurballeNbPaths": 2,
			"suurballeTime": 207858299,
			"suurballePaths": {
				"path0": [
					"Pennsauken,+NJ6525",
					"Pennsauken,+NJ4091",
					"Pennsauken,+NJ6448"
				],
				"lat0": 2.000000,
				"nbSeg0": 4,
				"path1": [
					"Dallas,+TX6689",
					"Dallas,+TX4015",
					"Atlanta,+GA4074",
					"Atlanta,+GA2338"
				],
				"lat1": 9.000000,
				"nbSeg1": 6
			},
			"pathsExist": true,
			"path1": [
				"Dallas,+TX6689",
				"Pennsauken,+NJ6448"
			],
			"lat1": 14.000000,
			"path2": [
				"Pennsauken,+NJ6525",
				"Atlanta,+GA2338"
			],
			"lat2": 11.000000,
			"maxlat": 14.000000,
			"runtime": 735215562,
			"nomLat1": 14.000000,
			"nomLat2": 11.000000,
			"maxNomLat": 14.000000,
			"mincut": 12
		},
		{
			"s1": "Atlanta,+GA6685",
			"s2": "Atlanta,+GA6628",
			"t1": "Dallas,+TX6612",
			"t2": "Relay,+MD4118",
			"suurballeNbPaths": 2,
			"suurballeTime": 393614086,
			"suurballePaths": {
				"path0": [
					"Atlanta,+GA6685",
					"Atlanta,+GA4032",
					"Dallas,+TX2635",
					"Dallas,+TX6612"
				],
				"lat0": 9.000000,
				"nbSeg0": 6,
				"path1": [
					"Atlanta,+GA6628",
					"Atlanta,+GA4074",
					"Relay,+MD4110",
					"Relay,+MD4118"
				],
				"lat1": 8.000000,
				"nbSeg1": 6
			},
			"pathsExist": true,
			"path1": [
				"Atlanta,+GA6685",
				"Dallas,+TX6612"
			],
			"lat1": 9.000000,
			"path2": [
				"Atlanta,+GA6628",
				"Relay,+MD4118"
			],
			"lat2": 8.000000,
			"maxlat": 9.000000,
			"runtime": 573299259,
			"nomLat1": 9.000000,
			"nomLat2": 8.000000,
			"maxNomLat": 9.000000,
			"mincut": 12
		},
		{
			"s1": "Stockton,+CA6577",
			"s2": "Chicago,+IL6654",
			"t1": "Washington,+DC9643",
			"t2": "New+York,+NY6606",
			"suurballeNbPaths": 2,
			"suurballeTime": 214483642,
			"suurballePaths": {
				"path0": [
					"Chicago,+IL6654",
					"Chicago,+IL4037",
					"New+York,+NY4124",
					"New+York,+NY6606"
				],
				"lat0": 9.000000,
				"nbSeg0": 6,
				"path1": [
					"Stockton,+CA6577",
					"Stockton,+CA4096",
					"San+Jose,+CA4112",
					"Relay,+MD4093",
					"Washington,+DC9643"
				],
				"lat1": 26.000000,
				"nbSeg1": 8
			},
			"pathsExist": true,
			"path1": [
				"Stockton,+CA6577",
				"Washington,+DC9643"
			],
			"lat1": 26.000000,
			"path2": [
				"Chicago,+IL6654",
				"New+York,+NY6606"
			],
			"lat2": 9.000000,
			"maxlat": 26.000000,
			"runtime": 544065004,
			"nomLat1": 26.000000,
			"nomLat2": 9.000000,
			"maxNomLat": 26.000000,
			"mincut": 12
		},
		{
			"s1": "Relay,+MD6576",
			"s2": "Roachdale,+IN6677",
			"t1": "Relay,+MD4136",
			"t2": "Anaheim,+CA6502",
			"suurballeNbPaths": 2,
			"suurballeTime": 89163753,
			"suurballePaths": {
				"path0": [
					"Relay,+MD6576",
					"Relay,+MD4127",
					"Relay,+MD4136"
				],
				"lat0": 2.000000,
				"nbSeg0": 4,
				"path1": [
					"Roachdale,+IN6677",
					"Roachdale,+IN4056",
					"Chicago,+IL4037",
					"Dallas,+TX4080",
					"Anaheim,+CA6502"
				],
				"lat1": 23.000000,
				"nbSeg1": 7
			},
			"pathsExist": true,
			"path1": [
				"Relay,+MD6576",
				"Relay,+MD4136"
			],
			"lat1": 2.000000,
			"path2": [
				"Roachdale,+IN6677",
				"Anaheim,+CA6502"
			],
			"lat2": 25.000000,
			"maxlat": 25.000000,
			"runtime": 220262332,
			"nomLat1": 2.000000,
			"nomLat2": 25.000000,
			"maxNomLat": 25.000000,
			"mincut": 6
		},
		{
			"s1": "Stockton,+CA6577",
			"s2": "New+York,+NY4048",
			"t1": "Tacoma,+WA6408",
			"t2": "Chicago,+IL1391",
			"suurballeNbPaths": 2,
			"suurballeTime": 184472274,
			"suurballePaths": {
				"path0": [
					"New+York,+NY4048",
					"Chicago,+IL4104",
					"Chicago,+IL1391"
				],
				"lat0": 8.000000,
				"nbSeg0": 4,
				"path1": [
					"Stockton,+CA6577",
					"Stockton,+CA4065",
					"San+Jose,+CA4095",
					"Tacoma,+WA4114",
					"Tacoma,+WA6408"
				],
				"lat1": 11.000000,
				"nbSeg1": 8
			},
			"pathsExist": true,
			"path1": [
				"Stockton,+CA6577",
				"Tacoma,+WA6408"
			],
			"lat1": 11.000000,
			"path2": [
				"New+York,+NY4048",
				"Chicago,+IL1391"
			],
			"lat2": 8.000000,
			"maxlat": 11.000000,
			"runtime": 681367011,
			"nomLat1": 11.000000,
			"nomLat2": 8.000000,
			"maxNomLat": 11.000000,
			"mincut": 44
		},
		{
			"s1": "Sydney,+Australia4068",
			"s2": "Anaheim,+CA6556",
			"t1": "New+York,+NY4088",
			"t2": "Relay,+MD6487",
			"suurballeNbPaths": 2,
			"suurballeTime": 97644641,
			"suurballePaths": {
				"path0": [
					"Sydney,+Australia4068",
					"Stockton,+CA4096",
					"Pennsauken,+NJ4109",
					"New+York,+NY4116",
					"New+York,+NY4088"
				],
				"lat0": 86.000000,
				"nbSeg0": 8,
				"path1": [
					"Anaheim,+CA6556",
					"Anaheim,+CA4101",
					"Dallas,+TX2635",
					"Dallas,+TX6573",
					"Relay,+MD5801",
					"Relay,+MD4110",
					"Relay,+MD6487"
				],
				"lat1": 26.000000,
				"nbSeg1": 12
			},
			"pathsExist": true,
			"path1": [
				"Sydney,+Australia4068",
				"New+York,+NY4088"
			],
			"lat1": 86.000000,
			"path2": [
				"Anaheim,+CA6556",
				"Dallas,+TX4015",
				"Relay,+MD6487"
			],
			"lat2": 26.000000,
			"maxlat": 86.000000,
			"runtime": 223998282,
			"nomLat1": 86.000000,
			"nomLat2": 28.000000,
			"maxNomLat": 86.000000,
			"mincut": 18
		},
		{
			"s1": "Kansas+City,+MO6472",
			"s2": "Chicago,+IL6603",
			"t1": "Stockton,+CA6602",
			"t2": "Orlando,+FL6459",
			"suurballeNbPaths": 2,
			"suurballeTime": 153303662,
			"suurballePaths": {
				"path0": [
					"Chicago,+IL6603",
					"Chicago,+IL1484",
					"Atlanta,+GA4074",
					"Orlando,+FL4050",
					"Orlando,+FL6459"
				],
				"lat0": 13.000000,
				"nbSeg0": 8,
				"path1": [
					"Kansas+City,+MO6472",
					"Kansas+City,+MO4082",
					"Dallas,+TX4080",
					"San+Jose,+CA4119",
					"Stockton,+CA4064",
					"Stockton,+CA6602"
				],
				"lat1": 22.000000,
				"nbSeg1": 9
			},
			"pathsExist": true,
			"path1": [
				"Kansas+City,+MO6472",
				"Stockton,+CA6602"
			],
			"lat1": 24.000000,
			"path2": [
				"Chicago,+IL6603",
				"Orlando,+FL6459"
			],
			"lat2": 13.000000,
			"maxlat": 24.000000,
			"runtime": 481681110,
			"nomLat1": 24.000000,
			"nomLat2": 13.000000,
			"maxNomLat": 24.000000,
			"mincut": 8
		},
		{
			"s1": "Stockton,+CA6719",
			"s2": "New+York,+NY4129",
			"t1": "Rancho+Cordova,+CA5507",
			"t2": "Chicago,+IL6654",
			"suurballeNbPaths": 2,
			"suurballeTime": 178067603,
			"suurballePaths": {
				"path0": [
					"Stockton,+CA6719",
					"Stockton,+CA4065",
					"Rancho+Cordova,+CA5507"
				],
				"lat0": 3.000000,
				"nbSeg0": 4,
				"path1": [
					"New+York,+NY4129",
					"New+York,+NY4124",
					"Chicago,+IL4037",
					"Chicago,+IL6654"
				],
				"lat1": 9.000000,
				"nbSeg1": 6
			},
			"pathsExist": true,
			"path1": [
				"Stockton,+CA6719",
				"Rancho+Cordova,+CA5507"
			],
			"lat1": 3.000000,
			"path2": [
				"New+York,+NY4129",
				"Chicago,+IL6654"
			],
			"lat2": 9.000000,
			"maxlat": 9.000000,
			"runtime": 351478745,
			"nomLat1": 3.000000,
			"nomLat2": 9.000000,
			"maxNomLat": 9.000000,
			"mincut": 10
		},
		{
			"s1": "Chicago,+IL6611",
			"s2": "Kansas+City,+MO6707",
			"t1": "Dallas,+TX6737",
			"t2": "Atlanta,+GA6481",
			"suurballeNbPaths": 2,
			"suurballeTime": 155118462,
			"suurballePaths": {
				"path0": [
					"Chicago,+IL6611",
					"Chicago,+IL4037",
					"Atlanta,+GA4032",
					"Atlanta,+GA6481"
				],
				"lat0": 8.000000,
				"nbSeg0": 6,
				"path1": [
					"Kansas+City,+MO6707",
					"Kansas+City,+MO4106",
					"Dallas,+TX2635",
					"Dallas,+TX6737"
				],
				"lat1": 7.000000,
				"nbSeg1": 6
			},
			"pathsExist": true,
			"path1": [
				"Chicago,+IL6611",
				"Dallas,+TX6737"
			],
			"lat1": 10.000000,
			"path2": [
				"Kansas+City,+MO6707",
				"Chicago,+IL4037",
				"Atlanta,+GA6481"
			],
			"lat2": 13.000000,
			"maxlat": 13.000000,
			"runtime": 223624016,
			"nomLat1": 10.000000,
			"nomLat2": 14.000000,
			"maxNomLat": 14.000000,
			"mincut": 16
		},
		{
			"s1": "Stockton,+CA6758",
			"s2": "Frankfurt4079",
			"t1": "Anaheim,+CA6702",
			"t2": "Singapore4094",
			"suurballeNbPaths": 2,
			"suurballeTime": 258181731,
			"suurballePaths": {
				"path0": [
					"Stockton,+CA6758",
					"Stockton,+CA4096",
					"San+Jose,+CA4112",
					"Anaheim,+CA4031",
					"Anaheim,+CA6702"
				],
				"lat0": 8.000000,
				"nbSeg0": 8,
				"path1": [
					"Frankfurt4079",
					"Paris4051",
					"Paris4090",
					"London4044",
					"London4045",
					"New+York,+NY4017",
					"New+York,+NY4048",
					"Chicago,+IL4104",
					"Seattle,+WA4059",
					"Tacoma,+WA3251",
					"Tokyo4070",
					"Singapore4094"
				],
				"lat1": 131.000000,
				"nbSeg1": 22
			},
			"pathsExist": true,
			"path1": [
				"Stockton,+CA6758",
				"Anaheim,+CA6702"
			],
			"lat1": 8.000000,
			"path2": [
				"Frankfurt4079",
				"Singapore4094"
			],
			"lat2": 134.000000,
			"maxlat": 134.000000,
			"runtime": 360901416,
			"nomLat1": 8.000000,
			"nomLat2": 134.000000,
			"maxNomLat": 134.000000,
			"mincut": 12
		},
		{
			"s1": "Seattle,+WA4059",
			"s2": "Chicago,+IL6611",
			"t1": "Springfield,+MA6406",
			"t2": "Washington,+DC6415",
			"suurballeNbPaths": 2,
			"suurballeTime": 178165211,
			"suurballePaths": {
				"path0": [
					"Chicago,+IL6611",
					"Chicago,+IL1484",
					"Springfield,+MA4023",
					"Springfield,+MA6406"
				],
				"lat0": 10.000000,
				"nbSeg0": 6,
				"path1": [
					"Seattle,+WA4059",
					"Chicago,+IL4104",
					"New+York,+NY4048",
					"Relay,+MD4110",
					"Washington,+DC4140",
					"Washington,+DC6415"
				],
				"lat1": 28.000000,
				"nbSeg1": 10
			},
			"pathsExist": true,
			"path1": [
				"Seattle,+WA4059",
				"Springfield,+MA6406"
			],
			"lat1": 25.000000,
			"path2": [
				"Chicago,+IL6611",
				"Chicago,+IL4104",
				"Washington,+DC6415"
			],
			"lat2": 14.000000,
			"maxlat": 25.000000,
			"runtime": 306054323,
			"nomLat1": 25.000000,
			"nomLat2": 16.000000,
			"maxNomLat": 25.000000,
			"mincut": 20
		},
		{
			"s1": "Atlanta,+GA6530",
			"s2": "Dallas,+TX6645",
			"t1": "Seattle,+WA6450",
			"t2": "Dallas,+TX6622",
			"suurballeNbPaths": 2,
			"suurballeTime": 210808717,
			"suurballePaths": {
				"path0": [
					"Dallas,+TX6645",
					"Dallas,+TX4080",
					"Dallas,+TX6622"
				],
				"lat0": 2.000000,
				"nbSeg0": 4,
				"path1": [
					"Atlanta,+GA6530",
					"Cheyenne,+WY6413",
					"Cheyenne,+WY4034",
					"Tacoma,+WA3251",
					"Seattle,+WA4059",
					"Seattle,+WA4019",
					"Seattle,+WA6450"
				],
				"lat1": 25.000000,
				"nbSeg1": 12
			},
			"pathsExist": true,
			"path1": [
				"Atlanta,+GA6530",
				"Seattle,+WA6450"
			],
			"lat1": 25.000000,
			"path2": [
				"Dallas,+TX6645",
				"Dallas,+TX2635",
				"Dallas,+TX6622"
			],
			"lat2": 2.000000,
			"maxlat": 25.000000,
			"runtime": 476784426,
			"nomLat1": 25.000000,
			"nomLat2": 26.000000,
			"maxNomLat": 26.000000,
			"mincut": 12
		},
		{
			"s1": "Pennsauken,+NJ6516",
			"s2": "Tokyo4070",
			"t1": "Anaheim,+CA6512",
			"t2": "Stockton,+CA6583",
			"suurballeNbPaths": 2,
			"suurballeTime": 241345447,
			"suurballePaths": {
				"path0": [
					"Tokyo4070",
					"Tokyo4069",
					"Stockton,+CA4064",
					"Stockton,+CA6583"
				],
				"lat0": 46.000000,
				"nbSeg0": 6,
				"path1": [
					"Pennsauken,+NJ6516",
					"Pennsauken,+NJ4109",
					"Dallas,+TX4015",
					"Anaheim,+CA4073",
					"Anaheim,+CA6512"
				],
				"lat1": 25.000000,
				"nbSeg1": 8
			},
			"pathsExist": true,
			"path1": [
				"Pennsauken,+NJ6516",
				"Anaheim,+CA6512"
			],
			"lat1": 29.000000,
			"path2": [
				"Tokyo4070",
				"Stockton,+CA6583"
			],
			"lat2": 46.000000,
			"maxlat": 46.000000,
			"runtime": 294110437,
			"nomLat1": 29.000000,
			"nomLat2": 46.000000,
			"maxNomLat": 46.000000,
			"mincut": 16
		},
		{
			"s1": "Chicago,+IL6639",
			"s2": "New+York,+NY4116",
			"t1": "Chicago,+IL6669",
			"t2": "Stockton,+CA4064",
			"suurballeNbPaths": 2,
			"suurballeTime": 514084347,
			"suurballePaths": {
				"path0": [
					"Chicago,+IL6639",
					"Chicago,+IL1484",
					"Chicago,+IL6669"
				],
				"lat0": 2.000000,
				"nbSeg0": 4,
				"path1": [
					"New+York,+NY4116",
					"Pennsauken,+NJ4109",
					"Pennsauken,+NJ4052",
					"Stockton,+CA4064"
				],
				"lat1": 24.000000,
				"nbSeg1": 6
			},
			"pathsExist": true,
			"path1": [
				"Chicago,+IL6639",
				"Chicago,+IL6669"
			],
			"lat1": 2.000000,
			"path2": [
				"New+York,+NY4116",
				"Stockton,+CA4064"
			],
			"lat2": 24.000000,
			"maxlat": 24.000000,
			"runtime": 281206127,
			"nomLat1": 2.000000,
			"nomLat2": 24.000000,
			"maxNomLat": 24.000000,
			"mincut": 42
		},
		{
			"s1": "Washington,+DC6543",
			"s2": "Dallas,+TX6580",
			"t1": "Stockton,+CA6619",
			"t2": "San+Jose,+CA4132",
			"suurballeNbPaths": 2,
			"suurballeTime": 203751448,
			"suurballePaths": {
				"path0": [
					"Dallas,+TX6580",
					"Dallas,+TX4080",
					"San+Jose,+CA4119",
					"San+Jose,+CA4132"
				],
				"lat0": 15.000000,
				"nbSeg0": 5,
				"path1": [
					"Washington,+DC6543",
					"Washington,+DC4142",
					"Relay,+MD4093",
					"San+Jose,+CA4112",
					"Stockton,+CA4096",
					"Stockton,+CA6619"
				],
				"lat1": 27.000000,
				"nbSeg1": 10
			},
			"pathsExist": true,
			"path1": [
				"Washington,+DC6543",
				"Stockton,+CA6619"
			],
			"lat1": 27.000000,
			"path2": [
				"Dallas,+TX6580",
				"San+Jose,+CA4132"
			],
			"lat2": 17.000000,
			"maxlat": 27.000000,
			"runtime": 451970823,
			"nomLat1": 27.000000,
			"nomLat2": 17.000000,
			"maxNomLat": 27.000000,
			"mincut": 16
		},
		{
			"s1": "Relay,+MD6518",
			"s2": "Dallas,+TX6558",
			"t1": "Pennsauken,+NJ4091",
			"t2": "Stockholm,+Sweden4097",
			"suurballeNbPaths": 2,
			"suurballeTime": 202493165,
			"suurballePaths": {
				"path0": [
					"Dallas,+TX6558",
					"Dallas,+TX4015",
					"Pennsauken,+NJ4109",
					"Pennsauken,+NJ4091"
				],
				"lat0": 14.000000,
				"nbSeg0": 6,
				"path1": [
					"Relay,+MD6518",
					"Relay,+MD4110",
					"Manasquan,+NJ4086",
					"Copenhagen4038",
					"Stockholm,+Sweden4066",
					"Stockholm,+Sweden4097"
				],
				"lat1": 42.000000,
				"nbSeg1": 10
			},
			"pathsExist": true,
			"path1": [
				"Relay,+MD6518",
				"Pennsauken,+NJ4091"
			],
			"lat1": 4.000000,
			"path2": [
				"Dallas,+TX6558",
				"Stockholm,+Sweden4097"
			],
			"lat2": 55.000000,
			"maxlat": 55.000000,
			"runtime": 427599736,
			"nomLat1": 4.000000,
			"nomLat2": 55.000000,
			"maxNomLat": 55.000000,
			"mincut": 12
		},
		{
			"s1": "Chicago,+IL6586",
			"s2": "Stockton,+CA6619",
			"t1": "Anaheim,+CA6556",
			"t2": "Pennsauken,+NJ6486",
			"suurballeNbPaths": 2,
			"suurballeTime": 139790369,
			"suurballePaths": {
				"path0": [
					"Chicago,+IL6586",
					"Chicago,+IL4104",
					"New+York,+NY4048",
					"Pennsauken,+NJ4052",
					"Pennsauken,+NJ6486"
				],
				"lat0": 11.000000,
				"nbSeg0": 8,
				"path1": [
					"Stockton,+CA6619",
					"Stockton,+CA4096",
					"San+Jose,+CA4112",
					"Anaheim,+CA4031",
					"Anaheim,+CA6556"
				],
				"lat1": 8.000000,
				"nbSeg1": 8
			},
			"pathsExist": true,
			"path1": [
				"Chicago,+IL6586",
				"Anaheim,+CA6556"
			],
			"lat1": 21.000000,
			"path2": [
				"Stockton,+CA6619",
				"Pennsauken,+NJ6486"
			],
			"lat2": 23.000000,
			"maxlat": 23.000000,
			"runtime": 329716971,
			"nomLat1": 21.000000,
			"nomLat2": 23.000000,
			"maxNomLat": 23.000000,
			"mincut": 16
		},
		{
			"s1": "Chicago,+IL6651",
			"s2": "Richardson,+TX5500",
			"t1": "Lees+Summit,+MO5512",
			"t2": "Chicago,+IL6643",
			"suurballeNbPaths": 2,
			"suurballeTime": 107238892,
			"suurballePaths": {
				"path0": [
					"Chicago,+IL6651",
					"Chicago,+IL4122",
					"Chicago,+IL1484",
					"Chicago,+IL6643"
				],
				"lat0": 3.000000,
				"nbSeg0": 6,
				"path1": [
					"Richardson,+TX5500",
					"Dallas,+TX4015",
					"Kansas+City,+MO6690",
					"Kansas+City,+MO4106",
					"Lees+Summit,+MO5512"
				],
				"lat1": 10.000000,
				"nbSeg1": 7
			},
			"pathsExist": true,
			"path1": [
				"Chicago,+IL6651",
				"Lees+Summit,+MO5512"
			],
			"lat1": 10.000000,
			"path2": [
				"Richardson,+TX5500",
				"Chicago,+IL6643"
			],
			"lat2": 11.000000,
			"maxlat": 11.000000,
			"runtime": 245629401,
			"nomLat1": 10.000000,
			"nomLat2": 11.000000,
			"maxNomLat": 11.000000,
			"mincut": 6
		},
		{
			"s1": "Cheyenne,+WY4034",
			"s2": "Boston5499",
			"t1": "Chicago,+IL6414",
			"t2": "Washington,+DC6393",
			"suurballeNbPaths": 2,
			"suurballeTime": 128409329,
			"suurballePaths": {
				"path0": [
					"Cheyenne,+WY4034",
					"Chicago,+IL4037",
					"Chicago,+IL6414"
				],
				"lat0": 10.000000,
				"nbSeg0": 4,
				"path1": [
					"Boston5499",
					"Springfield,+MA4020",
					"Pennsauken,+NJ4126",
					"Pennsauken,+NJ4135",
					"Relay,+MD4093",
					"Washington,+DC4142",
					"Washington,+DC6393"
				],
				"lat1": 11.000000,
				"nbSeg1": 12
			},
			"pathsExist": true,
			"path1": [
				"Cheyenne,+WY4034",
				"Chicago,+IL6414"
			],
			"lat1": 10.000000,
			"path2": [
				"Boston5499",
				"New+York,+NY4129",
				"Washington,+DC6393"
			],
			"lat2": 11.000000,
			"maxlat": 11.000000,
			"runtime": 275401863,
			"nomLat1": 10.000000,
			"nomLat2": 12.000000,
			"maxNomLat": 12.000000,
			"mincut": 20
		},
		{
			"s1": "Orlando,+FL6459",
			"s2": "Springfield,+MA4023",
			"t1": "Dallas,+TX6663",
			"t2": "Anaheim,+CA4099",
			"suurballeNbPaths": 2,
			"suurballeTime": 90074344,
			"suurballePaths": {
				"path0": [
					"Springfield,+MA4023",
					"Chicago,+IL1484",
					"Dallas,+TX4080",
					"Dallas,+TX6663"
				],
				"lat0": 17.000000,
				"nbSeg0": 6,
				"path1": [
					"Orlando,+FL6459",
					"Orlando,+FL4050",
					"Dallas,+TX4015",
					"Dallas,+TX4080",
					"Anaheim,+CA4099"
				],
				"lat1": 22.000000,
				"nbSeg1": 7
			},
			"pathsExist": true,
			"path1": [
				"Orlando,+FL6459",
				"Dallas,+TX6663"
			],
			"lat1": 12.000000,
			"path2": [
				"Springfield,+MA4023",
				"Anaheim,+CA4099"
			],
			"lat2": 28.000000,
			"maxlat": 28.000000,
			"runtime": 344234001,
			"nomLat1": 12.000000,
			"nomLat2": 28.000000,
			"maxNomLat": 28.000000,
			"mincut": 16
		},
		{
			"s1": "Anaheim,+CA6556",
			"s2": "Chicago,+IL6621",
			"t1": "Amsterdam4072",
			"t2": "Chicago,+IL4104",
			"suurballeNbPaths": 2,
			"suurballeTime": 106117306,
			"suurballePaths": {
				"path0": [
					"Chicago,+IL6621",
					"Chicago,+IL4104"
				],
				"lat0": 1.000000,
				"nbSeg0": 2,
				"path1": [
					"Anaheim,+CA6556",
					"Anaheim,+CA4101",
					"Dallas,+TX2635",
					"Chicago,+IL4104"
				],
				"lat1": 20.000000,
				"nbSeg1": 6
			},
			"pathsExist": true,
			"path1": [
				"Anaheim,+CA6556",
				"Dallas,+TX4015",
				"Amsterdam4072"
			],
			"lat1": 67.000000,
			"path2": [
				"Chicago,+IL6621",
				"Chicago,+IL4104"
			],
			"lat2": 1.000000,
			"maxlat": 67.000000,
			"runtime": 700093373,
			"nomLat1": 69.000000,
			"nomLat2": 1.000000,
			"maxNomLat": 69.000000,
			"mincut": 24
		},
		{
			"s1": "Chicago,+IL4036",
			"s2": "Washington,+DC6469",
			"t1": "Kansas+City,+MO4106",
			"t2": "Tokyo4071",
			"suurballeNbPaths": 2,
			"suurballeTime": 103989839,
			"suurballePaths": {
				"path0": [
					"Washington,+DC6469",
					"Relay,+MD4093",
					"Pennsauken,+NJ4135",
					"Pennsauken,+NJ4117",
					"Kansas+City,+MO4106"
				],
				"lat0": 15.000000,
				"nbSeg0": 8,
				"path1": [
					"Chicago,+IL4036",
					"Chicago,+IL4104",
					"Seattle,+WA4059",
					"Tacoma,+WA3251",
					"Tokyo4070",
					"Tokyo4071"
				],
				"lat1": 59.000000,
				"nbSeg1": 10
			},
			"pathsExist": true,
			"path1": [
				"Chicago,+IL4036",
				"Kansas+City,+MO4106"
			],
			"lat1": 7.000000,
			"path2": [
				"Washington,+DC6469",
				"Tokyo4071"
			],
			"lat2": 70.000000,
			"maxlat": 70.000000,
			"runtime": 347383828,
			"nomLat1": 7.000000,
			"nomLat2": 70.000000,
			"maxNomLat": 70.000000,
			"mincut": 30
		},
		{
			"s1": "Cheyenne,+WY6413",
			"s2": "Chicago,+IL6651",
			"t1": "Pennsauken,+NJ6614",
			"t2": "Kansas+City,+MO6395",
			"suurballeNbPaths": 2,
			"suurballeTime": 374809110,
			"suurballePaths": {
				"path0": [
					"Cheyenne,+WY6413",
					"Cheyenne,+WY4076",
					"Dallas,+TX4080",
					"Kansas+City,+MO4082",
					"Kansas+City,+MO6395"
				],
				"lat0": 14.000000,
				"nbSeg0": 7,
				"path1": [
					"Chicago,+IL6651",
					"Chicago,+IL4122",
					"Chicago,+IL4037",
					"New+York,+NY4124",
					"Pennsauken,+NJ4091",
					"Pennsauken,+NJ6614"
				],
				"lat1": 12.000000,
				"nbSeg1": 10
			},
			"pathsExist": true,
			"path1": [
				"Cheyenne,+WY6413",
				"New+York,+NY4048",
				"Pennsauken,+NJ6614"
			],
			"lat1": 20.000000,
			"path2": [
				"Chicago,+IL6651",
				"Kansas+City,+MO6395"
			],
			"lat2": 8.000000,
			"maxlat": 20.000000,
			"runtime": 8403613989,
			"nomLat1": 22.000000,
			"nomLat2": 8.000000,
			"maxNomLat": 22.000000,
			"mincut": 6
		},
		{
			"s1": "Pearl+Harbor,+HI6400",
			"s2": "Atlanta,+GA2338",
			"t1": "Chicago,+IL6621",
			"t2": "New+York,+NY6397",
			"suurballeNbPaths": 2,
			"suurballeTime": 152944680,
			"suurballePaths": {
				"path0": [
					"Atlanta,+GA2338",
					"Atlanta,+GA4032",
					"New+York,+NY4048",
					"New+York,+NY6397"
				],
				"lat0": 10.000000,
				"nbSeg0": 6,
				"path1": [
					"Pearl+Harbor,+HI6400",
					"Pearl+Harbor,+HI4053",
					"Stockton,+CA4065",
					"Chicago,+IL4036",
					"Chicago,+IL6621"
				],
				"lat1": 39.000000,
				"nbSeg1": 8
			},
			"pathsExist": true,
			"path1": [
				"Pearl+Harbor,+HI6400",
				"Chicago,+IL6621"
			],
			"lat1": 40.000000,
			"path2": [
				"Atlanta,+GA2338",
				"New+York,+NY6397"
			],
			"lat2": 10.000000,
			"maxlat": 40.000000,
			"runtime": 720103300,
			"nomLat1": 40.000000,
			"nomLat2": 10.000000,
			"maxNomLat": 40.000000,
			"mincut": 10
		},
		{
			"s1": "Pennsauken,+NJ6614",
			"s2": "Relay,+MD4127",
			"t1": "Hamburg,+Germany4041",
			"t2": "Ashburn,+VA10161",
			"suurballeNbPaths": 2,
			"suurballeTime": 86105606,
			"suurballePaths": {
				"path0": [
					"Relay,+MD4127",
					"Relay,+MD4054",
					"Relay,+MD4138",
					"Ashburn,+VA10161"
				],
				"lat0": 4.000000,
				"nbSeg0": 6,
				"path1": [
					"Pennsauken,+NJ6614",
					"Pennsauken,+NJ4109",
					"New+York,+NY4116",
					"New+York,+NY4088",
					"Manasquan,+NJ4086",
					"Copenhagen4038",
					"Hamburg,+Germany4041"
				],
				"lat1": 42.000000,
				"nbSeg1": 12
			},
			"pathsExist": true,
			"path1": [
				"Pennsauken,+NJ6614",
				"New+York,+NY4048",
				"Hamburg,+Germany4041"
			],
			"lat1": 42.000000,
			"path2": [
				"Relay,+MD4127",
				"Ashburn,+VA10161"
			],
			"lat2": 4.000000,
			"maxlat": 42.000000,
			"runtime": 1149011435,
			"nomLat1": 43.000000,
			"nomLat2": 4.000000,
			"maxNomLat": 43.000000,
			"mincut": 8
		},
		{
			"s1": "Pennsauken,+NJ6624",
			"s2": "Orlando,+FL6429",
			"t1": "Los+Angeles,+CA5502",
			"t2": "San+Jose,+CA6405",
			"suurballeNbPaths": 2,
			"suurballeTime": 92399844,
			"suurballePaths": {
				"path0": [
					"Pennsauken,+NJ6624",
					"Pennsauken,+NJ4091",
					"Stockton,+CA4065",
					"San+Jose,+CA4095",
					"San+Jose,+CA6405"
				],
				"lat0": 25.000000,
				"nbSeg0": 8,
				"path1": [
					"Orlando,+FL6429",
					"Orlando,+FL4089",
					"Dallas,+TX4115",
					"Anaheim,+CA4031",
					"Los+Angeles,+CA5502"
				],
				"lat1": 23.000000,
				"nbSeg1": 8
			},
			"pathsExist": true,
			"path1": [
				"Pennsauken,+NJ6624",
				"Dallas,+TX4115",
				"Los+Angeles,+CA5502"
			],
			"lat1": 27.000000,
			"path2": [
				"Orlando,+FL6429",
				"San+Jose,+CA6405"
			],
			"lat2": 26.000000,
			"maxlat": 27.000000,
			"runtime": 2686606668,
			"nomLat1": 30.000000,
			"nomLat2": 26.000000,
			"maxNomLat": 30.000000,
			"mincut": 6
		},
		{
			"s1": "Atlanta,+GA2347",
			"s2": "Anaheim,+CA6539",
			"t1": "Stockton,+CA6563",
			"t2": "San+Jose,+CA6405",
			"suurballeNbPaths": 2,
			"suurballeTime": 93565725,
			"suurballePaths": {
				"path0": [
					"Anaheim,+CA6539",
					"Anaheim,+CA4073",
					"San+Jose,+CA4095",
					"San+Jose,+CA6405"
				],
				"lat0": 6.000000,
				"nbSeg0": 6,
				"path1": [
					"Atlanta,+GA2347",
					"Atlanta,+GA4032",
					"Chicago,+IL4037",
					"Chicago,+IL4036",
					"Stockton,+CA4065",
					"Stockton,+CA6563"
				],
				"lat1": 25.000000,
				"nbSeg1": 10
			},
			"pathsExist": true,
			"path1": [
				"Atlanta,+GA2347",
				"Chicago,+IL4037",
				"Stockton,+CA6563"
			],
			"lat1": 25.000000,
			"path2": [
				"Anaheim,+CA6539",
				"San+Jose,+CA6405"
			],
			"lat2": 6.000000,
			"maxlat": 25.000000,
			"runtime": 1844275664,
			"nomLat1": 31.000000,
			"nomLat2": 6.000000,
			"maxNomLat": 31.000000,
			"mincut": 12
		},
		{
			"s1": "Frankfurt4079",
			"s2": "Relay,+MD6461",
			"t1": "Atlanta,+GA6530",
			"t2": "San+Jose,+CA4095",
			"suurballeNbPaths": 2,
			"suurballeTime": 101283919,
			"suurballePaths": {
				"path0": [
					"Relay,+MD6461",
					"Relay,+MD4110",
					"San+Jose,+CA4062",
					"San+Jose,+CA4095"
				],
				"lat0": 23.000000,
				"nbSeg0": 6,
				"path1": [
					"Frankfurt4079",
					"Paris4051",
					"Paris4090",
					"London4044",
					"London4045",
					"New+York,+NY4017",
					"New+York,+NY4048",
					"Chicago,+IL4104",
					"Cheyenne,+WY4034",
					"Cheyenne,+WY6413",
					"Atlanta,+GA6530"
				],
				"lat1": 67.000000,
				"nbSeg1": 20
			},
			"pathsExist": true,
			"path1": [
				"Frankfurt4079",
				"Atlanta,+GA6530"
			],
			"lat1": 69.000000,
			"path2": [
				"Relay,+MD6461",
				"San+Jose,+CA4095"
			],
			"lat2": 23.000000,
			"maxlat": 69.000000,
			"runtime": 9604966249,
			"nomLat1": 69.000000,
			"nomLat2": 23.000000,
			"maxNomLat": 69.000000,
			"mincut": 10
		},
		{
			"s1": "New+York,+NY4129",
			"s2": "Chicago,+IL6441",
			"t1": "Copenhagen4077",
			"t2": "Lees+Summit,+MO5512",
			"suurballeNbPaths": 2,
			"suurballeTime": 94343987,
			"suurballePaths": {
				"path0": [
					"Chicago,+IL6441",
					"Chicago,+IL4037",
					"Kansas+City,+MO4043",
					"Kansas+City,+MO4105",
					"Lees+Summit,+MO5512"
				],
				"lat0": 9.000000,
				"nbSeg0": 8,
				"path1": [
					"New+York,+NY4129",
					"New+York,+NY4134",
					"New+York,+NY4017",
					"London4045",
					"London4044",
					"Copenhagen4077"
				],
				"lat1": 38.000000,
				"nbSeg1": 10
			},
			"pathsExist": true,
			"path1": [
				"New+York,+NY4129",
				"New+York,+NY4088",
				"Copenhagen4077"
			],
			"lat1": 38.000000,
			"path2": [
				"Chicago,+IL6441",
				"Lees+Summit,+MO5512"
			],
			"lat2": 9.000000,
			"maxlat": 38.000000,
			"runtime": 5760811565,
			"nomLat1": 43.000000,
			"nomLat2": 9.000000,
			"maxNomLat": 43.000000,
			"mincut": 12
		},
		{
			"s1": "Pennsauken,+NJ6516",
			"s2": "Amsterdam4072",
			"t1": "Manasquan,+NJ4047",
			"t2": "Chicago,+IL6441",
			"suurballeNbPaths": 2,
			"suurballeTime": 92049534,
			"suurballePaths": {
				"path0": [
					"Pennsauken,+NJ6516",
					"Pennsauken,+NJ4052",
					"New+York,+NY4048",
					"Chicago,+IL4104",
					"Chicago,+IL6441"
				],
				"lat0": 11.000000,
				"nbSeg0": 8,
				"path1": [
					"Amsterdam4072",
					"Amsterdam4030",
					"Brussels,+Belgium4075",
					"Brussels,+Belgium4033",
					"London4084",
					"Manasquan,+NJ4047"
				],
				"lat1": 37.000000,
				"nbSeg1": 10
			},
			"pathsExist": true,
			"path1": [
				"Pennsauken,+NJ6516",
				"Pennsauken,+NJ4091",
				"Manasquan,+NJ4047"
			],
			"lat1": 7.000000,
			"path2": [
				"Amsterdam4072",
				"Brussels,+Belgium4075",
				"Chicago,+IL6441"
			],
			"lat2": 47.000000,
			"maxlat": 47.000000,
			"runtime": 6969251107,
			"nomLat1": 5.000000,
			"nomLat2": 49.000000,
			"maxNomLat": 49.000000,
			"mincut": 10
		},
		{
			"s1": "Dallas,+TX3549",
			"s2": "Dallas,+TX6444",
			"t1": "Dallas,+TX6504",
			"t2": "Lees+Summit,+MO5505",
			"suurballeNbPaths": 2,
			"suurballeTime": 92382748,
			"suurballePaths": {
				"path0": [
					"Dallas,+TX6444",
					"Dallas,+TX2635",
					"Dallas,+TX6504"
				],
				"lat0": 2.000000,
				"nbSeg0": 4,
				"path1": [
					"Dallas,+TX3549",
					"Dallas,+TX4080",
					"Kansas+City,+MO4082",
					"Lees+Summit,+MO5505"
				],
				"lat1": 8.000000,
				"nbSeg1": 6
			},
			"pathsExist": true,
			"path1": [
				"Dallas,+TX3549",
				"Dallas,+TX2635",
				"Dallas,+TX6504"
			],
			"lat1": 2.000000,
			"path2": [
				"Dallas,+TX6444",
				"Lees+Summit,+MO5505"
			],
			"lat2": 8.000000,
			"maxlat": 8.000000,
			"runtime": 4234894130,
			"nomLat1": 26.000000,
			"nomLat2": 8.000000,
			"maxNomLat": 26.000000,
			"mincut": 12
		},
		{
			"s1": "Cheyenne,+WY6388",
			"s2": "Atlanta,+GA4074",
			"t1": "Relay,+MD6551",
			"t2": "Copenhagen4038",
			"suurballeNbPaths": 2,
			"suurballeTime": 105027856,
			"suurballePaths": {
				"path0": [
					"Atlanta,+GA4074",
					"Relay,+MD4110",
					"Relay,+MD6551"
				],
				"lat0": 7.000000,
				"nbSeg0": 4,
				"path1": [
					"Cheyenne,+WY6388",
					"Cheyenne,+WY4076",
					"Chicago,+IL1484",
					"New+York,+NY4088",
					"Manasquan,+NJ4086",
					"Copenhagen4038"
				],
				"lat1": 52.000000,
				"nbSeg1": 10
			},
			"pathsExist": true,
			"path1": [
				"Cheyenne,+WY6388",
				"Tacoma,+WA3251",
				"Relay,+MD6551"
			],
			"lat1": 40.000000,
			"path2": [
				"Atlanta,+GA4074",
				"Copenhagen4038"
			],
			"lat2": 42.000000,
			"maxlat": 42.000000,
			"runtime": 10494849920,
			"nomLat1": 23.000000,
			"nomLat2": 42.000000,
			"maxNomLat": 42.000000,
			"mincut": 14
		},
		{
			"s1": "Stockton,+CA6452",
			"s2": "Dallas,+TX6504",
			"t1": "Kansas+City,+MO6690",
			"t2": "New+York,+NY6446",
			"suurballeNbPaths": 2,
			"suurballeTime": 98232301,
			"suurballePaths": {
				"path0": [
					"Dallas,+TX6504",
					"Dallas,+TX4015",
					"Kansas+City,+MO6690"
				],
				"lat0": 6.000000,
				"nbSeg0": 3,
				"path1": [
					"Stockton,+CA6452",
					"Stockton,+CA4096",
					"Pennsauken,+NJ4109",
					"New+York,+NY4116",
					"New+York,+NY6446"
				],
				"lat1": 25.000000,
				"nbSeg1": 8
			},
			"pathsExist": true,
			"path1": [
				"Stockton,+CA6452",
				"Kansas+City,+MO6690"
			],
			"lat1": 24.000000,
			"path2": [
				"Dallas,+TX6504",
				"Pennsauken,+NJ4109",
				"New+York,+NY6446"
			],
			"lat2": 16.000000,
			"maxlat": 24.000000,
			"runtime": 3433677710,
			"nomLat1": 24.000000,
			"nomLat2": 17.000000,
			"maxNomLat": 24.000000,
			"mincut": 18
		},
		{
			"s1": "Dallas,+TX6573",
			"s2": "Anaheim,+CA6556",
			"t1": "Frankfurt4040",
			"t2": "Pennsauken,+NJ6624",
			"suurballeNbPaths": 2,
			"suurballeTime": 86848693,
			"suurballePaths": {
				"path0": [
					"Anaheim,+CA6556",
					"Anaheim,+CA4073",
					"Dallas,+TX4015",
					"Pennsauken,+NJ4109",
					"Pennsauken,+NJ6624"
				],
				"lat0": 25.000000,
				"nbSeg0": 8,
				"path1": [
					"Dallas,+TX6573",
					"Relay,+MD5801",
					"Relay,+MD4110",
					"New+York,+NY4048",
					"New+York,+NY4017",
					"London4045",
					"London4044",
					"Paris4090",
					"Paris4051",
					"Frankfurt4079",
					"Frankfurt4040"
				],
				"lat1": 55.000000,
				"nbSeg1": 20
			},
			"pathsExist": true,
			"path1": [
				"Dallas,+TX6573",
				"Frankfurt4040"
			],
			"lat1": 58.000000,
			"path2": [
				"Anaheim,+CA6556",
				"Dallas,+TX4015",
				"Pennsauken,+NJ6624"
			],
			"lat2": 25.000000,
			"maxlat": 58.000000,
			"runtime": 4725044809,
			"nomLat1": 58.000000,
			"nomLat2": 29.000000,
			"maxNomLat": 58.000000,
			"mincut": 10
		},
		{
			"s1": "Roachdale,+IN6677",
			"s2": "Anaheim,+CA6512",
			"t1": "Stockton,+CA4096",
			"t2": "Washington,+DC6456",
			"suurballeNbPaths": 2,
			"suurballeTime": 110263441,
			"suurballePaths": {
				"path0": [
					"Anaheim,+CA6512",
					"Stockton,+CA3402",
					"Stockton,+CA4096"
				],
				"lat0": 5.000000,
				"nbSeg0": 4,
				"path1": [
					"Roachdale,+IN6677",
					"Roachdale,+IN4056",
					"Pennsauken,+NJ4126",
					"Pennsauken,+NJ4135",
					"Relay,+MD4093",
					"Washington,+DC6456"
				],
				"lat1": 13.000000,
				"nbSeg1": 10
			},
			"pathsExist": true,
			"path1": [
				"Roachdale,+IN6677",
				"Chicago,+IL4037",
				"Stockton,+CA4096"
			],
			"lat1": 22.000000,
			"path2": [
				"Anaheim,+CA6512",
				"Dallas,+TX2635",
				"Washington,+DC6456"
			],
			"lat2": 27.000000,
			"maxlat": 27.000000,
			"runtime": 12423005238,
			"nomLat1": 31.000000,
			"nomLat2": 28.000000,
			"maxNomLat": 31.000000,
			"mincut": 16
		},
		{
			"s1": "Chicago,+IL6611",
			"s2": "Relay,+MD6487",
			"t1": "Washington,+DC6443",
			"t2": "Anaheim,+CA6702",
			"suurballeNbPaths": 2,
			"suurballeTime": 81807839,
			"suurballePaths": {
				"path0": [
					"Relay,+MD6487",
					"Relay,+MD4110",
					"Washington,+DC6443"
				],
				"lat0": 3.000000,
				"nbSeg0": 4,
				"path1": [
					"Chicago,+IL6611",
					"Chicago,+IL4037",
					"Dallas,+TX4080",
					"Anaheim,+CA4101",
					"Anaheim,+CA6702"
				],
				"lat1": 21.000000,
				"nbSeg1": 7
			},
			"pathsExist": true,
			"path1": [
				"Chicago,+IL6611",
				"Pennsauken,+NJ6525",
				"Washington,+DC6443"
			],
			"lat1": 19.000000,
			"path2": [
				"Relay,+MD6487",
				"Dallas,+TX4015",
				"Anaheim,+CA6702"
			],
			"lat2": 26.000000,
			"maxlat": 26.000000,
			"runtime": 4868099801,
			"nomLat1": 15.000000,
			"nomLat2": 28.000000,
			"maxNomLat": 28.000000,
			"mincut": 14
		}
	],
	"demandsWithSol": 95
}
