{
	"nbDemands": 91,
	"demands": [
		{
			"s1": "Oslo,+Norway245",
			"s2": "Paris250",
			"t1": "Padova,+Italy413",
			"t2": "Hamburg,+Germany368",
			"suurballeNbPaths": 2,
			"suurballeTime": 190329376,
			"suurballePaths": {
				"path0": [
					"Paris250",
					"Milan,+Italy227",
					"Milan,+Italy232",
					"Milan,+Italy229",
					"Padova,+Italy413"
				],
				"lat0": 10.000000,
				"nbSeg0": 8,
				"path1": [
					"Oslo,+Norway245",
					"Copenhagen,+Denmark198",
					"Frankfurt207",
					"Frankfurt,+Germany151",
					"Hamburg,+Germany362",
					"Hamburg,+Germany368"
				],
				"lat1": 15.000000,
				"nbSeg1": 9
			},
			"pathsExist": false,
			"runtime": 440081320,
			"nomLat1": 26.000000,
			"nomLat2": 15.000000,
			"maxNomLat": 26.000000,
			"mincut": 8
		},
		{
			"s1": "Mainz,+Germany378",
			"s2": "New+York,+NY235",
			"t1": "Offenbach,+Germany390",
			"t2": "Stockholm,+Sweden261",
			"suurballeNbPaths": 2,
			"suurballeTime": 21178790,
			"suurballePaths": {
				"path0": [
					"Mainz,+Germany378",
					"Frankfurt,+Germany151",
					"Offenbach,+Germany390"
				],
				"lat0": 4.000000,
				"nbSeg0": 4,
				"path1": [
					"New+York,+NY235",
					"London217",
					"Copenhagen,+Denmark198",
					"Copenhagen,+Denmark200",
					"Stockholm,+Sweden259",
					"Stockholm,+Sweden261"
				],
				"lat1": 41.000000,
				"nbSeg1": 10
			},
			"pathsExist": true,
			"path1": [
				"Mainz,+Germany378",
				"Offenbach,+Germany390"
			],
			"lat1": 4.000000,
			"path2": [
				"New+York,+NY235",
				"Copenhagen,+Denmark199",
				"Stockholm,+Sweden261"
			],
			"lat2": 41.000000,
			"maxlat": 41.000000,
			"runtime": 881008173,
			"nomLat1": 4.000000,
			"nomLat2": 44.000000,
			"maxNomLat": 44.000000,
			"mincut": 12
		},
		{
			"s1": "San+Jose,+CA164",
			"s2": "Torino,+Italy418",
			"t1": "Mannheim,+Germany377",
			"t2": "Frankfurt,+Germany350",
			"suurballeNbPaths": 2,
			"suurballeTime": 50532766,
			"suurballePaths": {
				"path0": [
					"San+Jose,+CA164",
					"Frankfurt207",
					"Frankfurt,+Germany151",
					"Frankfurt,+Germany340",
					"Frankfurt,+Germany350"
				],
				"lat0": 50.000000,
				"nbSeg0": 8,
				"path1": [
					"Torino,+Italy418",
					"Milan,+Italy226",
					"Milan,+Italy228",
					"Frankfurt209",
					"Frankfurt,+Germany151",
					"Darmstadt,+Germany326",
					"Mannheim,+Germany377"
				],
				"lat1": 12.000000,
				"nbSeg1": 12
			},
			"pathsExist": true,
			"path1": [
				"San+Jose,+CA164",
				"Mannheim,+Germany377"
			],
			"lat1": 52.000000,
			"path2": [
				"Torino,+Italy418",
				"Dusseldorf,+Germany203",
				"Frankfurt,+Germany350"
			],
			"lat2": 18.000000,
			"maxlat": 52.000000,
			"runtime": 909803696,
			"nomLat1": 52.000000,
			"nomLat2": 16.000000,
			"maxNomLat": 52.000000,
			"mincut": 6
		},
		{
			"s1": "Cagliari,+Italy438",
			"s2": "Dusseldorf,+Germany152",
			"t1": "London217",
			"t2": "Basel,+Switzerland193",
			"suurballeNbPaths": 2,
			"suurballeTime": 62163117,
			"suurballePaths": {
				"path0": [
					"Cagliari,+Italy438",
					"Milan,+Italy229",
					"Milan,+Italy232",
					"London217"
				],
				"lat0": 12.000000,
				"nbSeg0": 6,
				"path1": [
					"Dusseldorf,+Germany152",
					"Frankfurt211",
					"Frankfurt208",
					"Basel,+Switzerland193"
				],
				"lat1": 6.000000,
				"nbSeg1": 6
			},
			"pathsExist": true,
			"path1": [
				"Cagliari,+Italy438",
				"London217"
			],
			"lat1": 12.000000,
			"path2": [
				"Dusseldorf,+Germany152",
				"Basel,+Switzerland193"
			],
			"lat2": 6.000000,
			"maxlat": 12.000000,
			"runtime": 918313388,
			"nomLat1": 12.000000,
			"nomLat2": 6.000000,
			"maxNomLat": 12.000000,
			"mincut": 32
		},
		{
			"s1": "Milan,+Italy228",
			"s2": "Washington,+DC266",
			"t1": "Milan,+Italy229",
			"t2": "London218",
			"suurballeNbPaths": 2,
			"suurballeTime": 42425921,
			"suurballePaths": {
				"path0": [
					"Milan,+Italy228",
					"Milan,+Italy230",
					"Milan,+Italy229"
				],
				"lat0": 2.000000,
				"nbSeg0": 4,
				"path1": [
					"Washington,+DC266",
					"New+York,+NY236",
					"London217",
					"London220",
					"London218"
				],
				"lat1": 34.000000,
				"nbSeg1": 8
			},
			"pathsExist": true,
			"path1": [
				"Milan,+Italy228",
				"Milan,+Italy229"
			],
			"lat1": 2.000000,
			"path2": [
				"Washington,+DC266",
				"London218"
			],
			"lat2": 34.000000,
			"maxlat": 34.000000,
			"runtime": 971396404,
			"nomLat1": 2.000000,
			"nomLat2": 34.000000,
			"maxNomLat": 34.000000,
			"mincut": 20
		},
		{
			"s1": "Frankfurt213",
			"s2": "Copenhagen,+Denmark200",
			"t1": "New+York,+NY235",
			"t2": "Hamburg,+Germany368",
			"suurballeNbPaths": 2,
			"suurballeTime": 18339991,
			"suurballePaths": {
				"path0": [
					"Copenhagen,+Denmark200",
					"Copenhagen,+Denmark197",
					"London217",
					"New+York,+NY235"
				],
				"lat0": 36.000000,
				"nbSeg0": 6,
				"path1": [
					"Frankfurt213",
					"Frankfurt207",
					"Frankfurt,+Germany151",
					"Hamburg,+Germany362",
					"Hamburg,+Germany368"
				],
				"lat1": 7.000000,
				"nbSeg1": 7
			},
			"pathsExist": false,
			"runtime": 16799725,
			"nomLat1": 35.000000,
			"nomLat2": 11.000000,
			"maxNomLat": 35.000000,
			"mincut": 12
		},
		{
			"s1": "Munich,+Germany373",
			"s2": "Paris249",
			"t1": "Amsterdam177",
			"t2": "San+Jose,+CA164",
			"suurballeNbPaths": 2,
			"suurballeTime": 17294885,
			"suurballePaths": {
				"path0": [
					"Paris249",
					"London589",
					"London217",
					"Amsterdam177"
				],
				"lat0": 7.000000,
				"nbSeg0": 6,
				"path1": [
					"Munich,+Germany373",
					"Nuremberg,+Germany383",
					"Frankfurt,+Germany151",
					"Frankfurt207",
					"San+Jose,+CA164"
				],
				"lat1": 52.000000,
				"nbSeg1": 7
			},
			"pathsExist": true,
			"path1": [
				"Munich,+Germany373",
				"Berlin,+Germany303",
				"Amsterdam177"
			],
			"lat1": 17.000000,
			"path2": [
				"Paris249",
				"San+Jose,+CA164"
			],
			"lat2": 52.000000,
			"maxlat": 52.000000,
			"runtime": 1976066747,
			"nomLat1": 15.000000,
			"nomLat2": 52.000000,
			"maxNomLat": 52.000000,
			"mincut": 8
		},
		{
			"s1": "Frankfurt206",
			"s2": "Frankfurt208",
			"t1": "Alessandria,+Italy405",
			"t2": "Dusseldorf,+Germany319",
			"suurballeNbPaths": 2,
			"suurballeTime": 18308263,
			"suurballePaths": {
				"path0": [
					"Frankfurt208",
					"Frankfurt,+Germany151",
					"Dusseldorf,+Germany319"
				],
				"lat0": 3.000000,
				"nbSeg0": 4,
				"path1": [
					"Frankfurt206",
					"Frankfurt214",
					"Frankfurt209",
					"Milan,+Italy228",
					"Milan,+Italy226",
					"Alessandria,+Italy405"
				],
				"lat1": 9.000000,
				"nbSeg1": 10
			},
			"pathsExist": true,
			"path1": [
				"Frankfurt206",
				"Alessandria,+Italy405"
			],
			"lat1": 12.000000,
			"path2": [
				"Frankfurt208",
				"Frankfurt,+Germany346",
				"Dusseldorf,+Germany319"
			],
			"lat2": 4.000000,
			"maxlat": 12.000000,
			"runtime": 2146710742,
			"nomLat1": 12.000000,
			"nomLat2": 7.000000,
			"maxNomLat": 12.000000,
			"mincut": 12
		},
		{
			"s1": "Paris249",
			"s2": "Copenhagen,+Denmark201",
			"t1": "Frankfurt,+Germany343",
			"t2": "Oslo,+Norway245",
			"suurballeNbPaths": 2,
			"suurballeTime": 18682508,
			"suurballePaths": {
				"path0": [
					"Copenhagen,+Denmark201",
					"Copenhagen,+Denmark196",
					"Oslo,+Norway245"
				],
				"lat0": 5.000000,
				"nbSeg0": 4,
				"path1": [
					"Paris249",
					"Frankfurt209",
					"Frankfurt,+Germany151",
					"Frankfurt,+Germany341",
					"Frankfurt,+Germany343"
				],
				"lat1": 7.000000,
				"nbSeg1": 8
			},
			"pathsExist": true,
			"path1": [
				"Paris249",
				"Paris253",
				"Frankfurt,+Germany343"
			],
			"lat1": 9.000000,
			"path2": [
				"Copenhagen,+Denmark201",
				"Oslo,+Norway245"
			],
			"lat2": 5.000000,
			"maxlat": 9.000000,
			"runtime": 2393870884,
			"nomLat1": 9.000000,
			"nomLat2": 5.000000,
			"maxNomLat": 9.000000,
			"mincut": 20
		},
		{
			"s1": "Milan,+Italy232",
			"s2": "Frankfurt206",
			"t1": "Dresden,+Germany333",
			"t2": "Frankfurt,+Germany355",
			"suurballeNbPaths": 2,
			"suurballeTime": 18116451,
			"suurballePaths": {
				"path0": [
					"Frankfurt206",
					"Frankfurt214",
					"Frankfurt,+Germany355"
				],
				"lat0": 2.000000,
				"nbSeg0": 4,
				"path1": [
					"Milan,+Italy232",
					"Milan,+Italy229",
					"Milan,+Italy230",
					"Milan,+Italy228",
					"Frankfurt209",
					"Frankfurt,+Germany151",
					"Offenbach,+Germany390",
					"Dresden,+Germany333"
				],
				"lat1": 13.000000,
				"nbSeg1": 14
			},
			"pathsExist": true,
			"path1": [
				"Milan,+Italy232",
				"Basel,+Switzerland193",
				"Dresden,+Germany333"
			],
			"lat1": 16.000000,
			"path2": [
				"Frankfurt206",
				"Frankfurt212",
				"Frankfurt,+Germany355"
			],
			"lat2": 4.000000,
			"maxlat": 16.000000,
			"runtime": 2626648405,
			"nomLat1": 19.000000,
			"nomLat2": 2.000000,
			"maxNomLat": 19.000000,
			"mincut": 4
		},
		{
			"s1": "Frankfurt,+Germany342",
			"s2": "Frankfurt,+Germany345",
			"t1": "Amsterdam179",
			"t2": "Frankfurt,+Germany357",
			"suurballeNbPaths": 2,
			"suurballeTime": 17678550,
			"suurballePaths": {
				"path0": [
					"Frankfurt,+Germany342",
					"Frankfurt,+Germany343",
					"Frankfurt,+Germany340",
					"Frankfurt,+Germany357"
				],
				"lat0": 3.000000,
				"nbSeg0": 6,
				"path1": [
					"Frankfurt,+Germany345",
					"Dusseldorf,+Germany319",
					"Dusseldorf,+Germany153",
					"Dusseldorf,+Germany203",
					"Amsterdam178",
					"Amsterdam179"
				],
				"lat1": 7.000000,
				"nbSeg1": 10
			},
			"pathsExist": true,
			"path1": [
				"Frankfurt,+Germany342",
				"Amsterdam179"
			],
			"lat1": 8.000000,
			"path2": [
				"Frankfurt,+Germany345",
				"Frankfurt,+Germany357"
			],
			"lat2": 6.000000,
			"maxlat": 8.000000,
			"runtime": 2689274073,
			"nomLat1": 8.000000,
			"nomLat2": 6.000000,
			"maxNomLat": 8.000000,
			"mincut": 8
		},
		{
			"s1": "London217",
			"s2": "Rome,+Italy454",
			"t1": "Copenhagen,+Denmark199",
			"t2": "Munich,+Germany374",
			"suurballeNbPaths": 2,
			"suurballeTime": 17522360,
			"suurballePaths": {
				"path0": [
					"London217",
					"Copenhagen,+Denmark199"
				],
				"lat0": 6.000000,
				"nbSeg0": 2,
				"path1": [
					"Rome,+Italy454",
					"Cagliari,+Italy439",
					"Milan,+Italy226",
					"Milan,+Italy228",
					"Frankfurt209",
					"Frankfurt,+Germany151",
					"Nuremberg,+Germany383",
					"Munich,+Germany374"
				],
				"lat1": 19.000000,
				"nbSeg1": 14
			},
			"pathsExist": true,
			"path1": [
				"London217",
				"Copenhagen,+Denmark199"
			],
			"lat1": 6.000000,
			"path2": [
				"Rome,+Italy454",
				"Munich,+Germany374"
			],
			"lat2": 26.000000,
			"maxlat": 26.000000,
			"runtime": 35244178,
			"nomLat1": 6.000000,
			"nomLat2": 26.000000,
			"maxNomLat": 26.000000,
			"mincut": 30
		},
		{
			"s1": "New+York,+NY242",
			"s2": "Offenbach,+Germany389",
			"t1": "Frankfurt,+Germany354",
			"t2": "Frankfurt206",
			"suurballeNbPaths": 2,
			"suurballeTime": 36639791,
			"suurballePaths": {
				"path0": [
					"Offenbach,+Germany389",
					"Frankfurt,+Germany340",
					"Frankfurt,+Germany354"
				],
				"lat0": 3.000000,
				"nbSeg0": 4,
				"path1": [
					"New+York,+NY242",
					"Amsterdam178",
					"Dusseldorf,+Germany203",
					"Frankfurt211",
					"Frankfurt206"
				],
				"lat1": 36.000000,
				"nbSeg1": 8
			},
			"pathsExist": true,
			"path1": [
				"New+York,+NY242",
				"Frankfurt,+Germany354"
			],
			"lat1": 37.000000,
			"path2": [
				"Offenbach,+Germany389",
				"Frankfurt212",
				"Frankfurt206"
			],
			"lat2": 5.000000,
			"maxlat": 37.000000,
			"runtime": 52818680,
			"nomLat1": 37.000000,
			"nomLat2": 5.000000,
			"maxNomLat": 37.000000,
			"mincut": 8
		},
		{
			"s1": "Frankfurt207",
			"s2": "Hamburg,+Germany363",
			"t1": "Brussels,+Belgium187",
			"t2": "Stuttgart,+Germany392",
			"suurballeNbPaths": 2,
			"suurballeTime": 18131515,
			"suurballePaths": {
				"path0": [
					"Frankfurt207",
					"Frankfurt,+Germany151",
					"Stuttgart,+Germany393",
					"Stuttgart,+Germany392"
				],
				"lat0": 4.000000,
				"nbSeg0": 6,
				"path1": [
					"Hamburg,+Germany363",
					"Dusseldorf,+Germany153",
					"Dusseldorf,+Germany203",
					"Brussels,+Belgium187"
				],
				"lat1": 6.000000,
				"nbSeg1": 6
			},
			"pathsExist": true,
			"path1": [
				"Frankfurt207",
				"London217",
				"Brussels,+Belgium187"
			],
			"lat1": 8.000000,
			"path2": [
				"Hamburg,+Germany363",
				"Stuttgart,+Germany392"
			],
			"lat2": 10.000000,
			"maxlat": 10.000000,
			"runtime": 2161590469,
			"nomLat1": 5.000000,
			"nomLat2": 10.000000,
			"maxNomLat": 10.000000,
			"mincut": 8
		},
		{
			"s1": "Nuremberg,+Germany383",
			"s2": "Paris251",
			"t1": "Amsterdam177",
			"t2": "Frankfurt536",
			"suurballeNbPaths": 2,
			"suurballeTime": 48606023,
			"suurballePaths": {
				"path0": [
					"Paris251",
					"London217",
					"Amsterdam177"
				],
				"lat0": 6.000000,
				"nbSeg0": 4,
				"path1": [
					"Nuremberg,+Germany383",
					"Frankfurt,+Germany151",
					"Frankfurt,+Germany341",
					"Frankfurt536"
				],
				"lat1": 4.000000,
				"nbSeg1": 6
			},
			"pathsExist": true,
			"path1": [
				"Nuremberg,+Germany383",
				"Frankfurt213",
				"Amsterdam177"
			],
			"lat1": 15.000000,
			"path2": [
				"Paris251",
				"Dusseldorf,+Germany152",
				"Frankfurt536"
			],
			"lat2": 14.000000,
			"maxlat": 15.000000,
			"runtime": 3195100284,
			"nomLat1": 18.000000,
			"nomLat2": 10.000000,
			"maxNomLat": 18.000000,
			"mincut": 10
		},
		{
			"s1": "Prague,+CzechRepublic256",
			"s2": "Bologna,+Italy409",
			"t1": "Dusseldorf,+Germany319",
			"t2": "London589",
			"suurballeNbPaths": 2,
			"suurballeTime": 18495830,
			"suurballePaths": {
				"path0": [
					"Prague,+CzechRepublic256",
					"Frankfurt207",
					"Frankfurt,+Germany151",
					"Dusseldorf,+Germany319"
				],
				"lat0": 7.000000,
				"nbSeg0": 6,
				"path1": [
					"Bologna,+Italy409",
					"Milan,+Italy226",
					"Milan,+Italy228",
					"London217",
					"London589"
				],
				"lat1": 10.000000,
				"nbSeg1": 8
			},
			"pathsExist": true,
			"path1": [
				"Prague,+CzechRepublic256",
				"Dusseldorf,+Germany319"
			],
			"lat1": 8.000000,
			"path2": [
				"Bologna,+Italy409",
				"London589"
			],
			"lat2": 11.000000,
			"maxlat": 11.000000,
			"runtime": 32824781,
			"nomLat1": 8.000000,
			"nomLat2": 11.000000,
			"maxNomLat": 11.000000,
			"mincut": 4
		},
		{
			"s1": "Barcelona,+Spain181",
			"s2": "Padova,+Italy413",
			"t1": "New+York,+NY159",
			"t2": "New+York,+NY235",
			"suurballeNbPaths": 2,
			"suurballeTime": 15782836,
			"suurballePaths": {
				"path0": [
					"Barcelona,+Spain181",
					"London590",
					"New+York,+NY159"
				],
				"lat0": 36.000000,
				"nbSeg0": 3,
				"path1": [
					"Padova,+Italy413",
					"Milan,+Italy229",
					"Milan,+Italy232",
					"London217",
					"New+York,+NY235"
				],
				"lat1": 39.000000,
				"nbSeg1": 8
			},
			"pathsExist": true,
			"path1": [
				"Barcelona,+Spain181",
				"Frankfurt207",
				"New+York,+NY159"
			],
			"lat1": 44.000000,
			"path2": [
				"Padova,+Italy413",
				"Milan,+Italy229",
				"New+York,+NY235"
			],
			"lat2": 39.000000,
			"maxlat": 44.000000,
			"runtime": 3484706678,
			"nomLat1": 41.000000,
			"nomLat2": 43.000000,
			"maxNomLat": 43.000000,
			"mincut": 14
		},
		{
			"s1": "Frankfurt,+Germany340",
			"s2": "Cagliari,+Italy438",
			"t1": "Frankfurt,+Germany341",
			"t2": "Barcelona,+Spain181",
			"suurballeNbPaths": 2,
			"suurballeTime": 41982832,
			"suurballePaths": {
				"path0": [
					"Frankfurt,+Germany340",
					"Frankfurt,+Germany151",
					"Frankfurt,+Germany341"
				],
				"lat0": 2.000000,
				"nbSeg0": 4,
				"path1": [
					"Cagliari,+Italy438",
					"Milan,+Italy229",
					"Milan,+Italy232",
					"Milan,+Italy227",
					"Barcelona,+Spain185",
					"Barcelona,+Spain181"
				],
				"lat1": 13.000000,
				"nbSeg1": 10
			},
			"pathsExist": true,
			"path1": [
				"Frankfurt,+Germany340",
				"Frankfurt,+Germany341"
			],
			"lat1": 2.000000,
			"path2": [
				"Cagliari,+Italy438",
				"Barcelona,+Spain181"
			],
			"lat2": 19.000000,
			"maxlat": 19.000000,
			"runtime": 36318154,
			"nomLat1": 2.000000,
			"nomLat2": 19.000000,
			"maxNomLat": 19.000000,
			"mincut": 28
		},
		{
			"s1": "London220",
			"s2": "Dusseldorf,+Germany153",
			"t1": "Genoa,+Italy411",
			"t2": "Frankfurt,+Germany16",
			"suurballeNbPaths": 2,
			"suurballeTime": 29528903,
			"suurballePaths": {
				"path0": [
					"Dusseldorf,+Germany153",
					"Frankfurt,+Germany341",
					"Frankfurt,+Germany16"
				],
				"lat0": 3.000000,
				"nbSeg0": 4,
				"path1": [
					"London220",
					"London217",
					"Milan,+Italy228",
					"Milan,+Italy226",
					"Cagliari,+Italy439",
					"Genoa,+Italy411"
				],
				"lat1": 17.000000,
				"nbSeg1": 10
			},
			"pathsExist": true,
			"path1": [
				"London220",
				"Genoa,+Italy411"
			],
			"lat1": 18.000000,
			"path2": [
				"Dusseldorf,+Germany153",
				"Frankfurt,+Germany16"
			],
			"lat2": 5.000000,
			"maxlat": 18.000000,
			"runtime": 3552628270,
			"nomLat1": 18.000000,
			"nomLat2": 5.000000,
			"maxNomLat": 18.000000,
			"mincut": 8
		},
		{
			"s1": "Chicago,+IL194",
			"s2": "Milan,+Italy431",
			"t1": "Milan,+Italy435",
			"t2": "Prague,+CzechRepublic257",
			"suurballeNbPaths": 2,
			"suurballeTime": 17320241,
			"suurballePaths": {
				"path0": [
					"Chicago,+IL194",
					"Frankfurt207",
					"Prague,+CzechRepublic257"
				],
				"lat0": 40.000000,
				"nbSeg0": 4,
				"path1": [
					"Milan,+Italy431",
					"Milan,+Italy226",
					"Modena,+Italy412",
					"Milan,+Italy435"
				],
				"lat1": 5.000000,
				"nbSeg1": 6
			},
			"pathsExist": true,
			"path1": [
				"Chicago,+IL194",
				"Milan,+Italy435"
			],
			"lat1": 46.000000,
			"path2": [
				"Milan,+Italy431",
				"London217",
				"Prague,+CzechRepublic257"
			],
			"lat2": 20.000000,
			"maxlat": 46.000000,
			"runtime": 3697433424,
			"nomLat1": 46.000000,
			"nomLat2": 19.000000,
			"maxNomLat": 46.000000,
			"mincut": 6
		},
		{
			"s1": "Frankfurt536",
			"s2": "Chemnitz,+Germany316",
			"t1": "New+York,+NY242",
			"t2": "Hamburg,+Germany363",
			"suurballeNbPaths": 2,
			"suurballeTime": 17898742,
			"suurballePaths": {
				"path0": [
					"Chemnitz,+Germany316",
					"Berlin,+Germany300",
					"Hamburg,+Germany362",
					"Hamburg,+Germany363"
				],
				"lat0": 6.000000,
				"nbSeg0": 6,
				"path1": [
					"Frankfurt536",
					"Frankfurt,+Germany341",
					"Dusseldorf,+Germany153",
					"Dusseldorf,+Germany203",
					"Amsterdam178",
					"New+York,+NY242"
				],
				"lat1": 37.000000,
				"nbSeg1": 10
			},
			"pathsExist": true,
			"path1": [
				"Frankfurt536",
				"London217",
				"New+York,+NY242"
			],
			"lat1": 42.000000,
			"path2": [
				"Chemnitz,+Germany316",
				"Hamburg,+Germany363"
			],
			"lat2": 6.000000,
			"maxlat": 42.000000,
			"runtime": 3757694385,
			"nomLat1": 40.000000,
			"nomLat2": 6.000000,
			"maxNomLat": 40.000000,
			"mincut": 8
		},
		{
			"s1": "Dresden,+Germany336",
			"s2": "London217",
			"t1": "Stockholm,+Sweden259",
			"t2": "Dresden,+Germany333",
			"suurballeNbPaths": 2,
			"suurballeTime": 18315190,
			"suurballePaths": {
				"path0": [
					"Dresden,+Germany336",
					"Offenbach,+Germany390",
					"Dresden,+Germany333"
				],
				"lat0": 6.000000,
				"nbSeg0": 4,
				"path1": [
					"London217",
					"Copenhagen,+Denmark198",
					"Copenhagen,+Denmark200",
					"Stockholm,+Sweden259"
				],
				"lat1": 11.000000,
				"nbSeg1": 6
			},
			"pathsExist": false,
			"runtime": 2922737444,
			"nomLat1": 17.000000,
			"nomLat2": 13.000000,
			"maxNomLat": 17.000000,
			"mincut": 8
		},
		{
			"s1": "Karlsruhe,+Germany371",
			"s2": "Dusseldorf,+Germany330",
			"t1": "Frankfurt209",
			"t2": "Mannheim,+Germany377",
			"suurballeNbPaths": 2,
			"suurballeTime": 17783272,
			"suurballePaths": {
				"path0": [
					"Karlsruhe,+Germany371",
					"Frankfurt,+Germany354",
					"Frankfurt,+Germany340",
					"Frankfurt,+Germany151",
					"Frankfurt209"
				],
				"lat0": 6.000000,
				"nbSeg0": 8,
				"path1": [
					"Dusseldorf,+Germany330",
					"Dusseldorf,+Germany327",
					"Berlin,+Germany304",
					"Frankfurt,+Germany151",
					"Darmstadt,+Germany326",
					"Mannheim,+Germany377"
				],
				"lat1": 13.000000,
				"nbSeg1": 9
			},
			"pathsExist": false,
			"runtime": 3197118504,
			"nomLat1": 7.000000,
			"nomLat2": 18.000000,
			"maxNomLat": 18.000000,
			"mincut": 6
		},
		{
			"s1": "Cagliari,+Italy438",
			"s2": "Basel,+Switzerland193",
			"t1": "Frankfurt212",
			"t2": "Copenhagen,+Denmark196",
			"suurballeNbPaths": 2,
			"suurballeTime": 18417209,
			"suurballePaths": {
				"path0": [
					"Basel,+Switzerland193",
					"Frankfurt208",
					"Frankfurt214",
					"Frankfurt207",
					"Frankfurt212"
				],
				"lat0": 6.000000,
				"nbSeg0": 8,
				"path1": [
					"Cagliari,+Italy438",
					"Milan,+Italy229",
					"Milan,+Italy231",
					"Copenhagen,+Denmark199",
					"Copenhagen,+Denmark201",
					"Copenhagen,+Denmark196"
				],
				"lat1": 15.000000,
				"nbSeg1": 10
			},
			"pathsExist": true,
			"path1": [
				"Cagliari,+Italy438",
				"London217",
				"Frankfurt212"
			],
			"lat1": 18.000000,
			"path2": [
				"Basel,+Switzerland193",
				"Copenhagen,+Denmark201",
				"Copenhagen,+Denmark196"
			],
			"lat2": 12.000000,
			"maxlat": 18.000000,
			"runtime": 2874299859,
			"nomLat1": 15.000000,
			"nomLat2": 13.000000,
			"maxNomLat": 15.000000,
			"mincut": 14
		},
		{
			"s1": "Offenbach,+Germany390",
			"s2": "Frankfurt,+Germany16",
			"t1": "Berlin,+Germany302",
			"t2": "Frankfurt214",
			"suurballeNbPaths": 2,
			"suurballeTime": 17299293,
			"suurballePaths": {
				"path0": [
					"Frankfurt,+Germany16",
					"Frankfurt214"
				],
				"lat0": 1.000000,
				"nbSeg0": 1,
				"path1": [
					"Offenbach,+Germany390",
					"Dusseldorf,+Germany153",
					"Berlin,+Germany303",
					"Berlin,+Germany300",
					"Berlin,+Germany302"
				],
				"lat1": 8.000000,
				"nbSeg1": 6
			},
			"pathsExist": false,
			"runtime": 3994687956,
			"nomLat1": 12.000000,
			"nomLat2": 5.000000,
			"maxNomLat": 12.000000,
			"mincut": 12
		},
		{
			"s1": "Washington,+DC267",
			"s2": "Frankfurt204",
			"t1": "Amsterdam179",
			"t2": "Firenze,+Italy410",
			"suurballeNbPaths": 2,
			"suurballeTime": 18015287,
			"suurballePaths": {
				"path0": [
					"Frankfurt204",
					"Frankfurt213",
					"Dusseldorf,+Germany203",
					"Amsterdam178",
					"Amsterdam179"
				],
				"lat0": 6.000000,
				"nbSeg0": 8,
				"path1": [
					"Washington,+DC267",
					"New+York,+NY235",
					"London217",
					"Milan,+Italy228",
					"Milan,+Italy226",
					"Cagliari,+Italy439",
					"Firenze,+Italy410"
				],
				"lat1": 48.000000,
				"nbSeg1": 12
			},
			"pathsExist": true,
			"path1": [
				"Washington,+DC267",
				"Brussels,+Belgium190",
				"Amsterdam179"
			],
			"lat1": 37.000000,
			"path2": [
				"Frankfurt204",
				"London589",
				"Firenze,+Italy410"
			],
			"lat2": 26.000000,
			"maxlat": 37.000000,
			"runtime": 4001869849,
			"nomLat1": 37.000000,
			"nomLat2": 20.000000,
			"maxNomLat": 37.000000,
			"mincut": 4
		},
		{
			"s1": "Vienna,+Austria144",
			"s2": "Stuttgart,+Germany392",
			"t1": "New+York,+NY234",
			"t2": "Zurich,+Switzerland270",
			"suurballeNbPaths": 2,
			"suurballeTime": 18737474,
			"suurballePaths": {
				"path0": [
					"Stuttgart,+Germany392",
					"Stuttgart,+Germany393",
					"Frankfurt,+Germany151",
					"Frankfurt209",
					"Basel,+Switzerland192",
					"Zurich,+Switzerland270"
				],
				"lat0": 9.000000,
				"nbSeg0": 10,
				"path1": [
					"Vienna,+Austria144",
					"Vienna,+Austria563",
					"Frankfurt204",
					"Frankfurt213",
					"Dusseldorf,+Germany203",
					"London217",
					"New+York,+NY234"
				],
				"lat1": 42.000000,
				"nbSeg1": 12
			},
			"pathsExist": false,
			"runtime": 4015535167,
			"nomLat1": 42.000000,
			"nomLat2": 9.000000,
			"maxNomLat": 42.000000,
			"mincut": 6
		},
		{
			"s1": "London222",
			"s2": "Dusseldorf,+Germany152",
			"t1": "Frankfurt,+Germany151",
			"t2": "Frankfurt,+Germany357",
			"suurballeNbPaths": 2,
			"suurballeTime": 16773162,
			"suurballePaths": {
				"path0": [
					"Dusseldorf,+Germany152",
					"Frankfurt,+Germany357"
				],
				"lat0": 2.000000,
				"nbSeg0": 2,
				"path1": [
					"London222",
					"Frankfurt208",
					"Frankfurt,+Germany151"
				],
				"lat1": 6.000000,
				"nbSeg1": 4
			},
			"pathsExist": true,
			"path1": [
				"London222",
				"London217",
				"Frankfurt,+Germany151"
			],
			"lat1": 7.000000,
			"path2": [
				"Dusseldorf,+Germany152",
				"Frankfurt,+Germany346",
				"Frankfurt,+Germany357"
			],
			"lat2": 4.000000,
			"maxlat": 7.000000,
			"runtime": 2048871135,
			"nomLat1": 9.000000,
			"nomLat2": 8.000000,
			"maxNomLat": 9.000000,
			"mincut": 34
		},
		{
			"s1": "Paris254",
			"s2": "Amsterdam179",
			"t1": "Milan,+Italy229",
			"t2": "Paris251",
			"suurballeNbPaths": 2,
			"suurballeTime": 16180766,
			"suurballePaths": {
				"path0": [
					"Paris254",
					"Paris250",
					"Milan,+Italy227",
					"Milan,+Italy232",
					"Milan,+Italy229"
				],
				"lat0": 8.000000,
				"nbSeg0": 8,
				"path1": [
					"Amsterdam179",
					"Amsterdam178",
					"Amsterdam177",
					"London217",
					"Paris251"
				],
				"lat1": 8.000000,
				"nbSeg1": 8
			},
			"pathsExist": true,
			"path1": [
				"Paris254",
				"Milan,+Italy229"
			],
			"lat1": 8.000000,
			"path2": [
				"Amsterdam179",
				"Brussels,+Belgium190",
				"Paris251"
			],
			"lat2": 8.000000,
			"maxlat": 8.000000,
			"runtime": 53840066,
			"nomLat1": 8.000000,
			"nomLat2": 8.000000,
			"maxNomLat": 8.000000,
			"mincut": 8
		},
		{
			"s1": "Dusseldorf,+Germany330",
			"s2": "Stuttgart,+Germany393",
			"t1": "Padova,+Italy413",
			"t2": "Cagliari,+Italy438",
			"suurballeNbPaths": 2,
			"suurballeTime": 24687756,
			"suurballePaths": {
				"path0": [
					"Stuttgart,+Germany393",
					"Frankfurt,+Germany151",
					"Frankfurt209",
					"Milan,+Italy228",
					"Milan,+Italy230",
					"Milan,+Italy229",
					"Cagliari,+Italy438"
				],
				"lat0": 14.000000,
				"nbSeg0": 12,
				"path1": [
					"Dusseldorf,+Germany330",
					"Dusseldorf,+Germany327",
					"Berlin,+Germany304",
					"Frankfurt,+Germany151",
					"Frankfurt209",
					"Milan,+Italy228",
					"Milan,+Italy230",
					"Milan,+Italy432",
					"Padova,+Italy413"
				],
				"lat1": 19.000000,
				"nbSeg1": 14
			},
			"pathsExist": false,
			"runtime": 4149293820,
			"nomLat1": 28.000000,
			"nomLat2": 17.000000,
			"maxNomLat": 28.000000,
			"mincut": 10
		},
		{
			"s1": "Amsterdam178",
			"s2": "London222",
			"t1": "Frankfurt214",
			"t2": "Mannheim,+Germany377",
			"suurballeNbPaths": 2,
			"suurballeTime": 18484904,
			"suurballePaths": {
				"path0": [
					"London222",
					"Frankfurt208",
					"Frankfurt214"
				],
				"lat0": 6.000000,
				"nbSeg0": 4,
				"path1": [
					"Amsterdam178",
					"Dusseldorf,+Germany203",
					"Dusseldorf,+Germany153",
					"Darmstadt,+Germany326",
					"Mannheim,+Germany377"
				],
				"lat1": 8.000000,
				"nbSeg1": 8
			},
			"pathsExist": true,
			"path1": [
				"Amsterdam178",
				"London217",
				"Frankfurt214"
			],
			"lat1": 10.000000,
			"path2": [
				"London222",
				"Mannheim,+Germany377"
			],
			"lat2": 13.000000,
			"maxlat": 13.000000,
			"runtime": 4216646023,
			"nomLat1": 6.000000,
			"nomLat2": 13.000000,
			"maxNomLat": 13.000000,
			"mincut": 14
		},
		{
			"s1": "Venice,+Italy419",
			"s2": "Torino,+Italy418",
			"t1": "Frankfurt,+Germany345",
			"t2": "Bari,+Italy407",
			"suurballeNbPaths": 2,
			"suurballeTime": 18556598,
			"suurballePaths": {
				"path0": [
					"Venice,+Italy419",
					"Milan,+Italy229",
					"Cagliari,+Italy438",
					"Pescara,+Italy414",
					"Bari,+Italy407"
				],
				"lat0": 15.000000,
				"nbSeg0": 8,
				"path1": [
					"Torino,+Italy418",
					"Milan,+Italy226",
					"Milan,+Italy228",
					"Frankfurt209",
					"Frankfurt211",
					"Dusseldorf,+Germany152",
					"Frankfurt,+Germany345"
				],
				"lat1": 12.000000,
				"nbSeg1": 12
			},
			"pathsExist": false,
			"runtime": 4251512766,
			"nomLat1": 17.000000,
			"nomLat2": 14.000000,
			"maxNomLat": 17.000000,
			"mincut": 6
		},
		{
			"s1": "Brussels,+Belgium188",
			"s2": "Brussels,+Belgium190",
			"t1": "Milan,+Italy228",
			"t2": "Paris254",
			"suurballeNbPaths": 2,
			"suurballeTime": 18365225,
			"suurballePaths": {
				"path0": [
					"Brussels,+Belgium190",
					"London217",
					"Milan,+Italy228"
				],
				"lat0": 9.000000,
				"nbSeg0": 4,
				"path1": [
					"Brussels,+Belgium188",
					"Amsterdam177",
					"London217",
					"London222",
					"Paris250",
					"Paris254"
				],
				"lat1": 10.000000,
				"nbSeg1": 10
			},
			"pathsExist": true,
			"path1": [
				"Brussels,+Belgium188",
				"Paris249",
				"Milan,+Italy228"
			],
			"lat1": 14.000000,
			"path2": [
				"Brussels,+Belgium190",
				"Paris254"
			],
			"lat2": 12.000000,
			"maxlat": 14.000000,
			"runtime": 4251745617,
			"nomLat1": 17.000000,
			"nomLat2": 12.000000,
			"maxNomLat": 17.000000,
			"mincut": 12
		},
		{
			"s1": "Frankfurt,+Germany16",
			"s2": "Basel,+Switzerland193",
			"t1": "Milan,+Italy431",
			"t2": "Darmstadt,+Germany326",
			"suurballeNbPaths": 2,
			"suurballeTime": 18757880,
			"suurballePaths": {
				"path0": [
					"Frankfurt,+Germany16",
					"Frankfurt,+Germany341",
					"Frankfurt,+Germany151",
					"Darmstadt,+Germany326"
				],
				"lat0": 4.000000,
				"nbSeg0": 6,
				"path1": [
					"Basel,+Switzerland193",
					"Zurich,+Switzerland269",
					"Milan,+Italy232",
					"Milan,+Italy227",
					"Milan,+Italy226",
					"Milan,+Italy431"
				],
				"lat1": 8.000000,
				"nbSeg1": 10
			},
			"pathsExist": true,
			"path1": [
				"Frankfurt,+Germany16",
				"Frankfurt211",
				"Milan,+Italy431"
			],
			"lat1": 16.000000,
			"path2": [
				"Basel,+Switzerland193",
				"Dusseldorf,+Germany152",
				"Darmstadt,+Germany326"
			],
			"lat2": 9.000000,
			"maxlat": 16.000000,
			"runtime": 4254923945,
			"nomLat1": 19.000000,
			"nomLat2": 6.000000,
			"maxNomLat": 19.000000,
			"mincut": 8
		},
		{
			"s1": "Stockholm,+Sweden261",
			"s2": "Offenbach,+Germany391",
			"t1": "Barcelona,+Spain185",
			"t2": "Chemnitz,+Germany315",
			"suurballeNbPaths": 2,
			"suurballeTime": 19570184,
			"suurballePaths": {
				"path0": [
					"Offenbach,+Germany391",
					"Dusseldorf,+Germany153",
					"Berlin,+Germany303",
					"Dusseldorf,+Germany327",
					"Chemnitz,+Germany315"
				],
				"lat0": 14.000000,
				"nbSeg0": 7,
				"path1": [
					"Stockholm,+Sweden261",
					"Stockholm,+Sweden259",
					"Copenhagen,+Denmark201",
					"Copenhagen,+Denmark199",
					"Milan,+Italy227",
					"Barcelona,+Spain185"
				],
				"lat1": 18.000000,
				"nbSeg1": 10
			},
			"pathsExist": false,
			"runtime": 4253315498,
			"nomLat1": 22.000000,
			"nomLat2": 18.000000,
			"maxNomLat": 22.000000,
			"mincut": 8
		},
		{
			"s1": "Frankfurt,+Germany16",
			"s2": "Vienna,+Austria144",
			"t1": "Frankfurt,+Germany340",
			"t2": "Frankfurt207",
			"suurballeNbPaths": 2,
			"suurballeTime": 18337469,
			"suurballePaths": {
				"path0": [
					"Frankfurt,+Germany16",
					"Frankfurt,+Germany341",
					"Frankfurt,+Germany346",
					"Frankfurt,+Germany340"
				],
				"lat0": 3.000000,
				"nbSeg0": 6,
				"path1": [
					"Vienna,+Austria144",
					"Vienna,+Austria563",
					"Frankfurt204",
					"Frankfurt213",
					"Frankfurt207"
				],
				"lat1": 8.000000,
				"nbSeg1": 8
			},
			"pathsExist": false,
			"runtime": 3030779659,
			"nomLat1": 3.000000,
			"nomLat2": 8.000000,
			"maxNomLat": 8.000000,
			"mincut": 6
		},
		{
			"s1": "Salerno,+Italy417",
			"s2": "Frankfurt537",
			"t1": "Padova,+Italy413",
			"t2": "Dresden,+Germany334",
			"suurballeNbPaths": 2,
			"suurballeTime": 20003809,
			"suurballePaths": {
				"path0": [
					"Salerno,+Italy417",
					"Rome,+Italy424",
					"Cagliari,+Italy439",
					"Milan,+Italy434",
					"Milan,+Italy229",
					"Padova,+Italy413"
				],
				"lat0": 16.000000,
				"nbSeg0": 10,
				"path1": [
					"Frankfurt537",
					"Frankfurt,+Germany342",
					"Frankfurt,+Germany343",
					"Frankfurt,+Germany340",
					"Offenbach,+Germany390",
					"Dresden,+Germany334"
				],
				"lat1": 8.000000,
				"nbSeg1": 10
			},
			"pathsExist": false,
			"runtime": 4329525822,
			"nomLat1": 16.000000,
			"nomLat2": 8.000000,
			"maxNomLat": 16.000000,
			"mincut": 4
		},
		{
			"s1": "Torino,+Italy418",
			"s2": "London217",
			"t1": "Milan,+Italy226",
			"t2": "Amsterdam177",
			"suurballeNbPaths": 2,
			"suurballeTime": 17118873,
			"suurballePaths": {
				"path0": [
					"Torino,+Italy418",
					"Milan,+Italy226"
				],
				"lat0": 2.000000,
				"nbSeg0": 2,
				"path1": [
					"London217",
					"Amsterdam177"
				],
				"lat1": 3.000000,
				"nbSeg1": 2
			},
			"pathsExist": true,
			"path1": [
				"Torino,+Italy418",
				"Milan,+Italy226"
			],
			"lat1": 2.000000,
			"path2": [
				"London217",
				"Amsterdam177"
			],
			"lat2": 3.000000,
			"maxlat": 3.000000,
			"runtime": 38460614,
			"nomLat1": 2.000000,
			"nomLat2": 3.000000,
			"maxNomLat": 3.000000,
			"mincut": 20
		},
		{
			"s1": "Copenhagen,+Denmark198",
			"s2": "Milan,+Italy435",
			"t1": "New+York,+NY161",
			"t2": "Hamburg,+Germany362",
			"suurballeNbPaths": 2,
			"suurballeTime": 18621804,
			"suurballePaths": {
				"path0": [
					"Copenhagen,+Denmark198",
					"Frankfurt207",
					"Frankfurt,+Germany151",
					"Hamburg,+Germany362"
				],
				"lat0": 10.000000,
				"nbSeg0": 5,
				"path1": [
					"Milan,+Italy435",
					"Milan,+Italy229",
					"Milan,+Italy232",
					"London217",
					"New+York,+NY161"
				],
				"lat1": 37.000000,
				"nbSeg1": 8
			},
			"pathsExist": true,
			"path1": [
				"Copenhagen,+Denmark198",
				"New+York,+NY161"
			],
			"lat1": 35.000000,
			"path2": [
				"Milan,+Italy435",
				"London217",
				"Hamburg,+Germany362"
			],
			"lat2": 17.000000,
			"maxlat": 35.000000,
			"runtime": 34953806,
			"nomLat1": 35.000000,
			"nomLat2": 19.000000,
			"maxNomLat": 35.000000,
			"mincut": 10
		},
		{
			"s1": "Barcelona,+Spain184",
			"s2": "Frankfurt205",
			"t1": "Dusseldorf,+Germany320",
			"t2": "Oslo,+Norway245",
			"suurballeNbPaths": 2,
			"suurballeTime": 18217722,
			"suurballePaths": {
				"path0": [
					"Barcelona,+Spain184",
					"Barcelona,+Spain181",
					"Frankfurt207",
					"Copenhagen,+Denmark198",
					"Oslo,+Norway245"
				],
				"lat0": 17.000000,
				"nbSeg0": 7,
				"path1": [
					"Frankfurt205",
					"Frankfurt211",
					"Dusseldorf,+Germany203",
					"Dusseldorf,+Germany153",
					"Dusseldorf,+Germany320"
				],
				"lat1": 5.000000,
				"nbSeg1": 8
			},
			"pathsExist": true,
			"path1": [
				"Barcelona,+Spain184",
				"Dusseldorf,+Germany203",
				"Dusseldorf,+Germany320"
			],
			"lat1": 14.000000,
			"path2": [
				"Frankfurt205",
				"Frankfurt212",
				"Oslo,+Norway245"
			],
			"lat2": 13.000000,
			"maxlat": 14.000000,
			"runtime": 2383099181,
			"nomLat1": 17.000000,
			"nomLat2": 13.000000,
			"maxNomLat": 17.000000,
			"mincut": 14
		},
		{
			"s1": "Genoa,+Italy411",
			"s2": "Paris252",
			"t1": "Amsterdam179",
			"t2": "London222",
			"suurballeNbPaths": 2,
			"suurballeTime": 17840922,
			"suurballePaths": {
				"path0": [
					"Paris252",
					"Paris250",
					"London222"
				],
				"lat0": 4.000000,
				"nbSeg0": 4,
				"path1": [
					"Genoa,+Italy411",
					"Cagliari,+Italy439",
					"Milan,+Italy226",
					"Milan,+Italy228",
					"Frankfurt209",
					"Frankfurt211",
					"Dusseldorf,+Germany203",
					"Amsterdam178",
					"Amsterdam179"
				],
				"lat1": 20.000000,
				"nbSeg1": 16
			},
			"pathsExist": true,
			"path1": [
				"Genoa,+Italy411",
				"Copenhagen,+Denmark199",
				"Amsterdam179"
			],
			"lat1": 23.000000,
			"path2": [
				"Paris252",
				"London222"
			],
			"lat2": 4.000000,
			"maxlat": 23.000000,
			"runtime": 2175789232,
			"nomLat1": 24.000000,
			"nomLat2": 4.000000,
			"maxNomLat": 24.000000,
			"mincut": 12
		},
		{
			"s1": "Brussels,+Belgium190",
			"s2": "Milan,+Italy436",
			"t1": "Milan,+Italy431",
			"t2": "Milan,+Italy432",
			"suurballeNbPaths": 2,
			"suurballeTime": 18323178,
			"suurballePaths": {
				"path0": [
					"Milan,+Italy436",
					"Milan,+Italy229",
					"Milan,+Italy230",
					"Milan,+Italy432"
				],
				"lat0": 3.000000,
				"nbSeg0": 5,
				"path1": [
					"Brussels,+Belgium190",
					"London217",
					"Milan,+Italy228",
					"Milan,+Italy226",
					"Milan,+Italy431"
				],
				"lat1": 11.000000,
				"nbSeg1": 8
			},
			"pathsExist": true,
			"path1": [
				"Brussels,+Belgium190",
				"London221",
				"Milan,+Italy431"
			],
			"lat1": 13.000000,
			"path2": [
				"Milan,+Italy436",
				"Milan,+Italy432"
			],
			"lat2": 11.000000,
			"maxlat": 13.000000,
			"runtime": 2040186089,
			"nomLat1": 18.000000,
			"nomLat2": 11.000000,
			"maxNomLat": 18.000000,
			"mincut": 8
		},
		{
			"s1": "Frankfurt,+Germany346",
			"s2": "Paris251",
			"t1": "Munich,+Germany374",
			"t2": "Barcelona,+Spain184",
			"suurballeNbPaths": 2,
			"suurballeTime": 18091849,
			"suurballePaths": {
				"path0": [
					"Frankfurt,+Germany346",
					"Frankfurt,+Germany151",
					"Nuremberg,+Germany383",
					"Munich,+Germany374"
				],
				"lat0": 5.000000,
				"nbSeg0": 6,
				"path1": [
					"Paris251",
					"London217",
					"Barcelona,+Spain181",
					"Barcelona,+Spain184"
				],
				"lat1": 11.000000,
				"nbSeg1": 5
			},
			"pathsExist": true,
			"path1": [
				"Frankfurt,+Germany346",
				"Munich,+Germany374"
			],
			"lat1": 7.000000,
			"path2": [
				"Paris251",
				"London589",
				"Barcelona,+Spain184"
			],
			"lat2": 13.000000,
			"maxlat": 13.000000,
			"runtime": 52182252,
			"nomLat1": 7.000000,
			"nomLat2": 13.000000,
			"maxNomLat": 13.000000,
			"mincut": 14
		},
		{
			"s1": "Brussels,+Belgium189",
			"s2": "Paris249",
			"t1": "Munich,+Germany373",
			"t2": "Frankfurt209",
			"suurballeNbPaths": 2,
			"suurballeTime": 18443341,
			"suurballePaths": {
				"path0": [
					"Paris249",
					"Frankfurt209"
				],
				"lat0": 4.000000,
				"nbSeg0": 2,
				"path1": [
					"Brussels,+Belgium189",
					"London217",
					"Frankfurt208",
					"Frankfurt,+Germany151",
					"Nuremberg,+Germany383",
					"Munich,+Germany373"
				],
				"lat1": 13.000000,
				"nbSeg1": 9
			},
			"pathsExist": true,
			"path1": [
				"Brussels,+Belgium189",
				"Munich,+Germany373"
			],
			"lat1": 14.000000,
			"path2": [
				"Paris249",
				"Frankfurt211",
				"Frankfurt209"
			],
			"lat2": 5.000000,
			"maxlat": 14.000000,
			"runtime": 1456913294,
			"nomLat1": 14.000000,
			"nomLat2": 5.000000,
			"maxNomLat": 14.000000,
			"mincut": 24
		},
		{
			"s1": "Frankfurt209",
			"s2": "London222",
			"t1": "Paris253",
			"t2": "Zurich,+Switzerland269",
			"suurballeNbPaths": 2,
			"suurballeTime": 16524860,
			"suurballePaths": {
				"path0": [
					"Frankfurt209",
					"Paris253"
				],
				"lat0": 4.000000,
				"nbSeg0": 2,
				"path1": [
					"London222",
					"London217",
					"Zurich,+Switzerland269"
				],
				"lat1": 6.000000,
				"nbSeg1": 4
			},
			"pathsExist": true,
			"path1": [
				"Frankfurt209",
				"Paris253"
			],
			"lat1": 4.000000,
			"path2": [
				"London222",
				"London217",
				"Zurich,+Switzerland269"
			],
			"lat2": 6.000000,
			"maxlat": 6.000000,
			"runtime": 37478223,
			"nomLat1": 4.000000,
			"nomLat2": 12.000000,
			"maxNomLat": 12.000000,
			"mincut": 16
		},
		{
			"s1": "Barcelona,+Spain184",
			"s2": "Paris254",
			"t1": "Milan,+Italy436",
			"t2": "New+York,+NY238",
			"suurballeNbPaths": 2,
			"suurballeTime": 17593075,
			"suurballePaths": {
				"path0": [
					"Paris254",
					"Paris250",
					"Paris253",
					"London217",
					"New+York,+NY235",
					"New+York,+NY238"
				],
				"lat0": 35.000000,
				"nbSeg0": 10,
				"path1": [
					"Barcelona,+Spain184",
					"Barcelona,+Spain181",
					"Barcelona,+Spain185",
					"Milan,+Italy227",
					"Milan,+Italy232",
					"Milan,+Italy229",
					"Milan,+Italy436"
				],
				"lat1": 10.000000,
				"nbSeg1": 12
			},
			"pathsExist": true,
			"path1": [
				"Barcelona,+Spain184",
				"Milan,+Italy436"
			],
			"lat1": 14.000000,
			"path2": [
				"Paris254",
				"New+York,+NY238"
			],
			"lat2": 35.000000,
			"maxlat": 35.000000,
			"runtime": 37012686,
			"nomLat1": 14.000000,
			"nomLat2": 35.000000,
			"maxNomLat": 35.000000,
			"mincut": 10
		},
		{
			"s1": "Genoa,+Italy411",
			"s2": "Basel,+Switzerland193",
			"t1": "Paris249",
			"t2": "Milan,+Italy228",
			"suurballeNbPaths": 2,
			"suurballeTime": 16702088,
			"suurballePaths": {
				"path0": [
					"Genoa,+Italy411",
					"Cagliari,+Italy439",
					"Milan,+Italy226",
					"Milan,+Italy228"
				],
				"lat0": 10.000000,
				"nbSeg0": 6,
				"path1": [
					"Basel,+Switzerland193",
					"Frankfurt208",
					"Frankfurt211",
					"Paris249"
				],
				"lat1": 8.000000,
				"nbSeg1": 6
			},
			"pathsExist": true,
			"path1": [
				"Genoa,+Italy411",
				"Paris249"
			],
			"lat1": 15.000000,
			"path2": [
				"Basel,+Switzerland193",
				"Milan,+Italy229",
				"Milan,+Italy228"
			],
			"lat2": 8.000000,
			"maxlat": 15.000000,
			"runtime": 28837323,
			"nomLat1": 15.000000,
			"nomLat2": 14.000000,
			"maxNomLat": 15.000000,
			"mincut": 8
		},
		{
			"s1": "London222",
			"s2": "Dusseldorf,+Germany330",
			"t1": "Munich,+Germany373",
			"t2": "Torino,+Italy418",
			"suurballeNbPaths": 2,
			"suurballeTime": 28298107,
			"suurballePaths": {
				"path0": [
					"London222",
					"Milan,+Italy228",
					"Milan,+Italy226",
					"Torino,+Italy418"
				],
				"lat0": 9.000000,
				"nbSeg0": 6,
				"path1": [
					"Dusseldorf,+Germany330",
					"Dusseldorf,+Germany327",
					"Berlin,+Germany303",
					"Munich,+Germany374",
					"Munich,+Germany373"
				],
				"lat1": 10.000000,
				"nbSeg1": 8
			},
			"pathsExist": false,
			"runtime": 3323687367,
			"nomLat1": 14.000000,
			"nomLat2": 28.000000,
			"maxNomLat": 28.000000,
			"mincut": 10
		},
		{
			"s1": "Washington,+DC265",
			"s2": "Frankfurt,+Germany356",
			"t1": "Berlin,+Germany301",
			"t2": "New+York,+NY242",
			"suurballeNbPaths": 2,
			"suurballeTime": 17718672,
			"suurballePaths": {
				"path0": [
					"Washington,+DC265",
					"New+York,+NY235",
					"New+York,+NY238",
					"Amsterdam178",
					"New+York,+NY242"
				],
				"lat0": 66.000000,
				"nbSeg0": 8,
				"path1": [
					"Frankfurt,+Germany356",
					"Frankfurt,+Germany340",
					"Frankfurt,+Germany151",
					"Berlin,+Germany304",
					"Berlin,+Germany301"
				],
				"lat1": 7.000000,
				"nbSeg1": 7
			},
			"pathsExist": true,
			"path1": [
				"Washington,+DC265",
				"Berlin,+Germany301"
			],
			"lat1": 49.000000,
			"path2": [
				"Frankfurt,+Germany356",
				"Copenhagen,+Denmark201",
				"New+York,+NY242"
			],
			"lat2": 46.000000,
			"maxlat": 49.000000,
			"runtime": 2475896744,
			"nomLat1": 49.000000,
			"nomLat2": 37.000000,
			"maxNomLat": 49.000000,
			"mincut": 4
		},
		{
			"s1": "New+York,+NY238",
			"s2": "Padova,+Italy413",
			"t1": "Offenbach,+Germany390",
			"t2": "Frankfurt210",
			"suurballeNbPaths": 2,
			"suurballeTime": 17488286,
			"suurballePaths": {
				"path0": [
					"New+York,+NY238",
					"New+York,+NY235",
					"London217",
					"Frankfurt210"
				],
				"lat0": 35.000000,
				"nbSeg0": 6,
				"path1": [
					"Padova,+Italy413",
					"Milan,+Italy432",
					"Milan,+Italy226",
					"Milan,+Italy228",
					"Frankfurt209",
					"Frankfurt,+Germany151",
					"Offenbach,+Germany390"
				],
				"lat1": 12.000000,
				"nbSeg1": 12
			},
			"pathsExist": true,
			"path1": [
				"New+York,+NY238",
				"Frankfurt,+Germany346",
				"Offenbach,+Germany390"
			],
			"lat1": 40.000000,
			"path2": [
				"Padova,+Italy413",
				"Paris250",
				"Frankfurt210"
			],
			"lat2": 16.000000,
			"maxlat": 40.000000,
			"runtime": 3464496144,
			"nomLat1": 40.000000,
			"nomLat2": 13.000000,
			"maxNomLat": 40.000000,
			"mincut": 10
		},
		{
			"s1": "Frankfurt212",
			"s2": "Modena,+Italy412",
			"t1": "Bologna,+Italy409",
			"t2": "Barcelona,+Spain184",
			"suurballeNbPaths": 2,
			"suurballeTime": 27957054,
			"suurballePaths": {
				"path0": [
					"Modena,+Italy412",
					"Milan,+Italy226",
					"Bologna,+Italy409"
				],
				"lat0": 4.000000,
				"nbSeg0": 4,
				"path1": [
					"Frankfurt212",
					"Frankfurt206",
					"Barcelona,+Spain181",
					"Barcelona,+Spain184"
				],
				"lat1": 9.000000,
				"nbSeg1": 6
			},
			"pathsExist": true,
			"path1": [
				"Frankfurt212",
				"Bologna,+Italy409"
			],
			"lat1": 13.000000,
			"path2": [
				"Modena,+Italy412",
				"Barcelona,+Spain184"
			],
			"lat2": 14.000000,
			"maxlat": 14.000000,
			"runtime": 48614205,
			"nomLat1": 13.000000,
			"nomLat2": 14.000000,
			"maxNomLat": 14.000000,
			"mincut": 12
		},
		{
			"s1": "Frankfurt206",
			"s2": "Copenhagen,+Denmark199",
			"t1": "Milan,+Italy435",
			"t2": "Frankfurt214",
			"suurballeNbPaths": 2,
			"suurballeTime": 22399009,
			"suurballePaths": {
				"path0": [
					"Frankfurt206",
					"Frankfurt214"
				],
				"lat0": 1.000000,
				"nbSeg0": 2,
				"path1": [
					"Copenhagen,+Denmark199",
					"Milan,+Italy231",
					"Milan,+Italy229",
					"Milan,+Italy435"
				],
				"lat1": 9.000000,
				"nbSeg1": 6
			},
			"pathsExist": true,
			"path1": [
				"Frankfurt206",
				"Milan,+Italy435"
			],
			"lat1": 10.000000,
			"path2": [
				"Copenhagen,+Denmark199",
				"London217",
				"Frankfurt214"
			],
			"lat2": 12.000000,
			"maxlat": 12.000000,
			"runtime": 3174696225,
			"nomLat1": 10.000000,
			"nomLat2": 10.000000,
			"maxNomLat": 10.000000,
			"mincut": 18
		},
		{
			"s1": "London221",
			"s2": "London219",
			"t1": "Genoa,+Italy411",
			"t2": "Berlin,+Germany303",
			"suurballeNbPaths": 2,
			"suurballeTime": 17079310,
			"suurballePaths": {
				"path0": [
					"London221",
					"Paris249",
					"Milan,+Italy228",
					"Milan,+Italy226",
					"Cagliari,+Italy439",
					"Genoa,+Italy411"
				],
				"lat0": 18.000000,
				"nbSeg0": 10,
				"path1": [
					"London219",
					"Amsterdam177",
					"Amsterdam178",
					"Dusseldorf,+Germany203",
					"Dusseldorf,+Germany153",
					"Berlin,+Germany303"
				],
				"lat1": 11.000000,
				"nbSeg1": 9
			},
			"pathsExist": false,
			"runtime": 2820895671,
			"nomLat1": 18.000000,
			"nomLat2": 15.000000,
			"maxNomLat": 18.000000,
			"mincut": 6
		},
		{
			"s1": "Chemnitz,+Germany315",
			"s2": "Rome,+Italy424",
			"t1": "Frankfurt206",
			"t2": "Dusseldorf,+Germany152",
			"suurballeNbPaths": 2,
			"suurballeTime": 17669460,
			"suurballePaths": {
				"path0": [
					"Chemnitz,+Germany315",
					"Dusseldorf,+Germany327",
					"Berlin,+Germany304",
					"Frankfurt,+Germany151",
					"Frankfurt206"
				],
				"lat0": 13.000000,
				"nbSeg0": 7,
				"path1": [
					"Rome,+Italy424",
					"Cagliari,+Italy439",
					"Milan,+Italy226",
					"Milan,+Italy228",
					"Frankfurt209",
					"Frankfurt211",
					"Dusseldorf,+Germany152"
				],
				"lat1": 17.000000,
				"nbSeg1": 12
			},
			"pathsExist": false,
			"runtime": 2829508570,
			"nomLat1": 19.000000,
			"nomLat2": 22.000000,
			"maxNomLat": 22.000000,
			"mincut": 4
		},
		{
			"s1": "Firenze,+Italy410",
			"s2": "Genoa,+Italy411",
			"t1": "Salerno,+Italy417",
			"t2": "Chemnitz,+Germany315",
			"suurballeNbPaths": 2,
			"suurballeTime": 42929147,
			"suurballePaths": {
				"path0": [
					"Firenze,+Italy410",
					"Cagliari,+Italy439",
					"Rome,+Italy424",
					"Salerno,+Italy417"
				],
				"lat0": 11.000000,
				"nbSeg0": 6,
				"path1": [
					"Genoa,+Italy411",
					"Cagliari,+Italy439",
					"Milan,+Italy226",
					"Milan,+Italy228",
					"Frankfurt209",
					"Frankfurt,+Germany151",
					"Berlin,+Germany304",
					"Dusseldorf,+Germany327",
					"Chemnitz,+Germany315"
				],
				"lat1": 27.000000,
				"nbSeg1": 15
			},
			"pathsExist": false,
			"runtime": 3237237053,
			"nomLat1": 11.000000,
			"nomLat2": 37.000000,
			"maxNomLat": 37.000000,
			"mincut": 4
		},
		{
			"s1": "Basel,+Switzerland193",
			"s2": "Frankfurt,+Germany356",
			"t1": "Barcelona,+Spain181",
			"t2": "Milan,+Italy232",
			"suurballeNbPaths": 2,
			"suurballeTime": 23379361,
			"suurballePaths": {
				"path0": [
					"Basel,+Switzerland193",
					"Zurich,+Switzerland269",
					"Milan,+Italy232"
				],
				"lat0": 5.000000,
				"nbSeg0": 4,
				"path1": [
					"Frankfurt,+Germany356",
					"Frankfurt,+Germany340",
					"Frankfurt,+Germany151",
					"Frankfurt208",
					"Barcelona,+Spain181"
				],
				"lat1": 10.000000,
				"nbSeg1": 8
			},
			"pathsExist": true,
			"path1": [
				"Basel,+Switzerland193",
				"Frankfurt211",
				"Barcelona,+Spain181"
			],
			"lat1": 15.000000,
			"path2": [
				"Frankfurt,+Germany356",
				"Milan,+Italy229",
				"Milan,+Italy232"
			],
			"lat2": 14.000000,
			"maxlat": 15.000000,
			"runtime": 2869017554,
			"nomLat1": 10.000000,
			"nomLat2": 15.000000,
			"maxNomLat": 15.000000,
			"mincut": 6
		},
		{
			"s1": "Frankfurt,+Germany341",
			"s2": "Copenhagen,+Denmark198",
			"t1": "Prague,+CzechRepublic257",
			"t2": "Offenbach,+Germany389",
			"suurballeNbPaths": 2,
			"suurballeTime": 17646129,
			"suurballePaths": {
				"path0": [
					"Frankfurt,+Germany341",
					"Frankfurt,+Germany346",
					"Frankfurt,+Germany340",
					"Offenbach,+Germany389"
				],
				"lat0": 4.000000,
				"nbSeg0": 6,
				"path1": [
					"Copenhagen,+Denmark198",
					"Copenhagen,+Denmark201",
					"Copenhagen,+Denmark199",
					"Prague,+CzechRepublic257"
				],
				"lat1": 7.000000,
				"nbSeg1": 6
			},
			"pathsExist": true,
			"path1": [
				"Frankfurt,+Germany341",
				"Prague,+CzechRepublic257"
			],
			"lat1": 7.000000,
			"path2": [
				"Copenhagen,+Denmark198",
				"Offenbach,+Germany389"
			],
			"lat2": 10.000000,
			"maxlat": 10.000000,
			"runtime": 56574257,
			"nomLat1": 7.000000,
			"nomLat2": 10.000000,
			"maxNomLat": 10.000000,
			"mincut": 20
		},
		{
			"s1": "Milan,+Italy231",
			"s2": "Bergamo,+Italy408",
			"t1": "Offenbach,+Germany391",
			"t2": "Offenbach,+Germany390",
			"suurballeNbPaths": 2,
			"suurballeTime": 46799552,
			"suurballePaths": {
				"path0": [
					"Bergamo,+Italy408",
					"Milan,+Italy226",
					"Milan,+Italy228",
					"Frankfurt209",
					"Frankfurt,+Germany151",
					"Offenbach,+Germany390"
				],
				"lat0": 10.000000,
				"nbSeg0": 10,
				"path1": [
					"Milan,+Italy231",
					"Milan,+Italy229",
					"Milan,+Italy230",
					"Milan,+Italy228",
					"Frankfurt209",
					"Frankfurt,+Germany151",
					"Frankfurt,+Germany340",
					"Offenbach,+Germany389",
					"Offenbach,+Germany391"
				],
				"lat1": 12.000000,
				"nbSeg1": 16
			},
			"pathsExist": true,
			"path1": [
				"Milan,+Italy231",
				"Amsterdam178",
				"Offenbach,+Germany391"
			],
			"lat1": 17.000000,
			"path2": [
				"Bergamo,+Italy408",
				"Offenbach,+Germany390"
			],
			"lat2": 17.000000,
			"maxlat": 17.000000,
			"runtime": 2548656319,
			"nomLat1": 16.000000,
			"nomLat2": 17.000000,
			"maxNomLat": 17.000000,
			"mincut": 6
		},
		{
			"s1": "Mannheim,+Germany377",
			"s2": "Paris249",
			"t1": "Zurich,+Switzerland269",
			"t2": "New+York,+NY238",
			"suurballeNbPaths": 2,
			"suurballeTime": 45898695,
			"suurballePaths": {
				"path0": [
					"Paris249",
					"London589",
					"London217",
					"New+York,+NY235",
					"New+York,+NY238"
				],
				"lat0": 34.000000,
				"nbSeg0": 8,
				"path1": [
					"Mannheim,+Germany377",
					"Darmstadt,+Germany326",
					"Frankfurt,+Germany151",
					"Frankfurt208",
					"Basel,+Switzerland193",
					"Zurich,+Switzerland269"
				],
				"lat1": 10.000000,
				"nbSeg1": 10
			},
			"pathsExist": true,
			"path1": [
				"Mannheim,+Germany377",
				"Paris253",
				"Zurich,+Switzerland269"
			],
			"lat1": 19.000000,
			"path2": [
				"Paris249",
				"London222",
				"New+York,+NY238"
			],
			"lat2": 34.000000,
			"maxlat": 34.000000,
			"runtime": 2549816875,
			"nomLat1": 19.000000,
			"nomLat2": 34.000000,
			"maxNomLat": 34.000000,
			"mincut": 12
		},
		{
			"s1": "Oslo,+Norway246",
			"s2": "Copenhagen,+Denmark201",
			"t1": "Milan,+Italy436",
			"t2": "Frankfurt,+Germany356",
			"suurballeNbPaths": 2,
			"suurballeTime": 51427731,
			"suurballePaths": {
				"path0": [
					"Copenhagen,+Denmark201",
					"Dusseldorf,+Germany203",
					"Dusseldorf,+Germany153",
					"Frankfurt,+Germany340",
					"Frankfurt,+Germany356"
				],
				"lat0": 9.000000,
				"nbSeg0": 8,
				"path1": [
					"Oslo,+Norway246",
					"Oslo,+Norway245",
					"Copenhagen,+Denmark199",
					"Milan,+Italy231",
					"Milan,+Italy229",
					"Milan,+Italy436"
				],
				"lat1": 14.000000,
				"nbSeg1": 10
			},
			"pathsExist": false,
			"runtime": 2819781489,
			"nomLat1": 24.000000,
			"nomLat2": 9.000000,
			"maxNomLat": 24.000000,
			"mincut": 8
		},
		{
			"s1": "Paris249",
			"s2": "Chemnitz,+Germany316",
			"t1": "New+York,+NY234",
			"t2": "Milan,+Italy229",
			"suurballeNbPaths": 2,
			"suurballeTime": 48481015,
			"suurballePaths": {
				"path0": [
					"Paris249",
					"London589",
					"London217",
					"New+York,+NY234"
				],
				"lat0": 33.000000,
				"nbSeg0": 6,
				"path1": [
					"Chemnitz,+Germany316",
					"Berlin,+Germany301",
					"Berlin,+Germany304",
					"Frankfurt,+Germany151",
					"Frankfurt209",
					"Milan,+Italy228",
					"Milan,+Italy230",
					"Milan,+Italy229"
				],
				"lat1": 14.000000,
				"nbSeg1": 13
			},
			"pathsExist": true,
			"path1": [
				"Paris249",
				"Brussels,+Belgium187",
				"New+York,+NY234"
			],
			"lat1": 40.000000,
			"path2": [
				"Chemnitz,+Germany316",
				"London217",
				"Milan,+Italy229"
			],
			"lat2": 21.000000,
			"maxlat": 40.000000,
			"runtime": 2970343442,
			"nomLat1": 33.000000,
			"nomLat2": 23.000000,
			"maxNomLat": 33.000000,
			"mincut": 14
		},
		{
			"s1": "Milan,+Italy226",
			"s2": "Berlin,+Germany304",
			"t1": "Barcelona,+Spain184",
			"t2": "Mainz,+Germany378",
			"suurballeNbPaths": 2,
			"suurballeTime": 25568567,
			"suurballePaths": {
				"path0": [
					"Berlin,+Germany304",
					"Frankfurt,+Germany151",
					"Mainz,+Germany378"
				],
				"lat0": 6.000000,
				"nbSeg0": 3,
				"path1": [
					"Milan,+Italy226",
					"Milan,+Italy227",
					"Barcelona,+Spain185",
					"Barcelona,+Spain181",
					"Barcelona,+Spain184"
				],
				"lat1": 8.000000,
				"nbSeg1": 8
			},
			"pathsExist": true,
			"path1": [
				"Milan,+Italy226",
				"Paris249",
				"Barcelona,+Spain184"
			],
			"lat1": 12.000000,
			"path2": [
				"Berlin,+Germany304",
				"Frankfurt,+Germany346",
				"Mainz,+Germany378"
			],
			"lat2": 14.000000,
			"maxlat": 14.000000,
			"runtime": 2737668919,
			"nomLat1": 12.000000,
			"nomLat2": 20.000000,
			"maxNomLat": 20.000000,
			"mincut": 16
		},
		{
			"s1": "Frankfurt206",
			"s2": "Paris254",
			"t1": "Ancona,+Italy406",
			"t2": "Rome,+Italy455",
			"suurballeNbPaths": 2,
			"suurballeTime": 25925260,
			"suurballePaths": {
				"path0": [
					"Paris254",
					"Paris250",
					"Milan,+Italy227",
					"Milan,+Italy226",
					"Cagliari,+Italy439",
					"Rome,+Italy455"
				],
				"lat0": 16.000000,
				"nbSeg0": 10,
				"path1": [
					"Frankfurt206",
					"Frankfurt214",
					"Frankfurt209",
					"Milan,+Italy228",
					"Milan,+Italy226",
					"Cagliari,+Italy439",
					"Ancona,+Italy406"
				],
				"lat1": 17.000000,
				"nbSeg1": 12
			},
			"pathsExist": false,
			"runtime": 2985647507,
			"nomLat1": 20.000000,
			"nomLat2": 16.000000,
			"maxNomLat": 20.000000,
			"mincut": 6
		},
		{
			"s1": "Dresden,+Germany337",
			"s2": "Chicago,+IL194",
			"t1": "Washington,+DC266",
			"t2": "Milan,+Italy226",
			"suurballeNbPaths": 2,
			"suurballeTime": 44669492,
			"suurballePaths": {
				"path0": [
					"Chicago,+IL194",
					"Frankfurt207",
					"Washington,+DC266"
				],
				"lat0": 70.000000,
				"nbSeg0": 4,
				"path1": [
					"Dresden,+Germany337",
					"Offenbach,+Germany390",
					"Frankfurt,+Germany151",
					"Frankfurt209",
					"Milan,+Italy228",
					"Milan,+Italy226"
				],
				"lat1": 11.000000,
				"nbSeg1": 10
			},
			"pathsExist": true,
			"path1": [
				"Dresden,+Germany337",
				"London590",
				"Washington,+DC266"
			],
			"lat1": 45.000000,
			"path2": [
				"Chicago,+IL194",
				"Paris249",
				"Milan,+Italy226"
			],
			"lat2": 47.000000,
			"maxlat": 47.000000,
			"runtime": 3111917370,
			"nomLat1": 45.000000,
			"nomLat2": 46.000000,
			"maxNomLat": 46.000000,
			"mincut": 4
		},
		{
			"s1": "Vienna,+Austria144",
			"s2": "New+York,+NY235",
			"t1": "Paris252",
			"t2": "Amsterdam180",
			"suurballeNbPaths": 2,
			"suurballeTime": 17041668,
			"suurballePaths": {
				"path0": [
					"New+York,+NY235",
					"London217",
					"London222",
					"Paris250",
					"Paris252"
				],
				"lat0": 34.000000,
				"nbSeg0": 8,
				"path1": [
					"Vienna,+Austria144",
					"Vienna,+Austria563",
					"Frankfurt204",
					"Frankfurt213",
					"Frankfurt207",
					"Frankfurt,+Germany151",
					"Frankfurt209",
					"Amsterdam180"
				],
				"lat1": 13.000000,
				"nbSeg1": 14
			},
			"pathsExist": true,
			"path1": [
				"Vienna,+Austria144",
				"Paris252"
			],
			"lat1": 12.000000,
			"path2": [
				"New+York,+NY235",
				"Amsterdam180"
			],
			"lat2": 37.000000,
			"maxlat": 37.000000,
			"runtime": 30734857,
			"nomLat1": 12.000000,
			"nomLat2": 37.000000,
			"maxNomLat": 37.000000,
			"mincut": 12
		},
		{
			"s1": "Bologna,+Italy409",
			"s2": "Darmstadt,+Germany326",
			"t1": "Oslo,+Norway245",
			"t2": "Rome,+Italy457",
			"suurballeNbPaths": 2,
			"suurballeTime": 16597374,
			"suurballePaths": {
				"path0": [
					"Bologna,+Italy409",
					"Milan,+Italy226",
					"Cagliari,+Italy439",
					"Rome,+Italy457"
				],
				"lat0": 11.000000,
				"nbSeg0": 6,
				"path1": [
					"Darmstadt,+Germany326",
					"Frankfurt,+Germany151",
					"Frankfurt207",
					"Copenhagen,+Denmark198",
					"Oslo,+Norway245"
				],
				"lat1": 12.000000,
				"nbSeg1": 8
			},
			"pathsExist": true,
			"path1": [
				"Bologna,+Italy409",
				"Copenhagen,+Denmark199",
				"Oslo,+Norway245"
			],
			"lat1": 14.000000,
			"path2": [
				"Darmstadt,+Germany326",
				"Dusseldorf,+Germany152",
				"Rome,+Italy457"
			],
			"lat2": 24.000000,
			"maxlat": 24.000000,
			"runtime": 3175586398,
			"nomLat1": 24.000000,
			"nomLat2": 21.000000,
			"maxNomLat": 24.000000,
			"mincut": 8
		},
		{
			"s1": "Milan,+Italy229",
			"s2": "Stuttgart,+Germany393",
			"t1": "Hamburg,+Germany362",
			"t2": "Frankfurt206",
			"suurballeNbPaths": 2,
			"suurballeTime": 18288539,
			"suurballePaths": {
				"path0": [
					"Stuttgart,+Germany393",
					"Frankfurt,+Germany151",
					"Hamburg,+Germany362"
				],
				"lat0": 6.000000,
				"nbSeg0": 3,
				"path1": [
					"Milan,+Italy229",
					"Milan,+Italy230",
					"Milan,+Italy228",
					"Frankfurt209",
					"Frankfurt,+Germany151",
					"Frankfurt206"
				],
				"lat1": 8.000000,
				"nbSeg1": 10
			},
			"pathsExist": false,
			"runtime": 3212376558,
			"nomLat1": 18.000000,
			"nomLat2": 3.000000,
			"maxNomLat": 18.000000,
			"mincut": 18
		},
		{
			"s1": "Copenhagen,+Denmark196",
			"s2": "Cosenza,+Italy445",
			"t1": "Mannheim,+Germany377",
			"t2": "Frankfurt537",
			"suurballeNbPaths": 2,
			"suurballeTime": 17342200,
			"suurballePaths": {
				"path0": [
					"Copenhagen,+Denmark196",
					"Copenhagen,+Denmark201",
					"Dusseldorf,+Germany203",
					"Dusseldorf,+Germany153",
					"Frankfurt,+Germany343",
					"Frankfurt,+Germany342",
					"Frankfurt537"
				],
				"lat0": 11.000000,
				"nbSeg0": 11,
				"path1": [
					"Cosenza,+Italy445",
					"Cagliari,+Italy438",
					"Milan,+Italy229",
					"Milan,+Italy230",
					"Milan,+Italy228",
					"Frankfurt209",
					"Frankfurt,+Germany151",
					"Darmstadt,+Germany326",
					"Mannheim,+Germany377"
				],
				"lat1": 21.000000,
				"nbSeg1": 16
			},
			"pathsExist": false,
			"runtime": 3924834808,
			"nomLat1": 15.000000,
			"nomLat2": 23.000000,
			"maxNomLat": 23.000000,
			"mincut": 4
		},
		{
			"s1": "Nuremberg,+Germany383",
			"s2": "Barcelona,+Spain181",
			"t1": "Rome,+Italy424",
			"t2": "Frankfurt209",
			"suurballeNbPaths": 2,
			"suurballeTime": 17499260,
			"suurballePaths": {
				"path0": [
					"Nuremberg,+Germany383",
					"Frankfurt,+Germany151",
					"Frankfurt209"
				],
				"lat0": 3.000000,
				"nbSeg0": 4,
				"path1": [
					"Barcelona,+Spain181",
					"Barcelona,+Spain185",
					"Milan,+Italy227",
					"Milan,+Italy226",
					"Cagliari,+Italy439",
					"Rome,+Italy424"
				],
				"lat1": 16.000000,
				"nbSeg1": 10
			},
			"pathsExist": true,
			"path1": [
				"Nuremberg,+Germany383",
				"Milan,+Italy435",
				"Rome,+Italy424"
			],
			"lat1": 28.000000,
			"path2": [
				"Barcelona,+Spain181",
				"Frankfurt209"
			],
			"lat2": 12.000000,
			"maxlat": 28.000000,
			"runtime": 2907118884,
			"nomLat1": 28.000000,
			"nomLat2": 12.000000,
			"maxNomLat": 28.000000,
			"mincut": 24
		},
		{
			"s1": "Chemnitz,+Germany316",
			"s2": "Frankfurt204",
			"t1": "London222",
			"t2": "Pescara,+Italy414",
			"suurballeNbPaths": 2,
			"suurballeTime": 15345843,
			"suurballePaths": {
				"path0": [
					"Frankfurt204",
					"Frankfurt213",
					"Frankfurt207",
					"London222"
				],
				"lat0": 7.000000,
				"nbSeg0": 6,
				"path1": [
					"Chemnitz,+Germany316",
					"Berlin,+Germany301",
					"Berlin,+Germany304",
					"Frankfurt,+Germany151",
					"Frankfurt209",
					"Milan,+Italy228",
					"Milan,+Italy226",
					"Cagliari,+Italy439",
					"Pescara,+Italy414"
				],
				"lat1": 22.000000,
				"nbSeg1": 15
			},
			"pathsExist": false,
			"runtime": 3112654905,
			"nomLat1": 22.000000,
			"nomLat2": 20.000000,
			"maxNomLat": 22.000000,
			"mincut": 8
		},
		{
			"s1": "Basel,+Switzerland192",
			"s2": "Cagliari,+Italy430",
			"t1": "Offenbach,+Germany390",
			"t2": "New+York,+NY236",
			"suurballeNbPaths": 2,
			"suurballeTime": 18028373,
			"suurballePaths": {
				"path0": [
					"Basel,+Switzerland192",
					"Frankfurt206",
					"Frankfurt,+Germany151",
					"Offenbach,+Germany390"
				],
				"lat0": 6.000000,
				"nbSeg0": 6,
				"path1": [
					"Cagliari,+Italy430",
					"Milan,+Italy229",
					"Milan,+Italy232",
					"London217",
					"New+York,+NY236"
				],
				"lat1": 41.000000,
				"nbSeg1": 8
			},
			"pathsExist": true,
			"path1": [
				"Basel,+Switzerland192",
				"Frankfurt,+Germany342",
				"Offenbach,+Germany390"
			],
			"lat1": 10.000000,
			"path2": [
				"Cagliari,+Italy430",
				"New+York,+NY235",
				"New+York,+NY236"
			],
			"lat2": 47.000000,
			"maxlat": 47.000000,
			"runtime": 3216011095,
			"nomLat1": 8.000000,
			"nomLat2": 41.000000,
			"maxNomLat": 41.000000,
			"mincut": 10
		},
		{
			"s1": "Brussels,+Belgium187",
			"s2": "Zurich,+Switzerland270",
			"t1": "Milan,+Italy432",
			"t2": "Berlin,+Germany301",
			"suurballeNbPaths": 2,
			"suurballeTime": 17068587,
			"suurballePaths": {
				"path0": [
					"Zurich,+Switzerland270",
					"Milan,+Italy230",
					"Milan,+Italy432"
				],
				"lat0": 4.000000,
				"nbSeg0": 3,
				"path1": [
					"Brussels,+Belgium187",
					"Dusseldorf,+Germany203",
					"Frankfurt211",
					"Frankfurt208",
					"Frankfurt,+Germany151",
					"Berlin,+Germany304",
					"Berlin,+Germany301"
				],
				"lat1": 11.000000,
				"nbSeg1": 11
			},
			"pathsExist": false,
			"runtime": 3434850792,
			"nomLat1": 15.000000,
			"nomLat2": 17.000000,
			"maxNomLat": 17.000000,
			"mincut": 8
		},
		{
			"s1": "Barcelona,+Spain183",
			"s2": "Milan,+Italy229",
			"t1": "Dresden,+Germany334",
			"t2": "Frankfurt206",
			"suurballeNbPaths": 2,
			"suurballeTime": 17469493,
			"suurballePaths": {
				"path0": [
					"Barcelona,+Spain183",
					"Barcelona,+Spain181",
					"Frankfurt206"
				],
				"lat0": 8.000000,
				"nbSeg0": 4,
				"path1": [
					"Milan,+Italy229",
					"Milan,+Italy230",
					"Milan,+Italy228",
					"Frankfurt209",
					"Frankfurt,+Germany151",
					"Offenbach,+Germany390",
					"Dresden,+Germany334"
				],
				"lat1": 12.000000,
				"nbSeg1": 12
			},
			"pathsExist": true,
			"path1": [
				"Barcelona,+Spain183",
				"Dusseldorf,+Germany152",
				"Dresden,+Germany334"
			],
			"lat1": 26.000000,
			"path2": [
				"Milan,+Italy229",
				"Copenhagen,+Denmark199",
				"Frankfurt206"
			],
			"lat2": 17.000000,
			"maxlat": 26.000000,
			"runtime": 4081591776,
			"nomLat1": 21.000000,
			"nomLat2": 9.000000,
			"maxNomLat": 21.000000,
			"mincut": 14
		},
		{
			"s1": "San+Jose,+CA164",
			"s2": "Copenhagen,+Denmark198",
			"t1": "Frankfurt206",
			"t2": "Amsterdam178",
			"suurballeNbPaths": 2,
			"suurballeTime": 15408804,
			"suurballePaths": {
				"path0": [
					"San+Jose,+CA164",
					"Frankfurt207",
					"Frankfurt,+Germany151",
					"Frankfurt206"
				],
				"lat0": 49.000000,
				"nbSeg0": 6,
				"path1": [
					"Copenhagen,+Denmark198",
					"Copenhagen,+Denmark200",
					"Copenhagen,+Denmark197",
					"Amsterdam178"
				],
				"lat1": 7.000000,
				"nbSeg1": 6
			},
			"pathsExist": true,
			"path1": [
				"San+Jose,+CA164",
				"Frankfurt212",
				"Frankfurt206"
			],
			"lat1": 49.000000,
			"path2": [
				"Copenhagen,+Denmark198",
				"Amsterdam178"
			],
			"lat2": 7.000000,
			"maxlat": 49.000000,
			"runtime": 1308196842,
			"nomLat1": 53.000000,
			"nomLat2": 7.000000,
			"maxNomLat": 53.000000,
			"mincut": 18
		},
		{
			"s1": "Munich,+Germany374",
			"s2": "Dresden,+Germany332",
			"t1": "Frankfurt204",
			"t2": "Darmstadt,+Germany326",
			"suurballeNbPaths": 2,
			"suurballeTime": 16363093,
			"suurballePaths": {
				"path0": [
					"Munich,+Germany374",
					"Nuremberg,+Germany383",
					"Frankfurt,+Germany151",
					"Darmstadt,+Germany326"
				],
				"lat0": 6.000000,
				"nbSeg0": 6,
				"path1": [
					"Dresden,+Germany332",
					"Offenbach,+Germany390",
					"Dusseldorf,+Germany152",
					"Frankfurt213",
					"Frankfurt204"
				],
				"lat1": 8.000000,
				"nbSeg1": 8
			},
			"pathsExist": false,
			"runtime": 3135602321,
			"nomLat1": 9.000000,
			"nomLat2": 10.000000,
			"maxNomLat": 10.000000,
			"mincut": 8
		},
		{
			"s1": "Frankfurt,+Germany16",
			"s2": "Brussels,+Belgium190",
			"t1": "London218",
			"t2": "Milan,+Italy229",
			"suurballeNbPaths": 2,
			"suurballeTime": 17235547,
			"suurballePaths": {
				"path0": [
					"Brussels,+Belgium190",
					"London218"
				],
				"lat0": 3.000000,
				"nbSeg0": 2,
				"path1": [
					"Frankfurt,+Germany16",
					"Frankfurt214",
					"Frankfurt209",
					"Milan,+Italy228",
					"Milan,+Italy230",
					"Milan,+Italy229"
				],
				"lat1": 8.000000,
				"nbSeg1": 9
			},
			"pathsExist": true,
			"path1": [
				"Frankfurt,+Germany16",
				"Paris249",
				"London218"
			],
			"lat1": 13.000000,
			"path2": [
				"Brussels,+Belgium190",
				"Frankfurt209",
				"Milan,+Italy229"
			],
			"lat2": 17.000000,
			"maxlat": 17.000000,
			"runtime": 2909792473,
			"nomLat1": 27.000000,
			"nomLat2": 17.000000,
			"maxNomLat": 27.000000,
			"mincut": 14
		},
		{
			"s1": "Munich,+Germany374",
			"s2": "Dresden,+Germany333",
			"t1": "Washington,+DC265",
			"t2": "Frankfurt,+Germany341",
			"suurballeNbPaths": 2,
			"suurballeTime": 17831719,
			"suurballePaths": {
				"path0": [
					"Munich,+Germany374",
					"Nuremberg,+Germany383",
					"Frankfurt,+Germany151",
					"Frankfurt,+Germany341"
				],
				"lat0": 5.000000,
				"nbSeg0": 6,
				"path1": [
					"Dresden,+Germany333",
					"Offenbach,+Germany390",
					"Dusseldorf,+Germany153",
					"Dusseldorf,+Germany203",
					"London217",
					"New+York,+NY235",
					"Washington,+DC265"
				],
				"lat1": 42.000000,
				"nbSeg1": 11
			},
			"pathsExist": false,
			"runtime": 3080268845,
			"nomLat1": 44.000000,
			"nomLat2": 7.000000,
			"maxNomLat": 44.000000,
			"mincut": 10
		},
		{
			"s1": "Frankfurt,+Germany347",
			"s2": "Barcelona,+Spain184",
			"t1": "San+Jose,+CA164",
			"t2": "Frankfurt206",
			"suurballeNbPaths": 2,
			"suurballeTime": 18617525,
			"suurballePaths": {
				"path0": [
					"Frankfurt,+Germany347",
					"Stuttgart,+Germany393",
					"Frankfurt,+Germany151",
					"Frankfurt206"
				],
				"lat0": 5.000000,
				"nbSeg0": 6,
				"path1": [
					"Barcelona,+Spain184",
					"Barcelona,+Spain181",
					"Frankfurt207",
					"San+Jose,+CA164"
				],
				"lat1": 55.000000,
				"nbSeg1": 5
			},
			"pathsExist": true,
			"path1": [
				"Frankfurt,+Germany347",
				"Frankfurt,+Germany151",
				"San+Jose,+CA164"
			],
			"lat1": 52.000000,
			"path2": [
				"Barcelona,+Spain184",
				"Frankfurt206"
			],
			"lat2": 11.000000,
			"maxlat": 52.000000,
			"runtime": 2628554265,
			"nomLat1": 53.000000,
			"nomLat2": 11.000000,
			"maxNomLat": 53.000000,
			"mincut": 14
		},
		{
			"s1": "Paris251",
			"s2": "Zurich,+Switzerland270",
			"t1": "Bari,+Italy407",
			"t2": "Milan,+Italy230",
			"suurballeNbPaths": 2,
			"suurballeTime": 16980594,
			"suurballePaths": {
				"path0": [
					"Zurich,+Switzerland270",
					"Milan,+Italy230"
				],
				"lat0": 3.000000,
				"nbSeg0": 2,
				"path1": [
					"Paris251",
					"London217",
					"Milan,+Italy228",
					"Milan,+Italy226",
					"Cagliari,+Italy439",
					"Pescara,+Italy414",
					"Bari,+Italy407"
				],
				"lat1": 22.000000,
				"nbSeg1": 12
			},
			"pathsExist": false,
			"runtime": 2896131374,
			"nomLat1": 25.000000,
			"nomLat2": 3.000000,
			"maxNomLat": 25.000000,
			"mincut": 6
		},
		{
			"s1": "Chemnitz,+Germany316",
			"s2": "London221",
			"t1": "Brussels,+Belgium189",
			"t2": "Dusseldorf,+Germany330",
			"suurballeNbPaths": 2,
			"suurballeTime": 16970662,
			"suurballePaths": {
				"path0": [
					"Chemnitz,+Germany316",
					"Dusseldorf,+Germany327",
					"Dusseldorf,+Germany330"
				],
				"lat0": 5.000000,
				"nbSeg0": 4,
				"path1": [
					"London221",
					"Brussels,+Belgium190",
					"London217",
					"Brussels,+Belgium189"
				],
				"lat1": 9.000000,
				"nbSeg1": 6
			},
			"pathsExist": false,
			"runtime": 2996582321,
			"nomLat1": 17.000000,
			"nomLat2": 24.000000,
			"maxNomLat": 24.000000,
			"mincut": 8
		},
		{
			"s1": "Padova,+Italy413",
			"s2": "Basel,+Switzerland193",
			"t1": "Modena,+Italy412",
			"t2": "Stuttgart,+Germany392",
			"suurballeNbPaths": 2,
			"suurballeTime": 17440230,
			"suurballePaths": {
				"path0": [
					"Padova,+Italy413",
					"Milan,+Italy432",
					"Milan,+Italy226",
					"Modena,+Italy412"
				],
				"lat0": 6.000000,
				"nbSeg0": 6,
				"path1": [
					"Basel,+Switzerland193",
					"Frankfurt208",
					"Frankfurt,+Germany151",
					"Stuttgart,+Germany393",
					"Stuttgart,+Germany392"
				],
				"lat1": 7.000000,
				"nbSeg1": 8
			},
			"pathsExist": true,
			"path1": [
				"Padova,+Italy413",
				"Milan,+Italy435",
				"Modena,+Italy412"
			],
			"lat1": 6.000000,
			"path2": [
				"Basel,+Switzerland193",
				"Stuttgart,+Germany392"
			],
			"lat2": 7.000000,
			"maxlat": 7.000000,
			"runtime": 2548170536,
			"nomLat1": 6.000000,
			"nomLat2": 7.000000,
			"maxNomLat": 7.000000,
			"mincut": 10
		},
		{
			"s1": "Padova,+Italy413",
			"s2": "Rome,+Italy424",
			"t1": "Rome,+Italy454",
			"t2": "Alessandria,+Italy405",
			"suurballeNbPaths": 2,
			"suurballeTime": 17313524,
			"suurballePaths": {
				"path0": [
					"Rome,+Italy424",
					"Cagliari,+Italy439",
					"Rome,+Italy454"
				],
				"lat0": 8.000000,
				"nbSeg0": 4,
				"path1": [
					"Padova,+Italy413",
					"Milan,+Italy432",
					"Milan,+Italy226",
					"Alessandria,+Italy405"
				],
				"lat1": 6.000000,
				"nbSeg1": 6
			},
			"pathsExist": true,
			"path1": [
				"Padova,+Italy413",
				"Milan,+Italy435",
				"Rome,+Italy454"
			],
			"lat1": 13.000000,
			"path2": [
				"Rome,+Italy424",
				"Alessandria,+Italy405"
			],
			"lat2": 11.000000,
			"maxlat": 13.000000,
			"runtime": 2059511330,
			"nomLat1": 13.000000,
			"nomLat2": 11.000000,
			"maxNomLat": 13.000000,
			"mincut": 4
		},
		{
			"s1": "Venice,+Italy419",
			"s2": "Berlin,+Germany301",
			"t1": "Brussels,+Belgium188",
			"t2": "London220",
			"suurballeNbPaths": 2,
			"suurballeTime": 15051438,
			"suurballePaths": {
				"path0": [
					"Venice,+Italy419",
					"Milan,+Italy229",
					"Milan,+Italy232",
					"London217",
					"London220"
				],
				"lat0": 11.000000,
				"nbSeg0": 8,
				"path1": [
					"Berlin,+Germany301",
					"Berlin,+Germany304",
					"Frankfurt,+Germany151",
					"Frankfurt,+Germany341",
					"Dusseldorf,+Germany153",
					"Dusseldorf,+Germany203",
					"Amsterdam178",
					"Amsterdam177",
					"Brussels,+Belgium188"
				],
				"lat1": 14.000000,
				"nbSeg1": 15
			},
			"pathsExist": false,
			"runtime": 2708472545,
			"nomLat1": 20.000000,
			"nomLat2": 20.000000,
			"maxNomLat": 20.000000,
			"mincut": 6
		},
		{
			"s1": "Frankfurt,+Germany346",
			"s2": "Brussels,+Belgium189",
			"t1": "Dresden,+Germany337",
			"t2": "Dresden,+Germany332",
			"suurballeNbPaths": 2,
			"suurballeTime": 15195233,
			"suurballePaths": {
				"path0": [
					"Frankfurt,+Germany346",
					"Frankfurt,+Germany340",
					"Offenbach,+Germany390",
					"Dresden,+Germany332"
				],
				"lat0": 6.000000,
				"nbSeg0": 6,
				"path1": [
					"Brussels,+Belgium189",
					"London217",
					"Dusseldorf,+Germany203",
					"Dusseldorf,+Germany153",
					"Offenbach,+Germany390",
					"Dresden,+Germany337"
				],
				"lat1": 13.000000,
				"nbSeg1": 9
			},
			"pathsExist": false,
			"runtime": 3272380841,
			"nomLat1": 6.000000,
			"nomLat2": 16.000000,
			"maxNomLat": 16.000000,
			"mincut": 4
		},
		{
			"s1": "New+York,+NY243",
			"s2": "Frankfurt,+Germany16",
			"t1": "Milan,+Italy432",
			"t2": "Bergamo,+Italy408",
			"suurballeNbPaths": 2,
			"suurballeTime": 15427718,
			"suurballePaths": {
				"path0": [
					"Frankfurt,+Germany16",
					"Frankfurt214",
					"Frankfurt209",
					"Milan,+Italy228",
					"Milan,+Italy226",
					"Bergamo,+Italy408"
				],
				"lat0": 9.000000,
				"nbSeg0": 9,
				"path1": [
					"New+York,+NY243",
					"Amsterdam178",
					"Dusseldorf,+Germany203",
					"Frankfurt211",
					"Frankfurt209",
					"Milan,+Italy228",
					"Milan,+Italy230",
					"Milan,+Italy432"
				],
				"lat1": 42.000000,
				"nbSeg1": 13
			},
			"pathsExist": true,
			"path1": [
				"New+York,+NY243",
				"London589",
				"Milan,+Italy432"
			],
			"lat1": 46.000000,
			"path2": [
				"Frankfurt,+Germany16",
				"Bergamo,+Italy408"
			],
			"lat2": 16.000000,
			"maxlat": 46.000000,
			"runtime": 2566625471,
			"nomLat1": 46.000000,
			"nomLat2": 16.000000,
			"maxNomLat": 46.000000,
			"mincut": 6
		},
		{
			"s1": "Frankfurt214",
			"s2": "Cagliari,+Italy439",
			"t1": "Copenhagen,+Denmark200",
			"t2": "Cagliari,+Italy438",
			"suurballeNbPaths": 2,
			"suurballeTime": 16475284,
			"suurballePaths": {
				"path0": [
					"Cagliari,+Italy439",
					"Firenze,+Italy410",
					"Cagliari,+Italy438"
				],
				"lat0": 8.000000,
				"nbSeg0": 4,
				"path1": [
					"Frankfurt214",
					"Frankfurt207",
					"Copenhagen,+Denmark198",
					"Copenhagen,+Denmark200"
				],
				"lat1": 7.000000,
				"nbSeg1": 6
			},
			"pathsExist": true,
			"path1": [
				"Frankfurt214",
				"Copenhagen,+Denmark200"
			],
			"lat1": 9.000000,
			"path2": [
				"Cagliari,+Italy439",
				"Rome,+Italy416",
				"Cagliari,+Italy438"
			],
			"lat2": 8.000000,
			"maxlat": 9.000000,
			"runtime": 2885733453,
			"nomLat1": 9.000000,
			"nomLat2": 8.000000,
			"maxNomLat": 9.000000,
			"mincut": 22
		},
		{
			"s1": "New+York,+NY241",
			"s2": "Stuttgart,+Germany393",
			"t1": "Frankfurt213",
			"t2": "London217",
			"suurballeNbPaths": 2,
			"suurballeTime": 17135276,
			"suurballePaths": {
				"path0": [
					"New+York,+NY241",
					"Amsterdam178",
					"Amsterdam177",
					"London217"
				],
				"lat0": 35.000000,
				"nbSeg0": 6,
				"path1": [
					"Stuttgart,+Germany393",
					"Frankfurt,+Germany151",
					"Frankfurt207",
					"Frankfurt213"
				],
				"lat1": 4.000000,
				"nbSeg1": 6
			},
			"pathsExist": true,
			"path1": [
				"New+York,+NY241",
				"Dusseldorf,+Germany152",
				"Frankfurt213"
			],
			"lat1": 39.000000,
			"path2": [
				"Stuttgart,+Germany393",
				"Dusseldorf,+Germany153",
				"London217"
			],
			"lat2": 11.000000,
			"maxlat": 39.000000,
			"runtime": 2472412399,
			"nomLat1": 35.000000,
			"nomLat2": 8.000000,
			"maxNomLat": 35.000000,
			"mincut": 8
		},
		{
			"s1": "Frankfurt,+Germany345",
			"s2": "Milan,+Italy230",
			"t1": "Stuttgart,+Germany392",
			"t2": "Chemnitz,+Germany315",
			"suurballeNbPaths": 2,
			"suurballeTime": 16095528,
			"suurballePaths": {
				"path0": [
					"Frankfurt,+Germany345",
					"Frankfurt,+Germany347",
					"Stuttgart,+Germany393",
					"Stuttgart,+Germany392"
				],
				"lat0": 4.000000,
				"nbSeg0": 6,
				"path1": [
					"Milan,+Italy230",
					"Milan,+Italy228",
					"Frankfurt209",
					"Frankfurt,+Germany151",
					"Berlin,+Germany304",
					"Dusseldorf,+Germany327",
					"Chemnitz,+Germany315"
				],
				"lat1": 18.000000,
				"nbSeg1": 11
			},
			"pathsExist": false,
			"runtime": 2857158332,
			"nomLat1": 4.000000,
			"nomLat2": 27.000000,
			"maxNomLat": 27.000000,
			"mincut": 6
		},
		{
			"s1": "Torino,+Italy418",
			"s2": "Frankfurt,+Germany357",
			"t1": "Frankfurt214",
			"t2": "Hamburg,+Germany363",
			"suurballeNbPaths": 2,
			"suurballeTime": 15827074,
			"suurballePaths": {
				"path0": [
					"Frankfurt,+Germany357",
					"Frankfurt,+Germany340",
					"Frankfurt,+Germany151",
					"Hamburg,+Germany363"
				],
				"lat0": 6.000000,
				"nbSeg0": 6,
				"path1": [
					"Torino,+Italy418",
					"Milan,+Italy226",
					"Milan,+Italy228",
					"Frankfurt209",
					"Frankfurt214"
				],
				"lat1": 8.000000,
				"nbSeg1": 8
			},
			"pathsExist": true,
			"path1": [
				"Torino,+Italy418",
				"Padova,+Italy413",
				"Frankfurt214"
			],
			"lat1": 19.000000,
			"path2": [
				"Frankfurt,+Germany357",
				"Hamburg,+Germany363"
			],
			"lat2": 6.000000,
			"maxlat": 19.000000,
			"runtime": 2804287239,
			"nomLat1": 13.000000,
			"nomLat2": 6.000000,
			"maxNomLat": 13.000000,
			"mincut": 8
		},
		{
			"s1": "Dresden,+Germany333",
			"s2": "Pisa,+Italy415",
			"t1": "Basel,+Switzerland192",
			"t2": "Brussels,+Belgium189",
			"suurballeNbPaths": 2,
			"suurballeTime": 17276374,
			"suurballePaths": {
				"path0": [
					"Dresden,+Germany333",
					"Offenbach,+Germany390",
					"Frankfurt,+Germany151",
					"Frankfurt209",
					"Basel,+Switzerland192"
				],
				"lat0": 9.000000,
				"nbSeg0": 8,
				"path1": [
					"Pisa,+Italy415",
					"Firenze,+Italy410",
					"Cagliari,+Italy438",
					"Milan,+Italy229",
					"Milan,+Italy232",
					"London217",
					"Brussels,+Belgium189"
				],
				"lat1": 21.000000,
				"nbSeg1": 12
			},
			"pathsExist": false,
			"runtime": 2507821682,
			"nomLat1": 11.000000,
			"nomLat2": 24.000000,
			"maxNomLat": 24.000000,
			"mincut": 4
		},
		{
			"s1": "Frankfurt207",
			"s2": "Modena,+Italy412",
			"t1": "Pisa,+Italy415",
			"t2": "Berlin,+Germany304",
			"suurballeNbPaths": 2,
			"suurballeTime": 14571405,
			"suurballePaths": {
				"path0": [
					"Frankfurt207",
					"Frankfurt,+Germany151",
					"Berlin,+Germany304"
				],
				"lat0": 5.000000,
				"nbSeg0": 3,
				"path1": [
					"Modena,+Italy412",
					"Milan,+Italy434",
					"Cagliari,+Italy439",
					"Firenze,+Italy410",
					"Pisa,+Italy415"
				],
				"lat1": 13.000000,
				"nbSeg1": 8
			},
			"pathsExist": true,
			"path1": [
				"Frankfurt207",
				"Paris249",
				"Pisa,+Italy415"
			],
			"lat1": 22.000000,
			"path2": [
				"Modena,+Italy412",
				"Milan,+Italy232",
				"Berlin,+Germany304"
			],
			"lat2": 26.000000,
			"maxlat": 26.000000,
			"runtime": 2758951806,
			"nomLat1": 20.000000,
			"nomLat2": 23.000000,
			"maxNomLat": 23.000000,
			"mincut": 10
		},
		{
			"s1": "Frankfurt,+Germany151",
			"s2": "Frankfurt530",
			"t1": "New+York,+NY238",
			"t2": "Copenhagen,+Denmark197",
			"suurballeNbPaths": 2,
			"suurballeTime": 17228646,
			"suurballePaths": {
				"path0": [
					"Frankfurt,+Germany151",
					"Frankfurt207",
					"Copenhagen,+Denmark198",
					"Copenhagen,+Denmark200",
					"Copenhagen,+Denmark197"
				],
				"lat0": 8.000000,
				"nbSeg0": 8,
				"path1": [
					"Frankfurt530",
					"Frankfurt214",
					"Frankfurt207",
					"New+York,+NY159",
					"New+York,+NY235",
					"New+York,+NY238"
				],
				"lat1": 36.000000,
				"nbSeg1": 10
			},
			"pathsExist": true,
			"path1": [
				"Frankfurt,+Germany151",
				"New+York,+NY238"
			],
			"lat1": 36.000000,
			"path2": [
				"Frankfurt530",
				"Copenhagen,+Denmark201",
				"Copenhagen,+Denmark197"
			],
			"lat2": 11.000000,
			"maxlat": 36.000000,
			"runtime": 2333791258,
			"nomLat1": 36.000000,
			"nomLat2": 11.000000,
			"maxNomLat": 36.000000,
			"mincut": 16
		}
	],
	"demandsWithSol": 63
}
