{
	"nbDemands": 100,
	"demands": [
		{
			"s1": "Toronto,+Canada537",
			"s2": "Tukwila,+WA508",
			"t1": "Irvine,+CA213",
			"t2": "Palo+Alto,+CA104",
			"suurballeNbPaths": 2,
			"suurballeTime": 600008231,
			"suurballePaths": {
				"path0": [
					"Tukwila,+WA508",
					"Santa+Clara,+CA429",
					"Santa+Clara,+CA403",
					"Palo+Alto,+CA104"
				],
				"lat0": 10.000000,
				"nbSeg0": 6,
				"path1": [
					"Toronto,+Canada537",
					"Waltham,+MA555",
					"Oak+Brook,+IL300",
					"Chicago,+IL156",
					"Fort+Worth,+TX189",
					"Irvine,+CA228",
					"Irvine,+CA213"
				],
				"lat1": 32.000000,
				"nbSeg1": 10
			},
			"pathsExist": false,
			"runtime": 43804758,
			"nomLat1": 34.000000,
			"nomLat2": 10.000000,
			"maxNomLat": 34.000000,
			"mincut": 8
		},
		{
			"s1": "Irvine,+CA230",
			"s2": "Weehawken,+NJ544",
			"t1": "Austin,+TX137",
			"t2": "Santa+Clara,+CA405",
			"suurballeNbPaths": 2,
			"suurballeTime": 544862425,
			"suurballePaths": {
				"path0": [
					"Irvine,+CA230",
					"El+Segundo,+CA164",
					"Santa+Clara,+CA403",
					"Santa+Clara,+CA405"
				],
				"lat0": 7.000000,
				"nbSeg0": 6,
				"path1": [
					"Weehawken,+NJ544",
					"Weehawken,+NJ543",
					"Atlanta,+GA127",
					"Fort+Worth,+TX190",
					"Fort+Worth,+TX189",
					"Austin,+TX137"
				],
				"lat1": 20.000000,
				"nbSeg1": 10
			},
			"pathsExist": false,
			"runtime": 108113067,
			"nomLat1": 14.000000,
			"nomLat2": 27.000000,
			"maxNomLat": 27.000000,
			"mincut": 8
		},
		{
			"s1": "Oak+Brook,+IL310",
			"s2": "Santa+Clara,+CA388",
			"t1": "Irvine,+CA213",
			"t2": "Santa+Clara,+CA430",
			"suurballeNbPaths": 2,
			"suurballeTime": 576683028,
			"suurballePaths": {
				"path0": [
					"Santa+Clara,+CA388",
					"Santa+Clara,+CA430"
				],
				"lat0": 1.000000,
				"nbSeg0": 2,
				"path1": [
					"Oak+Brook,+IL310",
					"Oak+Brook,+IL300",
					"Chicago,+IL156",
					"Fort+Worth,+TX189",
					"Irvine,+CA228",
					"Irvine,+CA213"
				],
				"lat1": 23.000000,
				"nbSeg1": 9
			},
			"pathsExist": false,
			"runtime": 106979795,
			"nomLat1": 26.000000,
			"nomLat2": 1.000000,
			"maxNomLat": 26.000000,
			"mincut": 12
		},
		{
			"s1": "Santa+Clara,+CA429",
			"s2": "Weehawken,+NJ544",
			"t1": "Irvine,+CA229",
			"t2": "San+Jose,+CA460",
			"suurballeNbPaths": 2,
			"suurballeTime": 576597675,
			"suurballePaths": {
				"path0": [
					"Santa+Clara,+CA429",
					"San+Jose,+CA459",
					"San+Jose,+CA460"
				],
				"lat0": 3.000000,
				"nbSeg0": 4,
				"path1": [
					"Weehawken,+NJ544",
					"Weehawken,+NJ543",
					"Atlanta,+GA127",
					"Fort+Worth,+TX190",
					"Irvine,+CA229"
				],
				"lat1": 27.000000,
				"nbSeg1": 8
			},
			"pathsExist": false,
			"runtime": 108801524,
			"nomLat1": 8.000000,
			"nomLat2": 29.000000,
			"maxNomLat": 29.000000,
			"mincut": 14
		},
		{
			"s1": "Jersey+City,+NJ245",
			"s2": "Santa+Clara,+CA444",
			"t1": "Irvine,+CA212",
			"t2": "Palo+Alto,+CA317",
			"suurballeNbPaths": 2,
			"suurballeTime": 581537816,
			"suurballePaths": {
				"path0": [
					"Santa+Clara,+CA444",
					"Palo+Alto,+CA104",
					"Palo+Alto,+CA317"
				],
				"lat0": 3.000000,
				"nbSeg0": 4,
				"path1": [
					"Jersey+City,+NJ245",
					"Jersey+City,+NJ244",
					"Weehawken,+NJ543",
					"Atlanta,+GA127",
					"Fort+Worth,+TX190",
					"Irvine,+CA229",
					"El+Segundo,+CA164",
					"El+Segundo,+CA163",
					"Irvine,+CA212"
				],
				"lat1": 34.000000,
				"nbSeg1": 16
			},
			"pathsExist": false,
			"runtime": 121971974,
			"nomLat1": 35.000000,
			"nomLat2": 3.000000,
			"maxNomLat": 35.000000,
			"mincut": 10
		},
		{
			"s1": "Santa+Clara,+CA403",
			"s2": "Irvine,+CA230",
			"t1": "Santa+Clara,+CA443",
			"t2": "New+York,+NY293",
			"suurballeNbPaths": 2,
			"suurballeTime": 571992115,
			"suurballePaths": {
				"path0": [
					"Santa+Clara,+CA403",
					"Santa+Clara,+CA404",
					"Santa+Clara,+CA443"
				],
				"lat0": 2.000000,
				"nbSeg0": 4,
				"path1": [
					"Irvine,+CA230",
					"Irvine,+CA228",
					"Fort+Worth,+TX190",
					"Atlanta,+GA127",
					"Weehawken,+NJ543",
					"New+York,+NY293"
				],
				"lat1": 29.000000,
				"nbSeg1": 9
			},
			"pathsExist": false,
			"runtime": 103465721,
			"nomLat1": 2.000000,
			"nomLat2": 37.000000,
			"maxNomLat": 37.000000,
			"mincut": 20
		},
		{
			"s1": "New+York,+NY294",
			"s2": "Oak+Brook,+IL301",
			"t1": "Austin,+TX136",
			"t2": "Santa+Clara,+CA388",
			"suurballeNbPaths": 2,
			"suurballeTime": 582950644,
			"suurballePaths": {
				"path0": [
					"Oak+Brook,+IL301",
					"San+Jose,+CA471",
					"Santa+Clara,+CA389",
					"Santa+Clara,+CA388"
				],
				"lat0": 19.000000,
				"nbSeg0": 6,
				"path1": [
					"New+York,+NY294",
					"Weehawken,+NJ543",
					"Atlanta,+GA127",
					"Fort+Worth,+TX190",
					"Austin,+TX136"
				],
				"lat1": 20.000000,
				"nbSeg1": 8
			},
			"pathsExist": false,
			"runtime": 104931991,
			"nomLat1": 29.000000,
			"nomLat2": 19.000000,
			"maxNomLat": 29.000000,
			"mincut": 10
		},
		{
			"s1": "Santa+Clara,+CA389",
			"s2": "Waltham,+MA568",
			"t1": "Tokyo525",
			"t2": "London274",
			"suurballeNbPaths": 2,
			"suurballeTime": 584281094,
			"suurballePaths": {
				"path0": [
					"Santa+Clara,+CA389",
					"Santa+Clara,+CA403",
					"Santa+Clara,+CA404",
					"Tokyo525"
				],
				"lat0": 45.000000,
				"nbSeg0": 6,
				"path1": [
					"Waltham,+MA568",
					"Jersey+City,+NJ244",
					"Jersey+City,+NJ245",
					"London274"
				],
				"lat1": 33.000000,
				"nbSeg1": 5
			},
			"pathsExist": false,
			"runtime": 109410306,
			"nomLat1": 45.000000,
			"nomLat2": 34.000000,
			"maxNomLat": 45.000000,
			"mincut": 10
		},
		{
			"s1": "Waltham,+MA568",
			"s2": "Santa+Clara,+CA363",
			"t1": "Weehawken,+NJ543",
			"t2": "San+Jose,+CA472",
			"suurballeNbPaths": 2,
			"suurballeTime": 590116869,
			"suurballePaths": {
				"path0": [
					"Waltham,+MA568",
					"Jersey+City,+NJ244",
					"Weehawken,+NJ543"
				],
				"lat0": 5.000000,
				"nbSeg0": 3,
				"path1": [
					"Santa+Clara,+CA363",
					"Santa+Clara,+CA431",
					"San+Jose,+CA472"
				],
				"lat1": 3.000000,
				"nbSeg1": 4
			},
			"pathsExist": false,
			"runtime": 112773649,
			"nomLat1": 6.000000,
			"nomLat2": 3.000000,
			"maxNomLat": 6.000000,
			"mincut": 10
		},
		{
			"s1": "Santa+Clara,+CA365",
			"s2": "Atlanta,+GA133",
			"t1": "Santa+Clara,+CA431",
			"t2": "Oak+Brook,+IL309",
			"suurballeNbPaths": 2,
			"suurballeTime": 605398510,
			"suurballePaths": {
				"path0": [
					"Santa+Clara,+CA365",
					"Santa+Clara,+CA431"
				],
				"lat0": 1.000000,
				"nbSeg0": 2,
				"path1": [
					"Atlanta,+GA133",
					"Atlanta,+GA127",
					"Weehawken,+NJ543",
					"Oak+Brook,+IL300",
					"Oak+Brook,+IL309"
				],
				"lat1": 16.000000,
				"nbSeg1": 8
			},
			"pathsExist": false,
			"runtime": 105732873,
			"nomLat1": 1.000000,
			"nomLat2": 21.000000,
			"maxNomLat": 21.000000,
			"mincut": 8
		},
		{
			"s1": "Irvine,+CA228",
			"s2": "Herndon,+VA206",
			"t1": "Santa+Clara,+CA364",
			"t2": "Austin,+TX136",
			"suurballeNbPaths": 2,
			"suurballeTime": 619765964,
			"suurballePaths": {
				"path0": [
					"Irvine,+CA228",
					"Irvine,+CA213",
					"Santa+Clara,+CA404",
					"Santa+Clara,+CA430",
					"Santa+Clara,+CA364"
				],
				"lat0": 7.000000,
				"nbSeg0": 7,
				"path1": [
					"Herndon,+VA206",
					"Herndon,+VA208",
					"Herndon,+VA495",
					"Herndon,+VA496",
					"Herndon,+VA193",
					"Atlanta,+GA127",
					"Fort+Worth,+TX190",
					"Austin,+TX136"
				],
				"lat1": 21.000000,
				"nbSeg1": 14
			},
			"pathsExist": false,
			"runtime": 109554257,
			"nomLat1": 9.000000,
			"nomLat2": 31.000000,
			"maxNomLat": 31.000000,
			"mincut": 8
		},
		{
			"s1": "Weehawken,+NJ552",
			"s2": "Atlanta,+GA127",
			"t1": "Santa+Clara,+CA336",
			"t2": "Oak+Brook,+IL301",
			"suurballeNbPaths": 2,
			"suurballeTime": 613485789,
			"suurballePaths": {
				"path0": [
					"Weehawken,+NJ552",
					"Oak+Brook,+IL300",
					"Oak+Brook,+IL301"
				],
				"lat0": 8.000000,
				"nbSeg0": 4,
				"path1": [
					"Atlanta,+GA127",
					"Fort+Worth,+TX190",
					"Fort+Worth,+TX189",
					"Santa+Clara,+CA403",
					"Santa+Clara,+CA429",
					"Santa+Clara,+CA430",
					"Santa+Clara,+CA336"
				],
				"lat1": 25.000000,
				"nbSeg1": 12
			},
			"pathsExist": false,
			"runtime": 104039338,
			"nomLat1": 28.000000,
			"nomLat2": 20.000000,
			"maxNomLat": 28.000000,
			"mincut": 12
		},
		{
			"s1": "New+York,+NY294",
			"s2": "El+Segundo,+CA163",
			"t1": "San+Jose,+CA460",
			"t2": "London274",
			"suurballeNbPaths": 2,
			"suurballeTime": 610406308,
			"suurballePaths": {
				"path0": [
					"New+York,+NY294",
					"Jersey+City,+NJ245",
					"London274"
				],
				"lat0": 31.000000,
				"nbSeg0": 4,
				"path1": [
					"El+Segundo,+CA163",
					"El+Segundo,+CA164",
					"Santa+Clara,+CA443",
					"San+Jose,+CA460"
				],
				"lat1": 7.000000,
				"nbSeg1": 6
			},
			"pathsExist": false,
			"runtime": 104251176,
			"nomLat1": 31.000000,
			"nomLat2": 62.000000,
			"maxNomLat": 62.000000,
			"mincut": 14
		},
		{
			"s1": "London274",
			"s2": "Toronto,+Canada537",
			"t1": "Oak+Brook,+IL309",
			"t2": "Herndon,+VA208",
			"suurballeNbPaths": 2,
			"suurballeTime": 706440794,
			"suurballePaths": {
				"path0": [
					"London274",
					"Weehawken,+NJ544",
					"Herndon,+VA495",
					"Herndon,+VA208"
				],
				"lat0": 33.000000,
				"nbSeg0": 6,
				"path1": [
					"Toronto,+Canada537",
					"Waltham,+MA555",
					"Oak+Brook,+IL300",
					"Oak+Brook,+IL309"
				],
				"lat1": 11.000000,
				"nbSeg1": 5
			},
			"pathsExist": false,
			"runtime": 35623726,
			"nomLat1": 41.000000,
			"nomLat2": 16.000000,
			"maxNomLat": 41.000000,
			"mincut": 8
		},
		{
			"s1": "Irvine,+CA237",
			"s2": "Santa+Clara,+CA403",
			"t1": "Oak+Brook,+IL310",
			"t2": "Oak+Brook,+IL315",
			"suurballeNbPaths": 2,
			"suurballeTime": 627676212,
			"suurballePaths": {
				"path0": [
					"Santa+Clara,+CA403",
					"Santa+Clara,+CA444",
					"San+Jose,+CA471",
					"Oak+Brook,+IL301",
					"Oak+Brook,+IL310"
				],
				"lat0": 20.000000,
				"nbSeg0": 8,
				"path1": [
					"Irvine,+CA237",
					"Irvine,+CA228",
					"Fort+Worth,+TX189",
					"Chicago,+IL156",
					"Oak+Brook,+IL300",
					"Oak+Brook,+IL315"
				],
				"lat1": 23.000000,
				"nbSeg1": 9
			},
			"pathsExist": false,
			"runtime": 110713576,
			"nomLat1": 24.000000,
			"nomLat2": 20.000000,
			"maxNomLat": 24.000000,
			"mincut": 10
		},
		{
			"s1": "Chicago,+IL155",
			"s2": "Austin,+TX136",
			"t1": "Santa+Clara,+CA336",
			"t2": "Atlanta,+GA133",
			"suurballeNbPaths": 2,
			"suurballeTime": 637844700,
			"suurballePaths": {
				"path0": [
					"Austin,+TX136",
					"Fort+Worth,+TX190",
					"Atlanta,+GA127",
					"Atlanta,+GA133"
				],
				"lat0": 12.000000,
				"nbSeg0": 6,
				"path1": [
					"Chicago,+IL155",
					"Oak+Brook,+IL301",
					"San+Jose,+CA471",
					"San+Jose,+CA472",
					"Santa+Clara,+CA430",
					"Santa+Clara,+CA336"
				],
				"lat1": 22.000000,
				"nbSeg1": 10
			},
			"pathsExist": false,
			"runtime": 111937208,
			"nomLat1": 25.000000,
			"nomLat2": 12.000000,
			"maxNomLat": 25.000000,
			"mincut": 8
		},
		{
			"s1": "Oak+Brook,+IL308",
			"s2": "Jersey+City,+NJ244",
			"t1": "Atlanta,+GA127",
			"t2": "Herndon,+VA208",
			"suurballeNbPaths": 2,
			"suurballeTime": 621348025,
			"suurballePaths": {
				"path0": [
					"Jersey+City,+NJ244",
					"Weehawken,+NJ543",
					"Atlanta,+GA127"
				],
				"lat0": 9.000000,
				"nbSeg0": 4,
				"path1": [
					"Oak+Brook,+IL308",
					"Oak+Brook,+IL300",
					"Weehawken,+NJ543",
					"New+York,+NY293",
					"Herndon,+VA208"
				],
				"lat1": 13.000000,
				"nbSeg1": 7
			},
			"pathsExist": false,
			"runtime": 100585468,
			"nomLat1": 20.000000,
			"nomLat2": 9.000000,
			"maxNomLat": 20.000000,
			"mincut": 14
		},
		{
			"s1": "Jersey+City,+NJ245",
			"s2": "San+Jose,+CA472",
			"t1": "Santa+Clara,+CA363",
			"t2": "Austin,+TX137",
			"suurballeNbPaths": 2,
			"suurballeTime": 640440816,
			"suurballePaths": {
				"path0": [
					"San+Jose,+CA472",
					"Santa+Clara,+CA431",
					"Santa+Clara,+CA363"
				],
				"lat0": 3.000000,
				"nbSeg0": 4,
				"path1": [
					"Jersey+City,+NJ245",
					"Jersey+City,+NJ244",
					"Weehawken,+NJ543",
					"Atlanta,+GA127",
					"Fort+Worth,+TX190",
					"Fort+Worth,+TX189",
					"Austin,+TX137"
				],
				"lat1": 22.000000,
				"nbSeg1": 12
			},
			"pathsExist": false,
			"runtime": 102522451,
			"nomLat1": 29.000000,
			"nomLat2": 19.000000,
			"maxNomLat": 29.000000,
			"mincut": 8
		},
		{
			"s1": "Tukwila,+WA509",
			"s2": "Frankfurt185",
			"t1": "New+York,+NY294",
			"t2": "Austin,+TX136",
			"suurballeNbPaths": 2,
			"suurballeTime": 6536701,
			"suurballePaths": {
				"path0": [
					"Frankfurt185",
					"Amsterdam119",
					"London275",
					"Jersey+City,+NJ245",
					"New+York,+NY294"
				],
				"lat0": 37.000000,
				"nbSeg0": 8,
				"path1": [
					"Tukwila,+WA509",
					"Tukwila,+WA508",
					"Santa+Clara,+CA429",
					"Santa+Clara,+CA403",
					"Fort+Worth,+TX189",
					"Fort+Worth,+TX190",
					"Austin,+TX136"
				],
				"lat1": 26.000000,
				"nbSeg1": 12
			},
			"pathsExist": false,
			"runtime": 48064609,
			"nomLat1": 27.000000,
			"nomLat2": 60.000000,
			"maxNomLat": 60.000000,
			"mincut": 6
		},
		{
			"s1": "London277",
			"s2": "Irvine,+CA229",
			"t1": "Santa+Clara,+CA429",
			"t2": "Waltham,+MA555",
			"suurballeNbPaths": 2,
			"suurballeTime": 722114821,
			"suurballePaths": {
				"path0": [
					"London277",
					"Jersey+City,+NJ244",
					"Waltham,+MA568",
					"Waltham,+MA555"
				],
				"lat0": 33.000000,
				"nbSeg0": 5,
				"path1": [
					"Irvine,+CA229",
					"El+Segundo,+CA164",
					"Santa+Clara,+CA403",
					"Santa+Clara,+CA429"
				],
				"lat1": 7.000000,
				"nbSeg1": 6
			},
			"pathsExist": false,
			"runtime": 36303767,
			"nomLat1": 57.000000,
			"nomLat2": 32.000000,
			"maxNomLat": 57.000000,
			"mincut": 8
		},
		{
			"s1": "San+Jose,+CA471",
			"s2": "Atlanta,+GA127",
			"t1": "Fort+Worth,+TX191",
			"t2": "Atlanta,+GA133",
			"suurballeNbPaths": 2,
			"suurballeTime": 657425276,
			"suurballePaths": {
				"path0": [
					"Atlanta,+GA127",
					"Atlanta,+GA133"
				],
				"lat0": 1.000000,
				"nbSeg0": 2,
				"path1": [
					"San+Jose,+CA471",
					"Santa+Clara,+CA444",
					"Santa+Clara,+CA403",
					"Fort+Worth,+TX189",
					"Fort+Worth,+TX191"
				],
				"lat1": 17.000000,
				"nbSeg1": 8
			},
			"pathsExist": false,
			"runtime": 130029250,
			"nomLat1": 17.000000,
			"nomLat2": 1.000000,
			"maxNomLat": 17.000000,
			"mincut": 8
		},
		{
			"s1": "Oak+Brook,+IL310",
			"s2": "Irvine,+CA237",
			"t1": "Chicago,+IL156",
			"t2": "Jersey+City,+NJ261",
			"suurballeNbPaths": 2,
			"suurballeTime": 638602222,
			"suurballePaths": {
				"path0": [
					"Irvine,+CA237",
					"Irvine,+CA228",
					"Fort+Worth,+TX189",
					"Chicago,+IL156"
				],
				"lat0": 20.000000,
				"nbSeg0": 5,
				"path1": [
					"Oak+Brook,+IL310",
					"Oak+Brook,+IL300",
					"Weehawken,+NJ543",
					"Jersey+City,+NJ244",
					"Jersey+City,+NJ261"
				],
				"lat1": 11.000000,
				"nbSeg1": 8
			},
			"pathsExist": false,
			"runtime": 114154361,
			"nomLat1": 3.000000,
			"nomLat2": 35.000000,
			"maxNomLat": 35.000000,
			"mincut": 8
		},
		{
			"s1": "Santa+Clara,+CA405",
			"s2": "London274",
			"t1": "San+Jose,+CA472",
			"t2": "Tukwila,+WA508",
			"suurballeNbPaths": 2,
			"suurballeTime": 7268002,
			"suurballePaths": {
				"path0": [
					"Santa+Clara,+CA405",
					"Santa+Clara,+CA403",
					"Santa+Clara,+CA389",
					"San+Jose,+CA472"
				],
				"lat0": 4.000000,
				"nbSeg0": 6,
				"path1": [
					"London274",
					"Weehawken,+NJ544",
					"Weehawken,+NJ552",
					"Oak+Brook,+IL300",
					"Oak+Brook,+IL301",
					"Chicago,+IL155",
					"Tukwila,+WA508"
				],
				"lat1": 55.000000,
				"nbSeg1": 11
			},
			"pathsExist": false,
			"runtime": 45753754,
			"nomLat1": 4.000000,
			"nomLat2": 59.000000,
			"maxNomLat": 59.000000,
			"mincut": 10
		},
		{
			"s1": "London274",
			"s2": "Miami,+FL285",
			"t1": "Santa+Clara,+CA389",
			"t2": "San+Jose,+CA459",
			"suurballeNbPaths": 2,
			"suurballeTime": 645857619,
			"suurballePaths": {
				"path0": [
					"London274",
					"Weehawken,+NJ544",
					"Herndon,+VA495",
					"Herndon,+VA496",
					"Santa+Clara,+CA429",
					"San+Jose,+CA459"
				],
				"lat0": 56.000000,
				"nbSeg0": 10,
				"path1": [
					"Miami,+FL285",
					"Miami,+FL286",
					"Atlanta,+GA127",
					"Fort+Worth,+TX190",
					"Fort+Worth,+TX189",
					"Santa+Clara,+CA403",
					"Santa+Clara,+CA389"
				],
				"lat1": 30.000000,
				"nbSeg1": 12
			},
			"pathsExist": false,
			"runtime": 119564194,
			"nomLat1": 59.000000,
			"nomLat2": 32.000000,
			"maxNomLat": 59.000000,
			"mincut": 10
		},
		{
			"s1": "San+Jose,+CA471",
			"s2": "Weehawken,+NJ544",
			"t1": "Herndon,+VA495",
			"t2": "Weehawken,+NJ543",
			"suurballeNbPaths": 2,
			"suurballeTime": 6141551,
			"suurballePaths": {
				"path0": [
					"Weehawken,+NJ544",
					"Weehawken,+NJ543"
				],
				"lat0": 1.000000,
				"nbSeg0": 2,
				"path1": [
					"San+Jose,+CA471",
					"San+Jose,+CA472",
					"Santa+Clara,+CA430",
					"Santa+Clara,+CA429",
					"Herndon,+VA496",
					"Herndon,+VA495"
				],
				"lat1": 26.000000,
				"nbSeg1": 10
			},
			"pathsExist": false,
			"runtime": 42665566,
			"nomLat1": 26.000000,
			"nomLat2": 1.000000,
			"maxNomLat": 26.000000,
			"mincut": 18
		},
		{
			"s1": "Waltham,+MA556",
			"s2": "Tukwila,+WA509",
			"t1": "San+Jose,+CA472",
			"t2": "Jersey+City,+NJ261",
			"suurballeNbPaths": 2,
			"suurballeTime": 664132930,
			"suurballePaths": {
				"path0": [
					"Waltham,+MA556",
					"Waltham,+MA569",
					"Jersey+City,+NJ244",
					"Jersey+City,+NJ261"
				],
				"lat0": 5.000000,
				"nbSeg0": 5,
				"path1": [
					"Tukwila,+WA509",
					"Tukwila,+WA508",
					"Santa+Clara,+CA429",
					"Santa+Clara,+CA431",
					"San+Jose,+CA472"
				],
				"lat1": 11.000000,
				"nbSeg1": 8
			},
			"pathsExist": false,
			"runtime": 103418653,
			"nomLat1": 26.000000,
			"nomLat2": 28.000000,
			"maxNomLat": 28.000000,
			"mincut": 10
		},
		{
			"s1": "Santa+Clara,+CA363",
			"s2": "Santa+Clara,+CA431",
			"t1": "London276",
			"t2": "Weehawken,+NJ544",
			"suurballeNbPaths": 2,
			"suurballeTime": 5739994,
			"suurballePaths": {
				"path0": [
					"Santa+Clara,+CA431",
					"Santa+Clara,+CA429",
					"Herndon,+VA496",
					"Herndon,+VA495",
					"Weehawken,+NJ544"
				],
				"lat0": 26.000000,
				"nbSeg0": 8,
				"path1": [
					"Santa+Clara,+CA363",
					"Santa+Clara,+CA431",
					"Santa+Clara,+CA429",
					"Herndon,+VA496",
					"Herndon,+VA495",
					"Weehawken,+NJ544"
				],
				"lat1": 27.000000,
				"nbSeg1": 10
			},
			"pathsExist": false,
			"runtime": 47785657,
			"nomLat1": 58.000000,
			"nomLat2": 26.000000,
			"maxNomLat": 58.000000,
			"mincut": 10
		},
		{
			"s1": "Chicago,+IL156",
			"s2": "Santa+Clara,+CA430",
			"t1": "London274",
			"t2": "Oak+Brook,+IL308",
			"suurballeNbPaths": 2,
			"suurballeTime": 8524828,
			"suurballePaths": {
				"path0": [
					"Chicago,+IL156",
					"Oak+Brook,+IL300",
					"Oak+Brook,+IL308"
				],
				"lat0": 3.000000,
				"nbSeg0": 4,
				"path1": [
					"Santa+Clara,+CA430",
					"Santa+Clara,+CA429",
					"Herndon,+VA496",
					"Herndon,+VA495",
					"Weehawken,+NJ544",
					"London274"
				],
				"lat1": 55.000000,
				"nbSeg1": 10
			},
			"pathsExist": false,
			"runtime": 41965676,
			"nomLat1": 42.000000,
			"nomLat2": 27.000000,
			"maxNomLat": 42.000000,
			"mincut": 10
		},
		{
			"s1": "Oak+Brook,+IL307",
			"s2": "San+Jose,+CA471",
			"t1": "Palo+Alto,+CA104",
			"t2": "Herndon,+VA206",
			"suurballeNbPaths": 2,
			"suurballeTime": 16338518,
			"suurballePaths": {
				"path0": [
					"San+Jose,+CA471",
					"Santa+Clara,+CA444",
					"Palo+Alto,+CA104"
				],
				"lat0": 4.000000,
				"nbSeg0": 4,
				"path1": [
					"Oak+Brook,+IL307",
					"Oak+Brook,+IL300",
					"Weehawken,+NJ543",
					"New+York,+NY293",
					"Herndon,+VA206"
				],
				"lat1": 13.000000,
				"nbSeg1": 7
			},
			"pathsExist": false,
			"runtime": 27942805,
			"nomLat1": 21.000000,
			"nomLat2": 30.000000,
			"maxNomLat": 30.000000,
			"mincut": 12
		},
		{
			"s1": "New+York,+NY294",
			"s2": "Waltham,+MA556",
			"t1": "Weehawken,+NJ552",
			"t2": "San+Jose,+CA472",
			"suurballeNbPaths": 2,
			"suurballeTime": 657274927,
			"suurballePaths": {
				"path0": [
					"New+York,+NY294",
					"Weehawken,+NJ543",
					"Weehawken,+NJ552"
				],
				"lat0": 3.000000,
				"nbSeg0": 4,
				"path1": [
					"Waltham,+MA556",
					"Oak+Brook,+IL300",
					"Oak+Brook,+IL301",
					"San+Jose,+CA471",
					"San+Jose,+CA472"
				],
				"lat1": 26.000000,
				"nbSeg1": 8
			},
			"pathsExist": false,
			"runtime": 112110356,
			"nomLat1": 3.000000,
			"nomLat2": 26.000000,
			"maxNomLat": 26.000000,
			"mincut": 12
		},
		{
			"s1": "Irvine,+CA237",
			"s2": "Santa+Clara,+CA430",
			"t1": "Santa+Clara,+CA365",
			"t2": "Oak+Brook,+IL315",
			"suurballeNbPaths": 2,
			"suurballeTime": 5995899,
			"suurballePaths": {
				"path0": [
					"Santa+Clara,+CA430",
					"Santa+Clara,+CA443",
					"Santa+Clara,+CA431",
					"Santa+Clara,+CA365"
				],
				"lat0": 3.000000,
				"nbSeg0": 6,
				"path1": [
					"Irvine,+CA237",
					"Irvine,+CA228",
					"Fort+Worth,+TX189",
					"Chicago,+IL156",
					"Oak+Brook,+IL300",
					"Oak+Brook,+IL315"
				],
				"lat1": 23.000000,
				"nbSeg1": 9
			},
			"pathsExist": false,
			"runtime": 42689696,
			"nomLat1": 12.000000,
			"nomLat2": 27.000000,
			"maxNomLat": 27.000000,
			"mincut": 12
		},
		{
			"s1": "Santa+Clara,+CA443",
			"s2": "Weehawken,+NJ544",
			"t1": "Tokyo525",
			"t2": "Oak+Brook,+IL300",
			"suurballeNbPaths": 2,
			"suurballeTime": 655755919,
			"suurballePaths": {
				"path0": [
					"Santa+Clara,+CA443",
					"Santa+Clara,+CA404",
					"Tokyo525"
				],
				"lat0": 44.000000,
				"nbSeg0": 4,
				"path1": [
					"Weehawken,+NJ544",
					"Weehawken,+NJ552",
					"Oak+Brook,+IL300"
				],
				"lat1": 8.000000,
				"nbSeg1": 4
			},
			"pathsExist": false,
			"runtime": 104490354,
			"nomLat1": 44.000000,
			"nomLat2": 8.000000,
			"maxNomLat": 44.000000,
			"mincut": 18
		},
		{
			"s1": "El+Segundo,+CA163",
			"s2": "Amsterdam119",
			"t1": "Toronto,+Canada537",
			"t2": "Atlanta,+GA127",
			"suurballeNbPaths": 2,
			"suurballeTime": 6123382,
			"suurballePaths": {
				"path0": [
					"El+Segundo,+CA163",
					"El+Segundo,+CA164",
					"Irvine,+CA229",
					"Fort+Worth,+TX190",
					"Atlanta,+GA127"
				],
				"lat0": 22.000000,
				"nbSeg0": 8,
				"path1": [
					"Amsterdam119",
					"London275",
					"Jersey+City,+NJ245",
					"Jersey+City,+NJ244",
					"Waltham,+MA568",
					"Waltham,+MA555",
					"Toronto,+Canada537"
				],
				"lat1": 39.000000,
				"nbSeg1": 11
			},
			"pathsExist": false,
			"runtime": 53117956,
			"nomLat1": 36.000000,
			"nomLat2": 46.000000,
			"maxNomLat": 46.000000,
			"mincut": 10
		},
		{
			"s1": "Herndon,+VA495",
			"s2": "Santa+Clara,+CA388",
			"t1": "Irvine,+CA230",
			"t2": "Santa+Clara,+CA431",
			"suurballeNbPaths": 2,
			"suurballeTime": 6900333,
			"suurballePaths": {
				"path0": [
					"Herndon,+VA495",
					"Herndon,+VA496",
					"Santa+Clara,+CA429",
					"Santa+Clara,+CA431"
				],
				"lat0": 23.000000,
				"nbSeg0": 6,
				"path1": [
					"Santa+Clara,+CA388",
					"Santa+Clara,+CA389",
					"Santa+Clara,+CA443",
					"El+Segundo,+CA164",
					"Irvine,+CA230"
				],
				"lat1": 8.000000,
				"nbSeg1": 8
			},
			"pathsExist": false,
			"runtime": 69707252,
			"nomLat1": 29.000000,
			"nomLat2": 5.000000,
			"maxNomLat": 29.000000,
			"mincut": 14
		},
		{
			"s1": "Irvine,+CA237",
			"s2": "Irvine,+CA230",
			"t1": "Santa+Clara,+CA389",
			"t2": "Palo+Alto,+CA317",
			"suurballeNbPaths": 2,
			"suurballeTime": 5628174,
			"suurballePaths": {
				"path0": [
					"Irvine,+CA230",
					"El+Segundo,+CA164",
					"Santa+Clara,+CA403",
					"Santa+Clara,+CA389"
				],
				"lat0": 7.000000,
				"nbSeg0": 6,
				"path1": [
					"Irvine,+CA237",
					"Irvine,+CA228",
					"Irvine,+CA213",
					"Santa+Clara,+CA404",
					"Santa+Clara,+CA444",
					"Palo+Alto,+CA104",
					"Palo+Alto,+CA317"
				],
				"lat1": 10.000000,
				"nbSeg1": 11
			},
			"pathsExist": false,
			"runtime": 75041908,
			"nomLat1": 8.000000,
			"nomLat2": 10.000000,
			"maxNomLat": 10.000000,
			"mincut": 8
		},
		{
			"s1": "Santa+Clara,+CA431",
			"s2": "London276",
			"t1": "London274",
			"t2": "Palo+Alto,+CA104",
			"suurballeNbPaths": 2,
			"suurballeTime": 5114428,
			"suurballePaths": {
				"path0": [
					"Santa+Clara,+CA431",
					"Santa+Clara,+CA365",
					"Palo+Alto,+CA104"
				],
				"lat0": 3.000000,
				"nbSeg0": 4,
				"path1": [
					"London276",
					"Jersey+City,+NJ245",
					"London274"
				],
				"lat1": 58.000000,
				"nbSeg1": 4
			},
			"pathsExist": false,
			"runtime": 81255187,
			"nomLat1": 57.000000,
			"nomLat2": 59.000000,
			"maxNomLat": 59.000000,
			"mincut": 14
		},
		{
			"s1": "Tokyo525",
			"s2": "Frankfurt185",
			"t1": "Irvine,+CA228",
			"t2": "Santa+Clara,+CA389",
			"suurballeNbPaths": 2,
			"suurballeTime": 4380845,
			"suurballePaths": {
				"path0": [
					"Tokyo525",
					"Santa+Clara,+CA404",
					"Santa+Clara,+CA403",
					"Santa+Clara,+CA389"
				],
				"lat0": 45.000000,
				"nbSeg0": 6,
				"path1": [
					"Frankfurt185",
					"Amsterdam119",
					"London275",
					"Weehawken,+NJ544",
					"Weehawken,+NJ543",
					"Atlanta,+GA127",
					"Fort+Worth,+TX190",
					"Irvine,+CA228"
				],
				"lat1": 62.000000,
				"nbSeg1": 14
			},
			"pathsExist": false,
			"runtime": 83225910,
			"nomLat1": 51.000000,
			"nomLat2": 65.000000,
			"maxNomLat": 65.000000,
			"mincut": 6
		},
		{
			"s1": "Irvine,+CA212",
			"s2": "Chicago,+IL155",
			"t1": "Santa+Clara,+CA430",
			"t2": "Fort+Worth,+TX191",
			"suurballeNbPaths": 2,
			"suurballeTime": 4277273,
			"suurballePaths": {
				"path0": [
					"Irvine,+CA212",
					"El+Segundo,+CA163",
					"Santa+Clara,+CA404",
					"Santa+Clara,+CA430"
				],
				"lat0": 7.000000,
				"nbSeg0": 6,
				"path1": [
					"Chicago,+IL155",
					"Chicago,+IL156",
					"Fort+Worth,+TX189",
					"Fort+Worth,+TX191"
				],
				"lat1": 10.000000,
				"nbSeg1": 6
			},
			"pathsExist": false,
			"runtime": 61384480,
			"nomLat1": 7.000000,
			"nomLat2": 10.000000,
			"maxNomLat": 10.000000,
			"mincut": 8
		},
		{
			"s1": "Jersey+City,+NJ261",
			"s2": "El+Segundo,+CA164",
			"t1": "Toronto,+Canada538",
			"t2": "Santa+Clara,+CA365",
			"suurballeNbPaths": 2,
			"suurballeTime": 4396935,
			"suurballePaths": {
				"path0": [
					"El+Segundo,+CA164",
					"Santa+Clara,+CA443",
					"Santa+Clara,+CA431",
					"Santa+Clara,+CA365"
				],
				"lat0": 6.000000,
				"nbSeg0": 6,
				"path1": [
					"Jersey+City,+NJ261",
					"Jersey+City,+NJ244",
					"Weehawken,+NJ543",
					"Oak+Brook,+IL300",
					"Toronto,+Canada538"
				],
				"lat1": 18.000000,
				"nbSeg1": 8
			},
			"pathsExist": true,
			"path1": [
				"Jersey+City,+NJ261",
				"Toronto,+Canada538"
			],
			"lat1": 18.000000,
			"path2": [
				"El+Segundo,+CA164",
				"Santa+Clara,+CA365"
			],
			"lat2": 9.000000,
			"maxlat": 18.000000,
			"runtime": 106595272,
			"nomLat1": 18.000000,
			"nomLat2": 9.000000,
			"maxNomLat": 18.000000,
			"mincut": 6
		},
		{
			"s1": "Chicago,+IL156",
			"s2": "London277",
			"t1": "Santa+Clara,+CA364",
			"t2": "Jersey+City,+NJ244",
			"suurballeNbPaths": 2,
			"suurballeTime": 6343413,
			"suurballePaths": {
				"path0": [
					"London277",
					"Jersey+City,+NJ244"
				],
				"lat0": 29.000000,
				"nbSeg0": 2,
				"path1": [
					"Chicago,+IL156",
					"Oak+Brook,+IL300",
					"Oak+Brook,+IL301",
					"San+Jose,+CA471",
					"San+Jose,+CA472",
					"Santa+Clara,+CA430",
					"Santa+Clara,+CA364"
				],
				"lat1": 23.000000,
				"nbSeg1": 12
			},
			"pathsExist": false,
			"runtime": 139921850,
			"nomLat1": 26.000000,
			"nomLat2": 29.000000,
			"maxNomLat": 29.000000,
			"mincut": 8
		},
		{
			"s1": "Herndon,+VA495",
			"s2": "Jersey+City,+NJ245",
			"t1": "Chicago,+IL155",
			"t2": "Santa+Clara,+CA429",
			"suurballeNbPaths": 2,
			"suurballeTime": 4848023,
			"suurballePaths": {
				"path0": [
					"Herndon,+VA495",
					"Herndon,+VA496",
					"Santa+Clara,+CA429"
				],
				"lat0": 22.000000,
				"nbSeg0": 4,
				"path1": [
					"Jersey+City,+NJ245",
					"Weehawken,+NJ544",
					"Weehawken,+NJ552",
					"Oak+Brook,+IL300",
					"Oak+Brook,+IL301",
					"Chicago,+IL155"
				],
				"lat1": 13.000000,
				"nbSeg1": 10
			},
			"pathsExist": false,
			"runtime": 154638046,
			"nomLat1": 14.000000,
			"nomLat2": 27.000000,
			"maxNomLat": 27.000000,
			"mincut": 10
		},
		{
			"s1": "Palo+Alto,+CA317",
			"s2": "Santa+Clara,+CA431",
			"t1": "Weehawken,+NJ552",
			"t2": "Santa+Clara,+CA403",
			"suurballeNbPaths": 2,
			"suurballeTime": 8307264,
			"suurballePaths": {
				"path0": [
					"Palo+Alto,+CA317",
					"Palo+Alto,+CA104",
					"Santa+Clara,+CA403"
				],
				"lat0": 3.000000,
				"nbSeg0": 4,
				"path1": [
					"Santa+Clara,+CA431",
					"Santa+Clara,+CA429",
					"Herndon,+VA496",
					"Herndon,+VA495",
					"Weehawken,+NJ544",
					"Weehawken,+NJ552"
				],
				"lat1": 27.000000,
				"nbSeg1": 10
			},
			"pathsExist": false,
			"runtime": 152000668,
			"nomLat1": 30.000000,
			"nomLat2": 5.000000,
			"maxNomLat": 30.000000,
			"mincut": 16
		},
		{
			"s1": "London275",
			"s2": "Santa+Clara,+CA389",
			"t1": "Herndon,+VA193",
			"t2": "Amsterdam119",
			"suurballeNbPaths": 2,
			"suurballeTime": 9681397,
			"suurballePaths": {
				"path0": [
					"London275",
					"Amsterdam119"
				],
				"lat0": 3.000000,
				"nbSeg0": 2,
				"path1": [
					"Santa+Clara,+CA389",
					"Santa+Clara,+CA403",
					"Santa+Clara,+CA429",
					"Herndon,+VA496",
					"Herndon,+VA193"
				],
				"lat1": 24.000000,
				"nbSeg1": 8
			},
			"pathsExist": false,
			"runtime": 153383908,
			"nomLat1": 36.000000,
			"nomLat2": 62.000000,
			"maxNomLat": 62.000000,
			"mincut": 10
		},
		{
			"s1": "Santa+Clara,+CA336",
			"s2": "El+Segundo,+CA163",
			"t1": "Waltham,+MA569",
			"t2": "Irvine,+CA231",
			"suurballeNbPaths": 2,
			"suurballeTime": 6324411,
			"suurballePaths": {
				"path0": [
					"El+Segundo,+CA163",
					"El+Segundo,+CA164",
					"Irvine,+CA231"
				],
				"lat0": 3.000000,
				"nbSeg0": 4,
				"path1": [
					"Santa+Clara,+CA336",
					"Santa+Clara,+CA430",
					"San+Jose,+CA472",
					"San+Jose,+CA471",
					"Oak+Brook,+IL301",
					"Oak+Brook,+IL300",
					"Waltham,+MA556",
					"Waltham,+MA569"
				],
				"lat1": 30.000000,
				"nbSeg1": 13
			},
			"pathsExist": false,
			"runtime": 162910822,
			"nomLat1": 33.000000,
			"nomLat2": 3.000000,
			"maxNomLat": 33.000000,
			"mincut": 12
		},
		{
			"s1": "Fort+Worth,+TX190",
			"s2": "El+Segundo,+CA163",
			"t1": "Oak+Brook,+IL307",
			"t2": "Atlanta,+GA127",
			"suurballeNbPaths": 2,
			"suurballeTime": 6033703,
			"suurballePaths": {
				"path0": [
					"Fort+Worth,+TX190",
					"Atlanta,+GA127"
				],
				"lat0": 8.000000,
				"nbSeg0": 2,
				"path1": [
					"El+Segundo,+CA163",
					"Santa+Clara,+CA404",
					"Santa+Clara,+CA444",
					"San+Jose,+CA471",
					"Oak+Brook,+IL301",
					"Oak+Brook,+IL307"
				],
				"lat1": 24.000000,
				"nbSeg1": 10
			},
			"pathsExist": false,
			"runtime": 170332815,
			"nomLat1": 12.000000,
			"nomLat2": 23.000000,
			"maxNomLat": 23.000000,
			"mincut": 10
		},
		{
			"s1": "Santa+Clara,+CA363",
			"s2": "Santa+Clara,+CA443",
			"t1": "Waltham,+MA568",
			"t2": "San+Jose,+CA472",
			"suurballeNbPaths": 2,
			"suurballeTime": 6175900,
			"suurballePaths": {
				"path0": [
					"Santa+Clara,+CA363",
					"Santa+Clara,+CA431",
					"San+Jose,+CA472"
				],
				"lat0": 3.000000,
				"nbSeg0": 4,
				"path1": [
					"Santa+Clara,+CA443",
					"Santa+Clara,+CA444",
					"San+Jose,+CA471",
					"Oak+Brook,+IL301",
					"Oak+Brook,+IL300",
					"Waltham,+MA555",
					"Waltham,+MA568"
				],
				"lat1": 29.000000,
				"nbSeg1": 11
			},
			"pathsExist": false,
			"runtime": 170559209,
			"nomLat1": 31.000000,
			"nomLat2": 3.000000,
			"maxNomLat": 31.000000,
			"mincut": 14
		},
		{
			"s1": "Santa+Clara,+CA444",
			"s2": "Santa+Clara,+CA403",
			"t1": "Chicago,+IL156",
			"t2": "Irvine,+CA213",
			"suurballeNbPaths": 2,
			"suurballeTime": 3999280,
			"suurballePaths": {
				"path0": [
					"Santa+Clara,+CA444",
					"Santa+Clara,+CA404",
					"Irvine,+CA213"
				],
				"lat0": 5.000000,
				"nbSeg0": 3,
				"path1": [
					"Santa+Clara,+CA403",
					"Fort+Worth,+TX189",
					"Chicago,+IL156"
				],
				"lat1": 21.000000,
				"nbSeg1": 4
			},
			"pathsExist": false,
			"runtime": 181295171,
			"nomLat1": 21.000000,
			"nomLat2": 8.000000,
			"maxNomLat": 21.000000,
			"mincut": 12
		},
		{
			"s1": "New+York,+NY293",
			"s2": "Fort+Worth,+TX191",
			"t1": "Santa+Clara,+CA403",
			"t2": "Santa+Clara,+CA431",
			"suurballeNbPaths": 2,
			"suurballeTime": 4371664,
			"suurballePaths": {
				"path0": [
					"Fort+Worth,+TX191",
					"Fort+Worth,+TX189",
					"Santa+Clara,+CA403"
				],
				"lat0": 14.000000,
				"nbSeg0": 4,
				"path1": [
					"New+York,+NY293",
					"Herndon,+VA208",
					"Herndon,+VA495",
					"Herndon,+VA496",
					"Santa+Clara,+CA429",
					"Santa+Clara,+CA431"
				],
				"lat1": 27.000000,
				"nbSeg1": 10
			},
			"pathsExist": false,
			"runtime": 163893329,
			"nomLat1": 39.000000,
			"nomLat2": 19.000000,
			"maxNomLat": 39.000000,
			"mincut": 14
		},
		{
			"s1": "Irvine,+CA213",
			"s2": "San+Jose,+CA472",
			"t1": "Weehawken,+NJ544",
			"t2": "Santa+Clara,+CA389",
			"suurballeNbPaths": 2,
			"suurballeTime": 5970719,
			"suurballePaths": {
				"path0": [
					"San+Jose,+CA472",
					"Santa+Clara,+CA389"
				],
				"lat0": 2.000000,
				"nbSeg0": 2,
				"path1": [
					"Irvine,+CA213",
					"Irvine,+CA228",
					"Fort+Worth,+TX190",
					"Atlanta,+GA127",
					"Weehawken,+NJ543",
					"Weehawken,+NJ544"
				],
				"lat1": 28.000000,
				"nbSeg1": 10
			},
			"pathsExist": false,
			"runtime": 181682619,
			"nomLat1": 32.000000,
			"nomLat2": 2.000000,
			"maxNomLat": 32.000000,
			"mincut": 14
		},
		{
			"s1": "Herndon,+VA206",
			"s2": "Atlanta,+GA126",
			"t1": "Frankfurt184",
			"t2": "Palo+Alto,+CA318",
			"suurballeNbPaths": 2,
			"suurballeTime": 16474944,
			"suurballePaths": {
				"path0": [
					"Herndon,+VA206",
					"New+York,+NY293",
					"Weehawken,+NJ543",
					"Jersey+City,+NJ244",
					"Frankfurt184"
				],
				"lat0": 39.000000,
				"nbSeg0": 7,
				"path1": [
					"Atlanta,+GA126",
					"Atlanta,+GA127",
					"Fort+Worth,+TX190",
					"Fort+Worth,+TX189",
					"Santa+Clara,+CA403",
					"Palo+Alto,+CA104",
					"Palo+Alto,+CA317",
					"Palo+Alto,+CA318"
				],
				"lat1": 27.000000,
				"nbSeg1": 14
			},
			"pathsExist": false,
			"runtime": 176320036,
			"nomLat1": 40.000000,
			"nomLat2": 27.000000,
			"maxNomLat": 40.000000,
			"mincut": 8
		},
		{
			"s1": "El+Segundo,+CA163",
			"s2": "San+Jose,+CA459",
			"t1": "Fort+Worth,+TX190",
			"t2": "San+Jose,+CA471",
			"suurballeNbPaths": 2,
			"suurballeTime": 16386721,
			"suurballePaths": {
				"path0": [
					"El+Segundo,+CA163",
					"El+Segundo,+CA164",
					"Irvine,+CA229",
					"Fort+Worth,+TX190"
				],
				"lat0": 14.000000,
				"nbSeg0": 6,
				"path1": [
					"San+Jose,+CA459",
					"San+Jose,+CA460",
					"Santa+Clara,+CA388",
					"Santa+Clara,+CA389",
					"San+Jose,+CA471"
				],
				"lat1": 6.000000,
				"nbSeg1": 8
			},
			"pathsExist": false,
			"runtime": 177471930,
			"nomLat1": 15.000000,
			"nomLat2": 6.000000,
			"maxNomLat": 15.000000,
			"mincut": 12
		},
		{
			"s1": "Irvine,+CA230",
			"s2": "Waltham,+MA569",
			"t1": "Irvine,+CA228",
			"t2": "Irvine,+CA213",
			"suurballeNbPaths": 2,
			"suurballeTime": 16005297,
			"suurballePaths": {
				"path0": [
					"Irvine,+CA230",
					"Irvine,+CA228"
				],
				"lat0": 1.000000,
				"nbSeg0": 2,
				"path1": [
					"Waltham,+MA569",
					"Waltham,+MA556",
					"Oak+Brook,+IL300",
					"Chicago,+IL156",
					"Fort+Worth,+TX189",
					"Irvine,+CA228"
				],
				"lat1": 30.000000,
				"nbSeg1": 8
			},
			"pathsExist": false,
			"runtime": 184566294,
			"nomLat1": 1.000000,
			"nomLat2": 38.000000,
			"maxNomLat": 38.000000,
			"mincut": 10
		},
		{
			"s1": "Irvine,+CA213",
			"s2": "Fort+Worth,+TX190",
			"t1": "Herndon,+VA208",
			"t2": "Oak+Brook,+IL301",
			"suurballeNbPaths": 2,
			"suurballeTime": 18407489,
			"suurballePaths": {
				"path0": [
					"Irvine,+CA213",
					"Irvine,+CA228",
					"Fort+Worth,+TX189",
					"Chicago,+IL156",
					"Oak+Brook,+IL300",
					"Oak+Brook,+IL301"
				],
				"lat0": 23.000000,
				"nbSeg0": 9,
				"path1": [
					"Fort+Worth,+TX190",
					"Atlanta,+GA127",
					"Herndon,+VA193",
					"Herndon,+VA496",
					"Herndon,+VA495",
					"Herndon,+VA208"
				],
				"lat1": 17.000000,
				"nbSeg1": 10
			},
			"pathsExist": false,
			"runtime": 182052965,
			"nomLat1": 30.000000,
			"nomLat2": 12.000000,
			"maxNomLat": 30.000000,
			"mincut": 10
		},
		{
			"s1": "Santa+Clara,+CA389",
			"s2": "Santa+Clara,+CA443",
			"t1": "Oak+Brook,+IL300",
			"t2": "Miami,+FL286",
			"suurballeNbPaths": 2,
			"suurballeTime": 5643865,
			"suurballePaths": {
				"path0": [
					"Santa+Clara,+CA389",
					"San+Jose,+CA471",
					"Oak+Brook,+IL301",
					"Oak+Brook,+IL300"
				],
				"lat0": 19.000000,
				"nbSeg0": 6,
				"path1": [
					"Santa+Clara,+CA443",
					"Santa+Clara,+CA404",
					"Santa+Clara,+CA403",
					"Fort+Worth,+TX189",
					"Fort+Worth,+TX190",
					"Atlanta,+GA127",
					"Miami,+FL286"
				],
				"lat1": 30.000000,
				"nbSeg1": 12
			},
			"pathsExist": false,
			"runtime": 199427765,
			"nomLat1": 19.000000,
			"nomLat2": 30.000000,
			"maxNomLat": 30.000000,
			"mincut": 10
		},
		{
			"s1": "San+Jose,+CA471",
			"s2": "Irvine,+CA230",
			"t1": "London275",
			"t2": "Irvine,+CA213",
			"suurballeNbPaths": 2,
			"suurballeTime": 13049704,
			"suurballePaths": {
				"path0": [
					"Irvine,+CA230",
					"Irvine,+CA228",
					"Irvine,+CA213"
				],
				"lat0": 2.000000,
				"nbSeg0": 4,
				"path1": [
					"San+Jose,+CA471",
					"Oak+Brook,+IL301",
					"Oak+Brook,+IL300",
					"Weehawken,+NJ552",
					"Weehawken,+NJ544",
					"London275"
				],
				"lat1": 54.000000,
				"nbSeg1": 10
			},
			"pathsExist": false,
			"runtime": 205421228,
			"nomLat1": 57.000000,
			"nomLat2": 4.000000,
			"maxNomLat": 57.000000,
			"mincut": 12
		},
		{
			"s1": "Herndon,+VA193",
			"s2": "Santa+Clara,+CA364",
			"t1": "San+Jose,+CA472",
			"t2": "Santa+Clara,+CA405",
			"suurballeNbPaths": 2,
			"suurballeTime": 17212995,
			"suurballePaths": {
				"path0": [
					"Santa+Clara,+CA364",
					"Santa+Clara,+CA430",
					"San+Jose,+CA472"
				],
				"lat0": 3.000000,
				"nbSeg0": 4,
				"path1": [
					"Herndon,+VA193",
					"Herndon,+VA496",
					"Santa+Clara,+CA429",
					"Santa+Clara,+CA403",
					"Santa+Clara,+CA405"
				],
				"lat1": 24.000000,
				"nbSeg1": 8
			},
			"pathsExist": false,
			"runtime": 207387881,
			"nomLat1": 25.000000,
			"nomLat2": 7.000000,
			"maxNomLat": 25.000000,
			"mincut": 12
		},
		{
			"s1": "Austin,+TX136",
			"s2": "San+Jose,+CA459",
			"t1": "New+York,+NY293",
			"t2": "Irvine,+CA230",
			"suurballeNbPaths": 2,
			"suurballeTime": 27913884,
			"suurballePaths": {
				"path0": [
					"Austin,+TX136",
					"Fort+Worth,+TX190",
					"Atlanta,+GA127",
					"Weehawken,+NJ543",
					"New+York,+NY293"
				],
				"lat0": 20.000000,
				"nbSeg0": 7,
				"path1": [
					"San+Jose,+CA459",
					"Santa+Clara,+CA429",
					"Santa+Clara,+CA403",
					"El+Segundo,+CA164",
					"Irvine,+CA230"
				],
				"lat1": 9.000000,
				"nbSeg1": 8
			},
			"pathsExist": false,
			"runtime": 194046471,
			"nomLat1": 28.000000,
			"nomLat2": 10.000000,
			"maxNomLat": 28.000000,
			"mincut": 6
		},
		{
			"s1": "Oak+Brook,+IL310",
			"s2": "Toronto,+Canada538",
			"t1": "London275",
			"t2": "Santa+Clara,+CA444",
			"suurballeNbPaths": 2,
			"suurballeTime": 27924293,
			"suurballePaths": {
				"path0": [
					"Oak+Brook,+IL310",
					"Oak+Brook,+IL301",
					"San+Jose,+CA471",
					"Santa+Clara,+CA444"
				],
				"lat0": 19.000000,
				"nbSeg0": 6,
				"path1": [
					"Toronto,+Canada538",
					"Oak+Brook,+IL300",
					"Weehawken,+NJ552",
					"Weehawken,+NJ544",
					"London275"
				],
				"lat1": 45.000000,
				"nbSeg1": 8
			},
			"pathsExist": false,
			"runtime": 195269444,
			"nomLat1": 41.000000,
			"nomLat2": 27.000000,
			"maxNomLat": 41.000000,
			"mincut": 6
		},
		{
			"s1": "Frankfurt184",
			"s2": "Irvine,+CA213",
			"t1": "London276",
			"t2": "Irvine,+CA228",
			"suurballeNbPaths": 2,
			"suurballeTime": 5707193,
			"suurballePaths": {
				"path0": [
					"Irvine,+CA213",
					"Irvine,+CA228"
				],
				"lat0": 1.000000,
				"nbSeg0": 2,
				"path1": [
					"Frankfurt184",
					"Jersey+City,+NJ244",
					"Jersey+City,+NJ245",
					"London276"
				],
				"lat1": 62.000000,
				"nbSeg1": 6
			},
			"pathsExist": false,
			"runtime": 219632852,
			"nomLat1": 62.000000,
			"nomLat2": 1.000000,
			"maxNomLat": 62.000000,
			"mincut": 8
		},
		{
			"s1": "Tokyo525",
			"s2": "Oak+Brook,+IL309",
			"t1": "Weehawken,+NJ552",
			"t2": "London276",
			"suurballeNbPaths": 2,
			"suurballeTime": 11910982,
			"suurballePaths": {
				"path0": [
					"Oak+Brook,+IL309",
					"Oak+Brook,+IL300",
					"Weehawken,+NJ552"
				],
				"lat0": 8.000000,
				"nbSeg0": 4,
				"path1": [
					"Tokyo525",
					"Santa+Clara,+CA404",
					"Santa+Clara,+CA403",
					"Santa+Clara,+CA429",
					"Herndon,+VA496",
					"Herndon,+VA495",
					"Weehawken,+NJ544",
					"London276"
				],
				"lat1": 99.000000,
				"nbSeg1": 14
			},
			"pathsExist": false,
			"runtime": 239368913,
			"nomLat1": 72.000000,
			"nomLat2": 41.000000,
			"maxNomLat": 72.000000,
			"mincut": 8
		},
		{
			"s1": "Weehawken,+NJ544",
			"s2": "Herndon,+VA193",
			"t1": "Herndon,+VA206",
			"t2": "Oak+Brook,+IL307",
			"suurballeNbPaths": 2,
			"suurballeTime": 6055246,
			"suurballePaths": {
				"path0": [
					"Weehawken,+NJ544",
					"Weehawken,+NJ552",
					"Oak+Brook,+IL300",
					"Oak+Brook,+IL307"
				],
				"lat0": 9.000000,
				"nbSeg0": 6,
				"path1": [
					"Herndon,+VA193",
					"Herndon,+VA496",
					"Herndon,+VA495",
					"Herndon,+VA208",
					"Herndon,+VA206"
				],
				"lat1": 4.000000,
				"nbSeg1": 8
			},
			"pathsExist": false,
			"runtime": 249305650,
			"nomLat1": 5.000000,
			"nomLat2": 27.000000,
			"maxNomLat": 27.000000,
			"mincut": 10
		},
		{
			"s1": "New+York,+NY294",
			"s2": "Santa+Clara,+CA430",
			"t1": "Atlanta,+GA133",
			"t2": "Tokyo525",
			"suurballeNbPaths": 2,
			"suurballeTime": 4753568,
			"suurballePaths": {
				"path0": [
					"Santa+Clara,+CA430",
					"Santa+Clara,+CA404",
					"Tokyo525"
				],
				"lat0": 44.000000,
				"nbSeg0": 4,
				"path1": [
					"New+York,+NY294",
					"Weehawken,+NJ543",
					"Atlanta,+GA127",
					"Atlanta,+GA133"
				],
				"lat1": 10.000000,
				"nbSeg1": 6
			},
			"pathsExist": false,
			"runtime": 244758983,
			"nomLat1": 16.000000,
			"nomLat2": 45.000000,
			"maxNomLat": 45.000000,
			"mincut": 8
		},
		{
			"s1": "Miami,+FL286",
			"s2": "Tukwila,+WA508",
			"t1": "New+York,+NY293",
			"t2": "Chicago,+IL156",
			"suurballeNbPaths": 2,
			"suurballeTime": 5782715,
			"suurballePaths": {
				"path0": [
					"Miami,+FL286",
					"Miami,+FL285",
					"New+York,+NY293"
				],
				"lat0": 11.000000,
				"nbSeg0": 4,
				"path1": [
					"Tukwila,+WA508",
					"Chicago,+IL155",
					"Chicago,+IL156"
				],
				"lat1": 16.000000,
				"nbSeg1": 3
			},
			"pathsExist": false,
			"runtime": 69989332,
			"nomLat1": 11.000000,
			"nomLat2": 17.000000,
			"maxNomLat": 17.000000,
			"mincut": 10
		},
		{
			"s1": "Oak+Brook,+IL307",
			"s2": "Fort+Worth,+TX190",
			"t1": "Santa+Clara,+CA336",
			"t2": "Irvine,+CA212",
			"suurballeNbPaths": 2,
			"suurballeTime": 4368085,
			"suurballePaths": {
				"path0": [
					"Fort+Worth,+TX190",
					"Irvine,+CA229",
					"El+Segundo,+CA164",
					"El+Segundo,+CA163",
					"Irvine,+CA212"
				],
				"lat0": 16.000000,
				"nbSeg0": 8,
				"path1": [
					"Oak+Brook,+IL307",
					"Oak+Brook,+IL301",
					"San+Jose,+CA471",
					"San+Jose,+CA472",
					"Santa+Clara,+CA430",
					"Santa+Clara,+CA336"
				],
				"lat1": 21.000000,
				"nbSeg1": 10
			},
			"pathsExist": false,
			"runtime": 267953659,
			"nomLat1": 28.000000,
			"nomLat2": 17.000000,
			"maxNomLat": 28.000000,
			"mincut": 8
		},
		{
			"s1": "Santa+Clara,+CA404",
			"s2": "London274",
			"t1": "Oak+Brook,+IL310",
			"t2": "Austin,+TX136",
			"suurballeNbPaths": 2,
			"suurballeTime": 4133031,
			"suurballePaths": {
				"path0": [
					"Santa+Clara,+CA404",
					"Santa+Clara,+CA403",
					"Fort+Worth,+TX189",
					"Fort+Worth,+TX190",
					"Austin,+TX136"
				],
				"lat0": 18.000000,
				"nbSeg0": 8,
				"path1": [
					"London274",
					"Weehawken,+NJ544",
					"Weehawken,+NJ552",
					"Oak+Brook,+IL300",
					"Oak+Brook,+IL310"
				],
				"lat1": 38.000000,
				"nbSeg1": 8
			},
			"pathsExist": false,
			"runtime": 89736860,
			"nomLat1": 21.000000,
			"nomLat2": 54.000000,
			"maxNomLat": 54.000000,
			"mincut": 6
		},
		{
			"s1": "Oak+Brook,+IL310",
			"s2": "Irvine,+CA237",
			"t1": "Oak+Brook,+IL307",
			"t2": "Irvine,+CA228",
			"suurballeNbPaths": 2,
			"suurballeTime": 4275889,
			"suurballePaths": {
				"path0": [
					"Irvine,+CA237",
					"Irvine,+CA228"
				],
				"lat0": 1.000000,
				"nbSeg0": 2,
				"path1": [
					"Oak+Brook,+IL310",
					"Oak+Brook,+IL300",
					"Oak+Brook,+IL307"
				],
				"lat1": 2.000000,
				"nbSeg1": 4
			},
			"pathsExist": false,
			"runtime": 90115991,
			"nomLat1": 2.000000,
			"nomLat2": 1.000000,
			"maxNomLat": 2.000000,
			"mincut": 8
		},
		{
			"s1": "Santa+Clara,+CA365",
			"s2": "Fort+Worth,+TX191",
			"t1": "Austin,+TX137",
			"t2": "Santa+Clara,+CA389",
			"suurballeNbPaths": 2,
			"suurballeTime": 4596737,
			"suurballePaths": {
				"path0": [
					"Fort+Worth,+TX191",
					"Fort+Worth,+TX189",
					"Austin,+TX137"
				],
				"lat0": 4.000000,
				"nbSeg0": 4,
				"path1": [
					"Santa+Clara,+CA365",
					"Santa+Clara,+CA431",
					"Santa+Clara,+CA443",
					"Santa+Clara,+CA389"
				],
				"lat1": 3.000000,
				"nbSeg1": 6
			},
			"pathsExist": false,
			"runtime": 91229253,
			"nomLat1": 20.000000,
			"nomLat2": 15.000000,
			"maxNomLat": 20.000000,
			"mincut": 8
		},
		{
			"s1": "Palo+Alto,+CA318",
			"s2": "London274",
			"t1": "Oak+Brook,+IL307",
			"t2": "Santa+Clara,+CA389",
			"suurballeNbPaths": 2,
			"suurballeTime": 4590103,
			"suurballePaths": {
				"path0": [
					"Palo+Alto,+CA318",
					"Palo+Alto,+CA317",
					"Santa+Clara,+CA388",
					"Santa+Clara,+CA389"
				],
				"lat0": 4.000000,
				"nbSeg0": 6,
				"path1": [
					"London274",
					"Weehawken,+NJ544",
					"Weehawken,+NJ552",
					"Oak+Brook,+IL300",
					"Oak+Brook,+IL307"
				],
				"lat1": 38.000000,
				"nbSeg1": 8
			},
			"pathsExist": false,
			"runtime": 89793561,
			"nomLat1": 23.000000,
			"nomLat2": 59.000000,
			"maxNomLat": 59.000000,
			"mincut": 12
		},
		{
			"s1": "Irvine,+CA212",
			"s2": "Weehawken,+NJ543",
			"t1": "Tukwila,+WA509",
			"t2": "Irvine,+CA231",
			"suurballeNbPaths": 2,
			"suurballeTime": 4254652,
			"suurballePaths": {
				"path0": [
					"Irvine,+CA212",
					"El+Segundo,+CA163",
					"El+Segundo,+CA164",
					"Irvine,+CA231"
				],
				"lat0": 5.000000,
				"nbSeg0": 6,
				"path1": [
					"Weehawken,+NJ543",
					"Oak+Brook,+IL300",
					"Oak+Brook,+IL301",
					"Chicago,+IL155",
					"Tukwila,+WA509"
				],
				"lat1": 25.000000,
				"nbSeg1": 8
			},
			"pathsExist": false,
			"runtime": 90494122,
			"nomLat1": 16.000000,
			"nomLat2": 33.000000,
			"maxNomLat": 33.000000,
			"mincut": 10
		},
		{
			"s1": "Oak+Brook,+IL300",
			"s2": "Santa+Clara,+CA404",
			"t1": "Atlanta,+GA126",
			"t2": "Fort+Worth,+TX190",
			"suurballeNbPaths": 2,
			"suurballeTime": 4651212,
			"suurballePaths": {
				"path0": [
					"Oak+Brook,+IL300",
					"Weehawken,+NJ543",
					"Atlanta,+GA127",
					"Atlanta,+GA126"
				],
				"lat0": 15.000000,
				"nbSeg0": 6,
				"path1": [
					"Santa+Clara,+CA404",
					"Santa+Clara,+CA403",
					"Fort+Worth,+TX189",
					"Fort+Worth,+TX190"
				],
				"lat1": 15.000000,
				"nbSeg1": 6
			},
			"pathsExist": false,
			"runtime": 90274535,
			"nomLat1": 20.000000,
			"nomLat2": 15.000000,
			"maxNomLat": 20.000000,
			"mincut": 14
		},
		{
			"s1": "Irvine,+CA231",
			"s2": "Santa+Clara,+CA364",
			"t1": "Chicago,+IL156",
			"t2": "Santa+Clara,+CA431",
			"suurballeNbPaths": 2,
			"suurballeTime": 5008552,
			"suurballePaths": {
				"path0": [
					"Santa+Clara,+CA364",
					"Santa+Clara,+CA431"
				],
				"lat0": 1.000000,
				"nbSeg0": 2,
				"path1": [
					"Irvine,+CA231",
					"Irvine,+CA228",
					"Fort+Worth,+TX189",
					"Chicago,+IL156"
				],
				"lat1": 20.000000,
				"nbSeg1": 5
			},
			"pathsExist": true,
			"path1": [
				"Irvine,+CA231",
				"Chicago,+IL156"
			],
			"lat1": 21.000000,
			"path2": [
				"Santa+Clara,+CA364",
				"Santa+Clara,+CA431"
			],
			"lat2": 1.000000,
			"maxlat": 21.000000,
			"runtime": 91966402,
			"nomLat1": 21.000000,
			"nomLat2": 1.000000,
			"maxNomLat": 21.000000,
			"mincut": 12
		},
		{
			"s1": "Tokyo526",
			"s2": "Oak+Brook,+IL300",
			"t1": "London277",
			"t2": "Herndon,+VA206",
			"suurballeNbPaths": 2,
			"suurballeTime": 4864329,
			"suurballePaths": {
				"path0": [
					"Oak+Brook,+IL300",
					"Weehawken,+NJ543",
					"Jersey+City,+NJ244",
					"London277"
				],
				"lat0": 38.000000,
				"nbSeg0": 6,
				"path1": [
					"Tokyo526",
					"Santa+Clara,+CA336",
					"Santa+Clara,+CA430",
					"Santa+Clara,+CA429",
					"Herndon,+VA496",
					"Herndon,+VA495",
					"Herndon,+VA208",
					"Herndon,+VA206"
				],
				"lat1": 69.000000,
				"nbSeg1": 14
			},
			"pathsExist": false,
			"runtime": 94616474,
			"nomLat1": 102.000000,
			"nomLat2": 13.000000,
			"maxNomLat": 102.000000,
			"mincut": 6
		},
		{
			"s1": "Jersey+City,+NJ261",
			"s2": "Irvine,+CA231",
			"t1": "Waltham,+MA568",
			"t2": "Austin,+TX136",
			"suurballeNbPaths": 2,
			"suurballeTime": 4829666,
			"suurballePaths": {
				"path0": [
					"Jersey+City,+NJ261",
					"Jersey+City,+NJ244",
					"Waltham,+MA568"
				],
				"lat0": 4.000000,
				"nbSeg0": 3,
				"path1": [
					"Irvine,+CA231",
					"Irvine,+CA228",
					"Fort+Worth,+TX190",
					"Austin,+TX136"
				],
				"lat1": 15.000000,
				"nbSeg1": 6
			},
			"pathsExist": false,
			"runtime": 92055311,
			"nomLat1": 5.000000,
			"nomLat2": 15.000000,
			"maxNomLat": 15.000000,
			"mincut": 8
		},
		{
			"s1": "Jersey+City,+NJ244",
			"s2": "Fort+Worth,+TX189",
			"t1": "Santa+Clara,+CA443",
			"t2": "Weehawken,+NJ543",
			"suurballeNbPaths": 2,
			"suurballeTime": 4783255,
			"suurballePaths": {
				"path0": [
					"Jersey+City,+NJ244",
					"Weehawken,+NJ543"
				],
				"lat0": 2.000000,
				"nbSeg0": 2,
				"path1": [
					"Fort+Worth,+TX189",
					"Santa+Clara,+CA403",
					"Santa+Clara,+CA404",
					"Santa+Clara,+CA443"
				],
				"lat1": 15.000000,
				"nbSeg1": 6
			},
			"pathsExist": false,
			"runtime": 91730494,
			"nomLat1": 29.000000,
			"nomLat2": 17.000000,
			"maxNomLat": 29.000000,
			"mincut": 22
		},
		{
			"s1": "Herndon,+VA208",
			"s2": "Weehawken,+NJ543",
			"t1": "London275",
			"t2": "Tukwila,+WA509",
			"suurballeNbPaths": 2,
			"suurballeTime": 4578075,
			"suurballePaths": {
				"path0": [
					"Herndon,+VA208",
					"Herndon,+VA495",
					"Weehawken,+NJ544",
					"London275"
				],
				"lat0": 33.000000,
				"nbSeg0": 6,
				"path1": [
					"Weehawken,+NJ543",
					"Oak+Brook,+IL300",
					"Oak+Brook,+IL301",
					"Chicago,+IL155",
					"Tukwila,+WA509"
				],
				"lat1": 25.000000,
				"nbSeg1": 8
			},
			"pathsExist": false,
			"runtime": 92814970,
			"nomLat1": 37.000000,
			"nomLat2": 25.000000,
			"maxNomLat": 37.000000,
			"mincut": 10
		},
		{
			"s1": "Santa+Clara,+CA405",
			"s2": "Irvine,+CA213",
			"t1": "Santa+Clara,+CA363",
			"t2": "Herndon,+VA208",
			"suurballeNbPaths": 2,
			"suurballeTime": 4919279,
			"suurballePaths": {
				"path0": [
					"Irvine,+CA213",
					"Santa+Clara,+CA404",
					"Santa+Clara,+CA443",
					"Santa+Clara,+CA431",
					"Santa+Clara,+CA363"
				],
				"lat0": 7.000000,
				"nbSeg0": 7,
				"path1": [
					"Santa+Clara,+CA405",
					"Santa+Clara,+CA403",
					"Santa+Clara,+CA429",
					"Herndon,+VA496",
					"Herndon,+VA495",
					"Herndon,+VA208"
				],
				"lat1": 25.000000,
				"nbSeg1": 10
			},
			"pathsExist": false,
			"runtime": 73982502,
			"nomLat1": 7.000000,
			"nomLat2": 30.000000,
			"maxNomLat": 30.000000,
			"mincut": 10
		},
		{
			"s1": "Weehawken,+NJ544",
			"s2": "Tokyo526",
			"t1": "Waltham,+MA555",
			"t2": "Santa+Clara,+CA403",
			"suurballeNbPaths": 2,
			"suurballeTime": 4577781,
			"suurballePaths": {
				"path0": [
					"Tokyo526",
					"Tokyo525",
					"Santa+Clara,+CA404",
					"Santa+Clara,+CA403"
				],
				"lat0": 45.000000,
				"nbSeg0": 6,
				"path1": [
					"Weehawken,+NJ544",
					"Jersey+City,+NJ245",
					"Jersey+City,+NJ244",
					"Waltham,+MA568",
					"Waltham,+MA555"
				],
				"lat1": 7.000000,
				"nbSeg1": 7
			},
			"pathsExist": false,
			"runtime": 94961151,
			"nomLat1": 8.000000,
			"nomLat2": 45.000000,
			"maxNomLat": 45.000000,
			"mincut": 18
		},
		{
			"s1": "Santa+Clara,+CA429",
			"s2": "Waltham,+MA556",
			"t1": "Santa+Clara,+CA430",
			"t2": "Irvine,+CA237",
			"suurballeNbPaths": 2,
			"suurballeTime": 4914318,
			"suurballePaths": {
				"path0": [
					"Santa+Clara,+CA429",
					"Santa+Clara,+CA430"
				],
				"lat0": 1.000000,
				"nbSeg0": 2,
				"path1": [
					"Waltham,+MA556",
					"Oak+Brook,+IL300",
					"Chicago,+IL156",
					"Fort+Worth,+TX189",
					"Irvine,+CA228",
					"Irvine,+CA237"
				],
				"lat1": 30.000000,
				"nbSeg1": 9
			},
			"pathsExist": false,
			"runtime": 94753337,
			"nomLat1": 1.000000,
			"nomLat2": 31.000000,
			"maxNomLat": 31.000000,
			"mincut": 14
		},
		{
			"s1": "San+Jose,+CA471",
			"s2": "Waltham,+MA556",
			"t1": "Santa+Clara,+CA364",
			"t2": "Tokyo526",
			"suurballeNbPaths": 2,
			"suurballeTime": 3964689,
			"suurballePaths": {
				"path0": [
					"San+Jose,+CA471",
					"San+Jose,+CA472",
					"Santa+Clara,+CA430",
					"Santa+Clara,+CA364"
				],
				"lat0": 4.000000,
				"nbSeg0": 6,
				"path1": [
					"Waltham,+MA556",
					"Oak+Brook,+IL300",
					"Oak+Brook,+IL301",
					"San+Jose,+CA471",
					"San+Jose,+CA472",
					"Santa+Clara,+CA430",
					"Santa+Clara,+CA336",
					"Tokyo526"
				],
				"lat1": 72.000000,
				"nbSeg1": 14
			},
			"pathsExist": false,
			"runtime": 94121955,
			"nomLat1": 4.000000,
			"nomLat2": 79.000000,
			"maxNomLat": 79.000000,
			"mincut": 12
		},
		{
			"s1": "Toronto,+Canada537",
			"s2": "Oak+Brook,+IL307",
			"t1": "Oak+Brook,+IL310",
			"t2": "Tokyo525",
			"suurballeNbPaths": 2,
			"suurballeTime": 7542207,
			"suurballePaths": {
				"path0": [
					"Toronto,+Canada537",
					"Waltham,+MA555",
					"Oak+Brook,+IL300",
					"Oak+Brook,+IL310"
				],
				"lat0": 11.000000,
				"nbSeg0": 5,
				"path1": [
					"Oak+Brook,+IL307",
					"Oak+Brook,+IL301",
					"San+Jose,+CA471",
					"Santa+Clara,+CA444",
					"Santa+Clara,+CA404",
					"Tokyo525"
				],
				"lat1": 63.000000,
				"nbSeg1": 10
			},
			"pathsExist": false,
			"runtime": 1588911,
			"nomLat1": 12.000000,
			"nomLat2": 64.000000,
			"maxNomLat": 64.000000,
			"mincut": 8
		},
		{
			"s1": "Waltham,+MA569",
			"s2": "Santa+Clara,+CA389",
			"t1": "Palo+Alto,+CA317",
			"t2": "Tukwila,+WA508",
			"suurballeNbPaths": 2,
			"suurballeTime": 7457085,
			"suurballePaths": {
				"path0": [
					"Santa+Clara,+CA389",
					"Santa+Clara,+CA388",
					"Palo+Alto,+CA317"
				],
				"lat0": 3.000000,
				"nbSeg0": 4,
				"path1": [
					"Waltham,+MA569",
					"Waltham,+MA556",
					"Oak+Brook,+IL300",
					"Oak+Brook,+IL301",
					"Chicago,+IL155",
					"Tukwila,+WA508"
				],
				"lat1": 27.000000,
				"nbSeg1": 8
			},
			"pathsExist": false,
			"runtime": 1745043,
			"nomLat1": 35.000000,
			"nomLat2": 10.000000,
			"maxNomLat": 35.000000,
			"mincut": 14
		},
		{
			"s1": "Santa+Clara,+CA365",
			"s2": "Jersey+City,+NJ245",
			"t1": "Oak+Brook,+IL300",
			"t2": "San+Jose,+CA459",
			"suurballeNbPaths": 2,
			"suurballeTime": 7167929,
			"suurballePaths": {
				"path0": [
					"Santa+Clara,+CA365",
					"Santa+Clara,+CA431",
					"Santa+Clara,+CA429",
					"San+Jose,+CA459"
				],
				"lat0": 4.000000,
				"nbSeg0": 6,
				"path1": [
					"Jersey+City,+NJ245",
					"Weehawken,+NJ544",
					"Weehawken,+NJ552",
					"Oak+Brook,+IL300"
				],
				"lat1": 10.000000,
				"nbSeg1": 6
			},
			"pathsExist": false,
			"runtime": 1626657,
			"nomLat1": 23.000000,
			"nomLat2": 29.000000,
			"maxNomLat": 29.000000,
			"mincut": 16
		},
		{
			"s1": "Santa+Clara,+CA388",
			"s2": "Austin,+TX137",
			"t1": "Santa+Clara,+CA444",
			"t2": "Austin,+TX136",
			"suurballeNbPaths": 2,
			"suurballeTime": 7534582,
			"suurballePaths": {
				"path0": [
					"Santa+Clara,+CA388",
					"Santa+Clara,+CA389",
					"Santa+Clara,+CA403",
					"Santa+Clara,+CA444"
				],
				"lat0": 3.000000,
				"nbSeg0": 6,
				"path1": [
					"Austin,+TX137",
					"Fort+Worth,+TX189",
					"Fort+Worth,+TX190",
					"Austin,+TX136"
				],
				"lat1": 7.000000,
				"nbSeg1": 6
			},
			"pathsExist": false,
			"runtime": 1807628,
			"nomLat1": 5.000000,
			"nomLat2": 7.000000,
			"maxNomLat": 7.000000,
			"mincut": 12
		},
		{
			"s1": "Santa+Clara,+CA364",
			"s2": "Tukwila,+WA509",
			"t1": "Palo+Alto,+CA317",
			"t2": "Weehawken,+NJ552",
			"suurballeNbPaths": 2,
			"suurballeTime": 5879808,
			"suurballePaths": {
				"path0": [
					"Santa+Clara,+CA364",
					"Palo+Alto,+CA318",
					"Palo+Alto,+CA317"
				],
				"lat0": 3.000000,
				"nbSeg0": 4,
				"path1": [
					"Tukwila,+WA509",
					"Chicago,+IL155",
					"Chicago,+IL156",
					"Oak+Brook,+IL300",
					"Weehawken,+NJ552"
				],
				"lat1": 25.000000,
				"nbSeg1": 8
			},
			"pathsExist": false,
			"runtime": 4196734,
			"nomLat1": 3.000000,
			"nomLat2": 25.000000,
			"maxNomLat": 25.000000,
			"mincut": 10
		},
		{
			"s1": "Fort+Worth,+TX190",
			"s2": "Atlanta,+GA126",
			"t1": "Jersey+City,+NJ245",
			"t2": "London276",
			"suurballeNbPaths": 2,
			"suurballeTime": 9528879,
			"suurballePaths": {
				"path0": [
					"Fort+Worth,+TX190",
					"Atlanta,+GA127",
					"Weehawken,+NJ543",
					"Jersey+City,+NJ244",
					"Jersey+City,+NJ245"
				],
				"lat0": 18.000000,
				"nbSeg0": 8,
				"path1": [
					"Atlanta,+GA126",
					"Atlanta,+GA127",
					"Weehawken,+NJ543",
					"Weehawken,+NJ544",
					"London276"
				],
				"lat1": 38.000000,
				"nbSeg1": 8
			},
			"pathsExist": false,
			"runtime": 1890416,
			"nomLat1": 22.000000,
			"nomLat2": 42.000000,
			"maxNomLat": 42.000000,
			"mincut": 12
		},
		{
			"s1": "Palo+Alto,+CA317",
			"s2": "Palo+Alto,+CA104",
			"t1": "El+Segundo,+CA164",
			"t2": "Herndon,+VA496",
			"suurballeNbPaths": 2,
			"suurballeTime": 6035214,
			"suurballePaths": {
				"path0": [
					"Palo+Alto,+CA104",
					"Santa+Clara,+CA403",
					"El+Segundo,+CA164"
				],
				"lat0": 6.000000,
				"nbSeg0": 4,
				"path1": [
					"Palo+Alto,+CA317",
					"Palo+Alto,+CA104",
					"Santa+Clara,+CA403",
					"Santa+Clara,+CA429",
					"Herndon,+VA496"
				],
				"lat1": 25.000000,
				"nbSeg1": 8
			},
			"pathsExist": false,
			"runtime": 4318506,
			"nomLat1": 8.000000,
			"nomLat2": 24.000000,
			"maxNomLat": 24.000000,
			"mincut": 12
		},
		{
			"s1": "Weehawken,+NJ552",
			"s2": "Chicago,+IL155",
			"t1": "London277",
			"t2": "Herndon,+VA495",
			"suurballeNbPaths": 2,
			"suurballeTime": 6208351,
			"suurballePaths": {
				"path0": [
					"Weehawken,+NJ552",
					"Weehawken,+NJ544",
					"Herndon,+VA495"
				],
				"lat0": 4.000000,
				"nbSeg0": 4,
				"path1": [
					"Chicago,+IL155",
					"Chicago,+IL156",
					"Oak+Brook,+IL300",
					"Weehawken,+NJ543",
					"Jersey+City,+NJ244",
					"London277"
				],
				"lat1": 41.000000,
				"nbSeg1": 10
			},
			"pathsExist": false,
			"runtime": 4210305,
			"nomLat1": 32.000000,
			"nomLat2": 14.000000,
			"maxNomLat": 32.000000,
			"mincut": 8
		},
		{
			"s1": "Herndon,+VA193",
			"s2": "Santa+Clara,+CA363",
			"t1": "Fort+Worth,+TX189",
			"t2": "Austin,+TX137",
			"suurballeNbPaths": 2,
			"suurballeTime": 5659012,
			"suurballePaths": {
				"path0": [
					"Herndon,+VA193",
					"Atlanta,+GA127",
					"Fort+Worth,+TX190",
					"Fort+Worth,+TX189"
				],
				"lat0": 15.000000,
				"nbSeg0": 6,
				"path1": [
					"Santa+Clara,+CA363",
					"Santa+Clara,+CA431",
					"Santa+Clara,+CA443",
					"Santa+Clara,+CA404",
					"El+Segundo,+CA163",
					"Austin,+TX137"
				],
				"lat1": 18.000000,
				"nbSeg1": 10
			},
			"pathsExist": false,
			"runtime": 4803245,
			"nomLat1": 16.000000,
			"nomLat2": 22.000000,
			"maxNomLat": 22.000000,
			"mincut": 10
		},
		{
			"s1": "Irvine,+CA212",
			"s2": "Weehawken,+NJ544",
			"t1": "Toronto,+Canada538",
			"t2": "Palo+Alto,+CA318",
			"suurballeNbPaths": 2,
			"suurballeTime": 6327889,
			"suurballePaths": {
				"path0": [
					"Weehawken,+NJ544",
					"Weehawken,+NJ552",
					"Oak+Brook,+IL300",
					"Toronto,+Canada538"
				],
				"lat0": 16.000000,
				"nbSeg0": 6,
				"path1": [
					"Irvine,+CA212",
					"El+Segundo,+CA163",
					"Santa+Clara,+CA404",
					"Santa+Clara,+CA430",
					"Santa+Clara,+CA364",
					"Palo+Alto,+CA318"
				],
				"lat1": 10.000000,
				"nbSeg1": 10
			},
			"pathsExist": false,
			"runtime": 4892149,
			"nomLat1": 35.000000,
			"nomLat2": 30.000000,
			"maxNomLat": 35.000000,
			"mincut": 8
		},
		{
			"s1": "Oak+Brook,+IL309",
			"s2": "Santa+Clara,+CA365",
			"t1": "Santa+Clara,+CA444",
			"t2": "Irvine,+CA231",
			"suurballeNbPaths": 2,
			"suurballeTime": 5794064,
			"suurballePaths": {
				"path0": [
					"Santa+Clara,+CA365",
					"Santa+Clara,+CA431",
					"Santa+Clara,+CA443",
					"Santa+Clara,+CA444"
				],
				"lat0": 3.000000,
				"nbSeg0": 6,
				"path1": [
					"Oak+Brook,+IL309",
					"Oak+Brook,+IL300",
					"Chicago,+IL156",
					"Fort+Worth,+TX189",
					"Irvine,+CA228",
					"Irvine,+CA231"
				],
				"lat1": 23.000000,
				"nbSeg1": 9
			},
			"pathsExist": false,
			"runtime": 4937598,
			"nomLat1": 19.000000,
			"nomLat2": 11.000000,
			"maxNomLat": 19.000000,
			"mincut": 8
		},
		{
			"s1": "Waltham,+MA556",
			"s2": "Palo+Alto,+CA317",
			"t1": "Weehawken,+NJ544",
			"t2": "Santa+Clara,+CA443",
			"suurballeNbPaths": 2,
			"suurballeTime": 5804161,
			"suurballePaths": {
				"path0": [
					"Palo+Alto,+CA317",
					"Palo+Alto,+CA104",
					"Santa+Clara,+CA444",
					"Santa+Clara,+CA443"
				],
				"lat0": 4.000000,
				"nbSeg0": 6,
				"path1": [
					"Waltham,+MA556",
					"Waltham,+MA569",
					"Jersey+City,+NJ244",
					"Jersey+City,+NJ245",
					"Weehawken,+NJ544"
				],
				"lat1": 7.000000,
				"nbSeg1": 7
			},
			"pathsExist": false,
			"runtime": 4992121,
			"nomLat1": 9.000000,
			"nomLat2": 4.000000,
			"maxNomLat": 9.000000,
			"mincut": 14
		},
		{
			"s1": "Santa+Clara,+CA403",
			"s2": "San+Jose,+CA471",
			"t1": "Tokyo526",
			"t2": "Palo+Alto,+CA317",
			"suurballeNbPaths": 2,
			"suurballeTime": 6275592,
			"suurballePaths": {
				"path0": [
					"Santa+Clara,+CA403",
					"Palo+Alto,+CA104",
					"Palo+Alto,+CA317"
				],
				"lat0": 3.000000,
				"nbSeg0": 4,
				"path1": [
					"San+Jose,+CA471",
					"San+Jose,+CA472",
					"Santa+Clara,+CA430",
					"Santa+Clara,+CA336",
					"Tokyo526"
				],
				"lat1": 47.000000,
				"nbSeg1": 8
			},
			"pathsExist": false,
			"runtime": 4233463,
			"nomLat1": 45.000000,
			"nomLat2": 5.000000,
			"maxNomLat": 45.000000,
			"mincut": 12
		},
		{
			"s1": "San+Jose,+CA471",
			"s2": "Tokyo525",
			"t1": "Waltham,+MA569",
			"t2": "Santa+Clara,+CA364",
			"suurballeNbPaths": 2,
			"suurballeTime": 9803699,
			"suurballePaths": {
				"path0": [
					"Tokyo525",
					"Santa+Clara,+CA404",
					"Santa+Clara,+CA430",
					"Santa+Clara,+CA364"
				],
				"lat0": 45.000000,
				"nbSeg0": 6,
				"path1": [
					"San+Jose,+CA471",
					"Oak+Brook,+IL301",
					"Oak+Brook,+IL300",
					"Waltham,+MA556",
					"Waltham,+MA569"
				],
				"lat1": 26.000000,
				"nbSeg1": 7
			},
			"pathsExist": false,
			"runtime": 2233009,
			"nomLat1": 29.000000,
			"nomLat2": 49.000000,
			"maxNomLat": 49.000000,
			"mincut": 12
		},
		{
			"s1": "Santa+Clara,+CA365",
			"s2": "Atlanta,+GA133",
			"t1": "Santa+Clara,+CA443",
			"t2": "Toronto,+Canada538",
			"suurballeNbPaths": 2,
			"suurballeTime": 10774068,
			"suurballePaths": {
				"path0": [
					"Santa+Clara,+CA365",
					"Santa+Clara,+CA431",
					"Santa+Clara,+CA443"
				],
				"lat0": 2.000000,
				"nbSeg0": 4,
				"path1": [
					"Atlanta,+GA133",
					"Atlanta,+GA127",
					"Weehawken,+NJ543",
					"Oak+Brook,+IL300",
					"Toronto,+Canada538"
				],
				"lat1": 23.000000,
				"nbSeg1": 8
			},
			"pathsExist": false,
			"runtime": 2227896,
			"nomLat1": 5.000000,
			"nomLat2": 28.000000,
			"maxNomLat": 28.000000,
			"mincut": 8
		},
		{
			"s1": "Oak+Brook,+IL300",
			"s2": "London274",
			"t1": "Herndon,+VA208",
			"t2": "Santa+Clara,+CA443",
			"suurballeNbPaths": 2,
			"suurballeTime": 10376475,
			"suurballePaths": {
				"path0": [
					"London274",
					"Weehawken,+NJ544",
					"Herndon,+VA495",
					"Herndon,+VA208"
				],
				"lat0": 33.000000,
				"nbSeg0": 6,
				"path1": [
					"Oak+Brook,+IL300",
					"Oak+Brook,+IL301",
					"San+Jose,+CA471",
					"Santa+Clara,+CA444",
					"Santa+Clara,+CA443"
				],
				"lat1": 20.000000,
				"nbSeg1": 8
			},
			"pathsExist": false,
			"runtime": 2131337,
			"nomLat1": 14.000000,
			"nomLat2": 58.000000,
			"maxNomLat": 58.000000,
			"mincut": 16
		},
		{
			"s1": "New+York,+NY293",
			"s2": "Frankfurt184",
			"t1": "Fort+Worth,+TX190",
			"t2": "Chicago,+IL155",
			"suurballeNbPaths": 2,
			"suurballeTime": 9594950,
			"suurballePaths": {
				"path0": [
					"New+York,+NY293",
					"Weehawken,+NJ543",
					"Atlanta,+GA127",
					"Fort+Worth,+TX190"
				],
				"lat0": 17.000000,
				"nbSeg0": 5,
				"path1": [
					"Frankfurt184",
					"Jersey+City,+NJ244",
					"Weehawken,+NJ543",
					"Oak+Brook,+IL300",
					"Oak+Brook,+IL301",
					"Chicago,+IL155"
				],
				"lat1": 44.000000,
				"nbSeg1": 10
			},
			"pathsExist": false,
			"runtime": 1682921,
			"nomLat1": 25.000000,
			"nomLat2": 44.000000,
			"maxNomLat": 44.000000,
			"mincut": 10
		},
		{
			"s1": "Herndon,+VA193",
			"s2": "London275",
			"t1": "Irvine,+CA213",
			"t2": "Amsterdam119",
			"suurballeNbPaths": 2,
			"suurballeTime": 13093764,
			"suurballePaths": {
				"path0": [
					"London275",
					"Amsterdam119"
				],
				"lat0": 3.000000,
				"nbSeg0": 2,
				"path1": [
					"Herndon,+VA193",
					"Atlanta,+GA127",
					"Fort+Worth,+TX190",
					"Irvine,+CA228",
					"Irvine,+CA213"
				],
				"lat1": 26.000000,
				"nbSeg1": 8
			},
			"pathsExist": false,
			"runtime": 1557999,
			"nomLat1": 27.000000,
			"nomLat2": 3.000000,
			"maxNomLat": 27.000000,
			"mincut": 10
		},
		{
			"s1": "Santa+Clara,+CA431",
			"s2": "Chicago,+IL156",
			"t1": "Santa+Clara,+CA389",
			"t2": "Waltham,+MA556",
			"suurballeNbPaths": 2,
			"suurballeTime": 14126835,
			"suurballePaths": {
				"path0": [
					"Santa+Clara,+CA431",
					"Santa+Clara,+CA443",
					"Santa+Clara,+CA389"
				],
				"lat0": 2.000000,
				"nbSeg0": 4,
				"path1": [
					"Chicago,+IL156",
					"Oak+Brook,+IL300",
					"Waltham,+MA556"
				],
				"lat1": 10.000000,
				"nbSeg1": 4
			},
			"pathsExist": true,
			"path1": [
				"Santa+Clara,+CA431",
				"Santa+Clara,+CA389"
			],
			"lat1": 4.000000,
			"path2": [
				"Chicago,+IL156",
				"Waltham,+MA556"
			],
			"lat2": 10.000000,
			"maxlat": 10.000000,
			"runtime": 545748,
			"nomLat1": 4.000000,
			"nomLat2": 10.000000,
			"maxNomLat": 10.000000,
			"mincut": 16
		},
		{
			"s1": "Santa+Clara,+CA403",
			"s2": "Oak+Brook,+IL309",
			"t1": "New+York,+NY293",
			"t2": "Fort+Worth,+TX189",
			"suurballeNbPaths": 2,
			"suurballeTime": 13873901,
			"suurballePaths": {
				"path0": [
					"Santa+Clara,+CA403",
					"Fort+Worth,+TX189"
				],
				"lat0": 13.000000,
				"nbSeg0": 2,
				"path1": [
					"Oak+Brook,+IL309",
					"Oak+Brook,+IL300",
					"Weehawken,+NJ543",
					"New+York,+NY293"
				],
				"lat1": 10.000000,
				"nbSeg1": 5
			},
			"pathsExist": false,
			"runtime": 2199161,
			"nomLat1": 39.000000,
			"nomLat2": 11.000000,
			"maxNomLat": 39.000000,
			"mincut": 20
		},
		{
			"s1": "Tokyo526",
			"s2": "Santa+Clara,+CA388",
			"t1": "Santa+Clara,+CA365",
			"t2": "Austin,+TX136",
			"suurballeNbPaths": 2,
			"suurballeTime": 3918587,
			"suurballePaths": {
				"path0": [
					"Santa+Clara,+CA388",
					"Santa+Clara,+CA389",
					"Santa+Clara,+CA443",
					"Santa+Clara,+CA431",
					"Santa+Clara,+CA365"
				],
				"lat0": 4.000000,
				"nbSeg0": 8,
				"path1": [
					"Tokyo526",
					"Tokyo525",
					"Santa+Clara,+CA404",
					"Santa+Clara,+CA403",
					"Fort+Worth,+TX189",
					"Fort+Worth,+TX190",
					"Austin,+TX136"
				],
				"lat1": 62.000000,
				"nbSeg1": 12
			},
			"pathsExist": false,
			"runtime": 2879342,
			"nomLat1": 48.000000,
			"nomLat2": 19.000000,
			"maxNomLat": 48.000000,
			"mincut": 6
		}
	],
	"demandsWithSol": 3
}
