{
	"nbDemands": 90,
	"demands": [
		{
			"s1": "London274",
			"s2": "Toronto,+Canada537",
			"t1": "Oak+Brook,+IL309",
			"t2": "Herndon,+VA208",
			"suurballeNbPaths": 2,
			"suurballeTime": 154067237,
			"suurballePaths": {
				"path0": [
					"London274",
					"Weehawken,+NJ544",
					"Herndon,+VA495",
					"Herndon,+VA208"
				],
				"lat0": 33.000000,
				"nbSeg0": 6,
				"path1": [
					"Toronto,+Canada537",
					"Waltham,+MA555",
					"Oak+Brook,+IL300",
					"Oak+Brook,+IL309"
				],
				"lat1": 11.000000,
				"nbSeg1": 5
			},
			"pathsExist": false,
			"runtime": 493615144,
			"nomLat1": 41.000000,
			"nomLat2": 16.000000,
			"maxNomLat": 41.000000,
			"mincut": 8
		},
		{
			"s1": "London277",
			"s2": "Irvine,+CA229",
			"t1": "Santa+Clara,+CA429",
			"t2": "Waltham,+MA555",
			"suurballeNbPaths": 2,
			"suurballeTime": 5232503,
			"suurballePaths": {
				"path0": [
					"London277",
					"Jersey+City,+NJ244",
					"Waltham,+MA568",
					"Waltham,+MA555"
				],
				"lat0": 33.000000,
				"nbSeg0": 5,
				"path1": [
					"Irvine,+CA229",
					"El+Segundo,+CA164",
					"Santa+Clara,+CA403",
					"Santa+Clara,+CA429"
				],
				"lat1": 7.000000,
				"nbSeg1": 6
			},
			"pathsExist": false,
			"runtime": 997487941,
			"nomLat1": 57.000000,
			"nomLat2": 32.000000,
			"maxNomLat": 57.000000,
			"mincut": 8
		},
		{
			"s1": "Toronto,+Canada537",
			"s2": "Tukwila,+WA508",
			"t1": "Irvine,+CA213",
			"t2": "Palo+Alto,+CA104",
			"suurballeNbPaths": 2,
			"suurballeTime": 5731304,
			"suurballePaths": {
				"path0": [
					"Tukwila,+WA508",
					"Santa+Clara,+CA429",
					"Santa+Clara,+CA403",
					"Palo+Alto,+CA104"
				],
				"lat0": 10.000000,
				"nbSeg0": 6,
				"path1": [
					"Toronto,+Canada537",
					"Waltham,+MA555",
					"Oak+Brook,+IL300",
					"Chicago,+IL156",
					"Fort+Worth,+TX189",
					"Irvine,+CA228",
					"Irvine,+CA213"
				],
				"lat1": 32.000000,
				"nbSeg1": 10
			},
			"pathsExist": false,
			"runtime": 1075769397,
			"nomLat1": 34.000000,
			"nomLat2": 10.000000,
			"maxNomLat": 34.000000,
			"mincut": 8
		},
		{
			"s1": "Chicago,+IL155",
			"s2": "Austin,+TX136",
			"t1": "Santa+Clara,+CA336",
			"t2": "Atlanta,+GA133",
			"suurballeNbPaths": 2,
			"suurballeTime": 5090401,
			"suurballePaths": {
				"path0": [
					"Austin,+TX136",
					"Fort+Worth,+TX190",
					"Atlanta,+GA127",
					"Atlanta,+GA133"
				],
				"lat0": 12.000000,
				"nbSeg0": 6,
				"path1": [
					"Chicago,+IL155",
					"Oak+Brook,+IL301",
					"San+Jose,+CA471",
					"San+Jose,+CA472",
					"Santa+Clara,+CA430",
					"Santa+Clara,+CA336"
				],
				"lat1": 22.000000,
				"nbSeg1": 10
			},
			"pathsExist": false,
			"runtime": 1801207095,
			"nomLat1": 25.000000,
			"nomLat2": 12.000000,
			"maxNomLat": 25.000000,
			"mincut": 8
		},
		{
			"s1": "Santa+Clara,+CA365",
			"s2": "Atlanta,+GA133",
			"t1": "Santa+Clara,+CA431",
			"t2": "Oak+Brook,+IL309",
			"suurballeNbPaths": 2,
			"suurballeTime": 4180199,
			"suurballePaths": {
				"path0": [
					"Santa+Clara,+CA365",
					"Santa+Clara,+CA431"
				],
				"lat0": 1.000000,
				"nbSeg0": 2,
				"path1": [
					"Atlanta,+GA133",
					"Atlanta,+GA127",
					"Weehawken,+NJ543",
					"Oak+Brook,+IL300",
					"Oak+Brook,+IL309"
				],
				"lat1": 16.000000,
				"nbSeg1": 8
			},
			"pathsExist": true,
			"path1": [
				"Santa+Clara,+CA365",
				"Santa+Clara,+CA431"
			],
			"lat1": 1.000000,
			"path2": [
				"Atlanta,+GA133",
				"New+York,+NY293",
				"New+York,+NY294",
				"Oak+Brook,+IL309"
			],
			"lat2": 29.000000,
			"maxlat": 29.000000,
			"runtime": 1909706906,
			"nomLat1": 1.000000,
			"nomLat2": 21.000000,
			"maxNomLat": 21.000000,
			"mincut": 8
		},
		{
			"s1": "San+Jose,+CA471",
			"s2": "Atlanta,+GA127",
			"t1": "Fort+Worth,+TX191",
			"t2": "Atlanta,+GA133",
			"suurballeNbPaths": 2,
			"suurballeTime": 4880129,
			"suurballePaths": {
				"path0": [
					"Atlanta,+GA127",
					"Atlanta,+GA133"
				],
				"lat0": 1.000000,
				"nbSeg0": 2,
				"path1": [
					"San+Jose,+CA471",
					"Santa+Clara,+CA444",
					"Santa+Clara,+CA403",
					"Fort+Worth,+TX189",
					"Fort+Worth,+TX191"
				],
				"lat1": 17.000000,
				"nbSeg1": 8
			},
			"pathsExist": true,
			"path1": [
				"San+Jose,+CA471",
				"Santa+Clara,+CA430",
				"Fort+Worth,+TX191"
			],
			"lat1": 19.000000,
			"path2": [
				"Atlanta,+GA127",
				"Atlanta,+GA133"
			],
			"lat2": 1.000000,
			"maxlat": 19.000000,
			"runtime": 2595334776,
			"nomLat1": 17.000000,
			"nomLat2": 1.000000,
			"maxNomLat": 17.000000,
			"mincut": 8
		},
		{
			"s1": "San+Jose,+CA471",
			"s2": "Weehawken,+NJ544",
			"t1": "Herndon,+VA495",
			"t2": "Weehawken,+NJ543",
			"suurballeNbPaths": 2,
			"suurballeTime": 5053543,
			"suurballePaths": {
				"path0": [
					"Weehawken,+NJ544",
					"Weehawken,+NJ543"
				],
				"lat0": 1.000000,
				"nbSeg0": 2,
				"path1": [
					"San+Jose,+CA471",
					"San+Jose,+CA472",
					"Santa+Clara,+CA430",
					"Santa+Clara,+CA429",
					"Herndon,+VA496",
					"Herndon,+VA495"
				],
				"lat1": 26.000000,
				"nbSeg1": 10
			},
			"pathsExist": true,
			"path1": [
				"San+Jose,+CA471",
				"Herndon,+VA495"
			],
			"lat1": 26.000000,
			"path2": [
				"Weehawken,+NJ544",
				"Weehawken,+NJ552",
				"Weehawken,+NJ543"
			],
			"lat2": 2.000000,
			"maxlat": 26.000000,
			"runtime": 13559981,
			"nomLat1": 26.000000,
			"nomLat2": 1.000000,
			"maxNomLat": 26.000000,
			"mincut": 18
		},
		{
			"s1": "Santa+Clara,+CA443",
			"s2": "Weehawken,+NJ544",
			"t1": "Tokyo525",
			"t2": "Oak+Brook,+IL300",
			"suurballeNbPaths": 2,
			"suurballeTime": 4525780,
			"suurballePaths": {
				"path0": [
					"Santa+Clara,+CA443",
					"Santa+Clara,+CA404",
					"Tokyo525"
				],
				"lat0": 44.000000,
				"nbSeg0": 4,
				"path1": [
					"Weehawken,+NJ544",
					"Weehawken,+NJ552",
					"Oak+Brook,+IL300"
				],
				"lat1": 8.000000,
				"nbSeg1": 4
			},
			"pathsExist": true,
			"path1": [
				"Santa+Clara,+CA443",
				"Santa+Clara,+CA430",
				"Santa+Clara,+CA404",
				"Tokyo525"
			],
			"lat1": 45.000000,
			"path2": [
				"Weehawken,+NJ544",
				"Oak+Brook,+IL300"
			],
			"lat2": 8.000000,
			"maxlat": 45.000000,
			"runtime": 2718619324,
			"nomLat1": 44.000000,
			"nomLat2": 8.000000,
			"maxNomLat": 44.000000,
			"mincut": 18
		},
		{
			"s1": "Oak+Brook,+IL310",
			"s2": "Irvine,+CA237",
			"t1": "Chicago,+IL156",
			"t2": "Jersey+City,+NJ261",
			"suurballeNbPaths": 2,
			"suurballeTime": 4704671,
			"suurballePaths": {
				"path0": [
					"Irvine,+CA237",
					"Irvine,+CA228",
					"Fort+Worth,+TX189",
					"Chicago,+IL156"
				],
				"lat0": 20.000000,
				"nbSeg0": 5,
				"path1": [
					"Oak+Brook,+IL310",
					"Oak+Brook,+IL300",
					"Weehawken,+NJ543",
					"Jersey+City,+NJ244",
					"Jersey+City,+NJ261"
				],
				"lat1": 11.000000,
				"nbSeg1": 8
			},
			"pathsExist": false,
			"runtime": 3065829436,
			"nomLat1": 3.000000,
			"nomLat2": 35.000000,
			"maxNomLat": 35.000000,
			"mincut": 8
		},
		{
			"s1": "New+York,+NY294",
			"s2": "El+Segundo,+CA163",
			"t1": "San+Jose,+CA460",
			"t2": "London274",
			"suurballeNbPaths": 2,
			"suurballeTime": 4790879,
			"suurballePaths": {
				"path0": [
					"New+York,+NY294",
					"Jersey+City,+NJ245",
					"London274"
				],
				"lat0": 31.000000,
				"nbSeg0": 4,
				"path1": [
					"El+Segundo,+CA163",
					"El+Segundo,+CA164",
					"Santa+Clara,+CA443",
					"San+Jose,+CA460"
				],
				"lat1": 7.000000,
				"nbSeg1": 6
			},
			"pathsExist": false,
			"runtime": 3450812847,
			"nomLat1": 31.000000,
			"nomLat2": 62.000000,
			"maxNomLat": 62.000000,
			"mincut": 14
		},
		{
			"s1": "Waltham,+MA556",
			"s2": "Tukwila,+WA509",
			"t1": "San+Jose,+CA472",
			"t2": "Jersey+City,+NJ261",
			"suurballeNbPaths": 2,
			"suurballeTime": 14666241,
			"suurballePaths": {
				"path0": [
					"Waltham,+MA556",
					"Waltham,+MA569",
					"Jersey+City,+NJ244",
					"Jersey+City,+NJ261"
				],
				"lat0": 5.000000,
				"nbSeg0": 5,
				"path1": [
					"Tukwila,+WA509",
					"Tukwila,+WA508",
					"Santa+Clara,+CA429",
					"Santa+Clara,+CA431",
					"San+Jose,+CA472"
				],
				"lat1": 11.000000,
				"nbSeg1": 8
			},
			"pathsExist": false,
			"runtime": 3740730106,
			"nomLat1": 26.000000,
			"nomLat2": 28.000000,
			"maxNomLat": 28.000000,
			"mincut": 10
		},
		{
			"s1": "Santa+Clara,+CA403",
			"s2": "Irvine,+CA230",
			"t1": "Santa+Clara,+CA443",
			"t2": "New+York,+NY293",
			"suurballeNbPaths": 2,
			"suurballeTime": 4699681,
			"suurballePaths": {
				"path0": [
					"Santa+Clara,+CA403",
					"Santa+Clara,+CA404",
					"Santa+Clara,+CA443"
				],
				"lat0": 2.000000,
				"nbSeg0": 4,
				"path1": [
					"Irvine,+CA230",
					"Irvine,+CA228",
					"Fort+Worth,+TX190",
					"Atlanta,+GA127",
					"Weehawken,+NJ543",
					"New+York,+NY293"
				],
				"lat1": 29.000000,
				"nbSeg1": 9
			},
			"pathsExist": true,
			"path1": [
				"Santa+Clara,+CA403",
				"Santa+Clara,+CA443"
			],
			"lat1": 2.000000,
			"path2": [
				"Irvine,+CA230",
				"Santa+Clara,+CA430",
				"Weehawken,+NJ544",
				"New+York,+NY293"
			],
			"lat2": 35.000000,
			"maxlat": 35.000000,
			"runtime": 4093456555,
			"nomLat1": 2.000000,
			"nomLat2": 37.000000,
			"maxNomLat": 37.000000,
			"mincut": 20
		},
		{
			"s1": "Tukwila,+WA509",
			"s2": "Frankfurt185",
			"t1": "New+York,+NY294",
			"t2": "Austin,+TX136",
			"suurballeNbPaths": 2,
			"suurballeTime": 15187097,
			"suurballePaths": {
				"path0": [
					"Frankfurt185",
					"Amsterdam119",
					"London275",
					"Jersey+City,+NJ245",
					"New+York,+NY294"
				],
				"lat0": 37.000000,
				"nbSeg0": 8,
				"path1": [
					"Tukwila,+WA509",
					"Tukwila,+WA508",
					"Santa+Clara,+CA429",
					"Santa+Clara,+CA403",
					"Fort+Worth,+TX189",
					"Fort+Worth,+TX190",
					"Austin,+TX136"
				],
				"lat1": 26.000000,
				"nbSeg1": 12
			},
			"pathsExist": false,
			"runtime": 1835616001,
			"nomLat1": 27.000000,
			"nomLat2": 60.000000,
			"maxNomLat": 60.000000,
			"mincut": 6
		},
		{
			"s1": "Tokyo525",
			"s2": "Frankfurt185",
			"t1": "Irvine,+CA228",
			"t2": "Santa+Clara,+CA389",
			"suurballeNbPaths": 2,
			"suurballeTime": 4534614,
			"suurballePaths": {
				"path0": [
					"Tokyo525",
					"Santa+Clara,+CA404",
					"Santa+Clara,+CA403",
					"Santa+Clara,+CA389"
				],
				"lat0": 45.000000,
				"nbSeg0": 6,
				"path1": [
					"Frankfurt185",
					"Amsterdam119",
					"London275",
					"Weehawken,+NJ544",
					"Weehawken,+NJ543",
					"Atlanta,+GA127",
					"Fort+Worth,+TX190",
					"Irvine,+CA228"
				],
				"lat1": 62.000000,
				"nbSeg1": 14
			},
			"pathsExist": false,
			"runtime": 1778716876,
			"nomLat1": 51.000000,
			"nomLat2": 65.000000,
			"maxNomLat": 65.000000,
			"mincut": 6
		},
		{
			"s1": "Waltham,+MA568",
			"s2": "Santa+Clara,+CA363",
			"t1": "Weehawken,+NJ543",
			"t2": "San+Jose,+CA472",
			"suurballeNbPaths": 2,
			"suurballeTime": 4620608,
			"suurballePaths": {
				"path0": [
					"Waltham,+MA568",
					"Jersey+City,+NJ244",
					"Weehawken,+NJ543"
				],
				"lat0": 5.000000,
				"nbSeg0": 3,
				"path1": [
					"Santa+Clara,+CA363",
					"Santa+Clara,+CA431",
					"San+Jose,+CA472"
				],
				"lat1": 3.000000,
				"nbSeg1": 4
			},
			"pathsExist": true,
			"path1": [
				"Waltham,+MA568",
				"Oak+Brook,+IL300",
				"Weehawken,+NJ552",
				"Weehawken,+NJ543"
			],
			"lat1": 18.000000,
			"path2": [
				"Santa+Clara,+CA363",
				"San+Jose,+CA472"
			],
			"lat2": 3.000000,
			"maxlat": 18.000000,
			"runtime": 4980741293,
			"nomLat1": 6.000000,
			"nomLat2": 3.000000,
			"maxNomLat": 6.000000,
			"mincut": 10
		},
		{
			"s1": "Irvine,+CA212",
			"s2": "Chicago,+IL155",
			"t1": "Santa+Clara,+CA430",
			"t2": "Fort+Worth,+TX191",
			"suurballeNbPaths": 2,
			"suurballeTime": 14798585,
			"suurballePaths": {
				"path0": [
					"Irvine,+CA212",
					"El+Segundo,+CA163",
					"Santa+Clara,+CA404",
					"Santa+Clara,+CA430"
				],
				"lat0": 7.000000,
				"nbSeg0": 6,
				"path1": [
					"Chicago,+IL155",
					"Chicago,+IL156",
					"Fort+Worth,+TX189",
					"Fort+Worth,+TX191"
				],
				"lat1": 10.000000,
				"nbSeg1": 6
			},
			"pathsExist": false,
			"runtime": 1265498686,
			"nomLat1": 7.000000,
			"nomLat2": 10.000000,
			"maxNomLat": 10.000000,
			"mincut": 8
		},
		{
			"s1": "El+Segundo,+CA163",
			"s2": "Amsterdam119",
			"t1": "Toronto,+Canada537",
			"t2": "Atlanta,+GA127",
			"suurballeNbPaths": 2,
			"suurballeTime": 4730753,
			"suurballePaths": {
				"path0": [
					"El+Segundo,+CA163",
					"El+Segundo,+CA164",
					"Irvine,+CA229",
					"Fort+Worth,+TX190",
					"Atlanta,+GA127"
				],
				"lat0": 22.000000,
				"nbSeg0": 8,
				"path1": [
					"Amsterdam119",
					"London275",
					"Jersey+City,+NJ245",
					"Jersey+City,+NJ244",
					"Waltham,+MA568",
					"Waltham,+MA555",
					"Toronto,+Canada537"
				],
				"lat1": 39.000000,
				"nbSeg1": 11
			},
			"pathsExist": false,
			"runtime": 3162249414,
			"nomLat1": 36.000000,
			"nomLat2": 46.000000,
			"maxNomLat": 46.000000,
			"mincut": 10
		},
		{
			"s1": "Herndon,+VA495",
			"s2": "Jersey+City,+NJ245",
			"t1": "Chicago,+IL155",
			"t2": "Santa+Clara,+CA429",
			"suurballeNbPaths": 2,
			"suurballeTime": 4592288,
			"suurballePaths": {
				"path0": [
					"Herndon,+VA495",
					"Herndon,+VA496",
					"Santa+Clara,+CA429"
				],
				"lat0": 22.000000,
				"nbSeg0": 4,
				"path1": [
					"Jersey+City,+NJ245",
					"Weehawken,+NJ544",
					"Weehawken,+NJ552",
					"Oak+Brook,+IL300",
					"Oak+Brook,+IL301",
					"Chicago,+IL155"
				],
				"lat1": 13.000000,
				"nbSeg1": 10
			},
			"pathsExist": false,
			"runtime": 3307782644,
			"nomLat1": 14.000000,
			"nomLat2": 27.000000,
			"maxNomLat": 27.000000,
			"mincut": 10
		},
		{
			"s1": "Santa+Clara,+CA389",
			"s2": "Waltham,+MA568",
			"t1": "Tokyo525",
			"t2": "London274",
			"suurballeNbPaths": 2,
			"suurballeTime": 4776635,
			"suurballePaths": {
				"path0": [
					"Santa+Clara,+CA389",
					"Santa+Clara,+CA403",
					"Santa+Clara,+CA404",
					"Tokyo525"
				],
				"lat0": 45.000000,
				"nbSeg0": 6,
				"path1": [
					"Waltham,+MA568",
					"Jersey+City,+NJ244",
					"Jersey+City,+NJ245",
					"London274"
				],
				"lat1": 33.000000,
				"nbSeg1": 5
			},
			"pathsExist": false,
			"runtime": 8545504431,
			"nomLat1": 45.000000,
			"nomLat2": 34.000000,
			"maxNomLat": 45.000000,
			"mincut": 10
		},
		{
			"s1": "Santa+Clara,+CA405",
			"s2": "London274",
			"t1": "San+Jose,+CA472",
			"t2": "Tukwila,+WA508",
			"suurballeNbPaths": 2,
			"suurballeTime": 4706132,
			"suurballePaths": {
				"path0": [
					"Santa+Clara,+CA405",
					"Santa+Clara,+CA403",
					"Santa+Clara,+CA389",
					"San+Jose,+CA472"
				],
				"lat0": 4.000000,
				"nbSeg0": 6,
				"path1": [
					"London274",
					"Weehawken,+NJ544",
					"Weehawken,+NJ552",
					"Oak+Brook,+IL300",
					"Oak+Brook,+IL301",
					"Chicago,+IL155",
					"Tukwila,+WA508"
				],
				"lat1": 55.000000,
				"nbSeg1": 11
			},
			"pathsExist": false,
			"runtime": 7452701447,
			"nomLat1": 4.000000,
			"nomLat2": 59.000000,
			"maxNomLat": 59.000000,
			"mincut": 10
		},
		{
			"s1": "Irvine,+CA230",
			"s2": "Waltham,+MA569",
			"t1": "Irvine,+CA228",
			"t2": "Irvine,+CA213",
			"suurballeNbPaths": 2,
			"suurballeTime": 4984363,
			"suurballePaths": {
				"path0": [
					"Irvine,+CA230",
					"Irvine,+CA228"
				],
				"lat0": 1.000000,
				"nbSeg0": 2,
				"path1": [
					"Waltham,+MA569",
					"Waltham,+MA556",
					"Oak+Brook,+IL300",
					"Chicago,+IL156",
					"Fort+Worth,+TX189",
					"Irvine,+CA228"
				],
				"lat1": 30.000000,
				"nbSeg1": 8
			},
			"pathsExist": true,
			"path1": [
				"Irvine,+CA230",
				"Irvine,+CA228"
			],
			"lat1": 1.000000,
			"path2": [
				"Waltham,+MA569",
				"Waltham,+MA568",
				"Irvine,+CA213"
			],
			"lat2": 34.000000,
			"maxlat": 34.000000,
			"runtime": 16804918,
			"nomLat1": 1.000000,
			"nomLat2": 38.000000,
			"maxNomLat": 38.000000,
			"mincut": 10
		},
		{
			"s1": "Chicago,+IL156",
			"s2": "London277",
			"t1": "Santa+Clara,+CA364",
			"t2": "Jersey+City,+NJ244",
			"suurballeNbPaths": 2,
			"suurballeTime": 5046048,
			"suurballePaths": {
				"path0": [
					"London277",
					"Jersey+City,+NJ244"
				],
				"lat0": 29.000000,
				"nbSeg0": 2,
				"path1": [
					"Chicago,+IL156",
					"Oak+Brook,+IL300",
					"Oak+Brook,+IL301",
					"San+Jose,+CA471",
					"San+Jose,+CA472",
					"Santa+Clara,+CA430",
					"Santa+Clara,+CA364"
				],
				"lat1": 23.000000,
				"nbSeg1": 12
			},
			"pathsExist": false,
			"runtime": 3065277,
			"nomLat1": 26.000000,
			"nomLat2": 29.000000,
			"maxNomLat": 29.000000,
			"mincut": 8
		},
		{
			"s1": "Irvine,+CA237",
			"s2": "Santa+Clara,+CA430",
			"t1": "Santa+Clara,+CA365",
			"t2": "Oak+Brook,+IL315",
			"suurballeNbPaths": 2,
			"suurballeTime": 4874847,
			"suurballePaths": {
				"path0": [
					"Santa+Clara,+CA430",
					"Santa+Clara,+CA443",
					"Santa+Clara,+CA431",
					"Santa+Clara,+CA365"
				],
				"lat0": 3.000000,
				"nbSeg0": 6,
				"path1": [
					"Irvine,+CA237",
					"Irvine,+CA228",
					"Fort+Worth,+TX189",
					"Chicago,+IL156",
					"Oak+Brook,+IL300",
					"Oak+Brook,+IL315"
				],
				"lat1": 23.000000,
				"nbSeg1": 9
			},
			"pathsExist": true,
			"path1": [
				"Irvine,+CA237",
				"Irvine,+CA231",
				"Fort+Worth,+TX190",
				"Santa+Clara,+CA365"
			],
			"lat1": 31.000000,
			"path2": [
				"Santa+Clara,+CA430",
				"San+Jose,+CA471",
				"Oak+Brook,+IL315"
			],
			"lat2": 20.000000,
			"maxlat": 31.000000,
			"runtime": 8368236675,
			"nomLat1": 12.000000,
			"nomLat2": 27.000000,
			"maxNomLat": 27.000000,
			"mincut": 12
		},
		{
			"s1": "Irvine,+CA228",
			"s2": "Herndon,+VA206",
			"t1": "Santa+Clara,+CA364",
			"t2": "Austin,+TX136",
			"suurballeNbPaths": 2,
			"suurballeTime": 4791060,
			"suurballePaths": {
				"path0": [
					"Irvine,+CA228",
					"Irvine,+CA213",
					"Santa+Clara,+CA404",
					"Santa+Clara,+CA430",
					"Santa+Clara,+CA364"
				],
				"lat0": 7.000000,
				"nbSeg0": 7,
				"path1": [
					"Herndon,+VA206",
					"Herndon,+VA208",
					"Herndon,+VA495",
					"Herndon,+VA496",
					"Herndon,+VA193",
					"Atlanta,+GA127",
					"Fort+Worth,+TX190",
					"Austin,+TX136"
				],
				"lat1": 21.000000,
				"nbSeg1": 14
			},
			"pathsExist": false,
			"runtime": 9720266490,
			"nomLat1": 9.000000,
			"nomLat2": 31.000000,
			"maxNomLat": 31.000000,
			"mincut": 8
		},
		{
			"s1": "Santa+Clara,+CA363",
			"s2": "Santa+Clara,+CA431",
			"t1": "London276",
			"t2": "Weehawken,+NJ544",
			"suurballeNbPaths": 2,
			"suurballeTime": 17783329,
			"suurballePaths": {
				"path0": [
					"Santa+Clara,+CA431",
					"Santa+Clara,+CA429",
					"Herndon,+VA496",
					"Herndon,+VA495",
					"Weehawken,+NJ544"
				],
				"lat0": 26.000000,
				"nbSeg0": 8,
				"path1": [
					"Santa+Clara,+CA363",
					"Santa+Clara,+CA431",
					"Santa+Clara,+CA429",
					"Herndon,+VA496",
					"Herndon,+VA495",
					"Weehawken,+NJ544"
				],
				"lat1": 27.000000,
				"nbSeg1": 10
			},
			"pathsExist": false,
			"runtime": 7644665999,
			"nomLat1": 58.000000,
			"nomLat2": 26.000000,
			"maxNomLat": 58.000000,
			"mincut": 10
		},
		{
			"s1": "Irvine,+CA237",
			"s2": "Irvine,+CA230",
			"t1": "Santa+Clara,+CA389",
			"t2": "Palo+Alto,+CA317",
			"suurballeNbPaths": 2,
			"suurballeTime": 4698315,
			"suurballePaths": {
				"path0": [
					"Irvine,+CA230",
					"El+Segundo,+CA164",
					"Santa+Clara,+CA403",
					"Santa+Clara,+CA389"
				],
				"lat0": 7.000000,
				"nbSeg0": 6,
				"path1": [
					"Irvine,+CA237",
					"Irvine,+CA228",
					"Irvine,+CA213",
					"Santa+Clara,+CA404",
					"Santa+Clara,+CA444",
					"Palo+Alto,+CA104",
					"Palo+Alto,+CA317"
				],
				"lat1": 10.000000,
				"nbSeg1": 11
			},
			"pathsExist": false,
			"runtime": 5526389671,
			"nomLat1": 8.000000,
			"nomLat2": 10.000000,
			"maxNomLat": 10.000000,
			"mincut": 8
		},
		{
			"s1": "Santa+Clara,+CA431",
			"s2": "London276",
			"t1": "London274",
			"t2": "Palo+Alto,+CA104",
			"suurballeNbPaths": 2,
			"suurballeTime": 4687914,
			"suurballePaths": {
				"path0": [
					"Santa+Clara,+CA431",
					"Santa+Clara,+CA365",
					"Palo+Alto,+CA104"
				],
				"lat0": 3.000000,
				"nbSeg0": 4,
				"path1": [
					"London276",
					"Jersey+City,+NJ245",
					"London274"
				],
				"lat1": 58.000000,
				"nbSeg1": 4
			},
			"pathsExist": false,
			"runtime": 6234812691,
			"nomLat1": 57.000000,
			"nomLat2": 59.000000,
			"maxNomLat": 59.000000,
			"mincut": 14
		},
		{
			"s1": "Jersey+City,+NJ261",
			"s2": "El+Segundo,+CA164",
			"t1": "Toronto,+Canada538",
			"t2": "Santa+Clara,+CA365",
			"suurballeNbPaths": 2,
			"suurballeTime": 14780705,
			"suurballePaths": {
				"path0": [
					"El+Segundo,+CA164",
					"Santa+Clara,+CA443",
					"Santa+Clara,+CA431",
					"Santa+Clara,+CA365"
				],
				"lat0": 6.000000,
				"nbSeg0": 6,
				"path1": [
					"Jersey+City,+NJ261",
					"Jersey+City,+NJ244",
					"Weehawken,+NJ543",
					"Oak+Brook,+IL300",
					"Toronto,+Canada538"
				],
				"lat1": 18.000000,
				"nbSeg1": 8
			},
			"pathsExist": true,
			"path1": [
				"Jersey+City,+NJ261",
				"Toronto,+Canada538"
			],
			"lat1": 18.000000,
			"path2": [
				"El+Segundo,+CA164",
				"Santa+Clara,+CA365"
			],
			"lat2": 9.000000,
			"maxlat": 18.000000,
			"runtime": 26723221,
			"nomLat1": 18.000000,
			"nomLat2": 9.000000,
			"maxNomLat": 18.000000,
			"mincut": 6
		},
		{
			"s1": "Irvine,+CA230",
			"s2": "Weehawken,+NJ544",
			"t1": "Austin,+TX137",
			"t2": "Santa+Clara,+CA405",
			"suurballeNbPaths": 2,
			"suurballeTime": 4676606,
			"suurballePaths": {
				"path0": [
					"Irvine,+CA230",
					"El+Segundo,+CA164",
					"Santa+Clara,+CA403",
					"Santa+Clara,+CA405"
				],
				"lat0": 7.000000,
				"nbSeg0": 6,
				"path1": [
					"Weehawken,+NJ544",
					"Weehawken,+NJ543",
					"Atlanta,+GA127",
					"Fort+Worth,+TX190",
					"Fort+Worth,+TX189",
					"Austin,+TX137"
				],
				"lat1": 20.000000,
				"nbSeg1": 10
			},
			"pathsExist": false,
			"runtime": 10151717412,
			"nomLat1": 14.000000,
			"nomLat2": 27.000000,
			"maxNomLat": 27.000000,
			"mincut": 8
		},
		{
			"s1": "London274",
			"s2": "Miami,+FL285",
			"t1": "Santa+Clara,+CA389",
			"t2": "San+Jose,+CA459",
			"suurballeNbPaths": 2,
			"suurballeTime": 4586365,
			"suurballePaths": {
				"path0": [
					"London274",
					"Weehawken,+NJ544",
					"Herndon,+VA495",
					"Herndon,+VA496",
					"Santa+Clara,+CA429",
					"San+Jose,+CA459"
				],
				"lat0": 56.000000,
				"nbSeg0": 10,
				"path1": [
					"Miami,+FL285",
					"Miami,+FL286",
					"Atlanta,+GA127",
					"Fort+Worth,+TX190",
					"Fort+Worth,+TX189",
					"Santa+Clara,+CA403",
					"Santa+Clara,+CA389"
				],
				"lat1": 30.000000,
				"nbSeg1": 12
			},
			"pathsExist": false,
			"runtime": 10818678593,
			"nomLat1": 59.000000,
			"nomLat2": 32.000000,
			"maxNomLat": 59.000000,
			"mincut": 10
		},
		{
			"s1": "Weehawken,+NJ544",
			"s2": "Herndon,+VA193",
			"t1": "Herndon,+VA206",
			"t2": "Oak+Brook,+IL307",
			"suurballeNbPaths": 2,
			"suurballeTime": 4568713,
			"suurballePaths": {
				"path0": [
					"Weehawken,+NJ544",
					"Weehawken,+NJ552",
					"Oak+Brook,+IL300",
					"Oak+Brook,+IL307"
				],
				"lat0": 9.000000,
				"nbSeg0": 6,
				"path1": [
					"Herndon,+VA193",
					"Herndon,+VA496",
					"Herndon,+VA495",
					"Herndon,+VA208",
					"Herndon,+VA206"
				],
				"lat1": 4.000000,
				"nbSeg1": 8
			},
			"pathsExist": true,
			"path1": [
				"Weehawken,+NJ544",
				"Weehawken,+NJ543",
				"New+York,+NY294",
				"Herndon,+VA206"
			],
			"lat1": 7.000000,
			"path2": [
				"Herndon,+VA193",
				"Santa+Clara,+CA429",
				"Oak+Brook,+IL307"
			],
			"lat2": 48.000000,
			"maxlat": 48.000000,
			"runtime": 1781344320,
			"nomLat1": 5.000000,
			"nomLat2": 27.000000,
			"maxNomLat": 27.000000,
			"mincut": 10
		},
		{
			"s1": "Herndon,+VA193",
			"s2": "Santa+Clara,+CA364",
			"t1": "San+Jose,+CA472",
			"t2": "Santa+Clara,+CA405",
			"suurballeNbPaths": 2,
			"suurballeTime": 4704510,
			"suurballePaths": {
				"path0": [
					"Santa+Clara,+CA364",
					"Santa+Clara,+CA430",
					"San+Jose,+CA472"
				],
				"lat0": 3.000000,
				"nbSeg0": 4,
				"path1": [
					"Herndon,+VA193",
					"Herndon,+VA496",
					"Santa+Clara,+CA429",
					"Santa+Clara,+CA403",
					"Santa+Clara,+CA405"
				],
				"lat1": 24.000000,
				"nbSeg1": 8
			},
			"pathsExist": false,
			"runtime": 3446647967,
			"nomLat1": 25.000000,
			"nomLat2": 7.000000,
			"maxNomLat": 25.000000,
			"mincut": 12
		},
		{
			"s1": "Oak+Brook,+IL307",
			"s2": "Fort+Worth,+TX190",
			"t1": "Santa+Clara,+CA336",
			"t2": "Irvine,+CA212",
			"suurballeNbPaths": 2,
			"suurballeTime": 4705916,
			"suurballePaths": {
				"path0": [
					"Fort+Worth,+TX190",
					"Irvine,+CA229",
					"El+Segundo,+CA164",
					"El+Segundo,+CA163",
					"Irvine,+CA212"
				],
				"lat0": 16.000000,
				"nbSeg0": 8,
				"path1": [
					"Oak+Brook,+IL307",
					"Oak+Brook,+IL301",
					"San+Jose,+CA471",
					"San+Jose,+CA472",
					"Santa+Clara,+CA430",
					"Santa+Clara,+CA336"
				],
				"lat1": 21.000000,
				"nbSeg1": 10
			},
			"pathsExist": false,
			"runtime": 2773832947,
			"nomLat1": 28.000000,
			"nomLat2": 17.000000,
			"maxNomLat": 28.000000,
			"mincut": 8
		},
		{
			"s1": "El+Segundo,+CA163",
			"s2": "San+Jose,+CA459",
			"t1": "Fort+Worth,+TX190",
			"t2": "San+Jose,+CA471",
			"suurballeNbPaths": 2,
			"suurballeTime": 4584536,
			"suurballePaths": {
				"path0": [
					"El+Segundo,+CA163",
					"El+Segundo,+CA164",
					"Irvine,+CA229",
					"Fort+Worth,+TX190"
				],
				"lat0": 14.000000,
				"nbSeg0": 6,
				"path1": [
					"San+Jose,+CA459",
					"San+Jose,+CA460",
					"Santa+Clara,+CA388",
					"Santa+Clara,+CA389",
					"San+Jose,+CA471"
				],
				"lat1": 6.000000,
				"nbSeg1": 8
			},
			"pathsExist": true,
			"path1": [
				"El+Segundo,+CA163",
				"Irvine,+CA213",
				"Fort+Worth,+TX190"
			],
			"lat1": 15.000000,
			"path2": [
				"San+Jose,+CA459",
				"San+Jose,+CA460",
				"Santa+Clara,+CA443",
				"Santa+Clara,+CA430",
				"San+Jose,+CA471"
			],
			"lat2": 7.000000,
			"maxlat": 15.000000,
			"runtime": 1895378451,
			"nomLat1": 15.000000,
			"nomLat2": 6.000000,
			"maxNomLat": 15.000000,
			"mincut": 12
		},
		{
			"s1": "Fort+Worth,+TX190",
			"s2": "El+Segundo,+CA163",
			"t1": "Oak+Brook,+IL307",
			"t2": "Atlanta,+GA127",
			"suurballeNbPaths": 2,
			"suurballeTime": 5698240,
			"suurballePaths": {
				"path0": [
					"Fort+Worth,+TX190",
					"Atlanta,+GA127"
				],
				"lat0": 8.000000,
				"nbSeg0": 2,
				"path1": [
					"El+Segundo,+CA163",
					"Santa+Clara,+CA404",
					"Santa+Clara,+CA444",
					"San+Jose,+CA471",
					"Oak+Brook,+IL301",
					"Oak+Brook,+IL307"
				],
				"lat1": 24.000000,
				"nbSeg1": 10
			},
			"pathsExist": false,
			"runtime": 7980242008,
			"nomLat1": 12.000000,
			"nomLat2": 23.000000,
			"maxNomLat": 23.000000,
			"mincut": 10
		},
		{
			"s1": "Herndon,+VA206",
			"s2": "Atlanta,+GA126",
			"t1": "Frankfurt184",
			"t2": "Palo+Alto,+CA318",
			"suurballeNbPaths": 2,
			"suurballeTime": 4712139,
			"suurballePaths": {
				"path0": [
					"Herndon,+VA206",
					"New+York,+NY293",
					"Weehawken,+NJ543",
					"Jersey+City,+NJ244",
					"Frankfurt184"
				],
				"lat0": 39.000000,
				"nbSeg0": 7,
				"path1": [
					"Atlanta,+GA126",
					"Atlanta,+GA127",
					"Fort+Worth,+TX190",
					"Fort+Worth,+TX189",
					"Santa+Clara,+CA403",
					"Palo+Alto,+CA104",
					"Palo+Alto,+CA317",
					"Palo+Alto,+CA318"
				],
				"lat1": 27.000000,
				"nbSeg1": 14
			},
			"pathsExist": false,
			"runtime": 3834758346,
			"nomLat1": 40.000000,
			"nomLat2": 27.000000,
			"maxNomLat": 40.000000,
			"mincut": 8
		},
		{
			"s1": "Austin,+TX136",
			"s2": "San+Jose,+CA459",
			"t1": "New+York,+NY293",
			"t2": "Irvine,+CA230",
			"suurballeNbPaths": 2,
			"suurballeTime": 4718805,
			"suurballePaths": {
				"path0": [
					"Austin,+TX136",
					"Fort+Worth,+TX190",
					"Atlanta,+GA127",
					"Weehawken,+NJ543",
					"New+York,+NY293"
				],
				"lat0": 20.000000,
				"nbSeg0": 7,
				"path1": [
					"San+Jose,+CA459",
					"Santa+Clara,+CA429",
					"Santa+Clara,+CA403",
					"El+Segundo,+CA164",
					"Irvine,+CA230"
				],
				"lat1": 9.000000,
				"nbSeg1": 8
			},
			"pathsExist": false,
			"runtime": 845004517,
			"nomLat1": 28.000000,
			"nomLat2": 10.000000,
			"maxNomLat": 28.000000,
			"mincut": 6
		},
		{
			"s1": "Tokyo525",
			"s2": "Oak+Brook,+IL309",
			"t1": "Weehawken,+NJ552",
			"t2": "London276",
			"suurballeNbPaths": 2,
			"suurballeTime": 4723719,
			"suurballePaths": {
				"path0": [
					"Oak+Brook,+IL309",
					"Oak+Brook,+IL300",
					"Weehawken,+NJ552"
				],
				"lat0": 8.000000,
				"nbSeg0": 4,
				"path1": [
					"Tokyo525",
					"Santa+Clara,+CA404",
					"Santa+Clara,+CA403",
					"Santa+Clara,+CA429",
					"Herndon,+VA496",
					"Herndon,+VA495",
					"Weehawken,+NJ544",
					"London276"
				],
				"lat1": 99.000000,
				"nbSeg1": 14
			},
			"pathsExist": false,
			"runtime": 2790557358,
			"nomLat1": 72.000000,
			"nomLat2": 41.000000,
			"maxNomLat": 72.000000,
			"mincut": 8
		},
		{
			"s1": "Oak+Brook,+IL307",
			"s2": "San+Jose,+CA471",
			"t1": "Palo+Alto,+CA104",
			"t2": "Herndon,+VA206",
			"suurballeNbPaths": 2,
			"suurballeTime": 14807478,
			"suurballePaths": {
				"path0": [
					"San+Jose,+CA471",
					"Santa+Clara,+CA444",
					"Palo+Alto,+CA104"
				],
				"lat0": 4.000000,
				"nbSeg0": 4,
				"path1": [
					"Oak+Brook,+IL307",
					"Oak+Brook,+IL300",
					"Weehawken,+NJ543",
					"New+York,+NY293",
					"Herndon,+VA206"
				],
				"lat1": 13.000000,
				"nbSeg1": 7
			},
			"pathsExist": false,
			"runtime": 15226312622,
			"nomLat1": 21.000000,
			"nomLat2": 30.000000,
			"maxNomLat": 30.000000,
			"mincut": 12
		},
		{
			"s1": "London275",
			"s2": "Santa+Clara,+CA389",
			"t1": "Herndon,+VA193",
			"t2": "Amsterdam119",
			"suurballeNbPaths": 2,
			"suurballeTime": 14705280,
			"suurballePaths": {
				"path0": [
					"London275",
					"Amsterdam119"
				],
				"lat0": 3.000000,
				"nbSeg0": 2,
				"path1": [
					"Santa+Clara,+CA389",
					"Santa+Clara,+CA403",
					"Santa+Clara,+CA429",
					"Herndon,+VA496",
					"Herndon,+VA193"
				],
				"lat1": 24.000000,
				"nbSeg1": 8
			},
			"pathsExist": false,
			"runtime": 4387387106,
			"nomLat1": 36.000000,
			"nomLat2": 62.000000,
			"maxNomLat": 62.000000,
			"mincut": 10
		},
		{
			"s1": "Weehawken,+NJ552",
			"s2": "Atlanta,+GA127",
			"t1": "Santa+Clara,+CA336",
			"t2": "Oak+Brook,+IL301",
			"suurballeNbPaths": 2,
			"suurballeTime": 5053995,
			"suurballePaths": {
				"path0": [
					"Weehawken,+NJ552",
					"Oak+Brook,+IL300",
					"Oak+Brook,+IL301"
				],
				"lat0": 8.000000,
				"nbSeg0": 4,
				"path1": [
					"Atlanta,+GA127",
					"Fort+Worth,+TX190",
					"Fort+Worth,+TX189",
					"Santa+Clara,+CA403",
					"Santa+Clara,+CA429",
					"Santa+Clara,+CA430",
					"Santa+Clara,+CA336"
				],
				"lat1": 25.000000,
				"nbSeg1": 12
			},
			"pathsExist": false,
			"runtime": 16762634729,
			"nomLat1": 28.000000,
			"nomLat2": 20.000000,
			"maxNomLat": 28.000000,
			"mincut": 12
		},
		{
			"s1": "Irvine,+CA213",
			"s2": "Fort+Worth,+TX190",
			"t1": "Herndon,+VA208",
			"t2": "Oak+Brook,+IL301",
			"suurballeNbPaths": 2,
			"suurballeTime": 14856930,
			"suurballePaths": {
				"path0": [
					"Irvine,+CA213",
					"Irvine,+CA228",
					"Fort+Worth,+TX189",
					"Chicago,+IL156",
					"Oak+Brook,+IL300",
					"Oak+Brook,+IL301"
				],
				"lat0": 23.000000,
				"nbSeg0": 9,
				"path1": [
					"Fort+Worth,+TX190",
					"Atlanta,+GA127",
					"Herndon,+VA193",
					"Herndon,+VA496",
					"Herndon,+VA495",
					"Herndon,+VA208"
				],
				"lat1": 17.000000,
				"nbSeg1": 10
			},
			"pathsExist": false,
			"runtime": 5407935567,
			"nomLat1": 30.000000,
			"nomLat2": 12.000000,
			"maxNomLat": 30.000000,
			"mincut": 10
		},
		{
			"s1": "Miami,+FL286",
			"s2": "Tukwila,+WA508",
			"t1": "New+York,+NY293",
			"t2": "Chicago,+IL156",
			"suurballeNbPaths": 2,
			"suurballeTime": 14721913,
			"suurballePaths": {
				"path0": [
					"Miami,+FL286",
					"Miami,+FL285",
					"New+York,+NY293"
				],
				"lat0": 11.000000,
				"nbSeg0": 4,
				"path1": [
					"Tukwila,+WA508",
					"Chicago,+IL155",
					"Chicago,+IL156"
				],
				"lat1": 16.000000,
				"nbSeg1": 3
			},
			"pathsExist": true,
			"path1": [
				"Miami,+FL286",
				"New+York,+NY293"
			],
			"lat1": 11.000000,
			"path2": [
				"Tukwila,+WA508",
				"Santa+Clara,+CA431",
				"Oak+Brook,+IL300",
				"Chicago,+IL156"
			],
			"lat2": 30.000000,
			"maxlat": 30.000000,
			"runtime": 1416507219,
			"nomLat1": 11.000000,
			"nomLat2": 17.000000,
			"maxNomLat": 17.000000,
			"mincut": 10
		},
		{
			"s1": "Santa+Clara,+CA444",
			"s2": "Santa+Clara,+CA403",
			"t1": "Chicago,+IL156",
			"t2": "Irvine,+CA213",
			"suurballeNbPaths": 2,
			"suurballeTime": 4849260,
			"suurballePaths": {
				"path0": [
					"Santa+Clara,+CA444",
					"Santa+Clara,+CA404",
					"Irvine,+CA213"
				],
				"lat0": 5.000000,
				"nbSeg0": 3,
				"path1": [
					"Santa+Clara,+CA403",
					"Fort+Worth,+TX189",
					"Chicago,+IL156"
				],
				"lat1": 21.000000,
				"nbSeg1": 4
			},
			"pathsExist": true,
			"path1": [
				"Santa+Clara,+CA444",
				"Oak+Brook,+IL300",
				"Chicago,+IL156"
			],
			"lat1": 21.000000,
			"path2": [
				"Santa+Clara,+CA403",
				"Fort+Worth,+TX190",
				"Irvine,+CA213"
			],
			"lat2": 26.000000,
			"maxlat": 26.000000,
			"runtime": 9703496041,
			"nomLat1": 21.000000,
			"nomLat2": 8.000000,
			"maxNomLat": 21.000000,
			"mincut": 12
		},
		{
			"s1": "Oak+Brook,+IL310",
			"s2": "Santa+Clara,+CA388",
			"t1": "Irvine,+CA213",
			"t2": "Santa+Clara,+CA430",
			"suurballeNbPaths": 2,
			"suurballeTime": 4611562,
			"suurballePaths": {
				"path0": [
					"Santa+Clara,+CA388",
					"Santa+Clara,+CA430"
				],
				"lat0": 1.000000,
				"nbSeg0": 2,
				"path1": [
					"Oak+Brook,+IL310",
					"Oak+Brook,+IL300",
					"Chicago,+IL156",
					"Fort+Worth,+TX189",
					"Irvine,+CA228",
					"Irvine,+CA213"
				],
				"lat1": 23.000000,
				"nbSeg1": 9
			},
			"pathsExist": true,
			"path1": [
				"Oak+Brook,+IL310",
				"Austin,+TX137",
				"Irvine,+CA213"
			],
			"lat1": 28.000000,
			"path2": [
				"Santa+Clara,+CA388",
				"Santa+Clara,+CA430"
			],
			"lat2": 1.000000,
			"maxlat": 28.000000,
			"runtime": 19234437948,
			"nomLat1": 26.000000,
			"nomLat2": 1.000000,
			"maxNomLat": 26.000000,
			"mincut": 12
		},
		{
			"s1": "Irvine,+CA231",
			"s2": "Santa+Clara,+CA364",
			"t1": "Chicago,+IL156",
			"t2": "Santa+Clara,+CA431",
			"suurballeNbPaths": 2,
			"suurballeTime": 4840637,
			"suurballePaths": {
				"path0": [
					"Santa+Clara,+CA364",
					"Santa+Clara,+CA431"
				],
				"lat0": 1.000000,
				"nbSeg0": 2,
				"path1": [
					"Irvine,+CA231",
					"Irvine,+CA228",
					"Fort+Worth,+TX189",
					"Chicago,+IL156"
				],
				"lat1": 20.000000,
				"nbSeg1": 5
			},
			"pathsExist": true,
			"path1": [
				"Irvine,+CA231",
				"Chicago,+IL156"
			],
			"lat1": 21.000000,
			"path2": [
				"Santa+Clara,+CA364",
				"Santa+Clara,+CA431"
			],
			"lat2": 1.000000,
			"maxlat": 21.000000,
			"runtime": 762906794,
			"nomLat1": 21.000000,
			"nomLat2": 1.000000,
			"maxNomLat": 21.000000,
			"mincut": 12
		},
		{
			"s1": "Santa+Clara,+CA429",
			"s2": "Weehawken,+NJ544",
			"t1": "Irvine,+CA229",
			"t2": "San+Jose,+CA460",
			"suurballeNbPaths": 2,
			"suurballeTime": 14704283,
			"suurballePaths": {
				"path0": [
					"Santa+Clara,+CA429",
					"San+Jose,+CA459",
					"San+Jose,+CA460"
				],
				"lat0": 3.000000,
				"nbSeg0": 4,
				"path1": [
					"Weehawken,+NJ544",
					"Weehawken,+NJ543",
					"Atlanta,+GA127",
					"Fort+Worth,+TX190",
					"Irvine,+CA229"
				],
				"lat1": 27.000000,
				"nbSeg1": 8
			},
			"pathsExist": false,
			"runtime": 19933338473,
			"nomLat1": 8.000000,
			"nomLat2": 29.000000,
			"maxNomLat": 29.000000,
			"mincut": 14
		},
		{
			"s1": "Santa+Clara,+CA405",
			"s2": "Irvine,+CA213",
			"t1": "Santa+Clara,+CA363",
			"t2": "Herndon,+VA208",
			"suurballeNbPaths": 2,
			"suurballeTime": 4727048,
			"suurballePaths": {
				"path0": [
					"Irvine,+CA213",
					"Santa+Clara,+CA404",
					"Santa+Clara,+CA443",
					"Santa+Clara,+CA431",
					"Santa+Clara,+CA363"
				],
				"lat0": 7.000000,
				"nbSeg0": 7,
				"path1": [
					"Santa+Clara,+CA405",
					"Santa+Clara,+CA403",
					"Santa+Clara,+CA429",
					"Herndon,+VA496",
					"Herndon,+VA495",
					"Herndon,+VA208"
				],
				"lat1": 25.000000,
				"nbSeg1": 10
			},
			"pathsExist": false,
			"runtime": 3029981875,
			"nomLat1": 7.000000,
			"nomLat2": 30.000000,
			"maxNomLat": 30.000000,
			"mincut": 10
		},
		{
			"s1": "Irvine,+CA212",
			"s2": "Weehawken,+NJ543",
			"t1": "Tukwila,+WA509",
			"t2": "Irvine,+CA231",
			"suurballeNbPaths": 2,
			"suurballeTime": 4618939,
			"suurballePaths": {
				"path0": [
					"Irvine,+CA212",
					"El+Segundo,+CA163",
					"El+Segundo,+CA164",
					"Irvine,+CA231"
				],
				"lat0": 5.000000,
				"nbSeg0": 6,
				"path1": [
					"Weehawken,+NJ543",
					"Oak+Brook,+IL300",
					"Oak+Brook,+IL301",
					"Chicago,+IL155",
					"Tukwila,+WA509"
				],
				"lat1": 25.000000,
				"nbSeg1": 8
			},
			"pathsExist": false,
			"runtime": 3075927870,
			"nomLat1": 16.000000,
			"nomLat2": 33.000000,
			"maxNomLat": 33.000000,
			"mincut": 10
		},
		{
			"s1": "Oak+Brook,+IL310",
			"s2": "Toronto,+Canada538",
			"t1": "London275",
			"t2": "Santa+Clara,+CA444",
			"suurballeNbPaths": 2,
			"suurballeTime": 4906794,
			"suurballePaths": {
				"path0": [
					"Oak+Brook,+IL310",
					"Oak+Brook,+IL301",
					"San+Jose,+CA471",
					"Santa+Clara,+CA444"
				],
				"lat0": 19.000000,
				"nbSeg0": 6,
				"path1": [
					"Toronto,+Canada538",
					"Oak+Brook,+IL300",
					"Weehawken,+NJ552",
					"Weehawken,+NJ544",
					"London275"
				],
				"lat1": 45.000000,
				"nbSeg1": 8
			},
			"pathsExist": false,
			"runtime": 13366434773,
			"nomLat1": 41.000000,
			"nomLat2": 27.000000,
			"maxNomLat": 41.000000,
			"mincut": 6
		},
		{
			"s1": "Santa+Clara,+CA429",
			"s2": "Waltham,+MA556",
			"t1": "Santa+Clara,+CA430",
			"t2": "Irvine,+CA237",
			"suurballeNbPaths": 2,
			"suurballeTime": 4664472,
			"suurballePaths": {
				"path0": [
					"Santa+Clara,+CA429",
					"Santa+Clara,+CA430"
				],
				"lat0": 1.000000,
				"nbSeg0": 2,
				"path1": [
					"Waltham,+MA556",
					"Oak+Brook,+IL300",
					"Chicago,+IL156",
					"Fort+Worth,+TX189",
					"Irvine,+CA228",
					"Irvine,+CA237"
				],
				"lat1": 30.000000,
				"nbSeg1": 9
			},
			"pathsExist": false,
			"runtime": 8103213814,
			"nomLat1": 1.000000,
			"nomLat2": 31.000000,
			"maxNomLat": 31.000000,
			"mincut": 14
		},
		{
			"s1": "Jersey+City,+NJ245",
			"s2": "San+Jose,+CA472",
			"t1": "Santa+Clara,+CA363",
			"t2": "Austin,+TX137",
			"suurballeNbPaths": 2,
			"suurballeTime": 4715588,
			"suurballePaths": {
				"path0": [
					"San+Jose,+CA472",
					"Santa+Clara,+CA431",
					"Santa+Clara,+CA363"
				],
				"lat0": 3.000000,
				"nbSeg0": 4,
				"path1": [
					"Jersey+City,+NJ245",
					"Jersey+City,+NJ244",
					"Weehawken,+NJ543",
					"Atlanta,+GA127",
					"Fort+Worth,+TX190",
					"Fort+Worth,+TX189",
					"Austin,+TX137"
				],
				"lat1": 22.000000,
				"nbSeg1": 12
			},
			"pathsExist": false,
			"runtime": 24208244102,
			"nomLat1": 29.000000,
			"nomLat2": 19.000000,
			"maxNomLat": 29.000000,
			"mincut": 8
		},
		{
			"s1": "Palo+Alto,+CA318",
			"s2": "London274",
			"t1": "Oak+Brook,+IL307",
			"t2": "Santa+Clara,+CA389",
			"suurballeNbPaths": 2,
			"suurballeTime": 14595110,
			"suurballePaths": {
				"path0": [
					"Palo+Alto,+CA318",
					"Palo+Alto,+CA317",
					"Santa+Clara,+CA388",
					"Santa+Clara,+CA389"
				],
				"lat0": 4.000000,
				"nbSeg0": 6,
				"path1": [
					"London274",
					"Weehawken,+NJ544",
					"Weehawken,+NJ552",
					"Oak+Brook,+IL300",
					"Oak+Brook,+IL307"
				],
				"lat1": 38.000000,
				"nbSeg1": 8
			},
			"pathsExist": false,
			"runtime": 2628257401,
			"nomLat1": 23.000000,
			"nomLat2": 59.000000,
			"maxNomLat": 59.000000,
			"mincut": 12
		},
		{
			"s1": "Oak+Brook,+IL310",
			"s2": "Irvine,+CA237",
			"t1": "Oak+Brook,+IL307",
			"t2": "Irvine,+CA228",
			"suurballeNbPaths": 2,
			"suurballeTime": 14550318,
			"suurballePaths": {
				"path0": [
					"Irvine,+CA237",
					"Irvine,+CA228"
				],
				"lat0": 1.000000,
				"nbSeg0": 2,
				"path1": [
					"Oak+Brook,+IL310",
					"Oak+Brook,+IL300",
					"Oak+Brook,+IL307"
				],
				"lat1": 2.000000,
				"nbSeg1": 4
			},
			"pathsExist": true,
			"path1": [
				"Oak+Brook,+IL310",
				"Oak+Brook,+IL301",
				"Oak+Brook,+IL307"
			],
			"lat1": 2.000000,
			"path2": [
				"Irvine,+CA237",
				"Irvine,+CA228"
			],
			"lat2": 1.000000,
			"maxlat": 2.000000,
			"runtime": 346131626,
			"nomLat1": 2.000000,
			"nomLat2": 1.000000,
			"maxNomLat": 2.000000,
			"mincut": 8
		},
		{
			"s1": "Santa+Clara,+CA389",
			"s2": "Santa+Clara,+CA443",
			"t1": "Oak+Brook,+IL300",
			"t2": "Miami,+FL286",
			"suurballeNbPaths": 2,
			"suurballeTime": 4711542,
			"suurballePaths": {
				"path0": [
					"Santa+Clara,+CA389",
					"San+Jose,+CA471",
					"Oak+Brook,+IL301",
					"Oak+Brook,+IL300"
				],
				"lat0": 19.000000,
				"nbSeg0": 6,
				"path1": [
					"Santa+Clara,+CA443",
					"Santa+Clara,+CA404",
					"Santa+Clara,+CA403",
					"Fort+Worth,+TX189",
					"Fort+Worth,+TX190",
					"Atlanta,+GA127",
					"Miami,+FL286"
				],
				"lat1": 30.000000,
				"nbSeg1": 12
			},
			"pathsExist": false,
			"runtime": 12201747508,
			"nomLat1": 19.000000,
			"nomLat2": 30.000000,
			"maxNomLat": 30.000000,
			"mincut": 10
		},
		{
			"s1": "Santa+Clara,+CA365",
			"s2": "Fort+Worth,+TX191",
			"t1": "Austin,+TX137",
			"t2": "Santa+Clara,+CA389",
			"suurballeNbPaths": 2,
			"suurballeTime": 4572709,
			"suurballePaths": {
				"path0": [
					"Fort+Worth,+TX191",
					"Fort+Worth,+TX189",
					"Austin,+TX137"
				],
				"lat0": 4.000000,
				"nbSeg0": 4,
				"path1": [
					"Santa+Clara,+CA365",
					"Santa+Clara,+CA431",
					"Santa+Clara,+CA443",
					"Santa+Clara,+CA389"
				],
				"lat1": 3.000000,
				"nbSeg1": 6
			},
			"pathsExist": true,
			"path1": [
				"Santa+Clara,+CA365",
				"El+Segundo,+CA164",
				"Austin,+TX137"
			],
			"lat1": 21.000000,
			"path2": [
				"Fort+Worth,+TX191",
				"Santa+Clara,+CA429",
				"Santa+Clara,+CA431",
				"Santa+Clara,+CA389"
			],
			"lat2": 20.000000,
			"maxlat": 21.000000,
			"runtime": 6273243592,
			"nomLat1": 20.000000,
			"nomLat2": 15.000000,
			"maxNomLat": 20.000000,
			"mincut": 8
		},
		{
			"s1": "Herndon,+VA208",
			"s2": "Weehawken,+NJ543",
			"t1": "London275",
			"t2": "Tukwila,+WA509",
			"suurballeNbPaths": 2,
			"suurballeTime": 14845083,
			"suurballePaths": {
				"path0": [
					"Herndon,+VA208",
					"Herndon,+VA495",
					"Weehawken,+NJ544",
					"London275"
				],
				"lat0": 33.000000,
				"nbSeg0": 6,
				"path1": [
					"Weehawken,+NJ543",
					"Oak+Brook,+IL300",
					"Oak+Brook,+IL301",
					"Chicago,+IL155",
					"Tukwila,+WA509"
				],
				"lat1": 25.000000,
				"nbSeg1": 8
			},
			"pathsExist": true,
			"path1": [
				"Herndon,+VA208",
				"Herndon,+VA495",
				"London275"
			],
			"lat1": 35.000000,
			"path2": [
				"Weehawken,+NJ543",
				"Chicago,+IL156",
				"Tukwila,+WA509"
			],
			"lat2": 25.000000,
			"maxlat": 35.000000,
			"runtime": 1729350661,
			"nomLat1": 37.000000,
			"nomLat2": 25.000000,
			"maxNomLat": 37.000000,
			"mincut": 10
		},
		{
			"s1": "Santa+Clara,+CA404",
			"s2": "London274",
			"t1": "Oak+Brook,+IL310",
			"t2": "Austin,+TX136",
			"suurballeNbPaths": 2,
			"suurballeTime": 4744853,
			"suurballePaths": {
				"path0": [
					"Santa+Clara,+CA404",
					"Santa+Clara,+CA403",
					"Fort+Worth,+TX189",
					"Fort+Worth,+TX190",
					"Austin,+TX136"
				],
				"lat0": 18.000000,
				"nbSeg0": 8,
				"path1": [
					"London274",
					"Weehawken,+NJ544",
					"Weehawken,+NJ552",
					"Oak+Brook,+IL300",
					"Oak+Brook,+IL310"
				],
				"lat1": 38.000000,
				"nbSeg1": 8
			},
			"pathsExist": false,
			"runtime": 1260533561,
			"nomLat1": 21.000000,
			"nomLat2": 54.000000,
			"maxNomLat": 54.000000,
			"mincut": 6
		},
		{
			"s1": "Toronto,+Canada537",
			"s2": "Oak+Brook,+IL307",
			"t1": "Oak+Brook,+IL310",
			"t2": "Tokyo525",
			"suurballeNbPaths": 2,
			"suurballeTime": 14909878,
			"suurballePaths": {
				"path0": [
					"Toronto,+Canada537",
					"Waltham,+MA555",
					"Oak+Brook,+IL300",
					"Oak+Brook,+IL310"
				],
				"lat0": 11.000000,
				"nbSeg0": 5,
				"path1": [
					"Oak+Brook,+IL307",
					"Oak+Brook,+IL301",
					"San+Jose,+CA471",
					"Santa+Clara,+CA444",
					"Santa+Clara,+CA404",
					"Tokyo525"
				],
				"lat1": 63.000000,
				"nbSeg1": 10
			},
			"pathsExist": false,
			"runtime": 9465794,
			"nomLat1": 12.000000,
			"nomLat2": 64.000000,
			"maxNomLat": 64.000000,
			"mincut": 8
		},
		{
			"s1": "Santa+Clara,+CA365",
			"s2": "Atlanta,+GA133",
			"t1": "Santa+Clara,+CA443",
			"t2": "Toronto,+Canada538",
			"suurballeNbPaths": 2,
			"suurballeTime": 5311983,
			"suurballePaths": {
				"path0": [
					"Santa+Clara,+CA365",
					"Santa+Clara,+CA431",
					"Santa+Clara,+CA443"
				],
				"lat0": 2.000000,
				"nbSeg0": 4,
				"path1": [
					"Atlanta,+GA133",
					"Atlanta,+GA127",
					"Weehawken,+NJ543",
					"Oak+Brook,+IL300",
					"Toronto,+Canada538"
				],
				"lat1": 23.000000,
				"nbSeg1": 8
			},
			"pathsExist": true,
			"path1": [
				"Santa+Clara,+CA365",
				"Santa+Clara,+CA431",
				"Santa+Clara,+CA443"
			],
			"lat1": 2.000000,
			"path2": [
				"Atlanta,+GA133",
				"New+York,+NY293",
				"New+York,+NY294",
				"Weehawken,+NJ552",
				"Toronto,+Canada538"
			],
			"lat2": 37.000000,
			"maxlat": 37.000000,
			"runtime": 1507825251,
			"nomLat1": 5.000000,
			"nomLat2": 28.000000,
			"maxNomLat": 28.000000,
			"mincut": 8
		},
		{
			"s1": "San+Jose,+CA471",
			"s2": "Waltham,+MA556",
			"t1": "Santa+Clara,+CA364",
			"t2": "Tokyo526",
			"suurballeNbPaths": 2,
			"suurballeTime": 10286756,
			"suurballePaths": {
				"path0": [
					"San+Jose,+CA471",
					"San+Jose,+CA472",
					"Santa+Clara,+CA430",
					"Santa+Clara,+CA364"
				],
				"lat0": 4.000000,
				"nbSeg0": 6,
				"path1": [
					"Waltham,+MA556",
					"Oak+Brook,+IL300",
					"Oak+Brook,+IL301",
					"San+Jose,+CA471",
					"San+Jose,+CA472",
					"Santa+Clara,+CA430",
					"Santa+Clara,+CA336",
					"Tokyo526"
				],
				"lat1": 72.000000,
				"nbSeg1": 14
			},
			"pathsExist": false,
			"runtime": 4279789472,
			"nomLat1": 4.000000,
			"nomLat2": 79.000000,
			"maxNomLat": 79.000000,
			"mincut": 12
		},
		{
			"s1": "Oak+Brook,+IL308",
			"s2": "Jersey+City,+NJ244",
			"t1": "Atlanta,+GA127",
			"t2": "Herndon,+VA208",
			"suurballeNbPaths": 2,
			"suurballeTime": 15435315,
			"suurballePaths": {
				"path0": [
					"Jersey+City,+NJ244",
					"Weehawken,+NJ543",
					"Atlanta,+GA127"
				],
				"lat0": 9.000000,
				"nbSeg0": 4,
				"path1": [
					"Oak+Brook,+IL308",
					"Oak+Brook,+IL300",
					"Weehawken,+NJ543",
					"New+York,+NY293",
					"Herndon,+VA208"
				],
				"lat1": 13.000000,
				"nbSeg1": 7
			},
			"pathsExist": false,
			"runtime": 29182619570,
			"nomLat1": 20.000000,
			"nomLat2": 9.000000,
			"maxNomLat": 20.000000,
			"mincut": 14
		},
		{
			"s1": "New+York,+NY293",
			"s2": "Fort+Worth,+TX191",
			"t1": "Santa+Clara,+CA403",
			"t2": "Santa+Clara,+CA431",
			"suurballeNbPaths": 2,
			"suurballeTime": 4470818,
			"suurballePaths": {
				"path0": [
					"Fort+Worth,+TX191",
					"Fort+Worth,+TX189",
					"Santa+Clara,+CA403"
				],
				"lat0": 14.000000,
				"nbSeg0": 4,
				"path1": [
					"New+York,+NY293",
					"Herndon,+VA208",
					"Herndon,+VA495",
					"Herndon,+VA496",
					"Santa+Clara,+CA429",
					"Santa+Clara,+CA431"
				],
				"lat1": 27.000000,
				"nbSeg1": 10
			},
			"pathsExist": false,
			"runtime": 15073963618,
			"nomLat1": 39.000000,
			"nomLat2": 19.000000,
			"maxNomLat": 39.000000,
			"mincut": 14
		},
		{
			"s1": "Fort+Worth,+TX190",
			"s2": "Atlanta,+GA126",
			"t1": "Jersey+City,+NJ245",
			"t2": "London276",
			"suurballeNbPaths": 2,
			"suurballeTime": 14701520,
			"suurballePaths": {
				"path0": [
					"Fort+Worth,+TX190",
					"Atlanta,+GA127",
					"Weehawken,+NJ543",
					"Jersey+City,+NJ244",
					"Jersey+City,+NJ245"
				],
				"lat0": 18.000000,
				"nbSeg0": 8,
				"path1": [
					"Atlanta,+GA126",
					"Atlanta,+GA127",
					"Weehawken,+NJ543",
					"Weehawken,+NJ544",
					"London276"
				],
				"lat1": 38.000000,
				"nbSeg1": 8
			},
			"pathsExist": false,
			"runtime": 5655624607,
			"nomLat1": 22.000000,
			"nomLat2": 42.000000,
			"maxNomLat": 42.000000,
			"mincut": 12
		},
		{
			"s1": "Jersey+City,+NJ244",
			"s2": "Fort+Worth,+TX189",
			"t1": "Santa+Clara,+CA443",
			"t2": "Weehawken,+NJ543",
			"suurballeNbPaths": 2,
			"suurballeTime": 14818873,
			"suurballePaths": {
				"path0": [
					"Jersey+City,+NJ244",
					"Weehawken,+NJ543"
				],
				"lat0": 2.000000,
				"nbSeg0": 2,
				"path1": [
					"Fort+Worth,+TX189",
					"Santa+Clara,+CA403",
					"Santa+Clara,+CA404",
					"Santa+Clara,+CA443"
				],
				"lat1": 15.000000,
				"nbSeg1": 6
			},
			"pathsExist": false,
			"runtime": 8090997615,
			"nomLat1": 29.000000,
			"nomLat2": 17.000000,
			"maxNomLat": 29.000000,
			"mincut": 22
		},
		{
			"s1": "Tokyo526",
			"s2": "Oak+Brook,+IL300",
			"t1": "London277",
			"t2": "Herndon,+VA206",
			"suurballeNbPaths": 2,
			"suurballeTime": 14773681,
			"suurballePaths": {
				"path0": [
					"Oak+Brook,+IL300",
					"Weehawken,+NJ543",
					"Jersey+City,+NJ244",
					"London277"
				],
				"lat0": 38.000000,
				"nbSeg0": 6,
				"path1": [
					"Tokyo526",
					"Santa+Clara,+CA336",
					"Santa+Clara,+CA430",
					"Santa+Clara,+CA429",
					"Herndon,+VA496",
					"Herndon,+VA495",
					"Herndon,+VA208",
					"Herndon,+VA206"
				],
				"lat1": 69.000000,
				"nbSeg1": 14
			},
			"pathsExist": false,
			"runtime": 15922999732,
			"nomLat1": 102.000000,
			"nomLat2": 13.000000,
			"maxNomLat": 102.000000,
			"mincut": 6
		},
		{
			"s1": "Irvine,+CA212",
			"s2": "Weehawken,+NJ544",
			"t1": "Toronto,+Canada538",
			"t2": "Palo+Alto,+CA318",
			"suurballeNbPaths": 2,
			"suurballeTime": 4670444,
			"suurballePaths": {
				"path0": [
					"Weehawken,+NJ544",
					"Weehawken,+NJ552",
					"Oak+Brook,+IL300",
					"Toronto,+Canada538"
				],
				"lat0": 16.000000,
				"nbSeg0": 6,
				"path1": [
					"Irvine,+CA212",
					"El+Segundo,+CA163",
					"Santa+Clara,+CA404",
					"Santa+Clara,+CA430",
					"Santa+Clara,+CA364",
					"Palo+Alto,+CA318"
				],
				"lat1": 10.000000,
				"nbSeg1": 10
			},
			"pathsExist": false,
			"runtime": 3761633646,
			"nomLat1": 35.000000,
			"nomLat2": 30.000000,
			"maxNomLat": 35.000000,
			"mincut": 8
		},
		{
			"s1": "New+York,+NY294",
			"s2": "Waltham,+MA556",
			"t1": "Weehawken,+NJ552",
			"t2": "San+Jose,+CA472",
			"suurballeNbPaths": 2,
			"suurballeTime": 14928439,
			"suurballePaths": {
				"path0": [
					"New+York,+NY294",
					"Weehawken,+NJ543",
					"Weehawken,+NJ552"
				],
				"lat0": 3.000000,
				"nbSeg0": 4,
				"path1": [
					"Waltham,+MA556",
					"Oak+Brook,+IL300",
					"Oak+Brook,+IL301",
					"San+Jose,+CA471",
					"San+Jose,+CA472"
				],
				"lat1": 26.000000,
				"nbSeg1": 8
			},
			"pathsExist": false,
			"runtime": 35290201540,
			"nomLat1": 3.000000,
			"nomLat2": 26.000000,
			"maxNomLat": 26.000000,
			"mincut": 12
		},
		{
			"s1": "Irvine,+CA213",
			"s2": "San+Jose,+CA472",
			"t1": "Weehawken,+NJ544",
			"t2": "Santa+Clara,+CA389",
			"suurballeNbPaths": 2,
			"suurballeTime": 4602780,
			"suurballePaths": {
				"path0": [
					"San+Jose,+CA472",
					"Santa+Clara,+CA389"
				],
				"lat0": 2.000000,
				"nbSeg0": 2,
				"path1": [
					"Irvine,+CA213",
					"Irvine,+CA228",
					"Fort+Worth,+TX190",
					"Atlanta,+GA127",
					"Weehawken,+NJ543",
					"Weehawken,+NJ544"
				],
				"lat1": 28.000000,
				"nbSeg1": 10
			},
			"pathsExist": true,
			"path1": [
				"Irvine,+CA213",
				"Austin,+TX137",
				"New+York,+NY293",
				"Weehawken,+NJ544"
			],
			"lat1": 45.000000,
			"path2": [
				"San+Jose,+CA472",
				"San+Jose,+CA471",
				"Santa+Clara,+CA389"
			],
			"lat2": 3.000000,
			"maxlat": 45.000000,
			"runtime": 27482140460,
			"nomLat1": 32.000000,
			"nomLat2": 2.000000,
			"maxNomLat": 32.000000,
			"mincut": 14
		},
		{
			"s1": "Santa+Clara,+CA364",
			"s2": "Tukwila,+WA509",
			"t1": "Palo+Alto,+CA317",
			"t2": "Weehawken,+NJ552",
			"suurballeNbPaths": 2,
			"suurballeTime": 14721151,
			"suurballePaths": {
				"path0": [
					"Santa+Clara,+CA364",
					"Palo+Alto,+CA318",
					"Palo+Alto,+CA317"
				],
				"lat0": 3.000000,
				"nbSeg0": 4,
				"path1": [
					"Tukwila,+WA509",
					"Chicago,+IL155",
					"Chicago,+IL156",
					"Oak+Brook,+IL300",
					"Weehawken,+NJ552"
				],
				"lat1": 25.000000,
				"nbSeg1": 8
			},
			"pathsExist": false,
			"runtime": 2320586471,
			"nomLat1": 3.000000,
			"nomLat2": 25.000000,
			"maxNomLat": 25.000000,
			"mincut": 10
		},
		{
			"s1": "Herndon,+VA193",
			"s2": "London275",
			"t1": "Irvine,+CA213",
			"t2": "Amsterdam119",
			"suurballeNbPaths": 2,
			"suurballeTime": 15011566,
			"suurballePaths": {
				"path0": [
					"London275",
					"Amsterdam119"
				],
				"lat0": 3.000000,
				"nbSeg0": 2,
				"path1": [
					"Herndon,+VA193",
					"Atlanta,+GA127",
					"Fort+Worth,+TX190",
					"Irvine,+CA228",
					"Irvine,+CA213"
				],
				"lat1": 26.000000,
				"nbSeg1": 8
			},
			"pathsExist": true,
			"path1": [
				"Herndon,+VA193",
				"Santa+Clara,+CA430",
				"Irvine,+CA213"
			],
			"lat1": 30.000000,
			"path2": [
				"London275",
				"Amsterdam119"
			],
			"lat2": 3.000000,
			"maxlat": 30.000000,
			"runtime": 7047730873,
			"nomLat1": 27.000000,
			"nomLat2": 3.000000,
			"maxNomLat": 27.000000,
			"mincut": 10
		},
		{
			"s1": "Irvine,+CA237",
			"s2": "Santa+Clara,+CA403",
			"t1": "Oak+Brook,+IL310",
			"t2": "Oak+Brook,+IL315",
			"suurballeNbPaths": 2,
			"suurballeTime": 4704816,
			"suurballePaths": {
				"path0": [
					"Santa+Clara,+CA403",
					"Santa+Clara,+CA444",
					"San+Jose,+CA471",
					"Oak+Brook,+IL301",
					"Oak+Brook,+IL310"
				],
				"lat0": 20.000000,
				"nbSeg0": 8,
				"path1": [
					"Irvine,+CA237",
					"Irvine,+CA228",
					"Fort+Worth,+TX189",
					"Chicago,+IL156",
					"Oak+Brook,+IL300",
					"Oak+Brook,+IL315"
				],
				"lat1": 23.000000,
				"nbSeg1": 9
			},
			"pathsExist": false,
			"runtime": 38615069672,
			"nomLat1": 24.000000,
			"nomLat2": 20.000000,
			"maxNomLat": 24.000000,
			"mincut": 10
		},
		{
			"s1": "Weehawken,+NJ552",
			"s2": "Chicago,+IL155",
			"t1": "London277",
			"t2": "Herndon,+VA495",
			"suurballeNbPaths": 2,
			"suurballeTime": 4809531,
			"suurballePaths": {
				"path0": [
					"Weehawken,+NJ552",
					"Weehawken,+NJ544",
					"Herndon,+VA495"
				],
				"lat0": 4.000000,
				"nbSeg0": 4,
				"path1": [
					"Chicago,+IL155",
					"Chicago,+IL156",
					"Oak+Brook,+IL300",
					"Weehawken,+NJ543",
					"Jersey+City,+NJ244",
					"London277"
				],
				"lat1": 41.000000,
				"nbSeg1": 10
			},
			"pathsExist": false,
			"runtime": 2763026182,
			"nomLat1": 32.000000,
			"nomLat2": 14.000000,
			"maxNomLat": 32.000000,
			"mincut": 8
		},
		{
			"s1": "Herndon,+VA495",
			"s2": "Santa+Clara,+CA388",
			"t1": "Irvine,+CA230",
			"t2": "Santa+Clara,+CA431",
			"suurballeNbPaths": 2,
			"suurballeTime": 14381894,
			"suurballePaths": {
				"path0": [
					"Herndon,+VA495",
					"Herndon,+VA496",
					"Santa+Clara,+CA429",
					"Santa+Clara,+CA431"
				],
				"lat0": 23.000000,
				"nbSeg0": 6,
				"path1": [
					"Santa+Clara,+CA388",
					"Santa+Clara,+CA389",
					"Santa+Clara,+CA443",
					"El+Segundo,+CA164",
					"Irvine,+CA230"
				],
				"lat1": 8.000000,
				"nbSeg1": 8
			},
			"pathsExist": false,
			"runtime": 36306411481,
			"nomLat1": 29.000000,
			"nomLat2": 5.000000,
			"maxNomLat": 29.000000,
			"mincut": 14
		},
		{
			"s1": "Santa+Clara,+CA431",
			"s2": "Chicago,+IL156",
			"t1": "Santa+Clara,+CA389",
			"t2": "Waltham,+MA556",
			"suurballeNbPaths": 2,
			"suurballeTime": 14853267,
			"suurballePaths": {
				"path0": [
					"Santa+Clara,+CA431",
					"Santa+Clara,+CA443",
					"Santa+Clara,+CA389"
				],
				"lat0": 2.000000,
				"nbSeg0": 4,
				"path1": [
					"Chicago,+IL156",
					"Oak+Brook,+IL300",
					"Waltham,+MA556"
				],
				"lat1": 10.000000,
				"nbSeg1": 4
			},
			"pathsExist": true,
			"path1": [
				"Santa+Clara,+CA431",
				"Santa+Clara,+CA389"
			],
			"lat1": 4.000000,
			"path2": [
				"Chicago,+IL156",
				"Waltham,+MA556"
			],
			"lat2": 10.000000,
			"maxlat": 10.000000,
			"runtime": 9260216,
			"nomLat1": 4.000000,
			"nomLat2": 10.000000,
			"maxNomLat": 10.000000,
			"mincut": 16
		},
		{
			"s1": "New+York,+NY294",
			"s2": "Oak+Brook,+IL301",
			"t1": "Austin,+TX136",
			"t2": "Santa+Clara,+CA388",
			"suurballeNbPaths": 2,
			"suurballeTime": 4862192,
			"suurballePaths": {
				"path0": [
					"Oak+Brook,+IL301",
					"San+Jose,+CA471",
					"Santa+Clara,+CA389",
					"Santa+Clara,+CA388"
				],
				"lat0": 19.000000,
				"nbSeg0": 6,
				"path1": [
					"New+York,+NY294",
					"Weehawken,+NJ543",
					"Atlanta,+GA127",
					"Fort+Worth,+TX190",
					"Austin,+TX136"
				],
				"lat1": 20.000000,
				"nbSeg1": 8
			},
			"pathsExist": false,
			"runtime": 41421880461,
			"nomLat1": 29.000000,
			"nomLat2": 19.000000,
			"maxNomLat": 29.000000,
			"mincut": 10
		},
		{
			"s1": "Santa+Clara,+CA388",
			"s2": "Austin,+TX137",
			"t1": "Santa+Clara,+CA444",
			"t2": "Austin,+TX136",
			"suurballeNbPaths": 2,
			"suurballeTime": 4903146,
			"suurballePaths": {
				"path0": [
					"Santa+Clara,+CA388",
					"Santa+Clara,+CA389",
					"Santa+Clara,+CA403",
					"Santa+Clara,+CA444"
				],
				"lat0": 3.000000,
				"nbSeg0": 6,
				"path1": [
					"Austin,+TX137",
					"Fort+Worth,+TX189",
					"Fort+Worth,+TX190",
					"Austin,+TX136"
				],
				"lat1": 7.000000,
				"nbSeg1": 6
			},
			"pathsExist": true,
			"path1": [
				"Santa+Clara,+CA388",
				"Palo+Alto,+CA104",
				"Santa+Clara,+CA429",
				"Santa+Clara,+CA430",
				"Santa+Clara,+CA444"
			],
			"lat1": 9.000000,
			"path2": [
				"Austin,+TX137",
				"Austin,+TX136"
			],
			"lat2": 7.000000,
			"maxlat": 9.000000,
			"runtime": 12587650500,
			"nomLat1": 5.000000,
			"nomLat2": 7.000000,
			"maxNomLat": 7.000000,
			"mincut": 12
		},
		{
			"s1": "New+York,+NY293",
			"s2": "Frankfurt184",
			"t1": "Fort+Worth,+TX190",
			"t2": "Chicago,+IL155",
			"suurballeNbPaths": 2,
			"suurballeTime": 4354355,
			"suurballePaths": {
				"path0": [
					"New+York,+NY293",
					"Weehawken,+NJ543",
					"Atlanta,+GA127",
					"Fort+Worth,+TX190"
				],
				"lat0": 17.000000,
				"nbSeg0": 5,
				"path1": [
					"Frankfurt184",
					"Jersey+City,+NJ244",
					"Weehawken,+NJ543",
					"Oak+Brook,+IL300",
					"Oak+Brook,+IL301",
					"Chicago,+IL155"
				],
				"lat1": 44.000000,
				"nbSeg1": 10
			},
			"pathsExist": false,
			"runtime": 3384957667,
			"nomLat1": 25.000000,
			"nomLat2": 44.000000,
			"maxNomLat": 44.000000,
			"mincut": 10
		},
		{
			"s1": "Santa+Clara,+CA403",
			"s2": "San+Jose,+CA471",
			"t1": "Tokyo526",
			"t2": "Palo+Alto,+CA317",
			"suurballeNbPaths": 2,
			"suurballeTime": 14468017,
			"suurballePaths": {
				"path0": [
					"Santa+Clara,+CA403",
					"Palo+Alto,+CA104",
					"Palo+Alto,+CA317"
				],
				"lat0": 3.000000,
				"nbSeg0": 4,
				"path1": [
					"San+Jose,+CA471",
					"San+Jose,+CA472",
					"Santa+Clara,+CA430",
					"Santa+Clara,+CA336",
					"Tokyo526"
				],
				"lat1": 47.000000,
				"nbSeg1": 8
			},
			"pathsExist": true,
			"path1": [
				"Santa+Clara,+CA403",
				"Santa+Clara,+CA389",
				"Santa+Clara,+CA443",
				"Santa+Clara,+CA404",
				"Tokyo526"
			],
			"lat1": 47.000000,
			"path2": [
				"San+Jose,+CA471",
				"Palo+Alto,+CA317"
			],
			"lat2": 5.000000,
			"maxlat": 47.000000,
			"runtime": 4905900977,
			"nomLat1": 45.000000,
			"nomLat2": 5.000000,
			"maxNomLat": 45.000000,
			"mincut": 12
		},
		{
			"s1": "Jersey+City,+NJ245",
			"s2": "Santa+Clara,+CA444",
			"t1": "Irvine,+CA212",
			"t2": "Palo+Alto,+CA317",
			"suurballeNbPaths": 2,
			"suurballeTime": 4754151,
			"suurballePaths": {
				"path0": [
					"Santa+Clara,+CA444",
					"Palo+Alto,+CA104",
					"Palo+Alto,+CA317"
				],
				"lat0": 3.000000,
				"nbSeg0": 4,
				"path1": [
					"Jersey+City,+NJ245",
					"Jersey+City,+NJ244",
					"Weehawken,+NJ543",
					"Atlanta,+GA127",
					"Fort+Worth,+TX190",
					"Irvine,+CA229",
					"El+Segundo,+CA164",
					"El+Segundo,+CA163",
					"Irvine,+CA212"
				],
				"lat1": 34.000000,
				"nbSeg1": 16
			},
			"pathsExist": false,
			"runtime": 44155041424,
			"nomLat1": 35.000000,
			"nomLat2": 3.000000,
			"maxNomLat": 35.000000,
			"mincut": 10
		},
		{
			"s1": "Jersey+City,+NJ261",
			"s2": "Irvine,+CA231",
			"t1": "Waltham,+MA568",
			"t2": "Austin,+TX136",
			"suurballeNbPaths": 2,
			"suurballeTime": 4715903,
			"suurballePaths": {
				"path0": [
					"Jersey+City,+NJ261",
					"Jersey+City,+NJ244",
					"Waltham,+MA568"
				],
				"lat0": 4.000000,
				"nbSeg0": 3,
				"path1": [
					"Irvine,+CA231",
					"Irvine,+CA228",
					"Fort+Worth,+TX190",
					"Austin,+TX136"
				],
				"lat1": 15.000000,
				"nbSeg1": 6
			},
			"pathsExist": false,
			"runtime": 24073028180,
			"nomLat1": 5.000000,
			"nomLat2": 15.000000,
			"maxNomLat": 15.000000,
			"mincut": 8
		},
		{
			"s1": "Herndon,+VA193",
			"s2": "Santa+Clara,+CA363",
			"t1": "Fort+Worth,+TX189",
			"t2": "Austin,+TX137",
			"suurballeNbPaths": 2,
			"suurballeTime": 4735048,
			"suurballePaths": {
				"path0": [
					"Herndon,+VA193",
					"Atlanta,+GA127",
					"Fort+Worth,+TX190",
					"Fort+Worth,+TX189"
				],
				"lat0": 15.000000,
				"nbSeg0": 6,
				"path1": [
					"Santa+Clara,+CA363",
					"Santa+Clara,+CA431",
					"Santa+Clara,+CA443",
					"Santa+Clara,+CA404",
					"El+Segundo,+CA163",
					"Austin,+TX137"
				],
				"lat1": 18.000000,
				"nbSeg1": 10
			},
			"pathsExist": true,
			"path1": [
				"Herndon,+VA193",
				"Santa+Clara,+CA429",
				"Fort+Worth,+TX189"
			],
			"lat1": 36.000000,
			"path2": [
				"Santa+Clara,+CA363",
				"Santa+Clara,+CA404",
				"Austin,+TX137"
			],
			"lat2": 18.000000,
			"maxlat": 36.000000,
			"runtime": 9784910238,
			"nomLat1": 16.000000,
			"nomLat2": 22.000000,
			"maxNomLat": 22.000000,
			"mincut": 10
		},
		{
			"s1": "Tokyo526",
			"s2": "Santa+Clara,+CA388",
			"t1": "Santa+Clara,+CA365",
			"t2": "Austin,+TX136",
			"suurballeNbPaths": 2,
			"suurballeTime": 4750262,
			"suurballePaths": {
				"path0": [
					"Santa+Clara,+CA388",
					"Santa+Clara,+CA389",
					"Santa+Clara,+CA443",
					"Santa+Clara,+CA431",
					"Santa+Clara,+CA365"
				],
				"lat0": 4.000000,
				"nbSeg0": 8,
				"path1": [
					"Tokyo526",
					"Tokyo525",
					"Santa+Clara,+CA404",
					"Santa+Clara,+CA403",
					"Fort+Worth,+TX189",
					"Fort+Worth,+TX190",
					"Austin,+TX136"
				],
				"lat1": 62.000000,
				"nbSeg1": 12
			},
			"pathsExist": false,
			"runtime": 4113574920,
			"nomLat1": 48.000000,
			"nomLat2": 19.000000,
			"maxNomLat": 48.000000,
			"mincut": 6
		},
		{
			"s1": "Santa+Clara,+CA365",
			"s2": "Jersey+City,+NJ245",
			"t1": "Oak+Brook,+IL300",
			"t2": "San+Jose,+CA459",
			"suurballeNbPaths": 2,
			"suurballeTime": 4626727,
			"suurballePaths": {
				"path0": [
					"Santa+Clara,+CA365",
					"Santa+Clara,+CA431",
					"Santa+Clara,+CA429",
					"San+Jose,+CA459"
				],
				"lat0": 4.000000,
				"nbSeg0": 6,
				"path1": [
					"Jersey+City,+NJ245",
					"Weehawken,+NJ544",
					"Weehawken,+NJ552",
					"Oak+Brook,+IL300"
				],
				"lat1": 10.000000,
				"nbSeg1": 6
			},
			"pathsExist": false,
			"runtime": 15147784131,
			"nomLat1": 23.000000,
			"nomLat2": 29.000000,
			"maxNomLat": 29.000000,
			"mincut": 16
		},
		{
			"s1": "Palo+Alto,+CA317",
			"s2": "Palo+Alto,+CA104",
			"t1": "El+Segundo,+CA164",
			"t2": "Herndon,+VA496",
			"suurballeNbPaths": 2,
			"suurballeTime": 4954054,
			"suurballePaths": {
				"path0": [
					"Palo+Alto,+CA104",
					"Santa+Clara,+CA403",
					"El+Segundo,+CA164"
				],
				"lat0": 6.000000,
				"nbSeg0": 4,
				"path1": [
					"Palo+Alto,+CA317",
					"Palo+Alto,+CA104",
					"Santa+Clara,+CA403",
					"Santa+Clara,+CA429",
					"Herndon,+VA496"
				],
				"lat1": 25.000000,
				"nbSeg1": 8
			},
			"pathsExist": true,
			"path1": [
				"Palo+Alto,+CA317",
				"Santa+Clara,+CA388",
				"Santa+Clara,+CA389",
				"Santa+Clara,+CA444",
				"El+Segundo,+CA164"
			],
			"lat1": 10.000000,
			"path2": [
				"Palo+Alto,+CA104",
				"Herndon,+VA496"
			],
			"lat2": 24.000000,
			"maxlat": 24.000000,
			"runtime": 5960825911,
			"nomLat1": 8.000000,
			"nomLat2": 24.000000,
			"maxNomLat": 24.000000,
			"mincut": 12
		},
		{
			"s1": "Oak+Brook,+IL309",
			"s2": "Santa+Clara,+CA365",
			"t1": "Santa+Clara,+CA444",
			"t2": "Irvine,+CA231",
			"suurballeNbPaths": 2,
			"suurballeTime": 4730709,
			"suurballePaths": {
				"path0": [
					"Santa+Clara,+CA365",
					"Santa+Clara,+CA431",
					"Santa+Clara,+CA443",
					"Santa+Clara,+CA444"
				],
				"lat0": 3.000000,
				"nbSeg0": 6,
				"path1": [
					"Oak+Brook,+IL309",
					"Oak+Brook,+IL300",
					"Chicago,+IL156",
					"Fort+Worth,+TX189",
					"Irvine,+CA228",
					"Irvine,+CA231"
				],
				"lat1": 23.000000,
				"nbSeg1": 9
			},
			"pathsExist": false,
			"runtime": 9339854637,
			"nomLat1": 19.000000,
			"nomLat2": 11.000000,
			"maxNomLat": 19.000000,
			"mincut": 8
		},
		{
			"s1": "Santa+Clara,+CA403",
			"s2": "Oak+Brook,+IL309",
			"t1": "New+York,+NY293",
			"t2": "Fort+Worth,+TX189",
			"suurballeNbPaths": 2,
			"suurballeTime": 4642142,
			"suurballePaths": {
				"path0": [
					"Santa+Clara,+CA403",
					"Fort+Worth,+TX189"
				],
				"lat0": 13.000000,
				"nbSeg0": 2,
				"path1": [
					"Oak+Brook,+IL309",
					"Oak+Brook,+IL300",
					"Weehawken,+NJ543",
					"New+York,+NY293"
				],
				"lat1": 10.000000,
				"nbSeg1": 5
			},
			"pathsExist": false,
			"runtime": 21737975182,
			"nomLat1": 39.000000,
			"nomLat2": 11.000000,
			"maxNomLat": 39.000000,
			"mincut": 20
		},
		{
			"s1": "Waltham,+MA556",
			"s2": "Palo+Alto,+CA317",
			"t1": "Weehawken,+NJ544",
			"t2": "Santa+Clara,+CA443",
			"suurballeNbPaths": 2,
			"suurballeTime": 4381660,
			"suurballePaths": {
				"path0": [
					"Palo+Alto,+CA317",
					"Palo+Alto,+CA104",
					"Santa+Clara,+CA444",
					"Santa+Clara,+CA443"
				],
				"lat0": 4.000000,
				"nbSeg0": 6,
				"path1": [
					"Waltham,+MA556",
					"Waltham,+MA569",
					"Jersey+City,+NJ244",
					"Jersey+City,+NJ245",
					"Weehawken,+NJ544"
				],
				"lat1": 7.000000,
				"nbSeg1": 7
			},
			"pathsExist": true,
			"path1": [
				"Waltham,+MA556",
				"Oak+Brook,+IL300",
				"Weehawken,+NJ543",
				"Weehawken,+NJ552",
				"Weehawken,+NJ544"
			],
			"lat1": 17.000000,
			"path2": [
				"Palo+Alto,+CA317",
				"Santa+Clara,+CA443"
			],
			"lat2": 4.000000,
			"maxlat": 17.000000,
			"runtime": 15661265587,
			"nomLat1": 9.000000,
			"nomLat2": 4.000000,
			"maxNomLat": 9.000000,
			"mincut": 14
		},
		{
			"s1": "Palo+Alto,+CA317",
			"s2": "Santa+Clara,+CA431",
			"t1": "Weehawken,+NJ552",
			"t2": "Santa+Clara,+CA403",
			"suurballeNbPaths": 2,
			"suurballeTime": 14869422,
			"suurballePaths": {
				"path0": [
					"Palo+Alto,+CA317",
					"Palo+Alto,+CA104",
					"Santa+Clara,+CA403"
				],
				"lat0": 3.000000,
				"nbSeg0": 4,
				"path1": [
					"Santa+Clara,+CA431",
					"Santa+Clara,+CA429",
					"Herndon,+VA496",
					"Herndon,+VA495",
					"Weehawken,+NJ544",
					"Weehawken,+NJ552"
				],
				"lat1": 27.000000,
				"nbSeg1": 10
			},
			"pathsExist": false,
			"runtime": 35700516441,
			"nomLat1": 30.000000,
			"nomLat2": 5.000000,
			"maxNomLat": 30.000000,
			"mincut": 16
		},
		{
			"s1": "Frankfurt184",
			"s2": "Irvine,+CA213",
			"t1": "London276",
			"t2": "Irvine,+CA228",
			"suurballeNbPaths": 2,
			"suurballeTime": 4564463,
			"suurballePaths": {
				"path0": [
					"Irvine,+CA213",
					"Irvine,+CA228"
				],
				"lat0": 1.000000,
				"nbSeg0": 2,
				"path1": [
					"Frankfurt184",
					"Jersey+City,+NJ244",
					"Jersey+City,+NJ245",
					"London276"
				],
				"lat1": 62.000000,
				"nbSeg1": 6
			},
			"pathsExist": false,
			"runtime": 39069541704,
			"nomLat1": 62.000000,
			"nomLat2": 1.000000,
			"maxNomLat": 62.000000,
			"mincut": 8
		}
	],
	"demandsWithSol": 27
}
