{
	"nbDemands": 100,
	"demands": [
		{
			"s1": "Santa+Clara,+CA336",
			"s2": "Fort+Worth,+TX190",
			"t1": "Santa+Clara,+CA365",
			"t2": "Oak+Brook,+IL300",
			"suurballeNbPaths": 2,
			"suurballeTime": 1326655284,
			"suurballePaths": {
				"path0": [
					"Fort+Worth,+TX190",
					"Fort+Worth,+TX189",
					"Chicago,+IL156",
					"Oak+Brook,+IL300"
				],
				"lat0": 11.000000,
				"nbSeg0": 0,
				"path1": [
					"Santa+Clara,+CA336",
					"Santa+Clara,+CA430",
					"Santa+Clara,+CA443",
					"Santa+Clara,+CA431",
					"Santa+Clara,+CA365"
				],
				"lat1": 4.000000,
				"nbSeg1": 2
			},
			"pathsExist": true,
			"path1": [
				"Santa+Clara,+CA336",
				"Santa+Clara,+CA365"
			],
			"lat1": 5.000000,
			"path2": [
				"Fort+Worth,+TX190",
				"Oak+Brook,+IL300"
			],
			"lat2": 11.000000,
			"maxlat": 11.000000,
			"runtime": 61829743,
			"nomLat1": 5.000000,
			"nomLat2": 11.000000,
			"maxNomLat": 11.000000,
			"mincut": 7
		},
		{
			"s1": "Herndon,+VA208",
			"s2": "Chicago,+IL156",
			"t1": "Tokyo525",
			"t2": "Tukwila,+WA508",
			"suurballeNbPaths": 2,
			"suurballeTime": 1161612549,
			"suurballePaths": {
				"path0": [
					"Chicago,+IL156",
					"Chicago,+IL155",
					"Tukwila,+WA508"
				],
				"lat0": 16.000000,
				"nbSeg0": 1,
				"path1": [
					"Herndon,+VA208",
					"Herndon,+VA495",
					"Herndon,+VA496",
					"Santa+Clara,+CA429",
					"Santa+Clara,+CA403",
					"Santa+Clara,+CA404",
					"Tokyo525"
				],
				"lat1": 68.000000,
				"nbSeg1": 1
			},
			"pathsExist": true,
			"path1": [
				"Herndon,+VA208",
				"Tokyo525"
			],
			"lat1": 69.000000,
			"path2": [
				"Chicago,+IL156",
				"Tukwila,+WA508"
			],
			"lat2": 17.000000,
			"maxlat": 69.000000,
			"runtime": 1416596,
			"nomLat1": 69.000000,
			"nomLat2": 17.000000,
			"maxNomLat": 69.000000,
			"mincut": 5
		},
		{
			"s1": "Chicago,+IL155",
			"s2": "Santa+Clara,+CA404",
			"t1": "Jersey+City,+NJ245",
			"t2": "San+Jose,+CA460",
			"suurballeNbPaths": 2,
			"suurballeTime": 1312669420,
			"suurballePaths": {
				"path0": [
					"Santa+Clara,+CA404",
					"Santa+Clara,+CA443",
					"San+Jose,+CA460"
				],
				"lat0": 3.000000,
				"nbSeg0": 0,
				"path1": [
					"Chicago,+IL155",
					"Chicago,+IL156",
					"Oak+Brook,+IL300",
					"Weehawken,+NJ543",
					"Jersey+City,+NJ244",
					"Jersey+City,+NJ245"
				],
				"lat1": 13.000000,
				"nbSeg1": 2
			},
			"pathsExist": true,
			"path1": [
				"Chicago,+IL155",
				"Jersey+City,+NJ245"
			],
			"lat1": 14.000000,
			"path2": [
				"Santa+Clara,+CA404",
				"San+Jose,+CA460"
			],
			"lat2": 3.000000,
			"maxlat": 14.000000,
			"runtime": 27895046,
			"nomLat1": 14.000000,
			"nomLat2": 3.000000,
			"maxNomLat": 14.000000,
			"mincut": 9
		},
		{
			"s1": "Weehawken,+NJ552",
			"s2": "Santa+Clara,+CA388",
			"t1": "Atlanta,+GA127",
			"t2": "Oak+Brook,+IL310",
			"suurballeNbPaths": 2,
			"suurballeTime": 2363603157,
			"suurballePaths": {
				"path0": [
					"Weehawken,+NJ552",
					"Weehawken,+NJ543",
					"Atlanta,+GA127"
				],
				"lat0": 8.000000,
				"nbSeg0": 1,
				"path1": [
					"Santa+Clara,+CA388",
					"Santa+Clara,+CA389",
					"San+Jose,+CA471",
					"Oak+Brook,+IL301",
					"Oak+Brook,+IL310"
				],
				"lat1": 20.000000,
				"nbSeg1": 0
			},
			"pathsExist": true,
			"path1": [
				"Weehawken,+NJ552",
				"Atlanta,+GA127"
			],
			"lat1": 13.000000,
			"path2": [
				"Santa+Clara,+CA388",
				"Oak+Brook,+IL310"
			],
			"lat2": 20.000000,
			"maxlat": 20.000000,
			"runtime": 83686132,
			"nomLat1": 13.000000,
			"nomLat2": 20.000000,
			"maxNomLat": 20.000000,
			"mincut": 6
		},
		{
			"s1": "Tukwila,+WA509",
			"s2": "Santa+Clara,+CA443",
			"t1": "Oak+Brook,+IL300",
			"t2": "El+Segundo,+CA163",
			"suurballeNbPaths": 2,
			"suurballeTime": 1577168677,
			"suurballePaths": {
				"path0": [
					"Santa+Clara,+CA443",
					"Santa+Clara,+CA404",
					"El+Segundo,+CA163"
				],
				"lat0": 5.000000,
				"nbSeg0": 1,
				"path1": [
					"Tukwila,+WA509",
					"Chicago,+IL155",
					"Chicago,+IL156",
					"Oak+Brook,+IL300"
				],
				"lat1": 18.000000,
				"nbSeg1": 1
			},
			"pathsExist": true,
			"path1": [
				"Tukwila,+WA509",
				"Oak+Brook,+IL300"
			],
			"lat1": 18.000000,
			"path2": [
				"Santa+Clara,+CA443",
				"El+Segundo,+CA163"
			],
			"lat2": 5.000000,
			"maxlat": 18.000000,
			"runtime": 41961509,
			"nomLat1": 18.000000,
			"nomLat2": 5.000000,
			"maxNomLat": 18.000000,
			"mincut": 9
		},
		{
			"s1": "Santa+Clara,+CA443",
			"s2": "Herndon,+VA193",
			"t1": "Chicago,+IL156",
			"t2": "Santa+Clara,+CA364",
			"suurballeNbPaths": 2,
			"suurballeTime": 1000116109,
			"suurballePaths": {
				"path0": [
					"Santa+Clara,+CA443",
					"Santa+Clara,+CA431",
					"Santa+Clara,+CA364"
				],
				"lat0": 2.000000,
				"nbSeg0": 0,
				"path1": [
					"Herndon,+VA193",
					"Herndon,+VA496",
					"Herndon,+VA495",
					"Weehawken,+NJ544",
					"Weehawken,+NJ552",
					"Oak+Brook,+IL300",
					"Chicago,+IL156"
				],
				"lat1": 15.000000,
				"nbSeg1": 1
			},
			"pathsExist": false,
			"runtime": 2875838,
			"nomLat1": 26.000000,
			"nomLat2": 24.000000,
			"maxNomLat": 26.000000,
			"mincut": 6
		},
		{
			"s1": "Miami,+FL285",
			"s2": "Waltham,+MA568",
			"t1": "Chicago,+IL156",
			"t2": "London276",
			"suurballeNbPaths": 2,
			"suurballeTime": 1176839096,
			"suurballePaths": {
				"path0": [
					"Miami,+FL285",
					"New+York,+NY293",
					"Weehawken,+NJ544",
					"London276"
				],
				"lat0": 41.000000,
				"nbSeg0": 2,
				"path1": [
					"Waltham,+MA568",
					"Waltham,+MA555",
					"Oak+Brook,+IL300",
					"Chicago,+IL156"
				],
				"lat1": 11.000000,
				"nbSeg1": 1
			},
			"pathsExist": true,
			"path1": [
				"Miami,+FL285",
				"Chicago,+IL156"
			],
			"lat1": 24.000000,
			"path2": [
				"Waltham,+MA568",
				"London276"
			],
			"lat2": 34.000000,
			"maxlat": 34.000000,
			"runtime": 1189845,
			"nomLat1": 24.000000,
			"nomLat2": 34.000000,
			"maxNomLat": 34.000000,
			"mincut": 5
		},
		{
			"s1": "Waltham,+MA568",
			"s2": "El+Segundo,+CA163",
			"t1": "Santa+Clara,+CA364",
			"t2": "Santa+Clara,+CA336",
			"suurballeNbPaths": 2,
			"suurballeTime": 1268554144,
			"suurballePaths": {
				"path0": [
					"El+Segundo,+CA163",
					"Santa+Clara,+CA404",
					"Santa+Clara,+CA430",
					"Santa+Clara,+CA336"
				],
				"lat0": 6.000000,
				"nbSeg0": 1,
				"path1": [
					"Waltham,+MA568",
					"Waltham,+MA555",
					"Oak+Brook,+IL300",
					"Oak+Brook,+IL301",
					"San+Jose,+CA471",
					"San+Jose,+CA472",
					"Santa+Clara,+CA430",
					"Santa+Clara,+CA364"
				],
				"lat1": 30.000000,
				"nbSeg1": 3
			},
			"pathsExist": true,
			"path1": [
				"Waltham,+MA568",
				"Santa+Clara,+CA364"
			],
			"lat1": 31.000000,
			"path2": [
				"El+Segundo,+CA163",
				"Santa+Clara,+CA336"
			],
			"lat2": 91.000000,
			"maxlat": 91.000000,
			"runtime": 52924228,
			"nomLat1": 31.000000,
			"nomLat2": 91.000000,
			"maxNomLat": 91.000000,
			"mincut": 6
		},
		{
			"s1": "Irvine,+CA231",
			"s2": "Herndon,+VA496",
			"t1": "Santa+Clara,+CA389",
			"t2": "Santa+Clara,+CA336",
			"suurballeNbPaths": 2,
			"suurballeTime": 1408486028,
			"suurballePaths": {
				"path0": [
					"Irvine,+CA231",
					"El+Segundo,+CA164",
					"Santa+Clara,+CA403",
					"Santa+Clara,+CA389"
				],
				"lat0": 7.000000,
				"nbSeg0": 2,
				"path1": [
					"Herndon,+VA496",
					"Santa+Clara,+CA429",
					"Santa+Clara,+CA430",
					"Santa+Clara,+CA336"
				],
				"lat1": 23.000000,
				"nbSeg1": 0
			},
			"pathsExist": true,
			"path1": [
				"Irvine,+CA231",
				"Santa+Clara,+CA389"
			],
			"lat1": 7.000000,
			"path2": [
				"Herndon,+VA496",
				"Santa+Clara,+CA336"
			],
			"lat2": 23.000000,
			"maxlat": 23.000000,
			"runtime": 612924483,
			"nomLat1": 7.000000,
			"nomLat2": 23.000000,
			"maxNomLat": 23.000000,
			"mincut": 6
		},
		{
			"s1": "Weehawken,+NJ544",
			"s2": "Santa+Clara,+CA444",
			"t1": "Herndon,+VA206",
			"t2": "Fort+Worth,+TX191",
			"suurballeNbPaths": 2,
			"suurballeTime": 1195454511,
			"suurballePaths": {
				"path0": [
					"Weehawken,+NJ544",
					"Herndon,+VA495",
					"Herndon,+VA208",
					"Herndon,+VA206"
				],
				"lat0": 5.000000,
				"nbSeg0": 1,
				"path1": [
					"Santa+Clara,+CA444",
					"Santa+Clara,+CA403",
					"Fort+Worth,+TX189",
					"Fort+Worth,+TX191"
				],
				"lat1": 15.000000,
				"nbSeg1": 0
			},
			"pathsExist": true,
			"path1": [
				"Weehawken,+NJ544",
				"Herndon,+VA206"
			],
			"lat1": 5.000000,
			"path2": [
				"Santa+Clara,+CA444",
				"Fort+Worth,+TX191"
			],
			"lat2": 15.000000,
			"maxlat": 15.000000,
			"runtime": 931888241,
			"nomLat1": 5.000000,
			"nomLat2": 15.000000,
			"maxNomLat": 15.000000,
			"mincut": 4
		},
		{
			"s1": "Santa+Clara,+CA405",
			"s2": "Santa+Clara,+CA388",
			"t1": "Tokyo525",
			"t2": "Irvine,+CA230",
			"suurballeNbPaths": 2,
			"suurballeTime": 2185031715,
			"suurballePaths": {
				"path0": [
					"Santa+Clara,+CA405",
					"El+Segundo,+CA163",
					"El+Segundo,+CA164",
					"Irvine,+CA230"
				],
				"lat0": 7.000000,
				"nbSeg0": 0,
				"path1": [
					"Santa+Clara,+CA388",
					"Santa+Clara,+CA430",
					"Santa+Clara,+CA404",
					"Tokyo525"
				],
				"lat1": 45.000000,
				"nbSeg1": 1
			},
			"pathsExist": false,
			"runtime": 630075587,
			"nomLat1": 45.000000,
			"nomLat2": 10.000000,
			"maxNomLat": 45.000000,
			"mincut": 4
		},
		{
			"s1": "Irvine,+CA213",
			"s2": "London275",
			"t1": "Atlanta,+GA126",
			"t2": "Tukwila,+WA508",
			"suurballeNbPaths": 2,
			"suurballeTime": 1190209588,
			"suurballePaths": {
				"path0": [
					"Irvine,+CA213",
					"Santa+Clara,+CA404",
					"Santa+Clara,+CA403",
					"Santa+Clara,+CA429",
					"Tukwila,+WA508"
				],
				"lat0": 13.000000,
				"nbSeg0": 3,
				"path1": [
					"London275",
					"Weehawken,+NJ544",
					"Weehawken,+NJ543",
					"Atlanta,+GA127",
					"Atlanta,+GA126"
				],
				"lat1": 38.000000,
				"nbSeg1": 3
			},
			"pathsExist": true,
			"path1": [
				"Irvine,+CA213",
				"Atlanta,+GA126"
			],
			"lat1": 21.000000,
			"path2": [
				"London275",
				"Tukwila,+WA508"
			],
			"lat2": 59.000000,
			"maxlat": 59.000000,
			"runtime": 723021098,
			"nomLat1": 21.000000,
			"nomLat2": 59.000000,
			"maxNomLat": 59.000000,
			"mincut": 6
		},
		{
			"s1": "Herndon,+VA208",
			"s2": "Fort+Worth,+TX189",
			"t1": "Herndon,+VA495",
			"t2": "Waltham,+MA568",
			"suurballeNbPaths": 2,
			"suurballeTime": 1426089542,
			"suurballePaths": {
				"path0": [
					"Herndon,+VA208",
					"Herndon,+VA495"
				],
				"lat0": 1.000000,
				"nbSeg0": 0,
				"path1": [
					"Fort+Worth,+TX189",
					"Chicago,+IL156",
					"Oak+Brook,+IL300",
					"Waltham,+MA555",
					"Waltham,+MA568"
				],
				"lat1": 19.000000,
				"nbSeg1": 1
			},
			"pathsExist": true,
			"path1": [
				"Herndon,+VA208",
				"Herndon,+VA495"
			],
			"lat1": 1.000000,
			"path2": [
				"Fort+Worth,+TX189",
				"Waltham,+MA568"
			],
			"lat2": 20.000000,
			"maxlat": 20.000000,
			"runtime": 78158991,
			"nomLat1": 1.000000,
			"nomLat2": 20.000000,
			"maxNomLat": 20.000000,
			"mincut": 6
		},
		{
			"s1": "Irvine,+CA229",
			"s2": "Atlanta,+GA126",
			"t1": "Santa+Clara,+CA443",
			"t2": "Fort+Worth,+TX190",
			"suurballeNbPaths": 2,
			"suurballeTime": 2152055065,
			"suurballePaths": {
				"path0": [
					"Irvine,+CA229",
					"El+Segundo,+CA164",
					"Santa+Clara,+CA443"
				],
				"lat0": 6.000000,
				"nbSeg0": 0,
				"path1": [
					"Atlanta,+GA126",
					"Atlanta,+GA127",
					"Fort+Worth,+TX190"
				],
				"lat1": 9.000000,
				"nbSeg1": 0
			},
			"pathsExist": true,
			"path1": [
				"Irvine,+CA229",
				"Santa+Clara,+CA443"
			],
			"lat1": 6.000000,
			"path2": [
				"Atlanta,+GA126",
				"Fort+Worth,+TX190"
			],
			"lat2": 9.000000,
			"maxlat": 9.000000,
			"runtime": 668402732,
			"nomLat1": 6.000000,
			"nomLat2": 9.000000,
			"maxNomLat": 9.000000,
			"mincut": 6
		},
		{
			"s1": "Santa+Clara,+CA365",
			"s2": "Atlanta,+GA126",
			"t1": "Santa+Clara,+CA403",
			"t2": "Fort+Worth,+TX191",
			"suurballeNbPaths": 2,
			"suurballeTime": 1388574064,
			"suurballePaths": {
				"path0": [
					"Santa+Clara,+CA365",
					"Santa+Clara,+CA431",
					"Santa+Clara,+CA429",
					"Santa+Clara,+CA403"
				],
				"lat0": 3.000000,
				"nbSeg0": 2,
				"path1": [
					"Atlanta,+GA126",
					"Atlanta,+GA127",
					"Fort+Worth,+TX190",
					"Fort+Worth,+TX191"
				],
				"lat1": 10.000000,
				"nbSeg1": 0
			},
			"pathsExist": true,
			"path1": [
				"Santa+Clara,+CA365",
				"Santa+Clara,+CA403"
			],
			"lat1": 4.000000,
			"path2": [
				"Atlanta,+GA126",
				"Fort+Worth,+TX191"
			],
			"lat2": 10.000000,
			"maxlat": 10.000000,
			"runtime": 31403035,
			"nomLat1": 4.000000,
			"nomLat2": 10.000000,
			"maxNomLat": 10.000000,
			"mincut": 5
		},
		{
			"s1": "Miami,+FL285",
			"s2": "Santa+Clara,+CA444",
			"t1": "Austin,+TX137",
			"t2": "Waltham,+MA569",
			"suurballeNbPaths": 2,
			"suurballeTime": 1480115670,
			"suurballePaths": {
				"path0": [
					"Santa+Clara,+CA444",
					"Santa+Clara,+CA404",
					"El+Segundo,+CA163",
					"Austin,+TX137"
				],
				"lat0": 16.000000,
				"nbSeg0": 2,
				"path1": [
					"Miami,+FL285",
					"New+York,+NY293",
					"Weehawken,+NJ543",
					"Jersey+City,+NJ244",
					"Waltham,+MA569"
				],
				"lat1": 17.000000,
				"nbSeg1": 1
			},
			"pathsExist": false,
			"runtime": 98084548,
			"nomLat1": 19.000000,
			"nomLat2": 31.000000,
			"maxNomLat": 31.000000,
			"mincut": 5
		},
		{
			"s1": "Irvine,+CA228",
			"s2": "Atlanta,+GA127",
			"t1": "Santa+Clara,+CA363",
			"t2": "London276",
			"suurballeNbPaths": 2,
			"suurballeTime": 1404826613,
			"suurballePaths": {
				"path0": [
					"Atlanta,+GA127",
					"Weehawken,+NJ543",
					"Weehawken,+NJ544",
					"London276"
				],
				"lat0": 37.000000,
				"nbSeg0": 4,
				"path1": [
					"Irvine,+CA228",
					"Irvine,+CA213",
					"Santa+Clara,+CA404",
					"Santa+Clara,+CA443",
					"Santa+Clara,+CA431",
					"Santa+Clara,+CA363"
				],
				"lat1": 8.000000,
				"nbSeg1": 2
			},
			"pathsExist": true,
			"path1": [
				"Irvine,+CA228",
				"Santa+Clara,+CA363"
			],
			"lat1": 9.000000,
			"path2": [
				"Atlanta,+GA127",
				"London276"
			],
			"lat2": 43.000000,
			"maxlat": 43.000000,
			"runtime": 1432398444,
			"nomLat1": 9.000000,
			"nomLat2": 43.000000,
			"maxNomLat": 43.000000,
			"mincut": 4
		},
		{
			"s1": "Santa+Clara,+CA403",
			"s2": "Herndon,+VA208",
			"t1": "Tukwila,+WA509",
			"t2": "Santa+Clara,+CA363",
			"suurballeNbPaths": 2,
			"suurballeTime": 1649504979,
			"suurballePaths": {
				"path0": [
					"Santa+Clara,+CA403",
					"Santa+Clara,+CA429",
					"Santa+Clara,+CA431",
					"Santa+Clara,+CA363"
				],
				"lat0": 3.000000,
				"nbSeg0": 1,
				"path1": [
					"Herndon,+VA208",
					"New+York,+NY293",
					"Weehawken,+NJ543",
					"Oak+Brook,+IL300",
					"Oak+Brook,+IL301",
					"Chicago,+IL155",
					"Tukwila,+WA509"
				],
				"lat1": 30.000000,
				"nbSeg1": 4
			},
			"pathsExist": true,
			"path1": [
				"Santa+Clara,+CA403",
				"Tukwila,+WA509"
			],
			"lat1": 9.000000,
			"path2": [
				"Herndon,+VA208",
				"Santa+Clara,+CA363"
			],
			"lat2": 25.000000,
			"maxlat": 25.000000,
			"runtime": 510942320,
			"nomLat1": 9.000000,
			"nomLat2": 25.000000,
			"maxNomLat": 25.000000,
			"mincut": 4
		},
		{
			"s1": "Waltham,+MA555",
			"s2": "Santa+Clara,+CA364",
			"t1": "Jersey+City,+NJ245",
			"t2": "San+Jose,+CA460",
			"suurballeNbPaths": 2,
			"suurballeTime": 1315191277,
			"suurballePaths": {
				"path0": [
					"Waltham,+MA555",
					"Waltham,+MA568",
					"Jersey+City,+NJ244",
					"Jersey+City,+NJ245"
				],
				"lat0": 5.000000,
				"nbSeg0": 1,
				"path1": [
					"Santa+Clara,+CA364",
					"Santa+Clara,+CA430",
					"Santa+Clara,+CA443",
					"San+Jose,+CA460"
				],
				"lat1": 4.000000,
				"nbSeg1": 2
			},
			"pathsExist": true,
			"path1": [
				"Waltham,+MA555",
				"Jersey+City,+NJ245"
			],
			"lat1": 6.000000,
			"path2": [
				"Santa+Clara,+CA364",
				"San+Jose,+CA460"
			],
			"lat2": 4.000000,
			"maxlat": 6.000000,
			"runtime": 40877240,
			"nomLat1": 6.000000,
			"nomLat2": 4.000000,
			"maxNomLat": 6.000000,
			"mincut": 6
		},
		{
			"s1": "Oak+Brook,+IL309",
			"s2": "Herndon,+VA496",
			"t1": "Chicago,+IL155",
			"t2": "Tokyo525",
			"suurballeNbPaths": 2,
			"suurballeTime": 1511299059,
			"suurballePaths": {
				"path0": [
					"Oak+Brook,+IL309",
					"Oak+Brook,+IL301",
					"Chicago,+IL155"
				],
				"lat0": 3.000000,
				"nbSeg0": 0,
				"path1": [
					"Herndon,+VA496",
					"Santa+Clara,+CA429",
					"Santa+Clara,+CA403",
					"Santa+Clara,+CA404",
					"Tokyo525"
				],
				"lat1": 66.000000,
				"nbSeg1": 1
			},
			"pathsExist": true,
			"path1": [
				"Oak+Brook,+IL309",
				"Chicago,+IL155"
			],
			"lat1": 3.000000,
			"path2": [
				"Herndon,+VA496",
				"Tokyo525"
			],
			"lat2": 67.000000,
			"maxlat": 67.000000,
			"runtime": 74217823,
			"nomLat1": 3.000000,
			"nomLat2": 67.000000,
			"maxNomLat": 67.000000,
			"mincut": 5
		},
		{
			"s1": "Santa+Clara,+CA443",
			"s2": "Irvine,+CA231",
			"t1": "Santa+Clara,+CA403",
			"t2": "Atlanta,+GA126",
			"suurballeNbPaths": 2,
			"suurballeTime": 1404556684,
			"suurballePaths": {
				"path0": [
					"Santa+Clara,+CA443",
					"Santa+Clara,+CA404",
					"Santa+Clara,+CA403"
				],
				"lat0": 2.000000,
				"nbSeg0": 1,
				"path1": [
					"Irvine,+CA231",
					"Irvine,+CA228",
					"Fort+Worth,+TX190",
					"Atlanta,+GA127",
					"Atlanta,+GA126"
				],
				"lat1": 21.000000,
				"nbSeg1": 0
			},
			"pathsExist": true,
			"path1": [
				"Santa+Clara,+CA443",
				"Santa+Clara,+CA403"
			],
			"lat1": 2.000000,
			"path2": [
				"Irvine,+CA231",
				"Atlanta,+GA126"
			],
			"lat2": 21.000000,
			"maxlat": 21.000000,
			"runtime": 66660488,
			"nomLat1": 2.000000,
			"nomLat2": 21.000000,
			"maxNomLat": 21.000000,
			"mincut": 10
		},
		{
			"s1": "Santa+Clara,+CA388",
			"s2": "Atlanta,+GA133",
			"t1": "Santa+Clara,+CA404",
			"t2": "El+Segundo,+CA164",
			"suurballeNbPaths": 2,
			"suurballeTime": 1411816072,
			"suurballePaths": {
				"path0": [
					"Santa+Clara,+CA388",
					"Santa+Clara,+CA430",
					"Santa+Clara,+CA404"
				],
				"lat0": 2.000000,
				"nbSeg0": 0,
				"path1": [
					"Atlanta,+GA133",
					"Atlanta,+GA127",
					"Fort+Worth,+TX190",
					"Irvine,+CA229",
					"El+Segundo,+CA164"
				],
				"lat1": 22.000000,
				"nbSeg1": 2
			},
			"pathsExist": true,
			"path1": [
				"Santa+Clara,+CA388",
				"Santa+Clara,+CA404"
			],
			"lat1": 2.000000,
			"path2": [
				"Atlanta,+GA133",
				"El+Segundo,+CA164"
			],
			"lat2": 23.000000,
			"maxlat": 23.000000,
			"runtime": 82276504,
			"nomLat1": 2.000000,
			"nomLat2": 23.000000,
			"maxNomLat": 23.000000,
			"mincut": 6
		},
		{
			"s1": "London276",
			"s2": "Santa+Clara,+CA404",
			"t1": "Amsterdam119",
			"t2": "Weehawken,+NJ552",
			"suurballeNbPaths": 2,
			"suurballeTime": 1298432263,
			"suurballePaths": {
				"path0": [
					"London276",
					"Jersey+City,+NJ245",
					"London274",
					"Amsterdam119"
				],
				"lat0": 61.000000,
				"nbSeg0": 0,
				"path1": [
					"Santa+Clara,+CA404",
					"Santa+Clara,+CA444",
					"San+Jose,+CA471",
					"Oak+Brook,+IL301",
					"Oak+Brook,+IL300",
					"Weehawken,+NJ552"
				],
				"lat1": 27.000000,
				"nbSeg1": 2
			},
			"pathsExist": true,
			"path1": [
				"London276",
				"Amsterdam119"
			],
			"lat1": 61.000000,
			"path2": [
				"Santa+Clara,+CA404",
				"Weehawken,+NJ552"
			],
			"lat2": 28.000000,
			"maxlat": 61.000000,
			"runtime": 951153376,
			"nomLat1": 61.000000,
			"nomLat2": 28.000000,
			"maxNomLat": 61.000000,
			"mincut": 5
		},
		{
			"s1": "Santa+Clara,+CA430",
			"s2": "Irvine,+CA213",
			"t1": "San+Jose,+CA471",
			"t2": "Austin,+TX137",
			"suurballeNbPaths": 2,
			"suurballeTime": 1373869326,
			"suurballePaths": {
				"path0": [
					"Santa+Clara,+CA430",
					"San+Jose,+CA472",
					"San+Jose,+CA471"
				],
				"lat0": 3.000000,
				"nbSeg0": 0,
				"path1": [
					"Irvine,+CA213",
					"El+Segundo,+CA164",
					"El+Segundo,+CA163",
					"Austin,+TX137"
				],
				"lat1": 14.000000,
				"nbSeg1": 0
			},
			"pathsExist": true,
			"path1": [
				"Santa+Clara,+CA430",
				"San+Jose,+CA471"
			],
			"lat1": 3.000000,
			"path2": [
				"Irvine,+CA213",
				"Austin,+TX137"
			],
			"lat2": 14.000000,
			"maxlat": 14.000000,
			"runtime": 679596203,
			"nomLat1": 3.000000,
			"nomLat2": 14.000000,
			"maxNomLat": 14.000000,
			"mincut": 6
		},
		{
			"s1": "El+Segundo,+CA164",
			"s2": "Santa+Clara,+CA365",
			"t1": "Tukwila,+WA509",
			"t2": "Jersey+City,+NJ261",
			"suurballeNbPaths": 2,
			"suurballeTime": 983858157,
			"suurballePaths": {
				"path0": [
					"Santa+Clara,+CA365",
					"Santa+Clara,+CA431",
					"Santa+Clara,+CA429",
					"Tukwila,+WA508",
					"Tukwila,+WA509"
				],
				"lat0": 10.000000,
				"nbSeg0": 1,
				"path1": [
					"El+Segundo,+CA164",
					"Irvine,+CA229",
					"Fort+Worth,+TX190",
					"Atlanta,+GA127",
					"Weehawken,+NJ543",
					"Jersey+City,+NJ244",
					"Jersey+City,+NJ261"
				],
				"lat1": 31.000000,
				"nbSeg1": 4
			},
			"pathsExist": false,
			"runtime": 2678286,
			"nomLat1": 14.000000,
			"nomLat2": 33.000000,
			"maxNomLat": 33.000000,
			"mincut": 4
		},
		{
			"s1": "Santa+Clara,+CA389",
			"s2": "Jersey+City,+NJ245",
			"t1": "Irvine,+CA231",
			"t2": "Waltham,+MA568",
			"suurballeNbPaths": 2,
			"suurballeTime": 1407003638,
			"suurballePaths": {
				"path0": [
					"Jersey+City,+NJ245",
					"Jersey+City,+NJ244",
					"Waltham,+MA568"
				],
				"lat0": 4.000000,
				"nbSeg0": 1,
				"path1": [
					"Santa+Clara,+CA389",
					"Santa+Clara,+CA403",
					"El+Segundo,+CA164",
					"Irvine,+CA231"
				],
				"lat1": 7.000000,
				"nbSeg1": 1
			},
			"pathsExist": true,
			"path1": [
				"Santa+Clara,+CA389",
				"Irvine,+CA231"
			],
			"lat1": 7.000000,
			"path2": [
				"Jersey+City,+NJ245",
				"Waltham,+MA568"
			],
			"lat2": 5.000000,
			"maxlat": 7.000000,
			"runtime": 37357336,
			"nomLat1": 7.000000,
			"nomLat2": 5.000000,
			"maxNomLat": 7.000000,
			"mincut": 6
		},
		{
			"s1": "Chicago,+IL156",
			"s2": "Oak+Brook,+IL301",
			"t1": "Santa+Clara,+CA404",
			"t2": "Oak+Brook,+IL315",
			"suurballeNbPaths": 2,
			"suurballeTime": 1293114236,
			"suurballePaths": {
				"path0": [
					"Chicago,+IL156",
					"Oak+Brook,+IL300",
					"Oak+Brook,+IL315"
				],
				"lat0": 3.000000,
				"nbSeg0": 0,
				"path1": [
					"Oak+Brook,+IL301",
					"San+Jose,+CA471",
					"Santa+Clara,+CA444",
					"Santa+Clara,+CA404"
				],
				"lat1": 19.000000,
				"nbSeg1": 2
			},
			"pathsExist": true,
			"path1": [
				"Chicago,+IL156",
				"Santa+Clara,+CA404"
			],
			"lat1": 26.000000,
			"path2": [
				"Oak+Brook,+IL301",
				"Oak+Brook,+IL315"
			],
			"lat2": 1.000000,
			"maxlat": 26.000000,
			"runtime": 2954164,
			"nomLat1": 26.000000,
			"nomLat2": 1.000000,
			"maxNomLat": 26.000000,
			"mincut": 9
		},
		{
			"s1": "Irvine,+CA229",
			"s2": "Waltham,+MA555",
			"t1": "London274",
			"t2": "Tokyo526",
			"suurballeNbPaths": 2,
			"suurballeTime": 2347127485,
			"suurballePaths": {
				"path0": [
					"Waltham,+MA555",
					"Waltham,+MA568",
					"Jersey+City,+NJ244",
					"Jersey+City,+NJ245",
					"London274"
				],
				"lat0": 34.000000,
				"nbSeg0": 1,
				"path1": [
					"Irvine,+CA229",
					"Irvine,+CA228",
					"Irvine,+CA213",
					"Santa+Clara,+CA404",
					"Tokyo525",
					"Tokyo526"
				],
				"lat1": 50.000000,
				"nbSeg1": 3
			},
			"pathsExist": false,
			"runtime": 501801079,
			"nomLat1": 63.000000,
			"nomLat2": 80.000000,
			"maxNomLat": 80.000000,
			"mincut": 6
		},
		{
			"s1": "Chicago,+IL156",
			"s2": "Santa+Clara,+CA388",
			"t1": "Herndon,+VA206",
			"t2": "Palo+Alto,+CA318",
			"suurballeNbPaths": 2,
			"suurballeTime": 1332885240,
			"suurballePaths": {
				"path0": [
					"Santa+Clara,+CA388",
					"Palo+Alto,+CA317",
					"Palo+Alto,+CA318"
				],
				"lat0": 3.000000,
				"nbSeg0": 0,
				"path1": [
					"Chicago,+IL156",
					"Oak+Brook,+IL300",
					"Weehawken,+NJ543",
					"New+York,+NY293",
					"Herndon,+VA206"
				],
				"lat1": 14.000000,
				"nbSeg1": 1
			},
			"pathsExist": true,
			"path1": [
				"Chicago,+IL156",
				"Herndon,+VA206"
			],
			"lat1": 15.000000,
			"path2": [
				"Santa+Clara,+CA388",
				"Palo+Alto,+CA318"
			],
			"lat2": 3.000000,
			"maxlat": 15.000000,
			"runtime": 27759976,
			"nomLat1": 15.000000,
			"nomLat2": 3.000000,
			"maxNomLat": 15.000000,
			"mincut": 5
		},
		{
			"s1": "New+York,+NY293",
			"s2": "Oak+Brook,+IL310",
			"t1": "Jersey+City,+NJ244",
			"t2": "Fort+Worth,+TX190",
			"suurballeNbPaths": 2,
			"suurballeTime": 1095808158,
			"suurballePaths": {
				"path0": [
					"New+York,+NY293",
					"Weehawken,+NJ543",
					"Jersey+City,+NJ244"
				],
				"lat0": 4.000000,
				"nbSeg0": 1,
				"path1": [
					"Oak+Brook,+IL310",
					"Oak+Brook,+IL300",
					"Chicago,+IL156",
					"Fort+Worth,+TX189",
					"Fort+Worth,+TX190"
				],
				"lat1": 12.000000,
				"nbSeg1": 0
			},
			"pathsExist": false,
			"runtime": 2673789,
			"nomLat1": 5.000000,
			"nomLat2": 12.000000,
			"maxNomLat": 12.000000,
			"mincut": 7
		},
		{
			"s1": "Irvine,+CA213",
			"s2": "Santa+Clara,+CA403",
			"t1": "San+Jose,+CA472",
			"t2": "Miami,+FL286",
			"suurballeNbPaths": 2,
			"suurballeTime": 2408320774,
			"suurballePaths": {
				"path0": [
					"Santa+Clara,+CA403",
					"Santa+Clara,+CA389",
					"San+Jose,+CA472"
				],
				"lat0": 3.000000,
				"nbSeg0": 0,
				"path1": [
					"Irvine,+CA213",
					"Irvine,+CA228",
					"Fort+Worth,+TX190",
					"Atlanta,+GA127",
					"Miami,+FL286"
				],
				"lat1": 26.000000,
				"nbSeg1": 0
			},
			"pathsExist": true,
			"path1": [
				"Irvine,+CA213",
				"San+Jose,+CA472"
			],
			"lat1": 9.000000,
			"path2": [
				"Santa+Clara,+CA403",
				"Miami,+FL286"
			],
			"lat2": 28.000000,
			"maxlat": 28.000000,
			"runtime": 353381229,
			"nomLat1": 9.000000,
			"nomLat2": 28.000000,
			"maxNomLat": 28.000000,
			"mincut": 6
		},
		{
			"s1": "Santa+Clara,+CA443",
			"s2": "Palo+Alto,+CA104",
			"t1": "Weehawken,+NJ552",
			"t2": "Miami,+FL285",
			"suurballeNbPaths": 2,
			"suurballeTime": 1092696353,
			"suurballePaths": {
				"path0": [
					"Santa+Clara,+CA443",
					"Santa+Clara,+CA444",
					"San+Jose,+CA471",
					"Oak+Brook,+IL301",
					"Oak+Brook,+IL300",
					"Weehawken,+NJ552"
				],
				"lat0": 27.000000,
				"nbSeg0": 1,
				"path1": [
					"Palo+Alto,+CA104",
					"Santa+Clara,+CA403",
					"Fort+Worth,+TX189",
					"Fort+Worth,+TX190",
					"Atlanta,+GA127",
					"Miami,+FL286",
					"Miami,+FL285"
				],
				"lat1": 31.000000,
				"nbSeg1": 0
			},
			"pathsExist": false,
			"runtime": 11277080,
			"nomLat1": 28.000000,
			"nomLat2": 31.000000,
			"maxNomLat": 31.000000,
			"mincut": 5
		},
		{
			"s1": "Santa+Clara,+CA403",
			"s2": "Chicago,+IL155",
			"t1": "Oak+Brook,+IL309",
			"t2": "Oak+Brook,+IL310",
			"suurballeNbPaths": 2,
			"suurballeTime": 2087089528,
			"suurballePaths": {
				"path0": [
					"Chicago,+IL155",
					"Oak+Brook,+IL301",
					"Oak+Brook,+IL309"
				],
				"lat0": 3.000000,
				"nbSeg0": 0,
				"path1": [
					"Santa+Clara,+CA403",
					"Santa+Clara,+CA444",
					"San+Jose,+CA471",
					"Oak+Brook,+IL301",
					"Oak+Brook,+IL310"
				],
				"lat1": 20.000000,
				"nbSeg1": 0
			},
			"pathsExist": false,
			"runtime": 782852581,
			"nomLat1": 20.000000,
			"nomLat2": 3.000000,
			"maxNomLat": 20.000000,
			"mincut": 4
		},
		{
			"s1": "Fort+Worth,+TX189",
			"s2": "London276",
			"t1": "Irvine,+CA213",
			"t2": "Fort+Worth,+TX191",
			"suurballeNbPaths": 2,
			"suurballeTime": 1115497844,
			"suurballePaths": {
				"path0": [
					"Fort+Worth,+TX189",
					"Fort+Worth,+TX191"
				],
				"lat0": 1.000000,
				"nbSeg0": 0,
				"path1": [
					"London276",
					"Weehawken,+NJ544",
					"Weehawken,+NJ543",
					"Atlanta,+GA127",
					"Fort+Worth,+TX190",
					"Irvine,+CA228",
					"Irvine,+CA213"
				],
				"lat1": 57.000000,
				"nbSeg1": 3
			},
			"pathsExist": false,
			"runtime": 14403805,
			"nomLat1": 13.000000,
			"nomLat2": 52.000000,
			"maxNomLat": 52.000000,
			"mincut": 5
		},
		{
			"s1": "Jersey+City,+NJ261",
			"s2": "Herndon,+VA496",
			"t1": "Jersey+City,+NJ245",
			"t2": "Chicago,+IL155",
			"suurballeNbPaths": 2,
			"suurballeTime": 1196906568,
			"suurballePaths": {
				"path0": [
					"Jersey+City,+NJ261",
					"Jersey+City,+NJ245"
				],
				"lat0": 1.000000,
				"nbSeg0": 0,
				"path1": [
					"Herndon,+VA496",
					"Herndon,+VA495",
					"Weehawken,+NJ544",
					"Weehawken,+NJ552",
					"Oak+Brook,+IL300",
					"Oak+Brook,+IL301",
					"Chicago,+IL155"
				],
				"lat1": 15.000000,
				"nbSeg1": 2
			},
			"pathsExist": true,
			"path1": [
				"Jersey+City,+NJ261",
				"Jersey+City,+NJ245"
			],
			"lat1": 1.000000,
			"path2": [
				"Herndon,+VA496",
				"Chicago,+IL155"
			],
			"lat2": 26.000000,
			"maxlat": 26.000000,
			"runtime": 1555540,
			"nomLat1": 1.000000,
			"nomLat2": 26.000000,
			"maxNomLat": 26.000000,
			"mincut": 5
		},
		{
			"s1": "Atlanta,+GA127",
			"s2": "El+Segundo,+CA164",
			"t1": "Palo+Alto,+CA104",
			"t2": "Santa+Clara,+CA431",
			"suurballeNbPaths": 2,
			"suurballeTime": 1357316749,
			"suurballePaths": {
				"path0": [
					"El+Segundo,+CA164",
					"Santa+Clara,+CA443",
					"Santa+Clara,+CA431"
				],
				"lat0": 5.000000,
				"nbSeg0": 0,
				"path1": [
					"Atlanta,+GA127",
					"Fort+Worth,+TX190",
					"Fort+Worth,+TX189",
					"Santa+Clara,+CA403",
					"Palo+Alto,+CA104"
				],
				"lat1": 24.000000,
				"nbSeg1": 0
			},
			"pathsExist": false,
			"runtime": 87332463,
			"nomLat1": 24.000000,
			"nomLat2": 5.000000,
			"maxNomLat": 24.000000,
			"mincut": 8
		},
		{
			"s1": "Irvine,+CA230",
			"s2": "Irvine,+CA228",
			"t1": "Oak+Brook,+IL301",
			"t2": "Herndon,+VA208",
			"suurballeNbPaths": 2,
			"suurballeTime": 1113994315,
			"suurballePaths": {
				"path0": [
					"Irvine,+CA228",
					"Fort+Worth,+TX189",
					"Chicago,+IL156",
					"Oak+Brook,+IL300",
					"Oak+Brook,+IL301"
				],
				"lat0": 22.000000,
				"nbSeg0": 2,
				"path1": [
					"Irvine,+CA230",
					"Irvine,+CA228",
					"Fort+Worth,+TX190",
					"Atlanta,+GA127",
					"Herndon,+VA193",
					"Herndon,+VA496",
					"Herndon,+VA495",
					"Herndon,+VA208"
				],
				"lat1": 29.000000,
				"nbSeg1": 2
			},
			"pathsExist": false,
			"runtime": 2524209,
			"nomLat1": 25.000000,
			"nomLat2": 29.000000,
			"maxNomLat": 29.000000,
			"mincut": 5
		},
		{
			"s1": "San+Jose,+CA459",
			"s2": "Santa+Clara,+CA405",
			"t1": "Tukwila,+WA509",
			"t2": "London275",
			"suurballeNbPaths": 2,
			"suurballeTime": 1425131829,
			"suurballePaths": {
				"path0": [
					"San+Jose,+CA459",
					"Santa+Clara,+CA429",
					"Tukwila,+WA508",
					"Tukwila,+WA509"
				],
				"lat0": 10.000000,
				"nbSeg0": 0,
				"path1": [
					"Santa+Clara,+CA405",
					"Santa+Clara,+CA403",
					"Santa+Clara,+CA429",
					"Herndon,+VA496",
					"Herndon,+VA495",
					"Weehawken,+NJ544",
					"London275"
				],
				"lat1": 56.000000,
				"nbSeg1": 2
			},
			"pathsExist": true,
			"path1": [
				"San+Jose,+CA459",
				"Tukwila,+WA509"
			],
			"lat1": 10.000000,
			"path2": [
				"Santa+Clara,+CA405",
				"London275"
			],
			"lat2": 58.000000,
			"maxlat": 58.000000,
			"runtime": 859466068,
			"nomLat1": 10.000000,
			"nomLat2": 58.000000,
			"maxNomLat": 58.000000,
			"mincut": 4
		},
		{
			"s1": "Fort+Worth,+TX189",
			"s2": "Oak+Brook,+IL300",
			"t1": "Santa+Clara,+CA431",
			"t2": "New+York,+NY294",
			"suurballeNbPaths": 2,
			"suurballeTime": 1186215899,
			"suurballePaths": {
				"path0": [
					"Oak+Brook,+IL300",
					"Weehawken,+NJ543",
					"New+York,+NY294"
				],
				"lat0": 9.000000,
				"nbSeg0": 0,
				"path1": [
					"Fort+Worth,+TX189",
					"Santa+Clara,+CA403",
					"Santa+Clara,+CA429",
					"Santa+Clara,+CA431"
				],
				"lat1": 15.000000,
				"nbSeg1": 1
			},
			"pathsExist": true,
			"path1": [
				"Fort+Worth,+TX189",
				"Santa+Clara,+CA431"
			],
			"lat1": 18.000000,
			"path2": [
				"Oak+Brook,+IL300",
				"New+York,+NY294"
			],
			"lat2": 9.000000,
			"maxlat": 18.000000,
			"runtime": 1500842,
			"nomLat1": 18.000000,
			"nomLat2": 9.000000,
			"maxNomLat": 18.000000,
			"mincut": 9
		},
		{
			"s1": "London275",
			"s2": "Waltham,+MA569",
			"t1": "Weehawken,+NJ552",
			"t2": "Santa+Clara,+CA364",
			"suurballeNbPaths": 2,
			"suurballeTime": 1600714593,
			"suurballePaths": {
				"path0": [
					"London275",
					"Weehawken,+NJ544",
					"Weehawken,+NJ552"
				],
				"lat0": 30.000000,
				"nbSeg0": 2,
				"path1": [
					"Waltham,+MA569",
					"Waltham,+MA556",
					"Oak+Brook,+IL300",
					"Oak+Brook,+IL301",
					"San+Jose,+CA471",
					"San+Jose,+CA472",
					"Santa+Clara,+CA430",
					"Santa+Clara,+CA364"
				],
				"lat1": 30.000000,
				"nbSeg1": 4
			},
			"pathsExist": false,
			"runtime": 40591126,
			"nomLat1": 32.000000,
			"nomLat2": 33.000000,
			"maxNomLat": 33.000000,
			"mincut": 6
		},
		{
			"s1": "Miami,+FL285",
			"s2": "Oak+Brook,+IL307",
			"t1": "Santa+Clara,+CA443",
			"t2": "Amsterdam119",
			"suurballeNbPaths": 2,
			"suurballeTime": 1346030380,
			"suurballePaths": {
				"path0": [
					"Miami,+FL285",
					"New+York,+NY293",
					"Weehawken,+NJ544",
					"London275",
					"Amsterdam119"
				],
				"lat0": 44.000000,
				"nbSeg0": 2,
				"path1": [
					"Oak+Brook,+IL307",
					"Oak+Brook,+IL301",
					"San+Jose,+CA471",
					"Santa+Clara,+CA444",
					"Santa+Clara,+CA443"
				],
				"lat1": 20.000000,
				"nbSeg1": 0
			},
			"pathsExist": true,
			"path1": [
				"Miami,+FL285",
				"Santa+Clara,+CA443"
			],
			"lat1": 31.000000,
			"path2": [
				"Oak+Brook,+IL307",
				"Amsterdam119"
			],
			"lat2": 44.000000,
			"maxlat": 44.000000,
			"runtime": 700858746,
			"nomLat1": 31.000000,
			"nomLat2": 44.000000,
			"maxNomLat": 44.000000,
			"mincut": 5
		},
		{
			"s1": "Oak+Brook,+IL310",
			"s2": "Santa+Clara,+CA430",
			"t1": "Jersey+City,+NJ245",
			"t2": "Santa+Clara,+CA389",
			"suurballeNbPaths": 2,
			"suurballeTime": 1275141249,
			"suurballePaths": {
				"path0": [
					"Santa+Clara,+CA430",
					"Santa+Clara,+CA443",
					"Santa+Clara,+CA389"
				],
				"lat0": 2.000000,
				"nbSeg0": 1,
				"path1": [
					"Oak+Brook,+IL310",
					"Oak+Brook,+IL300",
					"Weehawken,+NJ543",
					"Jersey+City,+NJ244",
					"Jersey+City,+NJ245"
				],
				"lat1": 11.000000,
				"nbSeg1": 1
			},
			"pathsExist": true,
			"path1": [
				"Oak+Brook,+IL310",
				"Jersey+City,+NJ245"
			],
			"lat1": 12.000000,
			"path2": [
				"Santa+Clara,+CA430",
				"Santa+Clara,+CA389"
			],
			"lat2": 2.000000,
			"maxlat": 12.000000,
			"runtime": 1400179,
			"nomLat1": 12.000000,
			"nomLat2": 2.000000,
			"maxNomLat": 12.000000,
			"mincut": 9
		},
		{
			"s1": "Santa+Clara,+CA443",
			"s2": "Oak+Brook,+IL310",
			"t1": "Santa+Clara,+CA389",
			"t2": "Herndon,+VA495",
			"suurballeNbPaths": 2,
			"suurballeTime": 1559087995,
			"suurballePaths": {
				"path0": [
					"Santa+Clara,+CA443",
					"Santa+Clara,+CA389"
				],
				"lat0": 1.000000,
				"nbSeg0": 0,
				"path1": [
					"Oak+Brook,+IL310",
					"Oak+Brook,+IL300",
					"Weehawken,+NJ552",
					"Weehawken,+NJ544",
					"Herndon,+VA495"
				],
				"lat1": 12.000000,
				"nbSeg1": 1
			},
			"pathsExist": true,
			"path1": [
				"Santa+Clara,+CA443",
				"Santa+Clara,+CA389"
			],
			"lat1": 1.000000,
			"path2": [
				"Oak+Brook,+IL310",
				"Herndon,+VA495"
			],
			"lat2": 12.000000,
			"maxlat": 12.000000,
			"runtime": 1330463585,
			"nomLat1": 1.000000,
			"nomLat2": 12.000000,
			"maxNomLat": 12.000000,
			"mincut": 8
		},
		{
			"s1": "Santa+Clara,+CA404",
			"s2": "Herndon,+VA496",
			"t1": "Santa+Clara,+CA365",
			"t2": "Irvine,+CA231",
			"suurballeNbPaths": 2,
			"suurballeTime": 1714390821,
			"suurballePaths": {
				"path0": [
					"Santa+Clara,+CA404",
					"Irvine,+CA213",
					"Irvine,+CA228",
					"Irvine,+CA231"
				],
				"lat0": 6.000000,
				"nbSeg0": 3,
				"path1": [
					"Herndon,+VA496",
					"Santa+Clara,+CA429",
					"Santa+Clara,+CA431",
					"Santa+Clara,+CA365"
				],
				"lat1": 23.000000,
				"nbSeg1": 1
			},
			"pathsExist": true,
			"path1": [
				"Santa+Clara,+CA404",
				"Santa+Clara,+CA365"
			],
			"lat1": 5.000000,
			"path2": [
				"Herndon,+VA496",
				"Irvine,+CA231"
			],
			"lat2": 28.000000,
			"maxlat": 28.000000,
			"runtime": 31365802,
			"nomLat1": 5.000000,
			"nomLat2": 28.000000,
			"maxNomLat": 28.000000,
			"mincut": 5
		},
		{
			"s1": "Irvine,+CA228",
			"s2": "Oak+Brook,+IL308",
			"t1": "Oak+Brook,+IL310",
			"t2": "San+Jose,+CA472",
			"suurballeNbPaths": 2,
			"suurballeTime": 1187294287,
			"suurballePaths": {
				"path0": [
					"Oak+Brook,+IL308",
					"Oak+Brook,+IL300",
					"Oak+Brook,+IL310"
				],
				"lat0": 2.000000,
				"nbSeg0": 0,
				"path1": [
					"Irvine,+CA228",
					"Irvine,+CA213",
					"Santa+Clara,+CA404",
					"Santa+Clara,+CA430",
					"San+Jose,+CA472"
				],
				"lat1": 8.000000,
				"nbSeg1": 2
			},
			"pathsExist": false,
			"runtime": 48578245,
			"nomLat1": 23.000000,
			"nomLat2": 18.000000,
			"maxNomLat": 23.000000,
			"mincut": 6
		},
		{
			"s1": "Oak+Brook,+IL309",
			"s2": "Tokyo526",
			"t1": "Miami,+FL286",
			"t2": "Santa+Clara,+CA364",
			"suurballeNbPaths": 2,
			"suurballeTime": 2173797509,
			"suurballePaths": {
				"path0": [
					"Tokyo526",
					"Santa+Clara,+CA336",
					"Santa+Clara,+CA430",
					"Santa+Clara,+CA364"
				],
				"lat0": 45.000000,
				"nbSeg0": 1,
				"path1": [
					"Oak+Brook,+IL309",
					"Oak+Brook,+IL300",
					"Weehawken,+NJ543",
					"Atlanta,+GA127",
					"Miami,+FL286"
				],
				"lat1": 21.000000,
				"nbSeg1": 1
			},
			"pathsExist": true,
			"path1": [
				"Oak+Brook,+IL309",
				"Miami,+FL286"
			],
			"lat1": 26.000000,
			"path2": [
				"Tokyo526",
				"Santa+Clara,+CA364"
			],
			"lat2": 48.000000,
			"maxlat": 48.000000,
			"runtime": 559584017,
			"nomLat1": 26.000000,
			"nomLat2": 48.000000,
			"maxNomLat": 48.000000,
			"mincut": 5
		},
		{
			"s1": "Santa+Clara,+CA403",
			"s2": "Santa+Clara,+CA405",
			"t1": "San+Jose,+CA472",
			"t2": "Miami,+FL286",
			"suurballeNbPaths": 2,
			"suurballeTime": 2362092992,
			"suurballePaths": {
				"path0": [
					"Santa+Clara,+CA403",
					"Santa+Clara,+CA389",
					"San+Jose,+CA472"
				],
				"lat0": 3.000000,
				"nbSeg0": 0,
				"path1": [
					"Santa+Clara,+CA405",
					"Santa+Clara,+CA403",
					"Fort+Worth,+TX189",
					"Fort+Worth,+TX190",
					"Atlanta,+GA127",
					"Miami,+FL286"
				],
				"lat1": 29.000000,
				"nbSeg1": 0
			},
			"pathsExist": true,
			"path1": [
				"Santa+Clara,+CA403",
				"San+Jose,+CA472"
			],
			"lat1": 3.000000,
			"path2": [
				"Santa+Clara,+CA405",
				"Miami,+FL286"
			],
			"lat2": 29.000000,
			"maxlat": 29.000000,
			"runtime": 157282871,
			"nomLat1": 3.000000,
			"nomLat2": 29.000000,
			"maxNomLat": 29.000000,
			"mincut": 6
		},
		{
			"s1": "Herndon,+VA208",
			"s2": "Chicago,+IL155",
			"t1": "Oak+Brook,+IL309",
			"t2": "San+Jose,+CA460",
			"suurballeNbPaths": 2,
			"suurballeTime": 1550664340,
			"suurballePaths": {
				"path0": [
					"Chicago,+IL155",
					"Oak+Brook,+IL301",
					"Oak+Brook,+IL309"
				],
				"lat0": 3.000000,
				"nbSeg0": 0,
				"path1": [
					"Herndon,+VA208",
					"Herndon,+VA495",
					"Herndon,+VA496",
					"Santa+Clara,+CA429",
					"San+Jose,+CA459",
					"San+Jose,+CA460"
				],
				"lat1": 26.000000,
				"nbSeg1": 1
			},
			"pathsExist": true,
			"path1": [
				"Herndon,+VA208",
				"Oak+Brook,+IL309"
			],
			"lat1": 15.000000,
			"path2": [
				"Chicago,+IL155",
				"San+Jose,+CA460"
			],
			"lat2": 27.000000,
			"maxlat": 27.000000,
			"runtime": 51201884,
			"nomLat1": 15.000000,
			"nomLat2": 27.000000,
			"maxNomLat": 27.000000,
			"mincut": 6
		},
		{
			"s1": "Weehawken,+NJ552",
			"s2": "London274",
			"t1": "Irvine,+CA228",
			"t2": "Oak+Brook,+IL308",
			"suurballeNbPaths": 2,
			"suurballeTime": 1476853225,
			"suurballePaths": {
				"path0": [
					"Weehawken,+NJ552",
					"Oak+Brook,+IL300",
					"Oak+Brook,+IL308"
				],
				"lat0": 8.000000,
				"nbSeg0": 0,
				"path1": [
					"London274",
					"Weehawken,+NJ544",
					"Weehawken,+NJ543",
					"Atlanta,+GA127",
					"Fort+Worth,+TX190",
					"Irvine,+CA228"
				],
				"lat1": 56.000000,
				"nbSeg1": 3
			},
			"pathsExist": false,
			"runtime": 112992016,
			"nomLat1": 32.000000,
			"nomLat2": 41.000000,
			"maxNomLat": 41.000000,
			"mincut": 6
		},
		{
			"s1": "San+Jose,+CA471",
			"s2": "Tukwila,+WA509",
			"t1": "Santa+Clara,+CA443",
			"t2": "Tokyo526",
			"suurballeNbPaths": 2,
			"suurballeTime": 1594366222,
			"suurballePaths": {
				"path0": [
					"San+Jose,+CA471",
					"Santa+Clara,+CA444",
					"Santa+Clara,+CA443"
				],
				"lat0": 3.000000,
				"nbSeg0": 0,
				"path1": [
					"Tukwila,+WA509",
					"Tukwila,+WA508",
					"Santa+Clara,+CA429",
					"Santa+Clara,+CA430",
					"Santa+Clara,+CA336",
					"Tokyo526"
				],
				"lat1": 53.000000,
				"nbSeg1": 0
			},
			"pathsExist": true,
			"path1": [
				"San+Jose,+CA471",
				"Santa+Clara,+CA443"
			],
			"lat1": 3.000000,
			"path2": [
				"Tukwila,+WA509",
				"Tokyo526"
			],
			"lat2": 53.000000,
			"maxlat": 53.000000,
			"runtime": 62515871,
			"nomLat1": 3.000000,
			"nomLat2": 53.000000,
			"maxNomLat": 53.000000,
			"mincut": 6
		},
		{
			"s1": "San+Jose,+CA471",
			"s2": "Fort+Worth,+TX189",
			"t1": "Weehawken,+NJ544",
			"t2": "Santa+Clara,+CA336",
			"suurballeNbPaths": 2,
			"suurballeTime": 2318240515,
			"suurballePaths": {
				"path0": [
					"San+Jose,+CA471",
					"San+Jose,+CA472",
					"Santa+Clara,+CA430",
					"Santa+Clara,+CA336"
				],
				"lat0": 4.000000,
				"nbSeg0": 0,
				"path1": [
					"Fort+Worth,+TX189",
					"Fort+Worth,+TX190",
					"Atlanta,+GA127",
					"Weehawken,+NJ543",
					"Weehawken,+NJ544"
				],
				"lat1": 17.000000,
				"nbSeg1": 1
			},
			"pathsExist": true,
			"path1": [
				"San+Jose,+CA471",
				"Weehawken,+NJ544"
			],
			"lat1": 25.000000,
			"path2": [
				"Fort+Worth,+TX189",
				"Santa+Clara,+CA336"
			],
			"lat2": 18.000000,
			"maxlat": 25.000000,
			"runtime": 595739334,
			"nomLat1": 25.000000,
			"nomLat2": 18.000000,
			"maxNomLat": 25.000000,
			"mincut": 8
		},
		{
			"s1": "Irvine,+CA230",
			"s2": "Irvine,+CA237",
			"t1": "Miami,+FL286",
			"t2": "Santa+Clara,+CA403",
			"suurballeNbPaths": 2,
			"suurballeTime": 1405169959,
			"suurballePaths": {
				"path0": [
					"Irvine,+CA230",
					"El+Segundo,+CA164",
					"Santa+Clara,+CA403"
				],
				"lat0": 6.000000,
				"nbSeg0": 2,
				"path1": [
					"Irvine,+CA237",
					"Irvine,+CA228",
					"Fort+Worth,+TX190",
					"Atlanta,+GA127",
					"Miami,+FL286"
				],
				"lat1": 26.000000,
				"nbSeg1": 0
			},
			"pathsExist": false,
			"runtime": 683292120,
			"nomLat1": 26.000000,
			"nomLat2": 9.000000,
			"maxNomLat": 26.000000,
			"mincut": 4
		},
		{
			"s1": "Santa+Clara,+CA403",
			"s2": "Tokyo526",
			"t1": "New+York,+NY294",
			"t2": "Irvine,+CA213",
			"suurballeNbPaths": 2,
			"suurballeTime": 2071286765,
			"suurballePaths": {
				"path0": [
					"Tokyo526",
					"Tokyo525",
					"Santa+Clara,+CA404",
					"Irvine,+CA213"
				],
				"lat0": 48.000000,
				"nbSeg0": 1,
				"path1": [
					"Santa+Clara,+CA403",
					"Santa+Clara,+CA429",
					"Herndon,+VA496",
					"Herndon,+VA495",
					"Herndon,+VA208",
					"New+York,+NY293",
					"New+York,+NY294"
				],
				"lat1": 28.000000,
				"nbSeg1": 1
			},
			"pathsExist": true,
			"path1": [
				"Santa+Clara,+CA403",
				"New+York,+NY294"
			],
			"lat1": 30.000000,
			"path2": [
				"Tokyo526",
				"Irvine,+CA213"
			],
			"lat2": 52.000000,
			"maxlat": 52.000000,
			"runtime": 848694012,
			"nomLat1": 30.000000,
			"nomLat2": 52.000000,
			"maxNomLat": 52.000000,
			"mincut": 6
		},
		{
			"s1": "San+Jose,+CA472",
			"s2": "Weehawken,+NJ552",
			"t1": "El+Segundo,+CA164",
			"t2": "Oak+Brook,+IL309",
			"suurballeNbPaths": 2,
			"suurballeTime": 1961230219,
			"suurballePaths": {
				"path0": [
					"Weehawken,+NJ552",
					"Oak+Brook,+IL300",
					"Oak+Brook,+IL309"
				],
				"lat0": 8.000000,
				"nbSeg0": 0,
				"path1": [
					"San+Jose,+CA472",
					"Santa+Clara,+CA430",
					"Santa+Clara,+CA443",
					"El+Segundo,+CA164"
				],
				"lat1": 7.000000,
				"nbSeg1": 0
			},
			"pathsExist": true,
			"path1": [
				"San+Jose,+CA472",
				"El+Segundo,+CA164"
			],
			"lat1": 7.000000,
			"path2": [
				"Weehawken,+NJ552",
				"Oak+Brook,+IL309"
			],
			"lat2": 8.000000,
			"maxlat": 8.000000,
			"runtime": 104015115,
			"nomLat1": 7.000000,
			"nomLat2": 8.000000,
			"maxNomLat": 8.000000,
			"mincut": 7
		},
		{
			"s1": "San+Jose,+CA471",
			"s2": "Waltham,+MA556",
			"t1": "Santa+Clara,+CA431",
			"t2": "Herndon,+VA496",
			"suurballeNbPaths": 2,
			"suurballeTime": 1514515676,
			"suurballePaths": {
				"path0": [
					"San+Jose,+CA471",
					"San+Jose,+CA472",
					"Santa+Clara,+CA431"
				],
				"lat0": 3.000000,
				"nbSeg0": 0,
				"path1": [
					"Waltham,+MA556",
					"Waltham,+MA569",
					"Jersey+City,+NJ244",
					"Jersey+City,+NJ245",
					"Weehawken,+NJ544",
					"Herndon,+VA495",
					"Herndon,+VA496"
				],
				"lat1": 11.000000,
				"nbSeg1": 2
			},
			"pathsExist": true,
			"path1": [
				"San+Jose,+CA471",
				"Santa+Clara,+CA431"
			],
			"lat1": 3.000000,
			"path2": [
				"Waltham,+MA556",
				"Herndon,+VA496"
			],
			"lat2": 13.000000,
			"maxlat": 13.000000,
			"runtime": 95121952,
			"nomLat1": 3.000000,
			"nomLat2": 13.000000,
			"maxNomLat": 13.000000,
			"mincut": 7
		},
		{
			"s1": "Waltham,+MA569",
			"s2": "El+Segundo,+CA163",
			"t1": "Santa+Clara,+CA388",
			"t2": "New+York,+NY293",
			"suurballeNbPaths": 2,
			"suurballeTime": 1131915979,
			"suurballePaths": {
				"path0": [
					"Waltham,+MA569",
					"Jersey+City,+NJ244",
					"Weehawken,+NJ543",
					"New+York,+NY293"
				],
				"lat0": 7.000000,
				"nbSeg0": 1,
				"path1": [
					"El+Segundo,+CA163",
					"Santa+Clara,+CA404",
					"Santa+Clara,+CA430",
					"Santa+Clara,+CA388"
				],
				"lat1": 6.000000,
				"nbSeg1": 0
			},
			"pathsExist": false,
			"runtime": 2689728,
			"nomLat1": 33.000000,
			"nomLat2": 40.000000,
			"maxNomLat": 40.000000,
			"mincut": 7
		},
		{
			"s1": "Weehawken,+NJ552",
			"s2": "Amsterdam119",
			"t1": "Herndon,+VA495",
			"t2": "Waltham,+MA555",
			"suurballeNbPaths": 2,
			"suurballeTime": 1657597175,
			"suurballePaths": {
				"path0": [
					"Weehawken,+NJ552",
					"Weehawken,+NJ544",
					"Herndon,+VA495"
				],
				"lat0": 4.000000,
				"nbSeg0": 0,
				"path1": [
					"Amsterdam119",
					"London275",
					"Jersey+City,+NJ245",
					"Jersey+City,+NJ244",
					"Waltham,+MA568",
					"Waltham,+MA555"
				],
				"lat1": 37.000000,
				"nbSeg1": 2
			},
			"pathsExist": true,
			"path1": [
				"Weehawken,+NJ552",
				"Herndon,+VA495"
			],
			"lat1": 4.000000,
			"path2": [
				"Amsterdam119",
				"Waltham,+MA555"
			],
			"lat2": 38.000000,
			"maxlat": 38.000000,
			"runtime": 629652146,
			"nomLat1": 4.000000,
			"nomLat2": 38.000000,
			"maxNomLat": 38.000000,
			"mincut": 5
		},
		{
			"s1": "Tokyo526",
			"s2": "Irvine,+CA228",
			"t1": "Miami,+FL286",
			"t2": "London275",
			"suurballeNbPaths": 2,
			"suurballeTime": 1149544272,
			"suurballePaths": {
				"path0": [
					"Irvine,+CA228",
					"Fort+Worth,+TX190",
					"Atlanta,+GA127",
					"Miami,+FL286"
				],
				"lat0": 25.000000,
				"nbSeg0": 0,
				"path1": [
					"Tokyo526",
					"Santa+Clara,+CA336",
					"Santa+Clara,+CA430",
					"Santa+Clara,+CA429",
					"Herndon,+VA496",
					"Herndon,+VA495",
					"Weehawken,+NJ544",
					"London275"
				],
				"lat1": 99.000000,
				"nbSeg1": 2
			},
			"pathsExist": false,
			"runtime": 2508512,
			"nomLat1": 73.000000,
			"nomLat2": 62.000000,
			"maxNomLat": 73.000000,
			"mincut": 5
		},
		{
			"s1": "Oak+Brook,+IL310",
			"s2": "Oak+Brook,+IL301",
			"t1": "Santa+Clara,+CA363",
			"t2": "Waltham,+MA568",
			"suurballeNbPaths": 2,
			"suurballeTime": 1497794160,
			"suurballePaths": {
				"path0": [
					"Oak+Brook,+IL310",
					"Oak+Brook,+IL300",
					"Waltham,+MA555",
					"Waltham,+MA568"
				],
				"lat0": 10.000000,
				"nbSeg0": 1,
				"path1": [
					"Oak+Brook,+IL301",
					"San+Jose,+CA471",
					"San+Jose,+CA472",
					"Santa+Clara,+CA431",
					"Santa+Clara,+CA363"
				],
				"lat1": 20.000000,
				"nbSeg1": 0
			},
			"pathsExist": false,
			"runtime": 15186960,
			"nomLat1": 21.000000,
			"nomLat2": 11.000000,
			"maxNomLat": 21.000000,
			"mincut": 5
		},
		{
			"s1": "Santa+Clara,+CA405",
			"s2": "Weehawken,+NJ552",
			"t1": "Chicago,+IL155",
			"t2": "London276",
			"suurballeNbPaths": 2,
			"suurballeTime": 2269414371,
			"suurballePaths": {
				"path0": [
					"Weehawken,+NJ552",
					"Weehawken,+NJ544",
					"London276"
				],
				"lat0": 30.000000,
				"nbSeg0": 2,
				"path1": [
					"Santa+Clara,+CA405",
					"Santa+Clara,+CA403",
					"Santa+Clara,+CA444",
					"San+Jose,+CA471",
					"Oak+Brook,+IL301",
					"Chicago,+IL155"
				],
				"lat1": 22.000000,
				"nbSeg1": 1
			},
			"pathsExist": true,
			"path1": [
				"Santa+Clara,+CA405",
				"Chicago,+IL155"
			],
			"lat1": 25.000000,
			"path2": [
				"Weehawken,+NJ552",
				"London276"
			],
			"lat2": 32.000000,
			"maxlat": 32.000000,
			"runtime": 331363093,
			"nomLat1": 25.000000,
			"nomLat2": 32.000000,
			"maxNomLat": 32.000000,
			"mincut": 5
		},
		{
			"s1": "Herndon,+VA496",
			"s2": "Irvine,+CA213",
			"t1": "Tokyo526",
			"t2": "Oak+Brook,+IL309",
			"suurballeNbPaths": 2,
			"suurballeTime": 1477118044,
			"suurballePaths": {
				"path0": [
					"Irvine,+CA213",
					"Santa+Clara,+CA404",
					"Tokyo525",
					"Tokyo526"
				],
				"lat0": 48.000000,
				"nbSeg0": 2,
				"path1": [
					"Herndon,+VA496",
					"Herndon,+VA495",
					"Weehawken,+NJ544",
					"Weehawken,+NJ552",
					"Oak+Brook,+IL300",
					"Oak+Brook,+IL309"
				],
				"lat1": 13.000000,
				"nbSeg1": 1
			},
			"pathsExist": true,
			"path1": [
				"Herndon,+VA496",
				"Tokyo526"
			],
			"lat1": 66.000000,
			"path2": [
				"Irvine,+CA213",
				"Oak+Brook,+IL309"
			],
			"lat2": 26.000000,
			"maxlat": 66.000000,
			"runtime": 671884013,
			"nomLat1": 66.000000,
			"nomLat2": 26.000000,
			"maxNomLat": 66.000000,
			"mincut": 5
		},
		{
			"s1": "Herndon,+VA208",
			"s2": "Irvine,+CA229",
			"t1": "San+Jose,+CA471",
			"t2": "London274",
			"suurballeNbPaths": 2,
			"suurballeTime": 1095091288,
			"suurballePaths": {
				"path0": [
					"Herndon,+VA208",
					"Herndon,+VA495",
					"Weehawken,+NJ544",
					"London274"
				],
				"lat0": 33.000000,
				"nbSeg0": 3,
				"path1": [
					"Irvine,+CA229",
					"El+Segundo,+CA164",
					"Santa+Clara,+CA403",
					"Santa+Clara,+CA444",
					"San+Jose,+CA471"
				],
				"lat1": 9.000000,
				"nbSeg1": 2
			},
			"pathsExist": false,
			"runtime": 2660764,
			"nomLat1": 27.000000,
			"nomLat2": 63.000000,
			"maxNomLat": 63.000000,
			"mincut": 6
		},
		{
			"s1": "Jersey+City,+NJ245",
			"s2": "Oak+Brook,+IL307",
			"t1": "San+Jose,+CA460",
			"t2": "Santa+Clara,+CA443",
			"suurballeNbPaths": 2,
			"suurballeTime": 1293698792,
			"suurballePaths": {
				"path0": [
					"Oak+Brook,+IL307",
					"Oak+Brook,+IL301",
					"San+Jose,+CA471",
					"Santa+Clara,+CA444",
					"Santa+Clara,+CA443"
				],
				"lat0": 20.000000,
				"nbSeg0": 0,
				"path1": [
					"Jersey+City,+NJ245",
					"Weehawken,+NJ544",
					"Herndon,+VA495",
					"Herndon,+VA496",
					"Santa+Clara,+CA429",
					"San+Jose,+CA459",
					"San+Jose,+CA460"
				],
				"lat1": 30.000000,
				"nbSeg1": 1
			},
			"pathsExist": false,
			"runtime": 24818148,
			"nomLat1": 31.000000,
			"nomLat2": 20.000000,
			"maxNomLat": 31.000000,
			"mincut": 5
		},
		{
			"s1": "London275",
			"s2": "Santa+Clara,+CA365",
			"t1": "Chicago,+IL155",
			"t2": "Tokyo525",
			"suurballeNbPaths": 2,
			"suurballeTime": 2340121661,
			"suurballePaths": {
				"path0": [
					"Santa+Clara,+CA365",
					"Santa+Clara,+CA431",
					"Santa+Clara,+CA443",
					"Santa+Clara,+CA404",
					"Tokyo525"
				],
				"lat0": 46.000000,
				"nbSeg0": 1,
				"path1": [
					"London275",
					"Weehawken,+NJ544",
					"Weehawken,+NJ552",
					"Oak+Brook,+IL300",
					"Oak+Brook,+IL301",
					"Chicago,+IL155"
				],
				"lat1": 40.000000,
				"nbSeg1": 4
			},
			"pathsExist": true,
			"path1": [
				"London275",
				"Chicago,+IL155"
			],
			"lat1": 43.000000,
			"path2": [
				"Santa+Clara,+CA365",
				"Tokyo525"
			],
			"lat2": 48.000000,
			"maxlat": 48.000000,
			"runtime": 277969853,
			"nomLat1": 43.000000,
			"nomLat2": 48.000000,
			"maxNomLat": 48.000000,
			"mincut": 5
		},
		{
			"s1": "Herndon,+VA208",
			"s2": "Santa+Clara,+CA444",
			"t1": "Oak+Brook,+IL308",
			"t2": "Oak+Brook,+IL315",
			"suurballeNbPaths": 2,
			"suurballeTime": 1710419936,
			"suurballePaths": {
				"path0": [
					"Santa+Clara,+CA444",
					"San+Jose,+CA471",
					"Oak+Brook,+IL301",
					"Oak+Brook,+IL308"
				],
				"lat0": 19.000000,
				"nbSeg0": 0,
				"path1": [
					"Herndon,+VA208",
					"New+York,+NY293",
					"Weehawken,+NJ543",
					"Oak+Brook,+IL300",
					"Oak+Brook,+IL315"
				],
				"lat1": 13.000000,
				"nbSeg1": 3
			},
			"pathsExist": true,
			"path1": [
				"Herndon,+VA208",
				"Oak+Brook,+IL308"
			],
			"lat1": 15.000000,
			"path2": [
				"Santa+Clara,+CA444",
				"Oak+Brook,+IL315"
			],
			"lat2": 19.000000,
			"maxlat": 19.000000,
			"runtime": 1286433040,
			"nomLat1": 15.000000,
			"nomLat2": 19.000000,
			"maxNomLat": 19.000000,
			"mincut": 5
		},
		{
			"s1": "Santa+Clara,+CA389",
			"s2": "Chicago,+IL155",
			"t1": "Irvine,+CA230",
			"t2": "San+Jose,+CA459",
			"suurballeNbPaths": 2,
			"suurballeTime": 2191129720,
			"suurballePaths": {
				"path0": [
					"Santa+Clara,+CA389",
					"Santa+Clara,+CA403",
					"Santa+Clara,+CA429",
					"San+Jose,+CA459"
				],
				"lat0": 4.000000,
				"nbSeg0": 1,
				"path1": [
					"Chicago,+IL155",
					"Chicago,+IL156",
					"Fort+Worth,+TX189",
					"Irvine,+CA228",
					"Irvine,+CA230"
				],
				"lat1": 21.000000,
				"nbSeg1": 1
			},
			"pathsExist": true,
			"path1": [
				"Santa+Clara,+CA389",
				"Irvine,+CA230"
			],
			"lat1": 7.000000,
			"path2": [
				"Chicago,+IL155",
				"San+Jose,+CA459"
			],
			"lat2": 25.000000,
			"maxlat": 25.000000,
			"runtime": 799901153,
			"nomLat1": 7.000000,
			"nomLat2": 25.000000,
			"maxNomLat": 25.000000,
			"mincut": 4
		},
		{
			"s1": "Austin,+TX137",
			"s2": "San+Jose,+CA459",
			"t1": "Santa+Clara,+CA403",
			"t2": "Irvine,+CA231",
			"suurballeNbPaths": 2,
			"suurballeTime": 2385914641,
			"suurballePaths": {
				"path0": [
					"San+Jose,+CA459",
					"Santa+Clara,+CA429",
					"Santa+Clara,+CA403"
				],
				"lat0": 3.000000,
				"nbSeg0": 0,
				"path1": [
					"Austin,+TX137",
					"El+Segundo,+CA163",
					"El+Segundo,+CA164",
					"Irvine,+CA231"
				],
				"lat1": 14.000000,
				"nbSeg1": 0
			},
			"pathsExist": true,
			"path1": [
				"Austin,+TX137",
				"Santa+Clara,+CA403"
			],
			"lat1": 16.000000,
			"path2": [
				"San+Jose,+CA459",
				"Irvine,+CA231"
			],
			"lat2": 10.000000,
			"maxlat": 16.000000,
			"runtime": 234079393,
			"nomLat1": 16.000000,
			"nomLat2": 10.000000,
			"maxNomLat": 16.000000,
			"mincut": 4
		},
		{
			"s1": "San+Jose,+CA472",
			"s2": "Santa+Clara,+CA404",
			"t1": "Miami,+FL285",
			"t2": "Waltham,+MA568",
			"suurballeNbPaths": 2,
			"suurballeTime": 1454471382,
			"suurballePaths": {
				"path0": [
					"San+Jose,+CA472",
					"San+Jose,+CA471",
					"Oak+Brook,+IL301",
					"Oak+Brook,+IL300",
					"Waltham,+MA555",
					"Waltham,+MA568"
				],
				"lat0": 27.000000,
				"nbSeg0": 1,
				"path1": [
					"Santa+Clara,+CA404",
					"Santa+Clara,+CA403",
					"Fort+Worth,+TX189",
					"Fort+Worth,+TX190",
					"Atlanta,+GA127",
					"Miami,+FL286",
					"Miami,+FL285"
				],
				"lat1": 30.000000,
				"nbSeg1": 0
			},
			"pathsExist": false,
			"runtime": 114747280,
			"nomLat1": 32.000000,
			"nomLat2": 31.000000,
			"maxNomLat": 32.000000,
			"mincut": 5
		},
		{
			"s1": "El+Segundo,+CA164",
			"s2": "New+York,+NY294",
			"t1": "Santa+Clara,+CA389",
			"t2": "Fort+Worth,+TX190",
			"suurballeNbPaths": 2,
			"suurballeTime": 2420091206,
			"suurballePaths": {
				"path0": [
					"El+Segundo,+CA164",
					"Santa+Clara,+CA403",
					"Santa+Clara,+CA389"
				],
				"lat0": 5.000000,
				"nbSeg0": 2,
				"path1": [
					"New+York,+NY294",
					"Weehawken,+NJ543",
					"Atlanta,+GA127",
					"Fort+Worth,+TX190"
				],
				"lat1": 17.000000,
				"nbSeg1": 2
			},
			"pathsExist": true,
			"path1": [
				"El+Segundo,+CA164",
				"Santa+Clara,+CA389"
			],
			"lat1": 5.000000,
			"path2": [
				"New+York,+NY294",
				"Fort+Worth,+TX190"
			],
			"lat2": 26.000000,
			"maxlat": 26.000000,
			"runtime": 176970327,
			"nomLat1": 5.000000,
			"nomLat2": 26.000000,
			"maxNomLat": 26.000000,
			"mincut": 10
		},
		{
			"s1": "Waltham,+MA556",
			"s2": "Atlanta,+GA133",
			"t1": "Santa+Clara,+CA444",
			"t2": "Jersey+City,+NJ245",
			"suurballeNbPaths": 2,
			"suurballeTime": 1556358252,
			"suurballePaths": {
				"path0": [
					"Waltham,+MA556",
					"Waltham,+MA569",
					"Jersey+City,+NJ244",
					"Jersey+City,+NJ245"
				],
				"lat0": 5.000000,
				"nbSeg0": 1,
				"path1": [
					"Atlanta,+GA133",
					"Atlanta,+GA127",
					"Fort+Worth,+TX190",
					"Fort+Worth,+TX189",
					"Santa+Clara,+CA403",
					"Santa+Clara,+CA444"
				],
				"lat1": 24.000000,
				"nbSeg1": 0
			},
			"pathsExist": true,
			"path1": [
				"Waltham,+MA556",
				"Santa+Clara,+CA444"
			],
			"lat1": 27.000000,
			"path2": [
				"Atlanta,+GA133",
				"Jersey+City,+NJ245"
			],
			"lat2": 14.000000,
			"maxlat": 27.000000,
			"runtime": 120457876,
			"nomLat1": 27.000000,
			"nomLat2": 14.000000,
			"maxNomLat": 27.000000,
			"mincut": 5
		},
		{
			"s1": "Santa+Clara,+CA388",
			"s2": "Herndon,+VA495",
			"t1": "Santa+Clara,+CA403",
			"t2": "Irvine,+CA231",
			"suurballeNbPaths": 2,
			"suurballeTime": 1727614076,
			"suurballePaths": {
				"path0": [
					"Santa+Clara,+CA388",
					"Santa+Clara,+CA389",
					"Santa+Clara,+CA403"
				],
				"lat0": 2.000000,
				"nbSeg0": 0,
				"path1": [
					"Herndon,+VA495",
					"Herndon,+VA496",
					"Herndon,+VA193",
					"Atlanta,+GA127",
					"Fort+Worth,+TX190",
					"Irvine,+CA228",
					"Irvine,+CA231"
				],
				"lat1": 28.000000,
				"nbSeg1": 2
			},
			"pathsExist": true,
			"path1": [
				"Santa+Clara,+CA388",
				"Santa+Clara,+CA403"
			],
			"lat1": 2.000000,
			"path2": [
				"Herndon,+VA495",
				"Irvine,+CA231"
			],
			"lat2": 29.000000,
			"maxlat": 29.000000,
			"runtime": 608026327,
			"nomLat1": 2.000000,
			"nomLat2": 29.000000,
			"maxNomLat": 29.000000,
			"mincut": 7
		},
		{
			"s1": "Santa+Clara,+CA405",
			"s2": "Austin,+TX137",
			"t1": "El+Segundo,+CA163",
			"t2": "Atlanta,+GA126",
			"suurballeNbPaths": 2,
			"suurballeTime": 1545514358,
			"suurballePaths": {
				"path0": [
					"Santa+Clara,+CA405",
					"El+Segundo,+CA163"
				],
				"lat0": 4.000000,
				"nbSeg0": 0,
				"path1": [
					"Austin,+TX137",
					"Fort+Worth,+TX189",
					"Fort+Worth,+TX190",
					"Atlanta,+GA127",
					"Atlanta,+GA126"
				],
				"lat1": 13.000000,
				"nbSeg1": 0
			},
			"pathsExist": true,
			"path1": [
				"Santa+Clara,+CA405",
				"El+Segundo,+CA163"
			],
			"lat1": 4.000000,
			"path2": [
				"Austin,+TX137",
				"Atlanta,+GA126"
			],
			"lat2": 13.000000,
			"maxlat": 13.000000,
			"runtime": 72782727,
			"nomLat1": 4.000000,
			"nomLat2": 13.000000,
			"maxNomLat": 13.000000,
			"mincut": 4
		},
		{
			"s1": "Atlanta,+GA126",
			"s2": "Santa+Clara,+CA389",
			"t1": "Santa+Clara,+CA388",
			"t2": "Waltham,+MA568",
			"suurballeNbPaths": 2,
			"suurballeTime": 1477824110,
			"suurballePaths": {
				"path0": [
					"Santa+Clara,+CA389",
					"Santa+Clara,+CA388"
				],
				"lat0": 1.000000,
				"nbSeg0": 0,
				"path1": [
					"Atlanta,+GA126",
					"Atlanta,+GA127",
					"Weehawken,+NJ543",
					"Jersey+City,+NJ244",
					"Waltham,+MA568"
				],
				"lat1": 13.000000,
				"nbSeg1": 2
			},
			"pathsExist": false,
			"runtime": 1539838789,
			"nomLat1": 25.000000,
			"nomLat2": 29.000000,
			"maxNomLat": 29.000000,
			"mincut": 7
		},
		{
			"s1": "Atlanta,+GA133",
			"s2": "San+Jose,+CA459",
			"t1": "Santa+Clara,+CA431",
			"t2": "Chicago,+IL155",
			"suurballeNbPaths": 2,
			"suurballeTime": 1318920698,
			"suurballePaths": {
				"path0": [
					"San+Jose,+CA459",
					"Santa+Clara,+CA429",
					"Santa+Clara,+CA431"
				],
				"lat0": 3.000000,
				"nbSeg0": 0,
				"path1": [
					"Atlanta,+GA133",
					"Atlanta,+GA127",
					"Weehawken,+NJ543",
					"Oak+Brook,+IL300",
					"Oak+Brook,+IL301",
					"Chicago,+IL155"
				],
				"lat1": 18.000000,
				"nbSeg1": 2
			},
			"pathsExist": true,
			"path1": [
				"Atlanta,+GA133",
				"Santa+Clara,+CA431"
			],
			"lat1": 28.000000,
			"path2": [
				"San+Jose,+CA459",
				"Chicago,+IL155"
			],
			"lat2": 25.000000,
			"maxlat": 28.000000,
			"runtime": 1534345,
			"nomLat1": 28.000000,
			"nomLat2": 25.000000,
			"maxNomLat": 28.000000,
			"mincut": 4
		},
		{
			"s1": "Oak+Brook,+IL300",
			"s2": "Jersey+City,+NJ261",
			"t1": "Herndon,+VA495",
			"t2": "London276",
			"suurballeNbPaths": 2,
			"suurballeTime": 2078620959,
			"suurballePaths": {
				"path0": [
					"Jersey+City,+NJ261",
					"Jersey+City,+NJ245",
					"London276"
				],
				"lat0": 30.000000,
				"nbSeg0": 0,
				"path1": [
					"Oak+Brook,+IL300",
					"Weehawken,+NJ552",
					"Weehawken,+NJ544",
					"Herndon,+VA495"
				],
				"lat1": 11.000000,
				"nbSeg1": 1
			},
			"pathsExist": true,
			"path1": [
				"Oak+Brook,+IL300",
				"Herndon,+VA495"
			],
			"lat1": 11.000000,
			"path2": [
				"Jersey+City,+NJ261",
				"London276"
			],
			"lat2": 30.000000,
			"maxlat": 30.000000,
			"runtime": 950848298,
			"nomLat1": 11.000000,
			"nomLat2": 30.000000,
			"maxNomLat": 30.000000,
			"mincut": 5
		},
		{
			"s1": "Santa+Clara,+CA405",
			"s2": "London276",
			"t1": "Atlanta,+GA127",
			"t2": "Herndon,+VA495",
			"suurballeNbPaths": 2,
			"suurballeTime": 1560658715,
			"suurballePaths": {
				"path0": [
					"London276",
					"Weehawken,+NJ544",
					"Herndon,+VA495"
				],
				"lat0": 32.000000,
				"nbSeg0": 2,
				"path1": [
					"Santa+Clara,+CA405",
					"Santa+Clara,+CA403",
					"Fort+Worth,+TX189",
					"Fort+Worth,+TX190",
					"Atlanta,+GA127"
				],
				"lat1": 23.000000,
				"nbSeg1": 0
			},
			"pathsExist": true,
			"path1": [
				"Santa+Clara,+CA405",
				"Atlanta,+GA127"
			],
			"lat1": 23.000000,
			"path2": [
				"London276",
				"Herndon,+VA495"
			],
			"lat2": 34.000000,
			"maxlat": 34.000000,
			"runtime": 637018015,
			"nomLat1": 23.000000,
			"nomLat2": 34.000000,
			"maxNomLat": 34.000000,
			"mincut": 4
		},
		{
			"s1": "Weehawken,+NJ544",
			"s2": "Santa+Clara,+CA444",
			"t1": "Oak+Brook,+IL315",
			"t2": "Santa+Clara,+CA430",
			"suurballeNbPaths": 2,
			"suurballeTime": 1624364562,
			"suurballePaths": {
				"path0": [
					"Santa+Clara,+CA444",
					"Santa+Clara,+CA443",
					"Santa+Clara,+CA430"
				],
				"lat0": 2.000000,
				"nbSeg0": 0,
				"path1": [
					"Weehawken,+NJ544",
					"Weehawken,+NJ552",
					"Oak+Brook,+IL300",
					"Oak+Brook,+IL315"
				],
				"lat1": 9.000000,
				"nbSeg1": 1
			},
			"pathsExist": true,
			"path1": [
				"Weehawken,+NJ544",
				"Oak+Brook,+IL315"
			],
			"lat1": 9.000000,
			"path2": [
				"Santa+Clara,+CA444",
				"Santa+Clara,+CA430"
			],
			"lat2": 2.000000,
			"maxlat": 9.000000,
			"runtime": 83038548,
			"nomLat1": 9.000000,
			"nomLat2": 2.000000,
			"maxNomLat": 9.000000,
			"mincut": 11
		},
		{
			"s1": "Santa+Clara,+CA443",
			"s2": "Chicago,+IL155",
			"t1": "Palo+Alto,+CA318",
			"t2": "Fort+Worth,+TX190",
			"suurballeNbPaths": 2,
			"suurballeTime": 2361513232,
			"suurballePaths": {
				"path0": [
					"Santa+Clara,+CA443",
					"Santa+Clara,+CA431",
					"Santa+Clara,+CA364",
					"Palo+Alto,+CA318"
				],
				"lat0": 4.000000,
				"nbSeg0": 1,
				"path1": [
					"Chicago,+IL155",
					"Chicago,+IL156",
					"Fort+Worth,+TX189",
					"Fort+Worth,+TX190"
				],
				"lat1": 10.000000,
				"nbSeg1": 0
			},
			"pathsExist": true,
			"path1": [
				"Santa+Clara,+CA443",
				"Palo+Alto,+CA318"
			],
			"lat1": 5.000000,
			"path2": [
				"Chicago,+IL155",
				"Fort+Worth,+TX190"
			],
			"lat2": 10.000000,
			"maxlat": 10.000000,
			"runtime": 279382782,
			"nomLat1": 5.000000,
			"nomLat2": 10.000000,
			"maxNomLat": 10.000000,
			"mincut": 8
		},
		{
			"s1": "Tukwila,+WA509",
			"s2": "Irvine,+CA231",
			"t1": "Santa+Clara,+CA443",
			"t2": "Miami,+FL285",
			"suurballeNbPaths": 2,
			"suurballeTime": 1597356334,
			"suurballePaths": {
				"path0": [
					"Tukwila,+WA509",
					"Tukwila,+WA508",
					"Santa+Clara,+CA429",
					"Santa+Clara,+CA431",
					"Santa+Clara,+CA443"
				],
				"lat0": 10.000000,
				"nbSeg0": 1,
				"path1": [
					"Irvine,+CA231",
					"Irvine,+CA228",
					"Fort+Worth,+TX190",
					"Atlanta,+GA127",
					"Miami,+FL286",
					"Miami,+FL285"
				],
				"lat1": 27.000000,
				"nbSeg1": 0
			},
			"pathsExist": true,
			"path1": [
				"Tukwila,+WA509",
				"Santa+Clara,+CA443"
			],
			"lat1": 10.000000,
			"path2": [
				"Irvine,+CA231",
				"Miami,+FL285"
			],
			"lat2": 27.000000,
			"maxlat": 27.000000,
			"runtime": 669447951,
			"nomLat1": 10.000000,
			"nomLat2": 27.000000,
			"maxNomLat": 27.000000,
			"mincut": 5
		},
		{
			"s1": "Santa+Clara,+CA336",
			"s2": "Herndon,+VA206",
			"t1": "Atlanta,+GA133",
			"t2": "Waltham,+MA568",
			"suurballeNbPaths": 2,
			"suurballeTime": 1528709613,
			"suurballePaths": {
				"path0": [
					"Herndon,+VA206",
					"New+York,+NY293",
					"Weehawken,+NJ543",
					"Jersey+City,+NJ244",
					"Waltham,+MA568"
				],
				"lat0": 10.000000,
				"nbSeg0": 2,
				"path1": [
					"Santa+Clara,+CA336",
					"Santa+Clara,+CA430",
					"Santa+Clara,+CA429",
					"Santa+Clara,+CA403",
					"Fort+Worth,+TX189",
					"Fort+Worth,+TX190",
					"Atlanta,+GA127",
					"Atlanta,+GA133"
				],
				"lat1": 26.000000,
				"nbSeg1": 1
			},
			"pathsExist": true,
			"path1": [
				"Santa+Clara,+CA336",
				"Atlanta,+GA133"
			],
			"lat1": 28.000000,
			"path2": [
				"Herndon,+VA206",
				"Waltham,+MA568"
			],
			"lat2": 12.000000,
			"maxlat": 28.000000,
			"runtime": 18440486,
			"nomLat1": 28.000000,
			"nomLat2": 12.000000,
			"maxNomLat": 28.000000,
			"mincut": 5
		},
		{
			"s1": "Oak+Brook,+IL301",
			"s2": "Oak+Brook,+IL315",
			"t1": "Oak+Brook,+IL308",
			"t2": "Palo+Alto,+CA318",
			"suurballeNbPaths": 2,
			"suurballeTime": 1157252254,
			"suurballePaths": {
				"path0": [
					"Oak+Brook,+IL315",
					"Oak+Brook,+IL308"
				],
				"lat0": 1.000000,
				"nbSeg0": 0,
				"path1": [
					"Oak+Brook,+IL301",
					"San+Jose,+CA471",
					"San+Jose,+CA472",
					"Santa+Clara,+CA430",
					"Santa+Clara,+CA364",
					"Palo+Alto,+CA318"
				],
				"lat1": 22.000000,
				"nbSeg1": 3
			},
			"pathsExist": false,
			"runtime": 2655177,
			"nomLat1": 1.000000,
			"nomLat2": 23.000000,
			"maxNomLat": 23.000000,
			"mincut": 6
		},
		{
			"s1": "Oak+Brook,+IL309",
			"s2": "Irvine,+CA229",
			"t1": "Waltham,+MA555",
			"t2": "San+Jose,+CA460",
			"suurballeNbPaths": 2,
			"suurballeTime": 1478981107,
			"suurballePaths": {
				"path0": [
					"Oak+Brook,+IL309",
					"Oak+Brook,+IL300",
					"Waltham,+MA555"
				],
				"lat0": 9.000000,
				"nbSeg0": 1,
				"path1": [
					"Irvine,+CA229",
					"El+Segundo,+CA164",
					"Santa+Clara,+CA443",
					"San+Jose,+CA460"
				],
				"lat1": 8.000000,
				"nbSeg1": 0
			},
			"pathsExist": true,
			"path1": [
				"Oak+Brook,+IL309",
				"Waltham,+MA555"
			],
			"lat1": 10.000000,
			"path2": [
				"Irvine,+CA229",
				"San+Jose,+CA460"
			],
			"lat2": 8.000000,
			"maxlat": 10.000000,
			"runtime": 1122070,
			"nomLat1": 10.000000,
			"nomLat2": 8.000000,
			"maxNomLat": 10.000000,
			"mincut": 5
		},
		{
			"s1": "Irvine,+CA231",
			"s2": "Irvine,+CA237",
			"t1": "Santa+Clara,+CA388",
			"t2": "Atlanta,+GA133",
			"suurballeNbPaths": 2,
			"suurballeTime": 1665587993,
			"suurballePaths": {
				"path0": [
					"Irvine,+CA231",
					"Irvine,+CA228",
					"Fort+Worth,+TX190",
					"Atlanta,+GA127",
					"Atlanta,+GA133"
				],
				"lat0": 21.000000,
				"nbSeg0": 0,
				"path1": [
					"Irvine,+CA237",
					"Irvine,+CA228",
					"Irvine,+CA213",
					"Santa+Clara,+CA404",
					"Santa+Clara,+CA430",
					"Santa+Clara,+CA388"
				],
				"lat1": 8.000000,
				"nbSeg1": 2
			},
			"pathsExist": false,
			"runtime": 830608227,
			"nomLat1": 10.000000,
			"nomLat2": 21.000000,
			"maxNomLat": 21.000000,
			"mincut": 3
		},
		{
			"s1": "Jersey+City,+NJ244",
			"s2": "Oak+Brook,+IL301",
			"t1": "Waltham,+MA569",
			"t2": "Palo+Alto,+CA104",
			"suurballeNbPaths": 2,
			"suurballeTime": 1768187108,
			"suurballePaths": {
				"path0": [
					"Jersey+City,+NJ244",
					"Waltham,+MA569"
				],
				"lat0": 3.000000,
				"nbSeg0": 0,
				"path1": [
					"Oak+Brook,+IL301",
					"San+Jose,+CA471",
					"Santa+Clara,+CA444",
					"Palo+Alto,+CA104"
				],
				"lat1": 20.000000,
				"nbSeg1": 0
			},
			"pathsExist": true,
			"path1": [
				"Jersey+City,+NJ244",
				"Waltham,+MA569"
			],
			"lat1": 3.000000,
			"path2": [
				"Oak+Brook,+IL301",
				"Palo+Alto,+CA104"
			],
			"lat2": 20.000000,
			"maxlat": 20.000000,
			"runtime": 1298572885,
			"nomLat1": 3.000000,
			"nomLat2": 20.000000,
			"maxNomLat": 20.000000,
			"mincut": 7
		},
		{
			"s1": "Waltham,+MA569",
			"s2": "Santa+Clara,+CA403",
			"t1": "Waltham,+MA555",
			"t2": "San+Jose,+CA459",
			"suurballeNbPaths": 2,
			"suurballeTime": 1555384915,
			"suurballePaths": {
				"path0": [
					"Waltham,+MA569",
					"Waltham,+MA556",
					"Waltham,+MA555"
				],
				"lat0": 2.000000,
				"nbSeg0": 2,
				"path1": [
					"Santa+Clara,+CA403",
					"Santa+Clara,+CA429",
					"San+Jose,+CA459"
				],
				"lat1": 3.000000,
				"nbSeg1": 0
			},
			"pathsExist": true,
			"path1": [
				"Waltham,+MA569",
				"Waltham,+MA555"
			],
			"lat1": 2.000000,
			"path2": [
				"Santa+Clara,+CA403",
				"San+Jose,+CA459"
			],
			"lat2": 3.000000,
			"maxlat": 3.000000,
			"runtime": 1368403511,
			"nomLat1": 2.000000,
			"nomLat2": 3.000000,
			"maxNomLat": 3.000000,
			"mincut": 5
		},
		{
			"s1": "Palo+Alto,+CA104",
			"s2": "San+Jose,+CA471",
			"t1": "Tukwila,+WA509",
			"t2": "Santa+Clara,+CA404",
			"suurballeNbPaths": 2,
			"suurballeTime": 1440694046,
			"suurballePaths": {
				"path0": [
					"San+Jose,+CA471",
					"Santa+Clara,+CA444",
					"Santa+Clara,+CA404"
				],
				"lat0": 3.000000,
				"nbSeg0": 2,
				"path1": [
					"Palo+Alto,+CA104",
					"Santa+Clara,+CA403",
					"Santa+Clara,+CA429",
					"Tukwila,+WA508",
					"Tukwila,+WA509"
				],
				"lat1": 11.000000,
				"nbSeg1": 0
			},
			"pathsExist": false,
			"runtime": 710349071,
			"nomLat1": 11.000000,
			"nomLat2": 4.000000,
			"maxNomLat": 11.000000,
			"mincut": 8
		},
		{
			"s1": "El+Segundo,+CA164",
			"s2": "Miami,+FL285",
			"t1": "Santa+Clara,+CA389",
			"t2": "Irvine,+CA229",
			"suurballeNbPaths": 2,
			"suurballeTime": 1997053560,
			"suurballePaths": {
				"path0": [
					"El+Segundo,+CA164",
					"Santa+Clara,+CA403",
					"Santa+Clara,+CA389"
				],
				"lat0": 5.000000,
				"nbSeg0": 2,
				"path1": [
					"Miami,+FL285",
					"Miami,+FL286",
					"Atlanta,+GA127",
					"Fort+Worth,+TX190",
					"Irvine,+CA229"
				],
				"lat1": 26.000000,
				"nbSeg1": 2
			},
			"pathsExist": true,
			"path1": [
				"El+Segundo,+CA164",
				"Santa+Clara,+CA389"
			],
			"lat1": 5.000000,
			"path2": [
				"Miami,+FL285",
				"Irvine,+CA229"
			],
			"lat2": 27.000000,
			"maxlat": 27.000000,
			"runtime": 859393529,
			"nomLat1": 5.000000,
			"nomLat2": 27.000000,
			"maxNomLat": 27.000000,
			"mincut": 8
		},
		{
			"s1": "Santa+Clara,+CA405",
			"s2": "Waltham,+MA556",
			"t1": "Chicago,+IL155",
			"t2": "Irvine,+CA228",
			"suurballeNbPaths": 2,
			"suurballeTime": 1967261887,
			"suurballePaths": {
				"path0": [
					"Waltham,+MA556",
					"Oak+Brook,+IL300",
					"Oak+Brook,+IL301",
					"Chicago,+IL155"
				],
				"lat0": 11.000000,
				"nbSeg0": 1,
				"path1": [
					"Santa+Clara,+CA405",
					"Santa+Clara,+CA403",
					"Santa+Clara,+CA404",
					"Irvine,+CA213",
					"Irvine,+CA228"
				],
				"lat1": 7.000000,
				"nbSeg1": 2
			},
			"pathsExist": true,
			"path1": [
				"Santa+Clara,+CA405",
				"Chicago,+IL155"
			],
			"lat1": 25.000000,
			"path2": [
				"Waltham,+MA556",
				"Irvine,+CA228"
			],
			"lat2": 30.000000,
			"maxlat": 30.000000,
			"runtime": 307264349,
			"nomLat1": 25.000000,
			"nomLat2": 30.000000,
			"maxNomLat": 30.000000,
			"mincut": 5
		},
		{
			"s1": "Santa+Clara,+CA403",
			"s2": "Oak+Brook,+IL309",
			"t1": "Fort+Worth,+TX189",
			"t2": "Oak+Brook,+IL307",
			"suurballeNbPaths": 2,
			"suurballeTime": 1625885170,
			"suurballePaths": {
				"path0": [
					"Santa+Clara,+CA403",
					"Fort+Worth,+TX189"
				],
				"lat0": 13.000000,
				"nbSeg0": 0,
				"path1": [
					"Oak+Brook,+IL309",
					"Oak+Brook,+IL300",
					"Oak+Brook,+IL307"
				],
				"lat1": 2.000000,
				"nbSeg1": 1
			},
			"pathsExist": true,
			"path1": [
				"Santa+Clara,+CA403",
				"Fort+Worth,+TX189"
			],
			"lat1": 13.000000,
			"path2": [
				"Oak+Brook,+IL309",
				"Oak+Brook,+IL307"
			],
			"lat2": 2.000000,
			"maxlat": 13.000000,
			"runtime": 119956739,
			"nomLat1": 13.000000,
			"nomLat2": 2.000000,
			"maxNomLat": 13.000000,
			"mincut": 9
		},
		{
			"s1": "Santa+Clara,+CA364",
			"s2": "Santa+Clara,+CA388",
			"t1": "Herndon,+VA208",
			"t2": "El+Segundo,+CA163",
			"suurballeNbPaths": 2,
			"suurballeTime": 2654356676,
			"suurballePaths": {
				"path0": [
					"Santa+Clara,+CA364",
					"Santa+Clara,+CA430",
					"Santa+Clara,+CA404",
					"El+Segundo,+CA163"
				],
				"lat0": 6.000000,
				"nbSeg0": 1,
				"path1": [
					"Santa+Clara,+CA388",
					"Santa+Clara,+CA430",
					"Santa+Clara,+CA429",
					"Herndon,+VA496",
					"Herndon,+VA495",
					"Herndon,+VA208"
				],
				"lat1": 25.000000,
				"nbSeg1": 0
			},
			"pathsExist": true,
			"path1": [
				"Santa+Clara,+CA364",
				"Herndon,+VA208"
			],
			"lat1": 25.000000,
			"path2": [
				"Santa+Clara,+CA388",
				"El+Segundo,+CA163"
			],
			"lat2": 6.000000,
			"maxlat": 25.000000,
			"runtime": 433845012,
			"nomLat1": 25.000000,
			"nomLat2": 6.000000,
			"maxNomLat": 25.000000,
			"mincut": 7
		},
		{
			"s1": "Santa+Clara,+CA404",
			"s2": "Miami,+FL286",
			"t1": "Santa+Clara,+CA405",
			"t2": "Palo+Alto,+CA317",
			"suurballeNbPaths": 2,
			"suurballeTime": 1636676178,
			"suurballePaths": {
				"path0": [
					"Santa+Clara,+CA404",
					"Santa+Clara,+CA403",
					"Santa+Clara,+CA405"
				],
				"lat0": 2.000000,
				"nbSeg0": 0,
				"path1": [
					"Miami,+FL286",
					"Atlanta,+GA127",
					"Fort+Worth,+TX190",
					"Fort+Worth,+TX189",
					"Santa+Clara,+CA403",
					"Palo+Alto,+CA104",
					"Palo+Alto,+CA317"
				],
				"lat1": 31.000000,
				"nbSeg1": 0
			},
			"pathsExist": true,
			"path1": [
				"Santa+Clara,+CA404",
				"Santa+Clara,+CA405"
			],
			"lat1": 2.000000,
			"path2": [
				"Miami,+FL286",
				"Palo+Alto,+CA317"
			],
			"lat2": 31.000000,
			"maxlat": 31.000000,
			"runtime": 588721867,
			"nomLat1": 2.000000,
			"nomLat2": 31.000000,
			"maxNomLat": 31.000000,
			"mincut": 6
		},
		{
			"s1": "Herndon,+VA193",
			"s2": "Oak+Brook,+IL315",
			"t1": "Tokyo525",
			"t2": "Santa+Clara,+CA336",
			"suurballeNbPaths": 2,
			"suurballeTime": 1519348804,
			"suurballePaths": {
				"path0": [
					"Herndon,+VA193",
					"Herndon,+VA496",
					"Santa+Clara,+CA429",
					"Santa+Clara,+CA430",
					"Santa+Clara,+CA336"
				],
				"lat0": 24.000000,
				"nbSeg0": 0,
				"path1": [
					"Oak+Brook,+IL315",
					"Oak+Brook,+IL301",
					"San+Jose,+CA471",
					"Santa+Clara,+CA444",
					"Santa+Clara,+CA404",
					"Tokyo525"
				],
				"lat1": 63.000000,
				"nbSeg1": 2
			},
			"pathsExist": false,
			"runtime": 13570751,
			"nomLat1": 73.000000,
			"nomLat2": 28.000000,
			"maxNomLat": 73.000000,
			"mincut": 4
		},
		{
			"s1": "Waltham,+MA555",
			"s2": "Atlanta,+GA127",
			"t1": "Weehawken,+NJ544",
			"t2": "Fort+Worth,+TX189",
			"suurballeNbPaths": 2,
			"suurballeTime": 1355076760,
			"suurballePaths": {
				"path0": [
					"Atlanta,+GA127",
					"Fort+Worth,+TX190",
					"Fort+Worth,+TX189"
				],
				"lat0": 9.000000,
				"nbSeg0": 0,
				"path1": [
					"Waltham,+MA555",
					"Waltham,+MA568",
					"Jersey+City,+NJ244",
					"Jersey+City,+NJ245",
					"Weehawken,+NJ544"
				],
				"lat1": 7.000000,
				"nbSeg1": 2
			},
			"pathsExist": false,
			"runtime": 47953130,
			"nomLat1": 8.000000,
			"nomLat2": 9.000000,
			"maxNomLat": 9.000000,
			"mincut": 7
		},
		{
			"s1": "Palo+Alto,+CA318",
			"s2": "San+Jose,+CA471",
			"t1": "Waltham,+MA556",
			"t2": "Herndon,+VA206",
			"suurballeNbPaths": 2,
			"suurballeTime": 1380893312,
			"suurballePaths": {
				"path0": [
					"San+Jose,+CA471",
					"Oak+Brook,+IL301",
					"Oak+Brook,+IL300",
					"Waltham,+MA556"
				],
				"lat0": 25.000000,
				"nbSeg0": 0,
				"path1": [
					"Palo+Alto,+CA318",
					"Santa+Clara,+CA363",
					"Santa+Clara,+CA431",
					"Santa+Clara,+CA429",
					"Herndon,+VA496",
					"Herndon,+VA495",
					"Herndon,+VA208",
					"Herndon,+VA206"
				],
				"lat1": 28.000000,
				"nbSeg1": 1
			},
			"pathsExist": false,
			"runtime": 3281698,
			"nomLat1": 31.000000,
			"nomLat2": 30.000000,
			"maxNomLat": 31.000000,
			"mincut": 5
		},
		{
			"s1": "Jersey+City,+NJ244",
			"s2": "Irvine,+CA230",
			"t1": "Fort+Worth,+TX189",
			"t2": "Santa+Clara,+CA363",
			"suurballeNbPaths": 2,
			"suurballeTime": 1548145094,
			"suurballePaths": {
				"path0": [
					"Jersey+City,+NJ244",
					"Weehawken,+NJ543",
					"Atlanta,+GA127",
					"Fort+Worth,+TX190",
					"Fort+Worth,+TX189"
				],
				"lat0": 18.000000,
				"nbSeg0": 2,
				"path1": [
					"Irvine,+CA230",
					"El+Segundo,+CA164",
					"Santa+Clara,+CA443",
					"Santa+Clara,+CA431",
					"Santa+Clara,+CA363"
				],
				"lat1": 8.000000,
				"nbSeg1": 0
			},
			"pathsExist": true,
			"path1": [
				"Jersey+City,+NJ244",
				"Fort+Worth,+TX189"
			],
			"lat1": 19.000000,
			"path2": [
				"Irvine,+CA230",
				"Santa+Clara,+CA363"
			],
			"lat2": 8.000000,
			"maxlat": 19.000000,
			"runtime": 27407597,
			"nomLat1": 19.000000,
			"nomLat2": 8.000000,
			"maxNomLat": 19.000000,
			"mincut": 7
		},
		{
			"s1": "Santa+Clara,+CA365",
			"s2": "El+Segundo,+CA163",
			"t1": "San+Jose,+CA471",
			"t2": "Santa+Clara,+CA405",
			"suurballeNbPaths": 2,
			"suurballeTime": 1556338855,
			"suurballePaths": {
				"path0": [
					"El+Segundo,+CA163",
					"Santa+Clara,+CA405"
				],
				"lat0": 4.000000,
				"nbSeg0": 0,
				"path1": [
					"Santa+Clara,+CA365",
					"Santa+Clara,+CA431",
					"San+Jose,+CA472",
					"San+Jose,+CA471"
				],
				"lat1": 4.000000,
				"nbSeg1": 1
			},
			"pathsExist": true,
			"path1": [
				"Santa+Clara,+CA365",
				"San+Jose,+CA471"
			],
			"lat1": 6.000000,
			"path2": [
				"El+Segundo,+CA163",
				"Santa+Clara,+CA405"
			],
			"lat2": 4.000000,
			"maxlat": 6.000000,
			"runtime": 41326433,
			"nomLat1": 6.000000,
			"nomLat2": 4.000000,
			"maxNomLat": 6.000000,
			"mincut": 6
		},
		{
			"s1": "Oak+Brook,+IL308",
			"s2": "Irvine,+CA229",
			"t1": "Jersey+City,+NJ244",
			"t2": "Weehawken,+NJ543",
			"suurballeNbPaths": 2,
			"suurballeTime": 1224472060,
			"suurballePaths": {
				"path0": [
					"Oak+Brook,+IL308",
					"Oak+Brook,+IL300",
					"Weehawken,+NJ543"
				],
				"lat0": 8.000000,
				"nbSeg0": 0,
				"path1": [
					"Irvine,+CA229",
					"Fort+Worth,+TX190",
					"Atlanta,+GA127",
					"Weehawken,+NJ543"
				],
				"lat1": 26.000000,
				"nbSeg1": 4
			},
			"pathsExist": false,
			"runtime": 2843152,
			"nomLat1": 10.000000,
			"nomLat2": 33.000000,
			"maxNomLat": 33.000000,
			"mincut": 6
		},
		{
			"s1": "Oak+Brook,+IL301",
			"s2": "New+York,+NY293",
			"t1": "Austin,+TX137",
			"t2": "Waltham,+MA555",
			"suurballeNbPaths": 2,
			"suurballeTime": 1912601888,
			"suurballePaths": {
				"path0": [
					"Oak+Brook,+IL301",
					"Chicago,+IL155",
					"Chicago,+IL156",
					"Fort+Worth,+TX189",
					"Austin,+TX137"
				],
				"lat0": 14.000000,
				"nbSeg0": 1,
				"path1": [
					"New+York,+NY293",
					"Weehawken,+NJ543",
					"Jersey+City,+NJ244",
					"Waltham,+MA568",
					"Waltham,+MA555"
				],
				"lat1": 8.000000,
				"nbSeg1": 2
			},
			"pathsExist": true,
			"path1": [
				"Oak+Brook,+IL301",
				"Austin,+TX137"
			],
			"lat1": 14.000000,
			"path2": [
				"New+York,+NY293",
				"Waltham,+MA555"
			],
			"lat2": 10.000000,
			"maxlat": 14.000000,
			"runtime": 143418796,
			"nomLat1": 14.000000,
			"nomLat2": 10.000000,
			"maxNomLat": 14.000000,
			"mincut": 5
		},
		{
			"s1": "Santa+Clara,+CA389",
			"s2": "Herndon,+VA496",
			"t1": "Oak+Brook,+IL315",
			"t2": "Miami,+FL286",
			"suurballeNbPaths": 2,
			"suurballeTime": 1696023091,
			"suurballePaths": {
				"path0": [
					"Santa+Clara,+CA389",
					"San+Jose,+CA471",
					"Oak+Brook,+IL301",
					"Oak+Brook,+IL315"
				],
				"lat0": 19.000000,
				"nbSeg0": 0,
				"path1": [
					"Herndon,+VA496",
					"Herndon,+VA193",
					"Atlanta,+GA127",
					"Miami,+FL286"
				],
				"lat1": 13.000000,
				"nbSeg1": 2
			},
			"pathsExist": true,
			"path1": [
				"Santa+Clara,+CA389",
				"Oak+Brook,+IL315"
			],
			"lat1": 19.000000,
			"path2": [
				"Herndon,+VA496",
				"Miami,+FL286"
			],
			"lat2": 14.000000,
			"maxlat": 19.000000,
			"runtime": 75724468,
			"nomLat1": 19.000000,
			"nomLat2": 14.000000,
			"maxNomLat": 19.000000,
			"mincut": 6
		},
		{
			"s1": "Santa+Clara,+CA389",
			"s2": "Atlanta,+GA127",
			"t1": "Oak+Brook,+IL300",
			"t2": "Santa+Clara,+CA443",
			"suurballeNbPaths": 2,
			"suurballeTime": 1799947848,
			"suurballePaths": {
				"path0": [
					"Santa+Clara,+CA389",
					"Santa+Clara,+CA443"
				],
				"lat0": 1.000000,
				"nbSeg0": 0,
				"path1": [
					"Atlanta,+GA127",
					"Weehawken,+NJ543",
					"Oak+Brook,+IL300"
				],
				"lat1": 14.000000,
				"nbSeg1": 2
			},
			"pathsExist": true,
			"path1": [
				"Santa+Clara,+CA389",
				"Oak+Brook,+IL300"
			],
			"lat1": 19.000000,
			"path2": [
				"Atlanta,+GA127",
				"Santa+Clara,+CA443"
			],
			"lat2": 24.000000,
			"maxlat": 24.000000,
			"runtime": 559208699,
			"nomLat1": 19.000000,
			"nomLat2": 24.000000,
			"maxNomLat": 24.000000,
			"mincut": 9
		}
	],
	"demandsWithSol": 71
}
